Text,ToState,Dist,Freq
F,0,0,
F,0,1,
F,0,2,
F,0,3,
F,0,4,
F,0,5,
F,0,6,
F,0,7,
F,0,8,
F,0,9,
F,0,10,
F,0,11,
F,0,12,
F,0,13,
F,0,14,
F,0,15,
F,0,16,
F,0,17,
F,0,18,
F,0,19,
F,0,20,
F,0,21,
F,0,22,
F,0,23,
F,0,24,
F,0,25,
F,0,26,
F,0,27,
F,0,28,
F,0,29,
F,0,30,
F,0,31,
F,0,32,
F,0,33,
F,0,34,
F,0,35,
F,0,36,
F,0,37,
F,0,38,
F,0,39,
F,0,40,
F,0,41,
F,0,42,
F,0,43,
F,0,44,
F,0,45,
F,0,46,
F,0,47,
F,0,48,
F,0,49,
F,1,0,0.205882352941
F,1,1,0.247058823529
F,1,2,0.111764705882
F,1,3,0.0882352941176
F,1,4,0.0764705882353
F,1,5,0.0705882352941
F,1,6,0.0294117647059
F,1,7,0.0176470588235
F,1,8,0.0411764705882
F,1,9,0.0235294117647
F,1,10,0.00588235294118
F,1,11,0.0176470588235
F,1,12,0.00588235294118
F,1,13,0.0
F,1,14,0.0117647058824
F,1,15,0.0176470588235
F,1,16,0.0
F,1,17,0.00588235294118
F,1,18,0.0
F,1,19,0.00588235294118
F,1,20,0.00588235294118
F,1,21,0.00588235294118
F,1,22,0.0
F,1,23,0.0
F,1,24,0.0
F,1,25,0.0
F,1,26,0.0
F,1,27,0.00588235294118
F,1,28,0.0
F,1,29,0.0
F,1,30,0.0
F,1,31,0.0
F,1,32,0.0
F,1,33,0.0
F,1,34,0.0
F,1,35,0.0
F,1,36,0.0
F,1,37,0.0
F,1,38,0.0
F,1,39,0.0
F,1,40,0.0
F,1,41,0.0
F,1,42,0.0
F,1,43,0.0
F,1,44,0.0
F,1,45,0.0
F,1,46,0.0
F,1,47,0.0
F,1,48,0.0
F,1,49,0.0
F,2,0,
F,2,1,
F,2,2,
F,2,3,
F,2,4,
F,2,5,
F,2,6,
F,2,7,
F,2,8,
F,2,9,
F,2,10,
F,2,11,
F,2,12,
F,2,13,
F,2,14,
F,2,15,
F,2,16,
F,2,17,
F,2,18,
F,2,19,
F,2,20,
F,2,21,
F,2,22,
F,2,23,
F,2,24,
F,2,25,
F,2,26,
F,2,27,
F,2,28,
F,2,29,
F,2,30,
F,2,31,
F,2,32,
F,2,33,
F,2,34,
F,2,35,
F,2,36,
F,2,37,
F,2,38,
F,2,39,
F,2,40,
F,2,41,
F,2,42,
F,2,43,
F,2,44,
F,2,45,
F,2,46,
F,2,47,
F,2,48,
F,2,49,
F,3,0,0.0491803278689
F,3,1,0.245901639344
F,3,2,0.0983606557377
F,3,3,0.147540983607
F,3,4,0.0819672131148
F,3,5,0.0655737704918
F,3,6,0.0327868852459
F,3,7,0.0327868852459
F,3,8,0.016393442623
F,3,9,0.0491803278689
F,3,10,0.0491803278689
F,3,11,0.0327868852459
F,3,12,0.0
F,3,13,0.0327868852459
F,3,14,0.0327868852459
F,3,15,0.0
F,3,16,0.0
F,3,17,0.0
F,3,18,0.0327868852459
F,3,19,0.0
F,3,20,0.0
F,3,21,0.0
F,3,22,0.0
F,3,23,0.0
F,3,24,0.0
F,3,25,0.0
F,3,26,0.0
F,3,27,0.0
F,3,28,0.0
F,3,29,0.0
F,3,30,0.0
F,3,31,0.0
F,3,32,0.0
F,3,33,0.0
F,3,34,0.0
F,3,35,0.0
F,3,36,0.0
F,3,37,0.0
F,3,38,0.0
F,3,39,0.0
F,3,40,0.0
F,3,41,0.0
F,3,42,0.0
F,3,43,0.0
F,3,44,0.0
F,3,45,0.0
F,3,46,0.0
F,3,47,0.0
F,3,48,0.0
F,3,49,0.0
A,0,0,0.0
A,0,1,0.0
A,0,2,0.0
A,0,3,0.0
A,0,4,0.0
A,0,5,1.0
A,0,6,0.0
A,0,7,0.0
A,0,8,0.0
A,0,9,0.0
A,0,10,0.0
A,0,11,0.0
A,0,12,0.0
A,0,13,0.0
A,0,14,0.0
A,0,15,0.0
A,0,16,0.0
A,0,17,0.0
A,0,18,0.0
A,0,19,0.0
A,0,20,0.0
A,0,21,0.0
A,0,22,0.0
A,0,23,0.0
A,0,24,0.0
A,0,25,0.0
A,0,26,0.0
A,0,27,0.0
A,0,28,0.0
A,0,29,0.0
A,0,30,0.0
A,0,31,0.0
A,0,32,0.0
A,0,33,0.0
A,0,34,0.0
A,0,35,0.0
A,0,36,0.0
A,0,37,0.0
A,0,38,0.0
A,0,39,0.0
A,0,40,0.0
A,0,41,0.0
A,0,42,0.0
A,0,43,0.0
A,0,44,0.0
A,0,45,0.0
A,0,46,0.0
A,0,47,0.0
A,0,48,0.0
A,0,49,0.0
A,1,0,0.244131455399
A,1,1,0.241784037559
A,1,2,0.218309859155
A,1,3,0.0845070422535
A,1,4,0.0680751173709
A,1,5,0.0352112676056
A,1,6,0.0140845070423
A,1,7,0.0211267605634
A,1,8,0.0140845070423
A,1,9,0.00469483568075
A,1,10,0.0117370892019
A,1,11,0.0093896713615
A,1,12,0.00704225352113
A,1,13,0.0
A,1,14,0.0117370892019
A,1,15,0.00234741784038
A,1,16,0.0
A,1,17,0.00469483568075
A,1,18,0.0
A,1,19,0.00234741784038
A,1,20,0.0
A,1,21,0.0
A,1,22,0.00234741784038
A,1,23,0.00234741784038
A,1,24,0.0
A,1,25,0.0
A,1,26,0.0
A,1,27,0.0
A,1,28,0.0
A,1,29,0.0
A,1,30,0.0
A,1,31,0.0
A,1,32,0.0
A,1,33,0.0
A,1,34,0.0
A,1,35,0.0
A,1,36,0.0
A,1,37,0.0
A,1,38,0.0
A,1,39,0.0
A,1,40,0.0
A,1,41,0.0
A,1,42,0.0
A,1,43,0.0
A,1,44,0.0
A,1,45,0.0
A,1,46,0.0
A,1,47,0.0
A,1,48,0.0
A,1,49,0.0
A,2,0,
A,2,1,
A,2,2,
A,2,3,
A,2,4,
A,2,5,
A,2,6,
A,2,7,
A,2,8,
A,2,9,
A,2,10,
A,2,11,
A,2,12,
A,2,13,
A,2,14,
A,2,15,
A,2,16,
A,2,17,
A,2,18,
A,2,19,
A,2,20,
A,2,21,
A,2,22,
A,2,23,
A,2,24,
A,2,25,
A,2,26,
A,2,27,
A,2,28,
A,2,29,
A,2,30,
A,2,31,
A,2,32,
A,2,33,
A,2,34,
A,2,35,
A,2,36,
A,2,37,
A,2,38,
A,2,39,
A,2,40,
A,2,41,
A,2,42,
A,2,43,
A,2,44,
A,2,45,
A,2,46,
A,2,47,
A,2,48,
A,2,49,
A,3,0,0.141732283465
A,3,1,0.141732283465
A,3,2,0.165354330709
A,3,3,0.141732283465
A,3,4,0.0708661417323
A,3,5,0.0629921259843
A,3,6,0.0551181102362
A,3,7,0.0157480314961
A,3,8,0.0236220472441
A,3,9,0.0236220472441
A,3,10,0.0314960629921
A,3,11,0.0472440944882
A,3,12,0.0
A,3,13,0.00787401574803
A,3,14,0.00787401574803
A,3,15,0.0157480314961
A,3,16,0.0
A,3,17,0.0
A,3,18,0.0157480314961
A,3,19,0.00787401574803
A,3,20,0.0
A,3,21,0.0
A,3,22,0.0
A,3,23,0.0
A,3,24,0.0
A,3,25,0.00787401574803
A,3,26,0.0
A,3,27,0.00787401574803
A,3,28,0.0
A,3,29,0.0
A,3,30,0.0
A,3,31,0.0
A,3,32,0.0
A,3,33,0.0
A,3,34,0.0
A,3,35,0.00787401574803
A,3,36,0.0
A,3,37,0.0
A,3,38,0.0
A,3,39,0.0
A,3,40,0.0
A,3,41,0.0
A,3,42,0.0
A,3,43,0.0
A,3,44,0.0
A,3,45,0.0
A,3,46,0.0
A,3,47,0.0
A,3,48,0.0
A,3,49,0.0
M,0,0,
M,0,1,
M,0,2,
M,0,3,
M,0,4,
M,0,5,
M,0,6,
M,0,7,
M,0,8,
M,0,9,
M,0,10,
M,0,11,
M,0,12,
M,0,13,
M,0,14,
M,0,15,
M,0,16,
M,0,17,
M,0,18,
M,0,19,
M,0,20,
M,0,21,
M,0,22,
M,0,23,
M,0,24,
M,0,25,
M,0,26,
M,0,27,
M,0,28,
M,0,29,
M,0,30,
M,0,31,
M,0,32,
M,0,33,
M,0,34,
M,0,35,
M,0,36,
M,0,37,
M,0,38,
M,0,39,
M,0,40,
M,0,41,
M,0,42,
M,0,43,
M,0,44,
M,0,45,
M,0,46,
M,0,47,
M,0,48,
M,0,49,
M,1,0,0.0851648351648
M,1,1,0.101648351648
M,1,2,0.142857142857
M,1,3,0.0714285714286
M,1,4,0.104395604396
M,1,5,0.0467032967033
M,1,6,0.0659340659341
M,1,7,0.0521978021978
M,1,8,0.0357142857143
M,1,9,0.043956043956
M,1,10,0.0357142857143
M,1,11,0.0302197802198
M,1,12,0.0384615384615
M,1,13,0.0302197802198
M,1,14,0.00824175824176
M,1,15,0.0192307692308
M,1,16,0.021978021978
M,1,17,0.0137362637363
M,1,18,0.00549450549451
M,1,19,0.00549450549451
M,1,20,0.010989010989
M,1,21,0.0
M,1,22,0.00274725274725
M,1,23,0.0
M,1,24,0.0137362637363
M,1,25,0.0
M,1,26,0.0
M,1,27,0.00549450549451
M,1,28,0.00274725274725
M,1,29,0.0
M,1,30,0.0
M,1,31,0.0
M,1,32,0.0
M,1,33,0.00274725274725
M,1,34,0.00274725274725
M,1,35,0.0
M,1,36,0.0
M,1,37,0.0
M,1,38,0.0
M,1,39,0.0
M,1,40,0.0
M,1,41,0.0
M,1,42,0.0
M,1,43,0.0
M,1,44,0.0
M,1,45,0.0
M,1,46,0.0
M,1,47,0.0
M,1,48,0.0
M,1,49,0.0
M,2,0,
M,2,1,
M,2,2,
M,2,3,
M,2,4,
M,2,5,
M,2,6,
M,2,7,
M,2,8,
M,2,9,
M,2,10,
M,2,11,
M,2,12,
M,2,13,
M,2,14,
M,2,15,
M,2,16,
M,2,17,
M,2,18,
M,2,19,
M,2,20,
M,2,21,
M,2,22,
M,2,23,
M,2,24,
M,2,25,
M,2,26,
M,2,27,
M,2,28,
M,2,29,
M,2,30,
M,2,31,
M,2,32,
M,2,33,
M,2,34,
M,2,35,
M,2,36,
M,2,37,
M,2,38,
M,2,39,
M,2,40,
M,2,41,
M,2,42,
M,2,43,
M,2,44,
M,2,45,
M,2,46,
M,2,47,
M,2,48,
M,2,49,
M,3,0,0.100386100386
M,3,1,0.108108108108
M,3,2,0.0733590733591
M,3,3,0.0694980694981
M,3,4,0.0926640926641
M,3,5,0.0656370656371
M,3,6,0.0656370656371
M,3,7,0.0617760617761
M,3,8,0.03861003861
M,3,9,0.0501930501931
M,3,10,0.034749034749
M,3,11,0.030888030888
M,3,12,0.023166023166
M,3,13,0.03861003861
M,3,14,0.034749034749
M,3,15,0.030888030888
M,3,16,0.011583011583
M,3,17,0.00772200772201
M,3,18,0.003861003861
M,3,19,0.015444015444
M,3,20,0.00772200772201
M,3,21,0.003861003861
M,3,22,0.00772200772201
M,3,23,0.003861003861
M,3,24,0.00772200772201
M,3,25,0.0
M,3,26,0.003861003861
M,3,27,0.003861003861
M,3,28,0.0
M,3,29,0.0
M,3,30,0.0
M,3,31,0.0
M,3,32,0.0
M,3,33,0.0
M,3,34,0.0
M,3,35,0.0
M,3,36,0.003861003861
M,3,37,0.0
M,3,38,0.0
M,3,39,0.0
M,3,40,0.0
M,3,41,0.0
M,3,42,0.0
M,3,43,0.0
M,3,44,0.0
M,3,45,0.0
M,3,46,0.0
M,3,47,0.0
M,3,48,0.0
M,3,49,0.0
F+,0,0,
F+,0,1,
F+,0,2,
F+,0,3,
F+,0,4,
F+,0,5,
F+,0,6,
F+,0,7,
F+,0,8,
F+,0,9,
F+,0,10,
F+,0,11,
F+,0,12,
F+,0,13,
F+,0,14,
F+,0,15,
F+,0,16,
F+,0,17,
F+,0,18,
F+,0,19,
F+,0,20,
F+,0,21,
F+,0,22,
F+,0,23,
F+,0,24,
F+,0,25,
F+,0,26,
F+,0,27,
F+,0,28,
F+,0,29,
F+,0,30,
F+,0,31,
F+,0,32,
F+,0,33,
F+,0,34,
F+,0,35,
F+,0,36,
F+,0,37,
F+,0,38,
F+,0,39,
F+,0,40,
F+,0,41,
F+,0,42,
F+,0,43,
F+,0,44,
F+,0,45,
F+,0,46,
F+,0,47,
F+,0,48,
F+,0,49,
F+,1,0,0.123287671233
F+,1,1,0.232876712329
F+,1,2,0.116438356164
F+,1,3,0.116438356164
F+,1,4,0.0684931506849
F+,1,5,0.0616438356164
F+,1,6,0.0547945205479
F+,1,7,0.027397260274
F+,1,8,0.0342465753425
F+,1,9,0.0342465753425
F+,1,10,0.0547945205479
F+,1,11,0.00684931506849
F+,1,12,0.0205479452055
F+,1,13,0.00684931506849
F+,1,14,0.0
F+,1,15,0.0
F+,1,16,0.0
F+,1,17,0.00684931506849
F+,1,18,0.0
F+,1,19,0.00684931506849
F+,1,20,0.013698630137
F+,1,21,0.0
F+,1,22,0.0
F+,1,23,0.0
F+,1,24,0.0
F+,1,25,0.0
F+,1,26,0.0
F+,1,27,0.00684931506849
F+,1,28,0.0
F+,1,29,0.0
F+,1,30,0.0
F+,1,31,0.0
F+,1,32,0.0
F+,1,33,0.0
F+,1,34,0.0
F+,1,35,0.0
F+,1,36,0.00684931506849
F+,1,37,0.0
F+,1,38,0.0
F+,1,39,0.0
F+,1,40,0.0
F+,1,41,0.0
F+,1,42,0.0
F+,1,43,0.0
F+,1,44,0.0
F+,1,45,0.0
F+,1,46,0.0
F+,1,47,0.0
F+,1,48,0.0
F+,1,49,0.0
F+,2,0,
F+,2,1,
F+,2,2,
F+,2,3,
F+,2,4,
F+,2,5,
F+,2,6,
F+,2,7,
F+,2,8,
F+,2,9,
F+,2,10,
F+,2,11,
F+,2,12,
F+,2,13,
F+,2,14,
F+,2,15,
F+,2,16,
F+,2,17,
F+,2,18,
F+,2,19,
F+,2,20,
F+,2,21,
F+,2,22,
F+,2,23,
F+,2,24,
F+,2,25,
F+,2,26,
F+,2,27,
F+,2,28,
F+,2,29,
F+,2,30,
F+,2,31,
F+,2,32,
F+,2,33,
F+,2,34,
F+,2,35,
F+,2,36,
F+,2,37,
F+,2,38,
F+,2,39,
F+,2,40,
F+,2,41,
F+,2,42,
F+,2,43,
F+,2,44,
F+,2,45,
F+,2,46,
F+,2,47,
F+,2,48,
F+,2,49,
F+,3,0,0.101449275362
F+,3,1,0.144927536232
F+,3,2,0.101449275362
F+,3,3,0.115942028986
F+,3,4,0.0724637681159
F+,3,5,0.0434782608696
F+,3,6,0.0724637681159
F+,3,7,0.0579710144928
F+,3,8,0.0434782608696
F+,3,9,0.0289855072464
F+,3,10,0.0724637681159
F+,3,11,0.0
F+,3,12,0.0144927536232
F+,3,13,0.0289855072464
F+,3,14,0.0289855072464
F+,3,15,0.0
F+,3,16,0.0289855072464
F+,3,17,0.0
F+,3,18,0.0289855072464
F+,3,19,0.0
F+,3,20,0.0
F+,3,21,0.0
F+,3,22,0.0
F+,3,23,0.0
F+,3,24,0.0
F+,3,25,0.0
F+,3,26,0.0
F+,3,27,0.0
F+,3,28,0.0
F+,3,29,0.0
F+,3,30,0.0144927536232
F+,3,31,0.0
F+,3,32,0.0
F+,3,33,0.0
F+,3,34,0.0
F+,3,35,0.0
F+,3,36,0.0
F+,3,37,0.0
F+,3,38,0.0
F+,3,39,0.0
F+,3,40,0.0
F+,3,41,0.0
F+,3,42,0.0
F+,3,43,0.0
F+,3,44,0.0
F+,3,45,0.0
F+,3,46,0.0
F+,3,47,0.0
F+,3,48,0.0
F+,3,49,0.0
