Le 232 270 24 29
chef 270 270 50 29
du 334 270 25 29
gouvernement 373 270 155 29
a 542 270 12 29
estimé 568 270 77 29
que 659 270 38 29
la 711 270 24 29
croissance 231.8 334 128 29
économique 373.8 334 129 29
de 516.8 334 25 29
la 555.8 334 24 29
France 593.8 334 76 29
était 683.8 334 64 29
sur 231.8 398 37 29
la 282.8 398 24 29
bonne 320.8 398 63 29
voie 397.8 398 51 29
contrairement 462.8 398 167 29
aux 643.8 398 38 29
prévisions 231.8 462 128 29
des 373.8 462 38 29
experts 425.8 462 90 29
La 542.8 462 24 29
croissance 580.8 462 128 29
du 722.8 462 25 29
produit 231.8 526 89 29
intérieur 334.8 526 115 29
brut 463.8 526 50 29
est 527.8 526 38 29
étonnante 579.8 526 116 29
