Le 232 270 24 29
catalogue 270 270 115 29
des 399 270 38 29
principes 451 270 115 29
du 580 270 25 29
retour 619 270 74 29
au 707 270 25 29
calme 231.8 334 63 29
à 308.8 334 12 29
la 334.8 334 24 29
frontière 372.8 334 115 29
établi 514.8 334 77 29
par 605.8 334 37 29
les 656.8 334 37 29
ministres 231.8 398 116 29
reprend 374.8 398 87 29
l'essentiel 475.8 398 141 29
des 630.8 398 38 29
cinq 682.8 398 50 29
conditions 231.8 462 128 29
posées 373.8 462 76 29
par 463.8 462 37 29
les 514.8 462 37 29
gouvernements 565.8 462 168 29
occidentaux 231.8 526 142 29
pour 387.8 526 50 29
un 451.8 526 24 29
arrêt 489.8 526 64 29
des 567.8 526 38 29
frappes 619.8 526 89 29
