L'état 232 270 76 29
de 322 270 25 29
l'unique 361 270 102 29
route 477 270 61 29
ne 552 270 24 29
peut 590 270 50 29
supporter 654 270 115 29
un 231.8 334 24 29
afflux 269.8 334 77 29
simultané 360.8 334 115 29
de 489.8 334 25 29
tous 528.8 334 51 29
les 593.8 334 37 29
réfugiés 644.8 334 100 29
Le 231.8 398 24 29
HCR 269.8 398 38 29
prévoit 321.8 398 89 29
des 424.8 398 38 29
campagnes 476.8 398 115 29
d'information 605.8 398 168 29
de 231.8 462 25 29
masse 270.8 462 64 29
dans 348.8 462 51 29
les 413.8 462 37 29
camps 464.8 462 63 29
pour 541.8 462 50 29
sensibiliser 605.8 462 154 29
au 231.8 526 25 29
danger 270.8 526 77 29
des 361.8 526 38 29
mines 413.8 526 64 29
