Les 232 270 37 29
habitants 283 270 115 29
de 412 270 25 29
Tirana 451 270 77 29
compatissent 542 270 154 29
aux 710 270 38 29
malheurs 231.8 334 103 29
de 348.8 334 25 29
leurs 387.8 334 63 29
frères 464.8 334 76 29
kosovars 554.8 334 102 29
Ils 683.8 334 37 29
se 734.8 334 24 29
déclarent 231.8 398 116 29
ulcérés 361.8 398 89 29
par 464.8 398 37 29
l'enchaînement 515.8 398 180 29
d'événements 231.8 462 155 29
qu'ils 400.8 462 77 29
ressentent 491.8 462 126 29
comme 631.8 462 63 29
une 708.8 462 37 29
profonde 231.8 526 102 29
injustice 347.8 526 115 29
et 476.8 526 25 29
reprochent 515.8 526 126 29
à 655.8 526 12 29
l'UCK 681.8 526 63 29
d'avoir 231.8 590 90 29
lancé 335.8 590 63 29
des 412.8 590 38 29
opérations 464.8 590 129 29
armées 607.8 590 77 29
