La 232 270 24 29
moitié 270 270 77 29
des 361 270 38 29
tout-petits 413 270 142 29
sont 569 270 50 29
gardés 633 270 77 29
au 724 270 25 29
foyer 231.8 334 63 29
par 308.8 334 37 29
un 359.8 334 24 29
parent 397.8 334 76 29
la 500.8 334 24 29
maman 538.8 334 64 29
dans 616.8 334 51 29
la 681.8 334 24 29
quasi-totalité 231.8 398 181 29
des 426.8 398 38 29
cas 478.8 398 37 29
Seuls 542.8 398 63 29
8% 619.8 398 25 29
ont 658.8 398 38 29
accès 710.8 398 64 29
à 231.8 462 12 29
une 257.8 462 37 29
crêche 308.8 462 76 29
collective 398.8 462 128 29
ou 540.8 462 25 29
parentale 579.8 462 115 29
