La 232 270 24 29
pianiste 270 270 102 29
américaine 386 270 129 29
Rosalyn 529 270 90 29
Tureck 633 270 77 29
fait 724 270 50 29
son 231.8 334 37 29
entrée 282.8 334 77 29
à 386.8 334 12 29
quatre-vingt-quatre 412.8 334 246 29
ans 672.8 334 38 29
dans 737.8 334 51 29
le 231.8 398 24 29
répertoire 269.8 398 126 29
discographique 409.8 398 181 29
de 604.8 398 25 29
Deutsche 643.8 398 103 29
Grammophon 231.8 462 129 29
Son 387.8 462 37 29
interprétation 438.8 462 180 29
des 632.8 462 38 29
variations 231.8 526 129 29
Goldberg 374.8 526 103 29
de 491.8 526 25 29
Bach 530.8 526 50 29
va 594.8 526 25 29
la 633.8 526 24 29
faire 671.8 526 63 29
connaître 231.8 590 115 29
au 360.8 590 25 29
grand 399.8 590 64 29
public 477.8 590 76 29
