L'allocation 232 270 154 29
de 400 270 25 29
rentrée 439 270 87 29
scolaire 540 270 102 29
concerne 656 270 102 29
350 231.8 334 38 29
000 283.8 334 38 29
familles 335.8 334 102 29
modestes 451.8 334 103 29
ayant 568.8 334 64 29
un 646.8 334 24 29
enfant 684.8 334 77 29
scolarisé 231.8 398 115 29
Cette 373.8 398 64 29
prestation 451.8 398 128 29
pourrait 593.8 398 102 29
être 709.8 398 51 29
prochainement 231.8 462 167 29
étendue 412.8 462 90 29
