Un 232 270 24 29
jeune 270 270 64 29
homme 348 270 63 29
de 425 270 25 29
dix-neuf 464 270 103 29
ans 581 270 38 29
a 633 270 12 29
été 659 270 38 29
mis 711 270 38 29
en 763 270 25 29
examen 231.8 334 77 29
pour 322.8 334 50 29
violence 386.8 334 103 29
volontaire 503.8 334 129 29
avec 646.8 334 51 29
arme 711.8 334 51 29
par 231.8 398 37 29
destination 282.8 398 142 29
pour 438.8 398 50 29
avoir 502.8 398 64 29
lancé 580.8 398 63 29
son 657.8 398 37 29
chien 708.8 398 63 29
sur 231.8 462 37 29
trois 282.8 462 64 29
ouvriers 360.8 462 103 29
d'un 477.8 462 51 29
chantier 542.8 462 102 29
de 658.8 462 25 29
Colombes 231.8 526 103 29
