Une 232 270 37 29
information 283 270 141 29
judiciaire 438 270 129 29
pour 581 270 50 29
blessures 645 270 115 29
involontaires 231.8 334 167 29
commises 412.8 334 102 29
par 528.8 334 37 29
négligences 579.8 334 141 29
a 734.8 334 12 29
été 231.8 398 38 29
ouverte 283.8 398 90 29
après 387.8 398 64 29
la 465.8 398 24 29
chute 503.8 398 63 29
d'un 580.8 398 51 29
enfant 645.8 398 77 29
de 736.8 398 25 29
six 231.8 462 37 29
ans 282.8 462 38 29
tombé 347.8 462 64 29
d'un 425.8 462 51 29
wagon 490.8 462 65 29
non 569.8 462 37 29
équipé 620.8 462 77 29
de 711.8 462 25 29
fermetures 231.8 526 128 29
de 373.8 526 25 29
sécurité 412.8 526 102 29
du 528.8 526 25 29
train 567.8 526 64 29
Toulouse-Paris 231.8 590 181 29
