Les 232 270 37 29
galeries 283 270 103 29
d'anatomie 400 270 129 29
comparée 543 270 102 29
et 659 270 25 29
de 698 270 25 29
paléontologie 231.8 334 167 29
du 412.8 334 25 29
musée 451.8 334 64 29
national 529.8 334 102 29
d'histoire 645.8 334 129 29
naturelle 231.8 398 115 29
sont 360.8 398 50 29
de 424.8 398 25 29
nouveau 463.8 398 89 29
ouvertes 566.8 398 103 29
au 683.8 398 25 29
public 231.8 462 76 29
depuis 321.8 462 77 29
le 412.8 462 24 29
18 450.8 462 23 29
décembre 487.8 462 103 29
après 617.8 462 64 29
trois 695.8 462 64 29
mois 231.8 526 51 29
de 296.8 526 25 29
travaux 335.8 526 90 29
