Les 232 270 37 29
collectivités 283 270 167 29
locales 464 270 89 29
sont 567 270 50 29
encouragées 631 270 142 29
à 231.8 334 12 29
coordonner 257.8 334 128 29
leur 399.8 334 50 29
action 463.8 334 77 29
en 554.8 334 25 29
faveur 593.8 334 76 29
des 683.8 334 38 29
réfugiés 231.8 398 100 29
Elles 358.8 398 63 29
envisagent 435.8 398 129 29
de 578.8 398 25 29
monter 617.8 398 77 29
une 708.8 398 37 29
plate-forme 231.8 462 141 29
pour 386.8 462 50 29
assurer 450.8 462 90 29
la 554.8 462 24 29
traçabilité 592.8 462 142 29
de 748.8 462 25 29
l'acheminement 231.8 526 180 29
des 425.8 526 38 29
colis 477.8 526 63 29
humanitaires 554.8 526 154 29
