La 232 270 24 29
détresse 270 270 103 29
et 387 270 25 29
la 426 270 24 29
souffrance 464 270 128 29
des 606 270 38 29
réfugiés 658 270 100 29
largement 231.8 334 115 29
médiatisées 360.8 334 142 29
suscitent 529.8 334 115 29
d'immenses 658.8 334 129 29
élans 231.8 398 64 29
de 309.8 398 25 29
générosité 348.8 398 129 29
Des 504.8 398 38 29
convois 556.8 398 89 29
d'aide 659.8 398 77 29
humanitaire 231.8 462 141 29
constitués 386.8 462 128 29
par 528.8 462 37 29
des 579.8 462 38 29
bénévoles 631.8 462 115 29
de 760.8 462 25 29
différentes 231.8 526 142 29
organisations 387.8 526 168 29
convergent 569.8 526 128 29
vers 711.8 526 51 29
les 231.8 590 37 29
camps 282.8 590 63 29
de 359.8 590 25 29
réfugiés 398.8 590 100 29
