La 232 270 24 29
nageuse 270 270 89 29
a 373 270 12 29
décroché 399 270 103 29
sa 516 270 24 29
deuxième 554 270 103 29
médaille 671 270 103 29
d'or 231.8 334 51 29
aux 296.8 334 38 29
championnats 348.8 334 154 29
d'Europe 516.8 334 103 29
de 633.8 334 25 29
natation 672.8 334 102 29
en 231.8 398 25 29
petit 270.8 398 63 29
bassin 347.8 398 76 29
en 437.8 398 25 29
s'imposant 476.8 398 128 29
dans 618.8 398 51 29
son 683.8 398 37 29
épreuve 231.8 462 90 29
de 335.8 462 25 29
prédilection 374.8 462 154 29
La 555.8 462 24 29
Française 593.8 462 115 29
l'a 722.8 462 37 29
emporté 231.8 526 90 29
facilement 335.8 526 128 29
reléguant 490.8 526 113 29
sa 617.8 526 24 29
grande 655.8 526 77 29
rivale 231.8 590 74 29
