Il 232 270 24 29
s'agit 270 270 76 29
de 360 270 25 29
nos 399 270 37 29
citoyens 450 270 102 29
et 566 270 25 29
le 605 270 24 29
devoir 643 270 77 29
de 734 270 25 29
n'importe 231.8 334 115 29
quel 360.8 334 51 29
gouvernement 425.8 334 155 29
est 594.8 334 38 29
de 646.8 334 25 29
défendre 685.8 334 103 29
les 231.8 398 37 29
intérêts 282.8 398 102 29
de 398.8 398 25 29
ses 437.8 398 37 29
citoyens 488.8 398 102 29
Des 617.8 398 38 29
mesures 669.8 398 90 29
sont 231.8 462 50 29
prises 295.8 462 76 29
mais 385.8 462 51 29
également 450.8 462 116 29
une 580.8 462 37 29
coopération 631.8 462 141 29
avec 231.8 526 51 29
les 296.8 526 37 29
organisations 347.8 526 168 29
internationales 529.8 526 193 29
