Dans 232 270 51 29
le 297 270 24 29
Pas-de-Calais 335 270 167 29
les 529 270 37 29
chasseurs 580 270 115 29
réclament 231.8 334 113 29
le 358.8 334 24 29
droit 396.8 334 64 29
de 474.8 334 25 29
continuer 513.8 334 115 29
à 642.8 334 12 29
chasser 668.8 334 89 29
dans 231.8 398 51 29
les 296.8 398 37 29
huttes 347.8 398 76 29
La 450.8 398 24 29
France 488.8 398 76 29
risque 578.8 398 74 29
pourtant 666.8 398 102 29
une 231.8 462 37 29
lourde 282.8 462 76 29
amende 372.8 462 77 29
si 463.8 462 24 29
elle 501.8 462 51 29
contrevient 566.8 462 141 29
aux 721.8 462 38 29
directives 231.8 526 129 29
européennes 374.8 526 142 29
qui 530.8 526 38 29
protègent 582.8 526 115 29
les 711.8 526 37 29
oiseaux 231.8 590 90 29
migrateurs 335.8 590 129 29
