Les 232 270 37 29
agences 283 270 90 29
spatiales 387 270 115 29
françaises 516 270 128 29
et 658 270 25 29
japonaises 231.8 334 129 29
ont 374.8 334 38 29
décidé 426.8 334 77 29
de 517.8 334 25 29
créer 556.8 334 63 29
des 633.8 334 38 29
groupes 685.8 334 90 29
de 231.8 398 25 29
travail 270.8 398 90 29
sur 374.8 398 37 29
le 425.8 398 24 29
suivi 463.8 398 63 29
des 540.8 398 38 29
risques 592.8 398 87 29
naturels 231.8 462 102 29
L'un 360.8 462 50 29
d'eux 424.8 462 64 29
sera 502.8 462 50 29
chargé 566.8 462 76 29
de 656.8 462 25 29
réfléchir 231.8 526 113 29
à 358.8 526 12 29
une 384.8 526 37 29
meilleure 435.8 526 116 29
utilisation 565.8 526 141 29
des 720.8 526 38 29
données 231.8 590 90 29
spatiales 335.8 590 115 29
