Les 232 270 37 29
petites 283 270 89 29
boules 386 270 76 29
de 476 270 25 29
graisse 515 270 90 29
enrobées 619 270 103 29
de 736 270 25 29
graines 231.8 334 90 29
diverses 335.8 334 103 29
sont 452.8 334 50 29
très 516.8 334 51 29
appréciées 581.8 334 129 29
des 724.8 334 38 29
mésanges 231.8 398 103 29
qui 348.8 398 38 29
les 400.8 398 37 29
prennent 451.8 398 102 29
d'assaut 567.8 398 103 29
aux 684.8 398 38 29
premières 231.8 462 115 29
rigueurs 360.8 462 100 29
de 474.8 462 25 29
l'hiver 513.8 462 89 29
