Depuis 232 270 77 29
le 323 270 24 29
limogeage 361 270 115 29
surprise 490 270 102 29
du 606 270 25 29
précédent 645 270 115 29
chef 231.8 334 50 29
du 295.8 334 25 29
gouvernement 334.8 334 155 29
russe 503.8 334 61 29
après 578.8 334 64 29
cinq 656.8 334 50 29
ans 720.8 334 38 29
de 231.8 398 25 29
stabilité 270.8 398 115 29
le 412.8 398 24 29
président 450.8 398 115 29
tente 579.8 398 64 29
sans 657.8 398 50 29
succès 231.8 462 76 29
de 321.8 462 25 29
maîtriser 360.8 462 116 29
sa 490.8 462 24 29
succession 528.8 462 128 29
Les 683.8 462 37 29
prétendants 231.8 526 141 29
sont 386.8 526 50 29
nombreux 450.8 526 102 29
