Son 232 270 37 29
arc 283 270 38 29
en 335 270 25 29
bandoulière 374 270 141 29
le 542 270 24 29
chasseur 580 270 102 29
avance 696 270 77 29
dans 231.8 334 51 29
la 296.8 334 24 29
forêt 334.8 334 63 29
L'Indien 424.8 334 102 29
traque 540.8 334 77 29
un 631.8 334 24 29
singe 669.8 334 63 29
ou 746.8 334 25 29
des 231.8 398 38 29
oiseaux 283.8 398 90 29
proies 400.8 398 76 29
faciles 490.8 398 89 29
pour 593.8 398 50 29
ses 657.8 398 37 29
flèches 231.8 462 89 29
couronnées 334.8 462 128 29
de 476.8 462 25 29
plumes 515.8 462 76 29
rouges 605.8 462 74 29
et 693.8 462 25 29
enduites 231.8 526 103 29
de 348.8 526 25 29
curare 387.8 526 76 29
