Ces 232 270 38 29
combats 284 270 89 29
qui 400 270 38 29
ne 452 270 24 29
remettent 490 270 113 29
pas 617 270 37 29
en 668 270 25 29
cause 707 270 63 29
la 231.8 334 24 29
suprématie 269.8 334 128 29
des 411.8 334 38 29
talibans 463.8 334 103 29
sur 580.8 334 37 29
l'Afghanistan 231.8 398 167 29
prouvent 425.8 398 102 29
que 541.8 398 38 29
l'état-major 593.8 398 154 29
veut 231.8 462 51 29
et 296.8 462 25 29
peut 335.8 462 50 29
maintenir 399.8 462 116 29
la 529.8 462 24 29
pression 567.8 462 102 29
sur 683.8 462 37 29
ses 734.8 462 37 29
adversaires 231.8 526 142 29
