A 232 270 13 29
Moscou 259 270 77 29
les 363 270 37 29
communiqués 414 270 141 29
triomphants 569 270 142 29
se 725 270 24 29
succèdent 231.8 334 115 29
Dans 373.8 334 51 29
le 438.8 334 24 29
Daghestan 476.8 334 116 29
les 619.8 334 37 29
rebelles 670.8 334 100 29
sont 231.8 398 50 29
complètement 295.8 398 154 29
encerclés 463.8 398 116 29
leur 606.8 398 50 29
chef 670.8 398 50 29
militaire 231.8 462 116 29
est 361.8 462 38 29
blessé 413.8 462 76 29
les 516.8 462 37 29
islamistes 567.8 462 128 29
ont 709.8 462 38 29
subi 231.8 526 50 29
de 295.8 526 25 29
lourdes 334.8 526 89 29
pertes 437.8 526 76 29
