Comme 232 270 64 29
en 310 270 25 29
écho 349 270 51 29
à 414 270 12 29
cette 440 270 63 29
assurance 517 270 116 29
retrouvée 647 270 113 29
depuis 231.8 334 77 29
la 322.8 334 24 29
fin 360.8 334 37 29
de 411.8 334 25 29
la 450.8 334 24 29
guerre 488.8 334 77 29
la 592.8 334 24 29
commission 630.8 334 128 29
des 231.8 398 38 29
affaires 283.8 398 103 29
étrangères 400.8 398 129 29
du 543.8 398 25 29
Sénat 582.8 398 63 29
a 659.8 398 12 29
fixé 685.8 398 50 29
une 749.8 398 37 29
date 231.8 462 51 29
pour 296.8 462 50 29
le 360.8 462 24 29
début 398.8 462 64 29
des 476.8 462 38 29
auditions 528.8 462 116 29
et 658.8 462 25 29
la 697.8 462 24 29
nomination 231.8 526 128 29
qui 373.8 526 38 29
était 425.8 526 64 29
bloquée 503.8 526 89 29
depuis 606.8 526 77 29
dix 697.8 526 38 29
mois 231.8 590 51 29
