Les 232 270 37 29
laboratoires 283 270 154 29
ont 451 270 38 29
ainsi 503 270 64 29
réalisé 581 270 87 29
qu'au 682 270 64 29
premier 231.8 334 89 29
coup 334.8 334 50 29
dur 398.8 334 38 29
leur 463.8 334 50 29
existence 527.8 334 116 29
même 657.8 334 51 29
était 722.8 334 64 29
menacée 231.8 398 90 29
Les 348.8 398 37 29
médicaments 399.8 398 142 29
nouveaux 555.8 398 102 29
n'étaient 671.8 398 115 29
plus 231.8 462 50 29
assez 295.8 462 64 29
nombreux 373.8 462 102 29
pour 489.8 462 50 29
compenser 553.8 462 115 29
la 682.8 462 24 29
chute 720.8 462 63 29
de 231.8 526 25 29
leurs 270.8 526 63 29
brevets 347.8 526 89 29
dans 450.8 526 51 29
le 515.8 526 24 29
domaine 553.8 526 90 29
public 657.8 526 76 29
