Les 232 270 37 29
États-Unis 283 270 128 29
ont 425 270 38 29
profité 477 270 89 29
de 580 270 25 29
la 619 270 24 29
commission 657 270 128 29
spéciale 231.8 334 102 29
de 347.8 334 25 29
l'ONU 386.8 334 63 29
chargée 463.8 334 89 29
de 566.8 334 25 29
désarmer 605.8 334 103 29
l'Irak 231.8 398 76 29
pour 321.8 398 50 29
espionner 385.8 398 116 29
Bagdad 515.8 398 76 29
Les 618.8 398 37 29
responsables 231.8 462 152 29
américains 397.8 462 129 29
admettent 540.8 462 116 29
avoir 670.8 462 64 29
profité 231.8 526 89 29
des 334.8 526 38 29
informations 386.8 526 154 29
militaires 554.8 526 129 29
pouvant 697.8 526 89 29
aider 231.8 590 64 29
à 309.8 590 12 29
renverser 335.8 590 113 29
le 462.8 590 24 29
régime 500.8 590 74 29
