Pour 232 270 50 29
l'instant 296 270 115 29
les 438 270 37 29
télécommunications 489 270 233 29
palestiniennes 231.8 334 180 29
sous-traitent 425.8 334 167 29
l'accès 606.8 334 89 29
à 709.8 334 12 29
l'international 231.8 398 193 29
à 438.8 398 12 29
une 464.8 398 37 29
compagnie 515.8 398 115 29
privée 644.8 398 76 29
israélienne 231.8 462 141 29
Les 399.8 462 37 29
réseaux 450.8 462 87 29
sont 551.8 462 50 29
au 615.8 462 25 29
point 654.8 462 63 29
et 731.8 462 25 29
on 231.8 526 25 29
trouve 270.8 526 77 29
maintenant 361.8 526 129 29
des 504.8 526 38 29
cabines 556.8 526 89 29
téléphoniques 231.8 590 168 29
publiques 413.8 590 115 29
à 542.8 590 12 29
carte 568.8 590 63 29
