L'entraîneur 232 270 154 29
dirige 400 270 77 29
l'équipe 491 270 102 29
féminine 607 270 102 29
seulement 231.8 334 115 29
cinq 360.8 334 50 29
ans 424.8 334 38 29
après 476.8 334 64 29
avoir 554.8 334 64 29
été 632.8 334 38 29
champion 684.8 334 102 29
du 231.8 398 25 29
monde 270.8 398 64 29
comme 348.8 398 63 29
coach 425.8 398 63 29
adjoint 502.8 398 90 29
des 606.8 398 38 29
hommes 658.8 398 76 29
Il 761.8 398 24 29
a 231.8 462 12 29
ses 257.8 462 37 29
petites 308.8 462 89 29
habitudes 411.8 462 115 29
Le 553.8 462 24 29
rituel 591.8 462 74 29
commence 679.8 462 102 29
pendant 231.8 526 89 29
l'hymne 334.8 526 89 29
russe 437.8 526 61 29
