L'artillerie 232 270 154 29
israélienne 400 270 141 29
a 555 270 12 29
massivement 581 270 142 29
bombardé 231.8 334 102 29
des 347.8 334 38 29
régions 399.8 334 87 29
supposées 500.8 334 115 29
être 629.8 334 51 29
des 694.8 334 38 29
bastions 231.8 398 102 29
du 347.8 398 25 29
Hezbollah 386.8 398 116 29
au 516.8 398 25 29
Liban 555.8 398 63 29
Ces 645.8 398 38 29
tirs 697.8 398 51 29
sont 231.8 462 50 29
une 295.8 462 37 29
riposte 346.8 462 87 29
à 447.8 462 12 29
une 473.8 462 37 29
série 524.8 462 63 29
d'attaques 601.8 462 129 29
meurtrières 231.8 526 142 29
de 387.8 526 25 29
la 426.8 526 24 29
milice 464.8 526 77 29
intégriste 555.8 526 128 29
Chiite 697.8 526 77 29
contre 231.8 590 76 29
Israël 321.8 590 76 29
