Le 232 270 24 29
fondateur 270 270 115 29
de 399 270 25 29
la 438 270 24 29
guérilla 476 270 103 29
en 606 270 25 29
rébellion 645 270 113 29
contre 231.8 334 76 29
les 321.8 334 37 29
autorités 372.8 334 116 29
ne 515.8 334 24 29
fait 553.8 334 50 29
aucune 617.8 334 77 29
allusion 231.8 398 103 29
à 348.8 398 12 29
l'opération 374.8 398 141 29
humanitaire 529.8 398 141 29
visant 684.8 398 77 29
à 775.8 398 12 29
remettre 231.8 462 100 29
trois 345.8 462 64 29
otages 423.8 462 77 29
qui 514.8 462 38 29
a 566.8 462 12 29
capoté 592.8 462 76 29
en 682.8 462 25 29
début 721.8 462 64 29
de 231.8 526 25 29
semaine 270.8 526 89 29
dernière 373.8 526 103 29
