Quatre 232 270 77 29
jours 323 270 64 29
de 401 270 25 29
grains 440 270 77 29
sont 531 270 50 29
venus 595 270 64 29
clore 673 270 63 29
sa 750 270 24 29
traversée 231.8 334 116 29
du 361.8 334 25 29
Pacifique 400.8 334 115 29
L'eau 542.8 334 63 29
a 619.8 334 12 29
gagné 645.8 334 64 29
la 723.8 334 24 29
bagarre 231.8 398 89 29
et 334.8 398 25 29
tout 373.8 398 51 29
était 438.8 398 64 29
trempé 516.8 398 77 29
à 607.8 398 12 29
bord 633.8 398 50 29
Le 710.8 398 24 29
navigateur 231.8 462 128 29
attend 373.8 462 77 29
le 464.8 462 24 29
moment 502.8 462 77 29
idéal 593.8 462 63 29
pour 670.8 462 50 29
aller 231.8 526 64 29
se 309.8 526 24 29
reposer 347.8 526 87 29
