Le 232 270 24 29
pacte 270 270 63 29
de 347 270 25 29
stabilité 386 270 115 29
et 515 270 25 29
de 554 270 25 29
croissance 593 270 128 29
pose 735 270 50 29
des 231.8 334 38 29
limites 283.8 334 89 29
à 386.8 334 12 29
l'utilisation 412.8 334 167 29
du 593.8 334 25 29
budget 632.8 334 76 29
pour 722.8 334 50 29
relancer 231.8 398 100 29
une 345.8 398 37 29
économie 396.8 398 103 29
Les 526.8 398 37 29
économistes 577.8 398 142 29
s'interrogent 231.8 462 167 29
sur 412.8 462 37 29
la 463.8 462 24 29
pérennité 501.8 462 115 29
de 630.8 462 25 29
cette 669.8 462 63 29
croissance 231.8 526 128 29
qui 373.8 526 38 29
est 425.8 526 38 29
étonnante 477.8 526 116 29
