Voler 232 270 65 29
a 311 270 12 29
toujours 337 270 103 29
été 454 270 38 29
le 506 270 24 29
grand 544 270 64 29
délire 622 270 77 29
de 713 270 25 29
l'homme 231.8 334 89 29
Mais 347.8 334 51 29
malgré 412.8 334 77 29
ce 503.8 334 24 29
désir 541.8 334 64 29
et 619.8 334 25 29
l'audace 658.8 334 102 29
que 231.8 398 38 29
requiert 283.8 398 100 29
cette 397.8 398 63 29
spécialité 474.8 398 128 29
il 629.8 398 24 29
ne 667.8 398 24 29
faut 705.8 398 50 29
pas 231.8 462 37 29
être 282.8 462 51 29
totalement 347.8 462 129 29
givré 490.8 462 64 29
