C'est 232 270 64 29
la 310 270 24 29
fête 348 270 50 29
du 412 270 25 29
vin 451 270 38 29
à 503 270 12 29
Luri 529 270 50 29
en 593 270 25 29
Haute-corse 632 270 142 29
un 231.8 334 24 29
jour 269.8 334 51 29
d'été 334.8 334 64 29
entre 425.8 334 64 29
vendeurs 503.8 334 103 29
de 620.8 334 25 29
beignets 659.8 334 102 29
au 231.8 398 25 29
bruccio 270.8 398 89 29
de 386.8 398 25 29
gâteaux 425.8 398 90 29
à 529.8 398 12 29
la 555.8 398 24 29
farine 593.8 398 76 29
de 683.8 398 25 29
châtaigne 231.8 462 115 29
et 360.8 462 25 29
de 399.8 462 25 29
charcuterie 438.8 462 141 29
locale 593.8 462 76 29
