Le 232 270 24 29
serial 270 270 76 29
killer 360 270 76 29
n'est 450 270 63 29
pas 527 270 37 29
un 578 270 24 29
phénomène 616 270 115 29
récent 231.8 334 74 29
mais 332.8 334 51 29
ce 397.8 334 24 29
n'est 435.8 334 63 29
qu'au 512.8 334 64 29
début 590.8 334 64 29
des 668.8 334 38 29
années 231.8 398 77 29
80 322.8 398 25 29
que 361.8 398 38 29
la 413.8 398 24 29
fiction 451.8 398 89 29
policière 554.8 398 115 29
va 683.8 398 25 29
largement 231.8 462 115 29
s'inspirer 360.8 462 128 29
de 502.8 462 25 29
ce 541.8 462 24 29
thème 579.8 462 64 29
en 670.8 462 25 29
littérature 231.8 526 141 29
et 386.8 526 25 29
au 425.8 526 25 29
cinéma 464.8 526 76 29
