Ils 232 270 37 29
sont 283 270 50 29
encore 347 270 77 29
six 438 270 37 29
candidats 489 270 115 29
à 618 270 12 29
vouloir 644 270 90 29
tenter 231.8 334 77 29
le 322.8 334 24 29
tour 360.8 334 51 29
du 425.8 334 25 29
monde 464.8 334 64 29
en 542.8 334 25 29
ballon 581.8 334 76 29
sans 671.8 334 50 29
escale 231.8 398 77 29
Cette 335.8 398 64 29
circumnavigation 413.8 398 206 29
aérienne 633.8 398 103 29
réclame 231.8 462 87 29
autant 332.8 462 77 29
de 423.8 462 25 29
courage 462.8 462 89 29
et 565.8 462 25 29
d'audace 604.8 462 103 29
que 721.8 462 38 29
de 231.8 526 25 29
moyens 270.8 526 77 29
et 361.8 526 25 29
de 400.8 526 25 29
connaissances 439.8 526 167 29
techniques 620.8 526 129 29
