L'espace 232 270 102 29
dans 348 270 51 29
lequel 413 270 76 29
évoluent 503 270 103 29
les 620 270 37 29
satellites 231.8 334 128 29
autour 373.8 334 77 29
de 464.8 334 25 29
notre 503.8 334 63 29
planète 580.8 334 89 29
est 683.8 334 38 29
jonché 231.8 398 77 29
de 322.8 398 25 29
milliers 361.8 398 103 29
de 478.8 398 25 29
débris 517.8 398 77 29
de 608.8 398 25 29
toutes 647.8 398 77 29
sortes 231.8 462 76 29
qui 321.8 462 38 29
inquiètent 373.8 462 128 29
les 515.8 462 37 29
professionnels 566.8 462 180 29
