Le 232 270 24 29
premier 270 270 89 29
tir 373 270 38 29
de 425 270 25 29
l'année 464 270 89 29
de 567 270 25 29
la 606 270 24 29
fusée 644 270 63 29
Ariane-4 231.8 334 104 29
depuis 349.8 334 77 29
le 440.8 334 24 29
centre 478.8 334 76 29
spatial 568.8 334 89 29
guyanais 671.8 334 103 29
de 231.8 398 25 29
Kourou 270.8 398 77 29
a 361.8 398 12 29
été 387.8 398 38 29
un 439.8 398 24 29
succès 477.8 398 76 29
le 593.8 398 24 29
lanceur 631.8 398 89 29
européen 231.8 462 103 29
a 348.8 462 12 29
mis 374.8 462 38 29
sur 426.8 462 37 29
orbite 477.8 462 77 29
un 568.8 462 24 29
satellite 606.8 462 115 29
de 735.8 462 25 29
télécommunications 231.8 526 233 29
