La 232 270 24 29
sonde 270 270 63 29
américaine 347 270 129 29
Stardust 490 270 102 29
qui 606 270 38 29
doit 658 270 51 29
ramener 231.8 334 87 29
sur 332.8 334 37 29
terre 383.8 334 64 29
des 461.8 334 38 29
échantillons 513.8 334 155 29
de 682.8 334 25 29
la 721.8 334 24 29
comète 231.8 398 76 29
Wild-2 321.8 398 78 29
a 413.8 398 12 29
été 439.8 398 38 29
lancée 491.8 398 76 29
de 581.8 398 25 29
Cap 620.8 398 38 29
Canaveral 672.8 398 116 29
en 231.8 462 25 29
Floride 270.8 462 89 29
par 373.8 462 37 29
une 424.8 462 37 29
fusée 475.8 462 63 29
Delta-2 552.8 462 90 29
