La 232 270 24 29
fédération 270 270 128 29
des 412 270 38 29
consommateurs 464 270 167 29
américains 645 270 129 29
a 231.8 334 12 29
demandé 257.8 334 90 29
vendredi 361.8 334 103 29
à 478.8 334 12 29
Microsoft 504.8 334 116 29
de 634.8 334 25 29
rembourser 231.8 398 126 29
10 371.8 398 23 29
milliards 408.8 398 116 29
de 538.8 398 25 29
dollars 577.8 398 90 29
aux 681.8 398 38 29
consommateurs 231.8 462 167 29
pour 412.8 462 50 29
avoir 476.8 462 64 29
pratiqué 554.8 462 102 29
des 670.8 462 38 29
prix 722.8 462 50 29
trop 231.8 526 51 29
élevés 296.8 526 77 29
au 387.8 526 25 29
cours 426.8 526 63 29
des 503.8 526 38 29
trois 555.8 526 64 29
dernières 633.8 526 116 29
années 231.8 590 77 29
