Zinedine 232 270 102 29
Zidane 348 270 76 29
grand 451 270 64 29
artisan 529 270 90 29
de 633 270 25 29
la 672 270 24 29
victoire 231.8 334 103 29
de 348.8 334 25 29
la 387.8 334 24 29
France 425.8 334 76 29
en 528.8 334 25 29
finale 567.8 334 76 29
de 657.8 334 25 29
la 696.8 334 24 29
coupe 231.8 398 63 29
du 308.8 398 25 29
monde 347.8 398 64 29
contre 425.8 398 76 29
le 515.8 398 24 29
Brésil 553.8 398 76 29
a 656.8 398 12 29
été 682.8 398 38 29
élu 734.8 398 38 29
champion 231.8 462 102 29
des 347.8 462 38 29
champions 399.8 462 115 29
du 528.8 462 25 29
monde 567.8 462 64 29
