Après 232 270 65 29
l'Amérique 311 270 128 29
du 453 270 25 29
Sud 492 270 37 29
où 543 270 25 29
il 582 270 24 29
continue 620 270 102 29
de 736 270 25 29
nourrir 231.8 334 89 29
les 334.8 334 37 29
populations 385.8 334 141 29
le 553.8 334 24 29
maïs 591.8 334 51 29
a 656.8 334 12 29
conquis 682.8 334 89 29
le 231.8 398 24 29
reste 269.8 398 61 29
du 344.8 398 25 29
monde 383.8 398 64 29
où 461.8 398 25 29
il 500.8 398 24 29
est 538.8 398 38 29
surtout 590.8 398 89 29
utilisé 693.8 398 89 29
pour 231.8 462 50 29
engraisser 295.8 462 129 29
les 438.8 462 37 29
troupeaux 489.8 462 116 29
