Une 232 270 37 29
quarantaine 283 270 142 29
de 439 270 25 29
véhicules 478 270 116 29
ont 608 270 38 29
été 660 270 38 29
incendiés 231.8 334 115 29
par 360.8 334 37 29
des 411.8 334 38 29
jeunes 463.8 334 77 29
mineurs 554.8 334 90 29
dans 658.8 334 51 29
les 723.8 334 37 29
banlieues 231.8 398 115 29
de 360.8 398 25 29
Strasbourg 399.8 398 128 29
pendant 541.8 398 89 29
la 644.8 398 24 29
nuit 682.8 398 50 29
de 746.8 398 25 29
la 231.8 462 24 29
Saint-Sylvestre 269.8 462 193 29
Des 489.8 462 38 29
affrontements 541.8 462 168 29
avec 723.8 462 51 29
les 231.8 526 37 29
forces 282.8 526 76 29
de 372.8 526 25 29
police 411.8 526 76 29
ont 501.8 526 38 29
également 553.8 526 116 29
eu 683.8 526 25 29
lieu 722.8 526 50 29
