La 232 270 24 29
société 270 270 89 29
HLM 373 270 38 29
3F 425 270 25 29
a 464 270 12 29
organisé 490 270 103 29
une 607 270 37 29
formation 658 270 115 29
de 231.8 334 25 29
trois 270.8 334 64 29
jours 348.8 334 64 29
réservée 426.8 334 100 29
aux 540.8 334 38 29
gardiens 592.8 334 103 29
d'immeubles 231.8 398 142 29
L'objectif 400.8 398 128 29
est 542.8 398 38 29
de 594.8 398 25 29
permettre 633.8 398 115 29
aux 231.8 462 38 29
personnels 283.8 462 128 29
de 425.8 462 25 29
terrain 464.8 462 90 29
de 568.8 462 25 29
garder 607.8 462 77 29
la 698.8 462 24 29
distance 231.8 526 103 29
nécessaire 348.8 526 128 29
dans 490.8 526 51 29
les 555.8 526 37 29
situations 606.8 526 128 29
de 748.8 526 25 29
violence 231.8 590 103 29
