Une 232 270 37 29
soixantaine 283 270 141 29
de 438 270 25 29
jeunes 477 270 77 29
de 568 270 25 29
la 607 270 24 29
Courneuve 645 270 116 29
ont 231.8 334 38 29
incendié 283.8 334 102 29
des 399.8 334 38 29
voitures 451.8 334 103 29
brisé 581.8 334 63 29
des 658.8 334 38 29
vitrines 231.8 398 103 29
et 348.8 398 25 29
s'en 387.8 398 50 29
sont 451.8 398 50 29
pris 515.8 398 50 29
aux 579.8 398 38 29
policiers 631.8 398 115 29
auxquels 231.8 462 103 29
ils 348.8 462 37 29
attribuent 399.8 462 129 29
la 542.8 462 24 29
responsabilité 580.8 462 178 29
de 231.8 526 25 29
la 270.8 526 24 29
mort 308.8 526 51 29
d'un 373.8 526 51 29
des 438.8 526 38 29
leurs 490.8 526 63 29
