Le 232 270 24 29
skippeur 270 270 102 29
rend 386 270 48 29
hommage 448 270 89 29
aux 551 270 38 29
concepteurs 603 270 141 29
Le 231.8 334 24 29
pari 269.8 334 50 29
de 333.8 334 25 29
la 372.8 334 24 29
légèreté 410.8 334 102 29
et 526.8 334 25 29
de 565.8 334 25 29
la 604.8 334 24 29
simplicité 642.8 334 128 29
était 231.8 398 64 29
osé 309.8 398 38 29
Les 374.8 398 37 29
gens 425.8 398 51 29
qui 490.8 398 38 29
se 542.8 398 24 29
sont 580.8 398 50 29
investis 644.8 398 102 29
pour 231.8 462 50 29
que 295.8 462 38 29
ce 347.8 462 24 29
projet 385.8 462 76 29
existe 475.8 462 77 29
peuvent 566.8 462 89 29
être 669.8 462 51 29
fiers 231.8 526 63 29
