Bien 232 270 50 29
plus 296 270 50 29
que 360 270 38 29
la 412 270 24 29
connaissance 450 270 154 29
d'une 618 270 64 29
langue 696 270 76 29
morte 231.8 334 64 29
l'apprentissage 322.8 334 193 29
du 529.8 334 25 29
latin 568.8 334 63 29
dès 645.8 334 38 29
le 697.8 334 24 29
collège 231.8 398 89 29
est 334.8 398 38 29
un 386.8 398 24 29
exercice 424.8 398 103 29
du 541.8 398 25 29
raisonnement 580.8 398 152 29
et 746.8 398 25 29
d'affirmation 231.8 462 168 29
du 413.8 462 25 29
caractère 452.8 462 115 29
Il 594.8 462 24 29
est 632.8 462 38 29
un 684.8 462 24 29
puissant 231.8 526 102 29
signe 347.8 526 63 29
de 424.8 526 25 29
différence 463.8 526 129 29
et 606.8 526 25 29
de 645.8 526 25 29
condition 231.8 590 115 29
supérieure 360.8 590 128 29
