Une 232 270 37 29
bonne 283 270 63 29
connaissance 360 270 154 29
du 528 270 25 29
fonctionnement 567 270 180 29
de 761 270 25 29
l'ordinateur 231.8 334 154 29
et 399.8 334 25 29
d'Internet 438.8 334 129 29
est 581.8 334 38 29
importante 633.8 334 128 29
Des 231.8 398 38 29
systèmes 283.8 398 102 29
de 399.8 398 25 29
formation 438.8 398 115 29
à 567.8 398 12 29
distance 593.8 398 103 29
et 710.8 398 25 29
de 749.8 398 25 29
la 231.8 462 24 29
pédagogie 269.8 462 115 29
pour 398.8 462 50 29
adultes 462.8 462 90 29
en 566.8 462 25 29
formation 605.8 462 115 29
continue 231.8 526 102 29
vont 347.8 526 51 29
être 412.8 526 51 29
mis 477.8 526 38 29
en 529.8 526 25 29
place 568.8 526 63 29
