La 232 270 24 29
plupart 270 270 89 29
des 373 270 38 29
animateurs-modérateurs 425 270 285 29
ont 724 270 38 29
une 231.8 334 37 29
formation 282.8 334 115 29
de 411.8 334 25 29
journaliste 450.8 334 142 29
Il 619.8 334 24 29
n'existe 657.8 334 102 29
pas 231.8 398 37 29
de 282.8 398 25 29
formation 321.8 398 115 29
spécifique 450.8 398 128 29
mais 605.8 398 51 29
des 670.8 398 38 29
écoles 231.8 462 77 29
de 322.8 462 25 29
journalisme 361.8 462 142 29
ou 517.8 462 25 29
de 556.8 462 25 29
communication 595.8 462 167 29
qui 231.8 526 38 29
donnent 283.8 526 90 29
des 387.8 526 38 29
cours 439.8 526 63 29
en 516.8 526 25 29
multimédia 555.8 526 129 29
