Le 232 270 24 29
Conseil 270 270 90 29
national 374 270 102 29
des 490 270 38 29
programmes 542 270 128 29
et 684 270 25 29
les 723 270 37 29
observatoires 231.8 334 168 29
académiques 413.8 334 142 29
des 569.8 334 38 29
pratiques 621.8 334 115 29
pédagogiques 231.8 398 154 29
seront 399.8 398 76 29
chargés 489.8 398 89 29
de 592.8 398 25 29
définir 631.8 398 90 29
les 735.8 398 37 29
compétences 231.8 462 141 29
communes 386.8 462 102 29
dispensées 502.8 462 129 29
au 645.8 462 25 29
collège 684.8 462 89 29
Les 231.8 526 37 29
enseignants 282.8 526 142 29
souhaitent 438.8 526 128 29
être 580.8 526 51 29
consultés 645.8 526 115 29
sur 231.8 590 37 29
ce 282.8 590 24 29
programme 320.8 590 115 29
