Chez 232 270 51 29
les 297 270 37 29
démocrates 348 270 129 29
les 504 270 37 29
électeurs 555 270 116 29
débattent 231.8 334 116 29
de 361.8 334 25 29
leurs 400.8 334 63 29
choix 477.8 334 63 29
respectifs 554.8 334 126 29
et 694.8 334 25 29
tentent 231.8 398 90 29
de 335.8 398 25 29
persuader 374.8 398 115 29
leurs 503.8 398 63 29
voisins 580.8 398 90 29
de 684.8 398 25 29
se 723.8 398 24 29
rallier 231.8 462 87 29
à 332.8 462 12 29
leur 358.8 462 50 29
candidat 422.8 462 102 29
Côté 551.8 462 51 29
républicain 616.8 462 139 29
le 231.8 526 24 29
scrutin 269.8 526 89 29
se 372.8 526 24 29
déroule 410.8 526 90 29
rapidement 514.8 526 126 29
après 654.8 526 64 29
l'ouverture 231.8 590 141 29
des 386.8 590 38 29
assemblées 438.8 590 129 29
