Pour 232 270 50 29
cette 296 270 63 29
grande 373 270 77 29
fresque 464 270 89 29
historique 567 270 128 29
les 722 270 37 29
scénaristes 231.8 334 141 29
ont 386.8 334 38 29
choisi 438.8 334 76 29
de 528.8 334 25 29
mêler 567.8 334 64 29
étroitement 645.8 334 142 29
l'histoire 231.8 398 128 29
du 373.8 398 25 29
château 412.8 398 89 29
et 515.8 398 25 29
celle 554.8 398 63 29
du 631.8 398 25 29
monarque 670.8 398 103 29
Celui-ci 231.8 462 103 29
avait 348.8 462 64 29
conçu 426.8 462 63 29
Versailles 503.8 462 130 29
comme 647.8 462 63 29
l'instrument 231.8 526 154 29
de 399.8 526 25 29
son 438.8 526 37 29
pouvoir 489.8 526 89 29
absolu 592.8 526 77 29
