Il 232 270 24 29
faut 270 270 50 29
distinguer 334 270 129 29
culture 477 270 89 29
et 580 270 25 29
civilisation 619 270 154 29
La 231.8 334 24 29
culture 269.8 334 89 29
est 372.8 334 38 29
l'ensemble 424.8 334 128 29
des 566.8 334 38 29
croyances 618.8 334 115 29
des 231.8 398 38 29
valeurs 283.8 398 90 29
propres 387.8 398 89 29
à 490.8 398 12 29
une 516.8 398 37 29
communauté 567.8 398 128 29
particulière 231.8 462 154 29
La 412.8 462 24 29
civilisation 450.8 462 154 29
c'est 631.8 462 63 29
ce 708.8 462 24 29
qui 746.8 462 38 29
est 231.8 526 38 29
transmis 283.8 526 103 29
d'une 400.8 526 64 29
communauté 478.8 526 128 29
à 620.8 526 12 29
une 646.8 526 37 29
autre 697.8 526 64 29
