Les 232 270 37 29
moines 283 270 77 29
franciscains 374 270 154 29
qui 555 270 38 29
ne 607 270 24 29
vivent 645 270 77 29
pas 736 270 37 29
cloîtrés 231.8 334 102 29
mais 347.8 334 51 29
partagent 412.8 334 115 29
un 541.8 334 24 29
bâtiment 579.8 334 102 29
moderne 231.8 398 90 29
ont 348.8 398 38 29
décidé 400.8 398 77 29
de 491.8 398 25 29
se 530.8 398 24 29
retrouver 568.8 398 113 29
sur 695.8 398 37 29
la 746.8 398 24 29
place 231.8 462 63 29
Ils 321.8 462 37 29
protestent 372.8 462 128 29
contre 514.8 462 76 29
les 604.8 462 37 29
conditions 655.8 462 128 29
de 231.8 526 25 29
détention 270.8 526 116 29
au 400.8 526 25 29
centre 439.8 526 76 29
de 529.8 526 25 29
rétention 568.8 526 113 29
