La 232 270 24 29
plainte 270 270 89 29
avait 373 270 64 29
été 451 270 38 29
déposée 503 270 90 29
par 607 270 37 29
l'entreprise 231.8 334 154 29
et 399.8 334 25 29
portait 438.8 334 89 29
sur 541.8 334 37 29
le 592.8 334 24 29
mobilier 630.8 334 103 29
urbain 231.8 398 76 29
et 321.8 398 25 29
le 360.8 398 24 29
service 398.8 398 89 29
de 501.8 398 25 29
location 540.8 398 102 29
de 656.8 398 25 29
vélos 695.8 398 64 29
en 231.8 462 25 29
libre 270.8 462 63 29
service 347.8 462 89 29
Le 463.8 462 24 29
groupe 501.8 462 77 29
américain 592.8 462 116 29
a 722.8 462 12 29
déposé 231.8 526 77 29
un 322.8 526 24 29
recours 360.8 526 87 29
