Laure 232 270 63 29
Manaudou 309 270 103 29
a 426 270 12 29
remporté 452 270 100 29
la 566 270 24 29
médaille 604 270 103 29
d'argent 231.8 334 103 29
sur 348.8 334 37 29
200 399.8 334 37 29
m 450.8 334 12 29
nage 476.8 334 50 29
libre 540.8 334 63 29
aux 617.8 334 38 29
championnats 231.8 398 154 29
d'Europe 399.8 398 103 29
de 516.8 398 25 29
natation 555.8 398 102 29
en 671.8 398 25 29
petit 710.8 398 63 29
bassin 231.8 462 76 29
Le 334.8 462 24 29
titre 372.8 462 64 29
est 450.8 462 38 29
cependant 502.8 462 115 29
revenu 631.8 462 74 29
à 719.8 462 12 29
la 745.8 462 24 29
suédoise 231.8 526 102 29
