Le 232 270 24 29
médecin 270 270 90 29
en 374 270 25 29
chef 413 270 50 29
du 477 270 25 29
service 516 270 89 29
de 619 270 25 29
santé 658 270 63 29
des 735 270 38 29
armées 231.8 334 77 29
est 322.8 334 38 29
rentré 374.8 334 74 29
il 475.8 334 24 29
y 513.8 334 12 29
a 539.8 334 12 29
quelques 565.8 334 103 29
semaines 231.8 398 102 29
de 360.8 398 25 29
Terre 399.8 398 64 29
Adélie 477.8 398 78 29
où 569.8 398 25 29
il 608.8 398 24 29
a 646.8 398 12 29
passé 672.8 398 63 29
plus 231.8 462 50 29
d'un 295.8 462 51 29
an 360.8 462 25 29
en 399.8 462 25 29
tant 438.8 462 51 29
que 503.8 462 38 29
directeur 555.8 462 116 29
et 685.8 462 25 29
responsable 231.8 526 139 29
médical 384.8 526 90 29
