Il 232 270 24 29
pleut 270 270 63 29
sur 347 270 37 29
la 398 270 24 29
Haute-Saône 436 270 142 29
il 605 270 24 29
fait 643 270 50 29
froid 707 270 63 29
les 231.8 334 37 29
jours 282.8 334 64 29
sont 360.8 334 50 29
encore 424.8 334 77 29
courts 515.8 334 76 29
A 618.8 334 13 29
part 645.8 334 50 29
quelques 231.8 398 103 29
forsythias 348.8 398 128 29
héroïques 490.8 398 115 29
les 632.8 398 37 29
arbustes 683.8 398 103 29
sont 231.8 462 50 29
nus 295.8 462 37 29
le 372.8 462 24 29
printemps 410.8 462 115 29
rase 539.8 462 48 29
les 601.8 462 37 29
murs 652.8 462 51 29
