Il 232 270 24 29
aura 270 270 51 29
suffi 335 270 63 29
que 412 270 38 29
le 464 270 24 29
soleil 502 270 76 29
montre 592 270 77 29
le 683 270 24 29
bout 721 270 50 29
de 231.8 334 25 29
son 270.8 334 37 29
nez 321.8 334 37 29
pour 372.8 334 50 29
que 436.8 334 38 29
les 488.8 334 37 29
jardineries 539.8 334 142 29
soient 695.8 334 76 29
prises 231.8 398 76 29
d'assaut 321.8 398 103 29
On 451.8 398 25 29
dépense 490.8 398 90 29
de 594.8 398 25 29
plus 633.8 398 50 29
en 697.8 398 25 29
plus 736.8 398 50 29
pour 231.8 462 50 29
la 295.8 462 24 29
plantation 333.8 462 128 29
de 475.8 462 25 29
fleurs 514.8 462 76 29
dans 604.8 462 51 29
son 669.8 462 37 29
jardin 231.8 526 77 29
