Pour 232 270 50 29
obtenir 296 270 90 29
de 400 270 25 29
belles 439 270 76 29
roses 529 270 61 29
le 617 270 24 29
jardinier 655 270 116 29
plante 231.8 334 76 29
les 321.8 334 37 29
rosiers 372.8 334 87 29
dès 473.8 334 38 29
l'automne 525.8 334 115 29
de 654.8 334 25 29
façon 693.8 334 63 29
à 770.8 334 12 29
ce 231.8 398 24 29
que 269.8 398 38 29
leurs 321.8 398 63 29
racines 398.8 398 87 29
aient 499.8 398 64 29
le 577.8 398 24 29
temps 615.8 398 64 29
de 693.8 398 25 29
s'ancrer 231.8 462 102 29
dans 347.8 462 51 29
un 412.8 462 24 29
sol 450.8 462 37 29
encore 501.8 462 77 29
chaud 592.8 462 63 29
