L'économie 232 270 128 29
algérienne 374 270 129 29
dépend 517 270 77 29
de 608 270 25 29
l'évolution 647 270 141 29
des 231.8 334 38 29
cours 283.8 334 63 29
du 360.8 334 25 29
pétrole 399.8 334 89 29
brut 502.8 334 50 29
Après 579.8 334 65 29
être 658.8 334 51 29
tombés 231.8 398 77 29
à 322.8 398 12 29
des 348.8 398 38 29
niveaux 400.8 398 89 29
jamais 503.8 398 77 29
observés 594.8 398 103 29
l'annonce 231.8 462 115 29
par 360.8 462 37 29
les 411.8 462 37 29
pays 462.8 462 50 29
producteurs 526.8 462 141 29
d'une 681.8 462 64 29
réduction 231.8 526 113 29
de 358.8 526 25 29
la 397.8 526 24 29
production 435.8 526 128 29
a 577.8 526 12 29
redressé 603.8 526 100 29
les 717.8 526 37 29
prix 231.8 590 50 29
