Destiné 232 270 90 29
à 336 270 12 29
récompenser 362 270 139 29
une 515 270 37 29
oeuvre 566 270 77 29
de 657 270 25 29
fiction 696 270 89 29
inédite 231.8 334 89 29
en 334.8 334 25 29
prose 373.8 334 63 29
écrite 463.8 334 77 29
par 554.8 334 37 29
un 605.8 334 24 29
auteur 643.8 334 77 29
de 734.8 334 25 29
moins 231.8 398 64 29
de 309.8 398 25 29
vingt-cinq 348.8 398 129 29
ans 491.8 398 38 29
le 556.8 398 24 29
quinzième 594.8 398 116 29
prix 724.8 398 50 29
du 231.8 462 25 29
jeune 270.8 462 64 29
écrivain 348.8 462 103 29
a 465.8 462 12 29
été 491.8 462 38 29
décerné 543.8 462 90 29
à 647.8 462 12 29
Bernard 673.8 462 89 29
Magnan 231.8 526 77 29
