Le 232 270 24 29
ministre 270 270 103 29
irakien 387 270 89 29
du 490 270 25 29
pétrole 529 270 89 29
a 632 270 12 29
accusé 658 270 77 29
dimanche 231.8 334 103 29
l'Arabie 348.8 334 102 29
saoudite 464.8 334 102 29
d'avoir 580.8 334 90 29
inondé 684.8 334 76 29
le 231.8 398 24 29
marché 269.8 398 77 29
du 360.8 398 25 29
pétrole 399.8 398 89 29
Il 515.8 398 24 29
a 553.8 398 12 29
réclamé 579.8 398 87 29
une 680.8 398 37 29
réduction 231.8 462 113 29
de 358.8 462 25 29
la 397.8 462 24 29
production 435.8 462 128 29
saoudienne 577.8 462 128 29
pour 719.8 462 50 29
que 231.8 526 38 29
les 283.8 526 37 29
prix 334.8 526 50 29
remontent 398.8 526 113 29
