La 232 270 24 29
Californie 270 270 129 29
a 413 270 12 29
officiellement 439 270 181 29
déposé 634 270 77 29
plainte 231.8 334 89 29
contre 334.8 334 76 29
le 424.8 334 24 29
gouvernement 462.8 334 155 29
des 631.8 334 38 29
États-Unis 231.8 398 128 29
pour 373.8 398 50 29
avoir 437.8 398 64 29
empêché 515.8 398 90 29
l'application 619.8 398 167 29
de 231.8 462 25 29
sa 270.8 462 24 29
loi 308.8 462 37 29
de 359.8 462 25 29
réduction 398.8 462 113 29
des 525.8 462 38 29
émissions 577.8 462 116 29
de 707.8 462 25 29
gaz 746.8 462 38 29
à 231.8 526 12 29
effet 257.8 526 64 29
de 335.8 526 25 29
serre 374.8 526 63 29
des 451.8 526 38 29
automobiles 503.8 526 142 29
