La 232 270 24 29
crue 270 270 50 29
du 334 270 25 29
Gapeau 373 270 77 29
déclenchée 477 270 129 29
par 620 270 37 29
vingt-quatre 231.8 334 155 29
heures 400.8 334 76 29
de 490.8 334 25 29
fortes 529.8 334 76 29
pluies 619.8 334 76 29
a 722.8 334 12 29
inondé 231.8 398 76 29
trois 321.8 398 64 29
cents 399.8 398 63 29
maisons 476.8 398 90 29
à 580.8 398 12 29
Hyères 606.8 398 77 29
et 697.8 398 25 29
près 736.8 398 50 29
de 231.8 462 25 29
deux 270.8 462 51 29
cents 335.8 462 63 29
personnes 412.8 462 115 29
ont 541.8 462 38 29
dû 593.8 462 25 29
être 632.8 462 51 29
mises 697.8 462 64 29
en 231.8 526 25 29
sécurité 270.8 526 102 29
