Le 232 270 24 29
6e 270 270 25 29
festival 309 270 102 29
de 425 270 25 29
Gérardmer 464 270 116 29
consacré 607 270 102 29
au 723 270 25 29
genre 231.8 334 64 29
fantastique 309.8 334 141 29
présente 477.8 334 102 29
une 593.8 334 37 29
quinzaine 644.8 334 116 29
de 231.8 398 25 29
longs 270.8 398 63 29
métrages 347.8 398 103 29
inédits 464.8 398 89 29
En 580.8 398 24 29
ouverture 618.8 398 116 29
hors 231.8 462 50 29
compétition 295.8 462 141 29
Psycho 463.8 462 76 29
de 566.8 462 25 29
Gus 605.8 462 38 29
van 657.8 462 38 29
Sant 709.8 462 50 29
revisite 231.8 526 100 29
le 345.8 526 24 29
classique 383.8 526 115 29
d'Hitchcock 512.8 526 142 29
