Un 232 270 24 29
groupe 270 270 77 29
d'ingénieurs 361 270 155 29
météorologistes 530 270 194 29
a 738 270 12 29
obtenu 231.8 334 77 29
le 322.8 334 24 29
prix 360.8 334 50 29
Nobel 424.8 334 64 29
pour 502.8 334 50 29
ses 566.8 334 37 29
travaux 617.8 334 90 29
relatifs 231.8 398 100 29
à 345.8 398 12 29
la 371.8 398 24 29
prévision 409.8 398 115 29
des 538.8 398 38 29
évènements 590.8 398 129 29
climatiques 231.8 462 141 29
à 386.8 462 12 29
long 412.8 462 50 29
terme 476.8 462 64 29
et 554.8 462 25 29
aux 593.8 462 38 29
effets 645.8 462 77 29
de 736.8 462 25 29
la 231.8 526 24 29
pollution 269.8 526 115 29
de 398.8 526 25 29
l'atmosphère 437.8 526 154 29
