Quand 232 270 64 29
nous 310 270 50 29
brûlons 374 270 89 29
des 477 270 38 29
combustibles 529 270 154 29
fossiles 231.8 334 102 29
nous 360.8 334 50 29
émettons 424.8 334 103 29
des 541.8 334 38 29
gaz 593.8 334 38 29
à 645.8 334 12 29
effet 671.8 334 64 29
de 749.8 334 25 29
serre 231.8 398 63 29
dans 308.8 398 51 29
l'atmosphère 373.8 398 154 29
ce 554.8 398 24 29
qui 592.8 398 38 29
a 644.8 398 12 29
pour 670.8 398 50 29
conséquence 231.8 462 141 29
de 386.8 462 25 29
la 425.8 462 24 29
réchauffer 463.8 462 126 29
et 603.8 462 25 29
de 642.8 462 25 29
contribuer 231.8 526 128 29
à 373.8 526 12 29
la 399.8 526 24 29
fonte 437.8 526 63 29
des 514.8 526 38 29
glaciers 566.8 526 103 29
