L'industrie 232 270 141 29
musicale 387 270 103 29
a 504 270 12 29
enregistré 530 270 129 29
un 673 270 24 29
nouveau 231.8 334 89 29
plongeon 334.8 334 102 29
des 450.8 334 38 29
ventes 502.8 334 77 29
d'albums 593.8 334 103 29
Les 723.8 334 37 29
ventes 231.8 398 77 29
totales 322.8 398 90 29
ont 426.8 398 38 29
baissé 478.8 398 76 29
fortement 568.8 398 115 29
et 697.8 398 25 29
il 736.8 398 24 29
a 774.8 398 12 29
fallu 231.8 462 63 29
attendre 308.8 462 103 29
pour 425.8 462 50 29
voir 489.8 462 51 29
décoller 554.8 462 103 29
la 671.8 462 24 29
meilleure 231.8 526 116 29
vente 361.8 526 64 29
de 439.8 526 25 29
l'année 478.8 526 89 29
