Mentir 232 270 77 29
sous 323 270 50 29
serment 387 270 89 29
c'est 503 270 63 29
une 580 270 37 29
insulte 631 270 89 29
à 734 270 12 29
la 760 270 24 29
liberté 231.8 334 89 29
Faire 347.8 334 63 29
obstruction 424.8 334 142 29
à 580.8 334 12 29
la 606.8 334 24 29
justice 644.8 334 90 29
c'est 231.8 398 63 29
bafouer 308.8 398 89 29
la 411.8 398 24 29
loi 449.8 398 37 29
Il 513.8 398 24 29
y 551.8 398 12 29
a 577.8 398 12 29
des 603.8 398 38 29
gens 655.8 398 51 29
en 720.8 398 25 29
prison 231.8 462 76 29
pour 321.8 462 50 29
de 385.8 462 25 29
tels 424.8 462 51 29
crimes 489.8 462 76 29
