Le 232 270 24 29
revenu 270 270 74 29
moyen 358 270 64 29
imposable 436 270 115 29
par 565 270 37 29
foyer 616 270 63 29
fiscal 693 270 76 29
est 231.8 334 38 29
le 283.8 334 24 29
plus 321.8 334 50 29
faible 385.8 334 76 29
des 475.8 334 38 29
communes 527.8 334 102 29
de 643.8 334 25 29
l'agglomération 231.8 398 193 29
Riches-pauvres 451.8 398 181 29
on 672.8 398 25 29
n'échappe 231.8 462 115 29
pas 360.8 462 37 29
au 411.8 462 25 29
face-à-face 450.8 462 141 29
C'est 618.8 462 64 29
celui 696.8 462 63 29
qui 231.8 526 38 29
embrase 283.8 526 90 29
la 387.8 526 24 29
plupart 425.8 526 89 29
des 528.8 526 38 29
convulsions 580.8 526 141 29
de 735.8 526 25 29
l'histoire 231.8 590 128 29
