Le 232 270 24 29
badminton 270 270 115 29
nécessite 399 270 115 29
de 528 270 25 29
nombreuses 567 270 128 29
heures 709 270 76 29
d'entraînement 231.8 334 181 29
par 426.8 334 37 29
semaine 477.8 334 89 29
y 593.8 334 12 29
compris 619.8 334 89 29
chez 722.8 334 50 29
les 231.8 398 37 29
jeunes 282.8 398 77 29
Il 386.8 398 24 29
est 424.8 398 38 29
difficile 476.8 398 116 29
de 606.8 398 25 29
faire 645.8 398 63 29
l'impasse 231.8 462 115 29
sur 360.8 462 37 29
une 411.8 462 37 29
compétition 462.8 462 141 29
puisque 617.8 462 89 29
l'athlète 231.8 526 115 29
n'échappe 360.8 526 115 29
jamais 489.8 526 77 29
à 580.8 526 12 29
une 606.8 526 37 29
logique 657.8 526 89 29
de 760.8 526 25 29
classement 231.8 590 128 29
