La 232 270 24 29
Chine 270 270 64 29
souhaite 348 270 102 29
généraliser 464 270 142 29
l'usage 620 270 89 29
de 723 270 25 29
l'injection 231.8 334 141 29
mortelle 386.8 334 103 29
pour 503.8 334 50 29
les 567.8 334 37 29
peines 618.8 334 76 29
capitales 231.8 398 115 29
au 360.8 398 25 29
détriment 399.8 398 116 29
de 529.8 398 25 29
l'exécution 568.8 398 141 29
par 723.8 398 37 29
balle 231.8 462 63 29
C'est 321.8 462 64 29
le 399.8 462 24 29
premier 437.8 462 89 29
pays 540.8 462 50 29
au 604.8 462 25 29
monde 643.8 462 64 29
pour 721.8 462 50 29
le 231.8 526 24 29
nombre 269.8 526 76 29
d'exécutions 359.8 526 155 29
par 528.8 526 37 29
an 579.8 526 25 29
