Un 232 270 24 29
avion 270 270 64 29
de 348 270 25 29
combat 387 270 76 29
russe 477 270 61 29
biréacteur 552 270 128 29
Sukhoi-30 231.8 334 115 29
s'est 360.8 334 63 29
écrasé 437.8 334 77 29
pendant 528.8 334 89 29
une 631.8 334 37 29
démonstration 231.8 398 168 29
en 413.8 398 25 29
vol 452.8 398 38 29
samedi 517.8 398 76 29
vers 607.8 398 51 29
15 672.8 398 23 29
heures 231.8 462 76 29
lors 334.8 462 50 29
de 398.8 462 25 29
l'inauguration 437.8 462 180 29
du 631.8 462 25 29
salon 670.8 462 63 29
aéronautique 231.8 526 155 29
du 400.8 526 25 29
Bourget 439.8 526 89 29
