Qui 232 270 38 29
sont 284 270 50 29
ces 348 270 37 29
étudiants 399 270 116 29
qui 529 270 38 29
n'ont 581 270 63 29
pas 658 270 37 29
les 709 270 37 29
moyens 231.8 334 77 29
de 322.8 334 25 29
s'offrir 361.8 334 102 29
un 477.8 334 24 29
repas 515.8 334 61 29
à 590.8 334 12 29
3 616.8 334 12 29
euros 642.8 334 64 29
Principalement 231.8 398 180 29
des 425.8 398 38 29
étudiants 477.8 398 116 29
étrangers 607.8 398 116 29
qui 737.8 398 38 29
n'ont 231.8 462 63 29
pas 308.8 462 37 29
de 359.8 462 25 29
bourses 398.8 462 89 29
d'études 501.8 462 103 29
résume 631.8 462 74 29
l'assistante 231.8 526 154 29
sociale 399.8 526 89 29
du 502.8 526 25 29
Crous 541.8 526 64 29
