Les 232 270 37 29
producteurs 283 270 141 29
de 438 270 25 29
fruits 477 270 76 29
et 567 270 25 29
légumes 606 270 89 29
surtout 231.8 334 89 29
affiliés 334.8 334 103 29
à 451.8 334 12 29
la 477.8 334 24 29
puissante 515.8 334 115 29
Fédération 644.8 334 128 29
Nationale 231.8 398 116 29
des 361.8 398 38 29
Syndicats 413.8 398 115 29
d'Exploitants 542.8 398 168 29
Agricoles 231.8 462 117 29
ont 375.8 462 38 29
les 427.8 462 37 29
grandes 478.8 462 90 29
surfaces 582.8 462 102 29
dans 698.8 462 51 29
leur 231.8 526 50 29
ligne 295.8 526 63 29
de 372.8 526 25 29
mire 411.8 526 51 29
