En 232 270 24 29
Inde 270 270 50 29
l'épais 347 270 89 29
brouillard 450 270 128 29
qui 605 270 38 29
recouvre 657 270 100 29
le 231.8 334 24 29
nord 269.8 334 50 29
du 333.8 334 25 29
pays 372.8 334 50 29
depuis 436.8 334 77 29
plusieurs 527.8 334 115 29
jours 656.8 334 64 29
et 734.8 334 25 29
qui 231.8 398 38 29
s'ajoute 283.8 398 102 29
à 399.8 398 12 29
une 425.8 398 37 29
vague 476.8 398 64 29
de 554.8 398 25 29
froid 593.8 398 63 29
dans 670.8 398 51 29
l'état 231.8 462 76 29
du 321.8 462 25 29
Rajasthan 360.8 462 116 29
paralyse 503.8 462 102 29
les 619.8 462 37 29
transports 231.8 526 129 29
aériens 374.8 526 90 29
