L'indivision 232 270 154 29
est 400 270 38 29
un 452 270 24 29
fléau 490 270 63 29
en 567 270 25 29
Corse 606 270 64 29
surtout 697 270 89 29
dans 231.8 334 51 29
l'intérieur 296.8 334 141 29
des 451.8 334 38 29
terres 503.8 334 77 29
Elle 607.8 334 50 29
empêche 671.8 334 90 29
les 231.8 398 37 29
jeunes 282.8 398 77 29
agriculteurs 373.8 398 155 29
de 542.8 398 25 29
s'installer 581.8 398 141 29
faute 231.8 462 63 29
de 308.8 462 25 29
savoir 347.8 462 76 29
à 437.8 462 12 29
qui 463.8 462 38 29
racheter 515.8 462 100 29
la 629.8 462 24 29
terre 667.8 462 64 29
