Des 232 270 38 29
trafiquants 284 270 142 29
de 440 270 25 29
cocaïne 479 270 89 29
colombiens 582 270 128 29
ont 724 270 38 29
été 231.8 334 38 29
sabordés 283.8 334 102 29
par 399.8 334 37 29
un 450.8 334 24 29
sous-marin 488.8 334 128 29
au 630.8 334 25 29
large 669.8 334 63 29
de 746.8 334 25 29
la 231.8 398 24 29
côte 269.8 398 50 29
Pacifique 333.8 398 115 29
C'est 475.8 398 64 29
la 553.8 398 24 29
deuxième 591.8 398 103 29
fois 708.8 398 50 29
que 231.8 462 38 29
les 283.8 462 37 29
forces 334.8 462 76 29
colombiennes 424.8 462 154 29
arrêtent 592.8 462 103 29
un 709.8 462 24 29
engin 231.8 526 64 29
afin 309.8 526 51 29
d'en 374.8 526 51 29
détruire 439.8 526 103 29
la 556.8 526 24 29
cargaison 594.8 526 115 29
illicite 231.8 590 102 29
