Toute 232 270 64 29
la 310 270 24 29
magie 348 270 64 29
des 426 270 38 29
hauts 478 270 63 29
plateaux 555 270 102 29
basaltiques 231.8 334 141 29
avec 386.8 334 51 29
la 451.8 334 24 29
neige 489.8 334 63 29
en 566.8 334 25 29
plus 605.8 334 50 29
Au 682.8 334 26 29
programme 231.8 398 115 29
randonnée 386.8 398 113 29
en 513.8 398 25 29
raquettes 552.8 398 113 29
avec 679.8 398 51 29
guide 231.8 462 64 29
ski 322.8 462 37 29
de 373.8 462 25 29
fond 412.8 462 50 29
et 476.8 462 25 29
relaxation 515.8 462 126 29
dans 655.8 462 51 29
les 720.8 462 37 29
eaux 231.8 526 51 29
chaudes 296.8 526 89 29
thermales 399.8 526 116 29
de 529.8 526 25 29
la 568.8 526 24 29
montagne 606.8 526 103 29
