Aucune 232 270 78 29
preuve 324 270 76 29
scientifique 414 270 154 29
ne 582 270 24 29
permet 620 270 76 29
aujourd'hui 231.8 334 142 29
de 387.8 334 25 29
démontrer 426.8 334 116 29
que 556.8 334 38 29
l'utilisation 608.8 334 167 29
des 231.8 398 38 29
téléphones 283.8 398 129 29
mobiles 426.8 398 90 29
présente 530.8 398 102 29
un 646.8 398 24 29
risque 684.8 398 74 29
notable 231.8 462 89 29
pour 334.8 462 50 29
la 398.8 462 24 29
santé 436.8 462 63 29
Le 526.8 462 24 29
communiqué 564.8 462 128 29
du 706.8 462 25 29
ministère 231.8 526 116 29
ne 361.8 526 24 29
laisse 399.8 526 76 29
place 489.8 526 63 29
à 566.8 526 12 29
aucun 592.8 526 64 29
doute 670.8 526 64 29
