Un 232 270 24 29
couple 270 270 76 29
de 360 270 25 29
quinquagénaires 399 270 194 29
mosellans 607 270 116 29
sera 737 270 50 29
jugé 231.8 334 51 29
mardi 296.8 334 64 29
en 374.8 334 25 29
correctionnel 413.8 334 167 29
pour 594.8 334 50 29
détention 658.8 334 116 29
et 231.8 398 25 29
usage 270.8 398 63 29
personnel 347.8 398 115 29
de 476.8 398 25 29
stupéfiants 515.8 398 141 29
Ils 683.8 398 37 29
arrosaient 231.8 462 129 29
leurs 374.8 462 63 29
pots 451.8 462 50 29
de 515.8 462 25 29
cannabis 554.8 462 102 29
sur 670.8 462 37 29
le 721.8 462 24 29
rebord 231.8 526 74 29
de 319.8 526 25 29
leur 358.8 526 50 29
fenêtre 422.8 526 89 29
