Principal 232 270 115 29
accusé 361 270 77 29
du 452 270 25 29
volet 491 270 64 29
corruption 569 270 128 29
et 711 270 25 29
escroquerie 231.8 334 142 29
un 400.8 334 24 29
ancien 438.8 334 77 29
cadre 529.8 334 63 29
d'une 606.8 334 64 29
grande 684.8 334 77 29
entreprise 231.8 398 129 29
est 374.8 398 38 29
poursuivi 426.8 398 115 29
pour 555.8 398 50 29
avoir 619.8 398 64 29
perçu 697.8 398 63 29
des 231.8 462 38 29
millions 283.8 462 103 29
d'euros 400.8 462 90 29
en 504.8 462 25 29
commissions 543.8 462 141 29
occultes 231.8 526 103 29
auprès 348.8 526 77 29
d'une 439.8 526 64 29
dizaine 517.8 526 90 29
d'entrepreneurs 231.8 590 194 29
