Les 232 270 37 29
États-Unis 283 270 128 29
et 425 270 25 29
de 464 270 25 29
nombreuses 503 270 128 29
ONG 645 270 38 29
préparent 231.8 334 115 29
juridiquement 360.8 334 168 29
une 542.8 334 37 29
mise 593.8 334 51 29
en 658.8 334 25 29
accusation 231.8 398 129 29
pour 387.8 398 50 29
crimes 451.8 398 76 29
contre 541.8 398 76 29
l'humanité 631.8 398 128 29
devant 231.8 462 77 29
le 322.8 462 24 29
Tribunal 360.8 462 103 29
pénal 477.8 462 63 29
international 554.8 462 167 29
des 748.8 462 38 29
dirigeants 231.8 526 129 29
civils 374.8 526 76 29
militaires 477.8 526 129 29
et 620.8 526 25 29
paramilitaires 231.8 590 180 29
de 425.8 590 25 29
Belgrade 464.8 590 102 29
