Dans 232 270 51 29
ce 297 270 24 29
contexte 335 270 102 29
relevé 451 270 74 29
les 552 270 37 29
joueurs 603 270 90 29
marseillais 231.8 334 142 29
voulaient 387.8 334 116 29
surtout 517.8 334 89 29
satisfaire 620.8 334 128 29
leur 231.8 398 50 29
public 295.8 398 76 29
Avec 398.8 398 52 29
cette 464.8 398 63 29
finale 541.8 398 76 29
gagnée 631.8 398 77 29
l'équipe 231.8 462 102 29
phocéenne 347.8 462 115 29
a 476.8 462 12 29
particulièrement 502.8 462 206 29
réussi 231.8 526 74 29
son 319.8 526 37 29
retour 370.8 526 74 29
parmi 458.8 526 63 29
l'élite 535.8 526 89 29
du 638.8 526 25 29
football 677.8 526 102 29
professionnel 231.8 590 167 29
