Il 232 270 24 29
a 270 270 12 29
inventé 296 270 89 29
une 399 270 37 29
forme 450 270 63 29
de 527 270 25 29
tennis 566 270 77 29
qui 657 270 38 29
lui 709 270 37 29
convient 231.8 334 102 29
parfaitement 347.8 334 154 29
et 515.8 334 25 29
le 554.8 334 24 29
rend 592.8 334 48 29
toujours 654.8 334 103 29
dangereux 231.8 398 116 29
Avec 374.8 398 52 29
cette 440.8 398 63 29
façon 517.8 398 63 29
d'engager 594.8 398 116 29
des 724.8 398 38 29
revers 231.8 462 74 29
sa 332.8 462 24 29
raquette 370.8 462 100 29
réalise 484.8 462 87 29
des 585.8 462 38 29
coups 637.8 462 63 29
souvent 231.8 526 89 29
surprenants 334.8 526 141 29
