Lorsque 232 270 89 29 207.09
la 335 270 24 29 23633.92
vague 373 270 64 29 38.18
des 451 270 38 29 10624.93
réfugiés 503 270 100 29 8.18
déferlait 617 270 116 29 2.36
sur 747 270 37 29 5320.47
le 231.8 334 24 29 18310.95
camp 269.8 334 50 29 75.61
improvisé 333.8 334 115 29 2.5
les 475.8 334 37 29 14662.3
microbus 526.8 334 103 29 0
et 643.8 334 25 29 20879.73
les 682.8 334 37 29 14662.3
tracteurs 231.8 398 116 29 1.55
mobilisés 361.8 398 116 29 2.23
par 491.8 398 37 29 3727.09
l'organisation 542.8 398 180 29 34.32
macédonienne 231.8 462 155 29 0
El 400.8 462 24 29 N/A
Hilal 438.8 462 64 29 N/A
assuraient 516.8 462 129 29 3.38
un 659.8 462 24 29 13550.68
mini-pont 231.8 526 116 29 N/A
humanitaire 361.8 526 141 29 1.22
qui 516.8 526 38 29 7897.91
permettait 568.8 526 128 29 26.22
d'éviter 231.8 590 103 29 60.07
le 348.8 590 24 29 18310.95
pire 386.8 590 50 29 31.89
