La 232 270 24 29 23633.92
pianiste 270 270 102 29 4.8
américaine 386 270 129 29 19.53
Rosalyn 529 270 90 29 N/A
Tureck 633 270 77 29 N/A
fait 724 270 50 29 1459.26
son 231.8 334 37 29 4696.15
entrée 282.8 334 77 29 113.72
à 386.8 334 12 29 19209.05
quatre-vingt-quatre 412.8 334 246 29 0.74
ans 672.8 334 38 29 609.05
dans 737.8 334 51 29 8296.08
le 231.8 398 24 29 18310.95
répertoire 269.8 398 126 29 5.34
discographique 409.8 398 181 29 N/A
de 604.8 398 25 29 38928.92
Deutsche 643.8 398 103 29 N/A
Grammophon 231.8 462 129 29 N/A
Son 387.8 462 37 29 4696.15
interprétation 438.8 462 180 29 5.68
des 632.8 462 38 29 10624.93
variations 231.8 526 129 29 5.2
Goldberg 374.8 526 103 29 N/A
de 491.8 526 25 29 38928.92
Bach 530.8 526 50 29 N/A
va 594.8 526 25 29 694.59
la 633.8 526 24 29 1242.64
faire 671.8 526 63 29 1555.14
connaître 231.8 590 115 29 90.14
au 360.8 590 25 29 5322.5
grand 399.8 590 64 29 537.97
public 477.8 590 76 29 37.91
