Les 232 270 37 29 14662.3
familles 283 270 102 29 32.7
ayant 399 270 64 29 3.85
des 477 270 38 29 10624.93
jumeaux 529 270 90 29 16.01
bénéficient 633 270 141 29 0.47
des 231.8 334 38 29 10624.93
mêmes 283.8 334 64 29 18.38
prestations 361.8 334 141 29 1.01
familiales 516.8 334 128 29 4.8
que 658.8 334 38 29 2975.34
les 710.8 334 37 29 14662.3
autres 231.8 398 77 29 2.64
mais 335.8 398 51 29 4463.72
les 400.8 398 37 29 14662.3
congés 451.8 398 76 29 3.99
maternité 541.8 398 116 29 4.05
sont 671.8 398 50 29 713.18
plus 735.8 398 50 29 5014.53
longs 231.8 462 63 29 65.47
de 308.8 462 25 29 38928.92
18 347.8 462 23 29 N/A
semaines 384.8 462 102 29 85.61
