Les 232 270 37 29 1412.23
galeries 283 270 103 29 10.95
d'anatomie 400 270 129 29 4.66
comparée 543 270 102 29 0.07
et 659 270 25 29 20879.73
de 698 270 25 29 38928.92
paléontologie 231.8 334 167 29 0.14
du 412.8 334 25 29 6882.16
musée 451.8 334 64 29 21.55
national 529.8 334 102 29 42.7
d'histoire 645.8 334 129 29 292.23
naturelle 231.8 398 115 29 24.86
sont 360.8 398 50 29 713.18
de 424.8 398 25 29 38928.92
nouveau 463.8 398 89 29 190.47
ouvertes 566.8 398 103 29 15.14
au 683.8 398 25 29 5322.5
public 231.8 462 76 29 37.91
depuis 321.8 462 77 29 542.64
le 412.8 462 24 29 18310.95
18 450.8 462 23 29 N/A
décembre 487.8 462 103 29 31.15
après 617.8 462 64 29 821.55
trois 695.8 462 64 29 660.34
mois 231.8 526 51 29 304.86
de 296.8 526 25 29 38928.92
travaux 335.8 526 90 29 39.46
