Les 232 270 37 29 14662.3
collectivités 283 270 167 29 0.34
locales 464 270 89 29 4.8
sont 567 270 50 29 386.35
encouragées 631 270 142 29 0.2
à 231.8 334 12 29 19209.05
coordonner 257.8 334 128 29 1.22
leur 399.8 334 50 29 12.5
action 463.8 334 77 29 72.91
en 554.8 334 25 29 8732.57
faveur 593.8 334 76 29 27.64
des 683.8 334 38 29 10624.93
réfugiés 231.8 398 100 29 8.18
Elles 358.8 398 63 29 605.14
envisagent 435.8 398 129 29 0.41
de 578.8 398 25 29 38928.92
monter 617.8 398 77 29 96.89
une 708.8 398 37 29 9587.97
plate-forme 231.8 462 141 29 8.45
pour 386.8 462 50 29 6198.24
assurer 450.8 462 90 29 38.85
la 554.8 462 24 29 23633.92
traçabilité 592.8 462 142 29 0
de 748.8 462 25 29 38928.92
l'acheminement 231.8 526 180 29 0.47
des 425.8 526 38 29 10624.93
colis 477.8 526 63 29 10.54
humanitaires 554.8 526 154 29 0.34
