Les 232 270 37 29
élections 283 270 116 29
de 413 270 25 29
l'Iowa 452 270 76 29
ont 542 270 38 29
été 594 270 38 29
sans 646 270 50 29
doute 710 270 64 29
les 231.8 334 37 29
plus 282.8 334 50 29
disputées 346.8 334 116 29
de 476.8 334 25 29
l'histoire 515.8 334 128 29
de 657.8 334 25 29
cet 696.8 334 37 29
État 231.8 398 50 29
rural 295.8 398 61 29
La 383.8 398 24 29
participation 421.8 398 167 29
à 602.8 398 12 29
ces 628.8 398 37 29
assemblées 231.8 462 129 29
a 374.8 462 12 29
dépassé 400.8 462 90 29
tous 504.8 462 51 29
les 569.8 462 37 29
espoirs 620.8 462 90 29
prévus 231.8 526 76 29
par 321.8 526 37 29
les 372.8 526 37 29
politiques 423.8 526 128 29
