La 232 270 24 29 23633.92
déflagration 270 270 155 29 1.55
s'est 439 270 63 29 1600.27
produite 516 270 102 29 3.31
au 632 270 25 29 5322.5
passage 671 270 89 29 136.82
d'un 231.8 334 51 29 13550.68
véhicule 296.8 334 103 29 14.86
militaire 413.8 334 116 29 69.19
sur 543.8 334 37 29 5320.47
une 594.8 334 37 29 9587.97
route 645.8 334 61 29 251.35
du 720.8 334 25 29 6882.16
centre-ville 231.8 398 154 29 0.54
à 412.8 398 12 29 19209.05
une 438.8 398 37 29 9587.97
centaine 489.8 398 102 29 10.54
de 605.8 398 25 29 38928.92
mètres 644.8 398 77 29 108.24
d'une 231.8 462 64 29 9587.97
base 309.8 462 50 29 31.96
de 373.8 462 25 29 38928.92
l'armée 412.8 462 89 29 114.46
turque 515.8 462 77 29 2.7
selon 619.8 462 63 29 110.88
la 696.8 462 24 29 23633.92
police 231.8 526 76 29 81.69
