L'édition 232 270 115 29 10.61
d'art 361 270 64 29 81.49
offre 439 270 64 29 29.8
aux 517 270 38 29 1907.57
jeunes 569 270 77 29 30.14
éditeurs 660 270 103 29 3.45
ambitieux 231.8 334 116 29 3.72
de 361.8 334 25 29 38928.92
grandes 400.8 334 90 29 126.49
satisfactions 504.8 334 167 29 4.12
on 711.8 334 25 29 4838.38
peut 231.8 398 50 29 508.99
y 295.8 398 12 29 3086.76
avoir 321.8 398 64 29 177.3
le 399.8 398 24 29 18310.95
sentiment 437.8 398 115 29 106.42
de 566.8 398 25 29 38928.92
faire 605.8 398 63 29 1555.14
les 682.8 398 37 29 14662.3
livres 231.8 462 76 29 134.73
de 321.8 462 25 29 38928.92
A 360.8 462 13 29 58.65
à 387.8 462 12 29 19209.05
Z 413.8 462 11 29 5.07
comme 451.8 462 63 29 3429.32
un 528.8 462 24 29 13550.68
producteur 566.8 462 128 29 3.45
de 708.8 462 25 29 38928.92
Hollywood 231.8 526 116 29 N/A
ses 361.8 526 37 29 0
films 412.8 526 63 29 24.59
