L'ortolan 232 270 115 29 0.27
petit 374 270 63 29 653.78
oiseau 451 270 77 29 47.97
très 542 270 51 29 1120.81
prisé 607 270 63 29 0.54
par 684 270 37 29 3727.09
les 735 270 37 29 14662.3
gourmets 231.8 334 103 29 0.74
du 348.8 334 25 29 6882.16
Sud-ouest 387.8 334 115 29 3.51
appartiendra 529.8 334 155 29 1.01
bientôt 698.8 334 89 29 169.59
aux 231.8 398 38 29 1907.57
espèces 283.8 398 90 29 14.46
protégées 387.8 398 115 29 0.14
Un 529.8 398 24 29 13550.68
décret 567.8 398 77 29 6.42
a 658.8 398 12 29 2926.69
été 684.8 398 38 29 40.2
signé 231.8 462 63 29 14.66
qui 308.8 462 38 29 7897.91
représente 360.8 462 126 29 17.64
le 500.8 462 24 29 18310.95
premier 538.8 462 89 29 237.91
acte 641.8 462 51 29 35.88
d'un 706.8 462 51 29 13550.68
compromis 231.8 526 115 29 5.88
global 360.8 526 77 29 1.15
entre 451.8 526 64 29 833.99
écologistes 529.8 526 142 29 0.2
et 685.8 526 25 29 20879.73
chasseurs 231.8 590 115 29 17.43
