L'entraîneur 232 270 154 29 2.77
dirige 400 270 77 29 12.77
l'équipe 491 270 102 29 26.28
féminine 607 270 102 29 13.38
seulement 231.8 334 115 29 397.97
cinq 360.8 334 50 29 220.61
ans 424.8 334 38 29 609.05
après 476.8 334 64 29 821.55
avoir 554.8 334 64 29 649.26
été 632.8 334 38 29 818.99
champion 684.8 334 102 29 10.81
du 231.8 398 25 29 6882.16
monde 270.8 398 64 29 732.43
comme 348.8 398 63 29 3429.32
coach 425.8 398 63 29 0
adjoint 502.8 398 90 29 1.89
des 606.8 398 38 29 10624.93
hommes 658.8 398 76 29 546.62
Il 761.8 398 24 29 15832.09
a 231.8 462 12 29 1669.39
ses 257.8 462 37 29 0
petites 308.8 462 89 29 152.16
habitudes 411.8 462 115 29 25.95
Le 553.8 462 24 29 18310.95
rituel 591.8 462 74 29 5.54
commence 679.8 462 102 29 82.5
pendant 231.8 526 89 29 450.14
l'hymne 334.8 526 89 29 6.69
russe 437.8 526 61 29 35.34
