Les 232 270 37 29
esquimaux 283 270 116 29
vivent 413 270 77 29
dans 504 270 51 29
les 569 270 37 29
régions 620 270 87 29
polaires 231.8 334 102 29
très 347.8 334 51 29
froides 412.8 334 89 29
En 528.8 334 24 29
été 566.8 334 38 29
ils 631.8 334 37 29
pêchent 682.8 334 89 29
et 231.8 398 25 29
ils 270.8 398 37 29
chassent 321.8 398 102 29
Ils 450.8 398 37 29
habitent 501.8 398 102 29
dans 617.8 398 51 29
des 682.8 398 38 29
tentes 231.8 462 77 29
faites 322.8 462 76 29
de 412.8 462 25 29
peaux 451.8 462 63 29
de 528.8 462 25 29
phoque 567.8 462 76 29
En 670.8 462 24 29
hiver 708.8 462 63 29
les 231.8 526 37 29
esquimaux 282.8 526 116 29
logent 412.8 526 76 29
dans 502.8 526 51 29
des 567.8 526 38 29
maisons 619.8 526 90 29
de 723.8 526 25 29
bois 231.8 590 50 29
