Proche-orient 232 270 167 29 N/A
le 439 270 24 29 18310.95
chef 477 270 50 29 172.57
du 541 270 25 29 6882.16
gouvernement 580 270 155 29 119.73
a 749 270 12 29 2926.69
promis 231.8 334 76 29 42.43
de 321.8 334 25 29 38928.92
retirer 360.8 334 87 29 21.96
l'armée 461.8 334 89 29 114.46
israélienne 564.8 334 141 29 0.07
du 719.8 334 25 29 6882.16
Liban 231.8 398 63 29 N/A
sud 308.8 398 37 29 6.62
dans 359.8 398 51 29 8296.08
un 424.8 398 24 29 13550.68
délai 462.8 398 64 29 14.59
d'un 540.8 398 51 29 13550.68
an 605.8 398 25 29 76.76
Il 657.8 398 24 29 15832.09
envisage 231.8 462 103 29 4.05
de 348.8 462 25 29 38928.92
négocier 387.8 462 102 29 5.61
simultanément 503.8 462 167 29 5.81
avec 684.8 462 51 29 4000.41
la 749.8 462 24 29 23633.92
Syrie 231.8 526 63 29 N/A
qui 308.8 526 38 29 7897.91
entretient 360.8 526 129 29 3.38
un 503.8 526 24 29 13550.68
dispositif 541.8 526 129 29 5.07
militaire 231.8 590 116 29 69.19
propice 361.8 590 89 29 7.77
au 464.8 590 25 29 5322.5
conflit 503.8 590 89 29 11.08
avec 606.8 590 51 29 4000.41
Israël 671.8 590 76 29 N/A
