Le 232 270 24 29 18310.95
pacte 270 270 63 29 11.49
de 347 270 25 29 38928.92
stabilité 386 270 115 29 3.18
et 515 270 25 29 20879.73
de 554 270 25 29 38928.92
croissance 593 270 128 29 3.92
pose 735 270 50 29 48.85
des 231.8 334 38 29 10624.93
limites 283.8 334 89 29 25.47
à 386.8 334 12 29 19209.05
l'utilisation 412.8 334 167 29 4.12
du 593.8 334 25 29 6882.16
budget 632.8 334 76 29 5.34
pour 722.8 334 50 29 6198.24
relancer 231.8 398 100 29 2.77
une 345.8 398 37 29 9587.97
économie 396.8 398 103 29 15.74
Les 526.8 398 37 29 14662.3
économistes 577.8 398 142 29 0.14
s'interrogent 231.8 462 167 29 1.42
sur 412.8 462 37 29 5320.47
la 463.8 462 24 29 23633.92
pérennité 501.8 462 115 29 0.74
de 630.8 462 25 29 38928.92
cette 669.8 462 63 29 2320.68
croissance 231.8 526 128 29 3.92
qui 373.8 526 38 29 7897.91
est 425.8 526 38 29 6331.76
étonnante 477.8 526 116 29 10.47
