Avec 232 270 52 29 4000.41
l'aide 298 270 76 29 52.3
de 388 270 25 29 38928.92
leurs 427 270 63 29 886.55
rabatteurs 504 270 126 29 0.95
déguenillés 231.8 334 142 29 0.2
elles 400.8 334 64 29 605.14
pesaient 478.8 334 102 29 3.99
l'offre 594.8 334 89 29 8.78
et 697.8 334 25 29 20879.73
la 736.8 334 24 29 23633.92
demande 231.8 398 90 29 35.27
Elles 348.8 398 63 29 605.14
savaient 425.8 398 102 29 30.2
précisément 541.8 398 141 29 34.8
quel 696.8 398 51 29 265.34
jour 231.8 462 51 29 826.35
du 296.8 462 25 29 6882.16
mois 335.8 462 51 29 304.86
les 400.8 462 37 29 14662.3
entreprises 451.8 462 142 29 9.26
chercheraient 607.8 462 167 29 0.47
de 231.8 526 25 29 38928.92
la 270.8 526 24 29 23633.92
monnaie 308.8 526 90 29 25.34
locale 412.8 526 76 29 6.69
pour 502.8 526 50 29 6198.24
payer 566.8 526 63 29 58.31
leurs 643.8 526 63 29 886.55
salariés 231.8 590 102 29 0.2
