Le 232 270 24 29 18310.95
malaise 270 270 90 29 23.38
des 374 270 38 29 10624.93
personnels 426 270 128 29 0.61
porte 568 270 63 29 79.05
également 645 270 116 29 71.01
sur 231.8 334 37 29 5320.47
une 282.8 334 37 29 9587.97
réforme 333.8 334 87 29 4.93
de 434.8 334 25 29 38928.92
leur 473.8 334 50 29 12.5
statut 537.8 334 76 29 4.66
Ils 640.8 334 37 29 2809.53
ont 691.8 334 38 29 553.31
été 743.8 334 38 29 40.2
avertis 231.8 398 90 29 3.51
par 335.8 398 37 29 3727.09
la 386.8 398 24 29 23633.92
direction 424.8 398 116 29 103.04
de 554.8 398 25 29 38928.92
la 593.8 398 24 29 23633.92
teneur 631.8 398 77 29 1.35
de 722.8 398 25 29 38928.92
cette 231.8 462 63 29 2320.68
réforme 308.8 462 87 29 4.93
juste 409.8 462 64 29 109.46
avant 487.8 462 64 29 117.7
la 565.8 462 24 29 23633.92
réunion 603.8 462 87 29 19.12
du 704.8 462 25 29 6882.16
comité 231.8 526 76 29 58.99
qui 321.8 526 38 29 7897.91
devait 373.8 526 77 29 298.99
procéder 464.8 526 102 29 10.14
à 580.8 526 12 29 19209.05
son 606.8 526 37 29 4696.15
examen 657.8 526 77 29 18.31
