Le 232 270 24 29
3e 270 270 25 29
ligne 309 270 63 29
du 386 270 25 29
XV 425 270 26 29
d'Angleterre 465 270 155 29
aux 634 270 38 29
85 686 270 25 29
sélections 231.8 334 128 29
a 373.8 334 12 29
annoncé 399.8 334 90 29
sa 503.8 334 24 29
retraite 541.8 334 100 29
internationale 231.8 398 180 29
dans 425.8 398 51 29
les 490.8 398 37 29
colonnes 541.8 398 102 29
du 657.8 398 25 29
tabloïd 231.8 462 90 29
Une 348.8 462 37 29
retraite 399.8 462 100 29
bien 513.8 462 50 29
méritée 577.8 462 90 29
avec 681.8 462 51 29
une 746.8 462 37 29
vie 231.8 526 38 29
bien 283.8 526 50 29
menée 347.8 526 64 29
