L'indice 232 270 102 29
vedette 348 270 90 29
de 452 270 25 29
la 491 270 24 29
Bourse 529 270 76 29
de 619 270 25 29
Londres 658 270 89 29
a 761 270 12 29
clôturé 231.8 334 89 29
mardi 334.8 334 64 29
en 425.8 334 25 29
hausse 464.8 334 76 29
Il 567.8 334 24 29
était 605.8 334 64 29
encouragé 231.8 398 116 29
par 361.8 398 37 29
les 412.8 398 37 29
diverses 463.8 398 103 29
annonces 580.8 398 103 29
de 697.8 398 25 29
sociétés 231.8 462 102 29
et 347.8 462 25 29
nourri 386.8 462 76 29
par 476.8 462 37 29
les 527.8 462 37 29
spéculations 578.8 462 154 29
de 746.8 462 25 29
rapprochements 231.8 526 178 29
industriels 423.8 526 141 29
