L'étude 232 270 89 29 19.66
du 335 270 25 29 6882.16
système 374 270 89 29 42.23
solaire 477 270 89 29 6.49
est 580 270 38 29 6331.76
difficile 632 270 116 29 100.74
Ecartons 231.8 334 102 29 N/A
d'emblée 347.8 334 103 29 N/A
les 464.8 334 37 29 14662.3
quatre 515.8 334 77 29 282.64
planètes 606.8 334 102 29 3.04
géantes 231.8 398 90 29 2.97
qui 335.8 398 38 29 7897.91
contiennent 387.8 398 141 29 1.69
de 542.8 398 25 29 0
la 581.8 398 24 29 23633.92
glace 619.8 398 64 29 76.01
dans 697.8 398 51 29 8296.08
leur 231.8 462 50 29 12.5
noyau 295.8 462 63 29 7.36
et 372.8 462 25 29 20879.73
de 411.8 462 25 29 0
l'eau 450.8 462 63 29 417.84
dans 527.8 462 51 29 8296.08
leur 592.8 462 50 29 12.5
atmosphère 656.8 462 129 29 36.15
pour 231.8 526 50 29 6198.24
nous 295.8 526 50 29 3867.84
concentrer 359.8 526 128 29 6.28
sur 501.8 526 37 29 5320.47
les 552.8 526 37 29 14662.3
planètes 603.8 526 102 29 3.04
dites 719.8 526 64 29 3.78
telluriques 231.8 590 142 29 0.2
