L'idée 232 270 76 29
est 322 270 38 29
de 374 270 25 29
pousser 413 270 89 29
les 516 270 37 29
compagnies 567 270 128 29
pétrolières 231.8 334 141 29
à 386.8 334 12 29
réorienter 412.8 334 126 29
leurs 552.8 334 63 29
investissements 231.8 398 193 29
vers 438.8 398 51 29
la 503.8 398 24 29
zone 541.8 398 50 29
la 605.8 398 24 29
moins 643.8 398 64 29
chère 721.8 398 63 29
de 231.8 462 25 29
production 270.8 462 128 29
Dans 425.8 462 51 29
cette 490.8 462 63 29
région 567.8 462 74 29
le 668.8 462 24 29
coût 706.8 462 50 29
d'exploitation 231.8 526 181 29
des 426.8 526 38 29
gisements 478.8 526 116 29
est 608.8 526 38 29
très 660.8 526 51 29
oscillant 231.8 590 116 29
