Le 232 270 24 29 18310.95
vieux 270 270 64 29 273.31
moine 348 270 64 29 18.04
est 426 270 38 29 1600.27
allé 478 270 51 29 57.3
lui-même 543 270 102 29 202.3
faire 659 270 63 29 1555.14
de 736 270 25 29 38928.92
nouveaux 231.8 334 102 29 47.3
clichés 347.8 334 89 29 6.62
sur 450.8 334 37 29 5320.47
place 501.8 334 63 29 437.97
pour 578.8 334 50 29 6198.24
les 642.8 334 37 29 1412.23
publier 693.8 334 89 29 8.92
quelques 231.8 398 103 29 732.57
heures 348.8 398 76 29 484.19
plus 438.8 398 50 29 5014.53
tard 502.8 398 51 29 344.26
sur 567.8 398 37 29 5320.47
le 618.8 398 24 29 18310.95
site 656.8 398 50 29 3.58
Internet 231.8 462 102 29 0
de 347.8 462 25 29 38928.92
la 386.8 462 24 29 23633.92
communauté 424.8 462 128 29 10.95
Ceux-ci 579.8 462 90 29 20.95
ont 683.8 462 38 29 553.31
eu 735.8 462 25 29 436.76
un 231.8 526 24 29 13550.68
succès 269.8 526 76 29 53.72
immédiat 359.8 526 102 29 9.59
