La 232 270 24 29 23633.92
Californie 270 270 129 29 0.07
a 413 270 12 29 2926.69
officiellement 439 270 181 29 7.36
déposé 634 270 77 29 10.34
plainte 231.8 334 89 29 17.09
contre 334.8 334 76 29 591.15
le 424.8 334 24 29 18310.95
gouvernement 462.8 334 155 29 119.73
des 631.8 334 38 29 10624.93
États-Unis 231.8 398 128 29 N/A
pour 373.8 398 50 29 6198.24
avoir 437.8 398 64 29 649.26
empêché 515.8 398 90 29 9.26
l'application 619.8 398 167 29 15.34
de 231.8 462 25 29 38928.92
sa 270.8 462 24 29 3732.43
loi 308.8 462 37 29 44.46
de 359.8 462 25 29 38928.92
réduction 398.8 462 113 29 2.91
des 525.8 462 38 29 10624.93
émissions 577.8 462 116 29 3.58
de 707.8 462 25 29 38928.92
gaz 746.8 462 38 29 28.65
à 231.8 526 12 29 19209.05
effet 257.8 526 64 29 173.18
de 335.8 526 25 29 38928.92
serre 374.8 526 63 29 4.53
des 451.8 526 38 29 10624.93
automobiles 503.8 526 142 29 6.76
