Le 232 270 24 29
rythme 270 270 74 29
des 358 270 38 29
transformations 410 270 194 29
de 618 270 25 29
bureaux 657 270 89 29
s'accélère 231.8 334 128 29
dans 373.8 334 51 29
la 438.8 334 24 29
capitale 476.8 334 102 29
En 605.8 334 24 29
réalité 643.8 334 87 29
la 757.8 334 24 29
moitié 231.8 398 77 29
deviennent 322.8 398 129 29
des 465.8 398 38 29
appartements 517.8 398 155 29
intermédiaires 231.8 462 180 29
d'un 425.8 462 51 29
niveau 490.8 462 76 29
plus 580.8 462 50 29
élevé 644.8 462 64 29
que 722.8 462 38 29
celui 231.8 526 63 29
du 308.8 526 25 29
parc 347.8 526 50 29
classique 411.8 526 115 29
