Une 232 270 37 29
gardienne 283 270 116 29
de 413 270 25 29
prison 452 270 76 29
a 542 270 12 29
été 568 270 38 29
condamnée 620 270 115 29
à 749 270 12 29
six 231.8 334 37 29
mois 282.8 334 51 29
de 347.8 334 25 29
prison 386.8 334 76 29
avec 476.8 334 51 29
sursis 541.8 334 76 29
par 631.8 334 37 29
la 682.8 334 24 29
cour 720.8 334 50 29
d'appel 231.8 398 90 29
de 335.8 398 25 29
Lyon 374.8 398 50 29
Il 451.8 398 24 29
lui 489.8 398 37 29
était 540.8 398 64 29
reproché 618.8 398 100 29
d'avoir 231.8 462 90 29
offert 335.8 462 77 29
un 426.8 462 24 29
téléphone 464.8 462 116 29
portable 594.8 462 102 29
à 710.8 462 12 29
une 736.8 462 37 29
détenue 231.8 526 90 29
