Le 232 270 24 29 18310.95
représentant 270 270 152 29 12.3
du 436 270 25 29 6882.16
consortium 475 270 128 29 0.07
aéronautique 617 270 155 29 0.07
européen 231.8 334 103 29 3.78
pouvait 348.8 334 89 29 445
parader 451.8 334 89 29 0.81
dans 554.8 334 51 29 8296.08
les 619.8 334 37 29 14662.3
stands 670.8 334 76 29 1.08
Airbus 231.8 398 78 29 0
a 323.8 398 12 29 2926.69
reçu 349.8 398 48 29 56.15
une 411.8 398 37 29 9587.97
commande 462.8 398 102 29 12.64
de 578.8 398 25 29 38928.92
52 617.8 398 25 29 N/A
avions 656.8 398 77 29 31.22
dès 747.8 398 38 29 275.07
le 231.8 462 24 29 18310.95
premier 269.8 462 89 29 237.91
jour 372.8 462 51 29 826.35
du 437.8 462 25 29 6882.16
salon 476.8 462 63 29 84.12
du 553.8 462 25 29 6882.16
Bourget 592.8 462 89 29 N/A
