Le 232 270 24 29
moral 270 270 64 29
des 348 270 38 29
boursiers 400 270 115 29
s'est 529 270 63 29
sérieusement 606 270 154 29
dégradé 231.8 334 90 29
ils 361.8 334 37 29
doutent 412.8 334 90 29
désormais 516.8 334 116 29
que 646.8 334 38 29
les 698.8 334 37 29
nouvelles 231.8 398 115 29
marges 360.8 398 77 29
de 451.8 398 25 29
fluctuation 490.8 398 141 29
de 645.8 398 25 29
la 684.8 398 24 29
devise 231.8 462 77 29
brésilienne 322.8 462 141 29
fixées 490.8 462 76 29
mercredi 580.8 462 103 29
par 697.8 462 37 29
la 748.8 462 24 29
banque 231.8 526 76 29
centrale 321.8 526 102 29
puissent 450.8 526 102 29
tenir 566.8 526 64 29
longtemps 644.8 526 115 29
