En 232 270 24 29 8732.57
Inde 270 270 50 29 0.14
l'épais 347 270 89 29 41.01
brouillard 450 270 128 29 32.84
qui 605 270 38 29 7897.91
recouvre 657 270 100 29 0
le 231.8 334 24 29 18310.95
nord 269.8 334 50 29 72.3
du 333.8 334 25 29 6882.16
pays 372.8 334 50 29 241.55
depuis 436.8 334 77 29 114.05
plusieurs 527.8 334 115 29 203.58
jours 656.8 334 64 29 515.41
et 734.8 334 25 29 20879.73
qui 231.8 398 38 29 7897.91
s'ajoute 283.8 398 102 29 29.19
à 399.8 398 12 29 19209.05
une 425.8 398 37 29 9587.97
vague 476.8 398 64 29 38.18
de 554.8 398 25 29 38928.92
froid 593.8 398 63 29 71.96
dans 670.8 398 51 29 8296.08
l'état 231.8 462 76 29 192.03
du 321.8 462 25 29 6882.16
Rajasthan 360.8 462 116 29 N/A
paralyse 503.8 462 102 29 2.09
les 619.8 462 37 29 14662.3
transports 231.8 526 129 29 8.04
aériens 374.8 526 90 29 2.43
