Les 232 270 37 29 14662.3
producteurs 283 270 141 29 2.03
de 438 270 25 29 38928.92
fruits 477 270 76 29 42.09
et 567 270 25 29 20879.73
légumes 606 270 89 29 21.35
surtout 231.8 334 89 29 291.49
affiliés 334.8 334 103 29 0.07
à 451.8 334 12 29 19209.05
la 477.8 334 24 29 23633.92
puissante 515.8 334 115 29 14.26
Fédération 644.8 334 128 29 2.23
Nationale 231.8 398 116 29 48.18
des 361.8 398 38 29 10624.93
Syndicats 413.8 398 115 29 3.24
d'Exploitants 542.8 398 168 29 0.34
Agricoles 231.8 462 117 29 3.04
ont 375.8 462 38 29 240.61
les 427.8 462 37 29 14662.3
grandes 478.8 462 90 29 126.49
surfaces 582.8 462 102 29 0.14
dans 698.8 462 51 29 8296.08
leur 231.8 526 50 29 12.5
ligne 295.8 526 63 29 101.01
de 372.8 526 25 29 38928.92
mire 411.8 526 51 29 2.03
