Des 232 270 38 29 10624.93
trafiquants 284 270 142 29 2.09
de 440 270 25 29 38928.92
cocaïne 479 270 89 29 1.22
colombiens 582 270 128 29 0.07
ont 724 270 38 29 553.31
été 231.8 334 38 29 40.2
sabordés 283.8 334 102 29 0.27
par 399.8 334 37 29 3727.09
un 450.8 334 24 29 13550.68
sous-marin 488.8 334 128 29 2.7
au 630.8 334 25 29 5322.5
large 669.8 334 63 29 35.61
de 746.8 334 25 29 38928.92
la 231.8 398 24 29 23633.92
côte 269.8 398 50 29 90.74
Pacifique 333.8 398 115 29 3.11
C'est 475.8 398 64 29 6331.76
la 553.8 398 24 29 23633.92
deuxième 591.8 398 103 29 58.58
fois 708.8 398 50 29 1140
que 231.8 462 38 29 2975.34
les 283.8 462 37 29 14662.3
forces 334.8 462 76 29 126.35
colombiennes 424.8 462 154 29 N/A
arrêtent 592.8 462 103 29 10.81
un 709.8 462 24 29 13550.68
engin 231.8 526 64 29 9.8
afin 309.8 526 51 29 0.95
d'en 374.8 526 51 29 2458.31
détruire 439.8 526 103 29 20.34
la 556.8 526 24 29 23633.92
cargaison 594.8 526 115 29 3.18
illicite 231.8 590 102 29 0.74
