999 WORDS_rapport~1 114
999 WORDFREQ_87.23 114
999 WORDSALL_Un~0_rapport~1 114
999 COSIND_0.03 114
999 COSGEN_0.03 114
101 ESRank1 114
999 WORDS_rapport~1 143
999 WORDFREQ_87.23 143
999 WORDSALL_Un~0_rapport~1 143
999 COSIND_0.03 143
999 COSGEN_0.03 143
102 ESRank2 143
203 ESBackSacRefixation 143
999 WORDS_l'inspection~3 145
999 WORDFREQ_8.18 145
999 WORDSALL_de~2_l'inspection~3 145
999 COSIND_0.01 145
999 COSGEN_0.01 145
103 ESRank3 145
202 ESForwSacLong+2+4 145
999 WORDS_l'inspection~3 158
999 WORDFREQ_8.18 158
999 WORDSALL_l'inspection~3 158
999 COSIND_0.01 158
999 COSGEN_0.01 158
104 ESRank4 158
203 ESBackSacRefixation 158
999 WORDS_l'inspection~3 113
999 WORDFREQ_8.18 113
999 WORDSALL_l'inspection~3 113
999 COSIND_0.01 113
999 COSGEN_0.01 113
105 ESRank5 113
203 ESBackSacRefixation 113
999 WORDS_générale~4 267
999 WORDFREQ_34.73 267
999 WORDSALL_générale~4 267
999 COSIND_0.02 267
999 COSGEN_0.02 267
106 ESRank6 267
201 ESForwSacShort 267
999 WORDS_poudres~13 114
999 WORDFREQ_2.7 114
999 WORDSALL_générale~4_poudres~13 114
999 COSIND_-0.06 114
999 COSGEN_-0.06 114
107 ESRank7 114
202 ESForwSacLong+9+40 114
999 WORDS_affaires~6 121
999 WORDFREQ_102.84 121
999 WORDSALL_affaires~6 121
999 COSIND_-0.01 121
999 COSGEN_-0.01 121
108 ESRank8 121
206 ESBackSacRegrLong-7-27 121
999 WORDS_affaires~6 131
999 WORDFREQ_102.84 131
999 WORDSALL_Un~0_rapport~1_affaires~6 131
999 COSIND_-0.01 131
999 COSGEN_-0.01 131
109 ESRank9 131
203 ESBackSacRefixation 131
999 WORDS_sociales~7 231
999 WORDFREQ_8.85 231
999 WORDSALL_rapport~1_sociales~7 231
999 COSIND_0.01 231
999 COSGEN_0.01 231
110 ESRank10 231
201 ESForwSacShort 231
999 WORDS_mis~9 202
999 WORDFREQ_245.68 202
999 WORDSALL_a~8_mis~9 202
999 COSIND_-0.01 202
999 COSGEN_-0.01 202
111 ESRank11 202
202 ESForwSacLong+2+3 202
999 WORDS_feu~11 236
999 WORDFREQ_199.39 236
999 WORDSALL_mis~9_feu~11 236
999 COSIND_-0.05 236
999 COSGEN_-0.05 236
112 ESRank12 236
202 ESForwSacLong+2+4 236
999 WORDS_poudres~13 216
999 WORDFREQ_2.7 216
999 WORDSALL_aux~12_poudres~13 216
999 COSIND_-0.06 216
999 COSGEN_-0.06 216
113 ESRank13 216
202 ESForwSacLong+2+5 216
999 WORDS_dénonçant~15 122
999 WORDFREQ_1.08 122
999 WORDSALL_affaires~6_sociales~7_dénonçant~15 122
999 COSIND_0.03 122
999 COSGEN_0.03 122
114 ESRank14 122
202 ESForwSacLong+2+4 122
999 WORDS_dénonçant~15 187
999 WORDFREQ_1.08 187
999 WORDSALL_affaires~6_dénonçant~15 187
999 COSIND_0.03 187
999 COSGEN_0.03 187
115 ESRank15 187
203 ESBackSacRefixation 187
999 WORDS_série~17 262
999 WORDFREQ_35.41 262
999 WORDSALL_sociales~7_a~8_série~17 262
999 COSIND_0.03 262
999 COSGEN_0.03 262
116 ESRank16 262
202 ESForwSacLong+2+5 262
999 WORDS_série~17 84
999 WORDFREQ_35.41 84
999 WORDSALL_a~8_mis~9_série~17 84
999 COSIND_0.03 84
999 COSGEN_0.03 84
117 ESRank17 84
203 ESBackSacRefixation 84
999 WORDS_dysfonctionnements~19 168
999 WORDFREQ_0 168
999 WORDSALL_en~14_dénonçant~15_dysfonctionnements~19 168
999 COSIND_0.02 168
999 COSGEN_0.02 168
118 ESRank18 168
202 ESForwSacLong+2+4 168
999 WORDS_dysfonctionnements~19 127
999 WORDFREQ_0 127
999 WORDSALL_dénonçant~15_dysfonctionnements~19 127
999 COSIND_0.02 127
999 COSGEN_0.02 127
119 ESRank19 127
203 ESBackSacRefixation 127
999 WORDS_série~17 156
999 WORDFREQ_35.41 156
999 WORDSALL_série~17 156
999 COSIND_0.03 156
999 COSGEN_0.03 156
120 ESRank20 156
206 ESBackSacRegrLong-2-4 156
999 WORDS_gestion~22 191
999 WORDFREQ_2.3 191
999 WORDSALL_de~18_gestion~22 191
999 COSIND_-0.05 191
999 COSGEN_-0.05 191
202 ESForwSacLong+5+31 191
999 WORDS_gestion~22 83
999 WORDFREQ_2.3 83
999 WORDSALL_gestion~22 83
999 COSIND_-0.05 83
999 COSGEN_-0.05 83
203 ESBackSacRefixation 83
999 WORDS_national~25 122
999 WORDFREQ_42.7 122
999 WORDSALL_dysfonctionnements~19_national~25 122
999 COSIND_-0.01 122
999 COSGEN_-0.01 122
202 ESForwSacLong+3+12 122
999 WORDS_national~25 142
999 WORDFREQ_42.7 142
999 WORDSALL_dysfonctionnements~19_national~25 142
999 COSIND_-0.01 142
999 COSGEN_-0.01 142
203 ESBackSacRefixation 142
999 WORDS_comité~24 93
999 WORDFREQ_58.99 93
999 WORDSALL_dysfonctionnements~19_comité~24 93
999 COSIND_-0.05 93
999 COSGEN_-0.05 93
205 ESBackSacRegrShort 93
999 WORDS_tabagisme~28 169
999 WORDFREQ_0 169
999 WORDSALL_dans~20_gestion~22_tabagisme~28 169
999 COSIND_-0.04 169
999 COSGEN_-0.04 169
202 ESForwSacLong+4+20 169
999 WORDS_tabagisme~28 324
999 WORDFREQ_0 324
999 WORDSALL_la~21_gestion~22_tabagisme~28 324
999 COSIND_-0.04 324
999 COSGEN_-0.04 324
203 ESBackSacRefixation 324
999 WORDS_tabagisme~28 176
999 WORDFREQ_0 176
999 WORDSALL_dans~20_gestion~22_tabagisme~28 176
999 COSIND_-0.04 176
999 COSGEN_-0.04 176
203 ESBackSacRefixation 176
200 ESRankN 176
199 ESRankNMinus1 324
198 ESRankNMinus2 169
197 ESRankNMinus3 93
196 ESRankNMinus4 142
195 ESRankNMinus5 122
194 ESRankNMinus6 83
193 ESRankNMinus7 191
192 ESRankNMinus8 156
191 ESRankNMinus9 127
190 ESRankNMinus10 168
