999 WORDS_badminton~1 131
999 WORDFREQ_0.2 131
999 WORDSALL_Le~0_badminton~1 131
999 COSIND_-0.05 131
999 COSGEN_-0.05 131
101 ESRank1 131
999 WORDS_badminton~1 176
999 WORDFREQ_0.2 176
999 WORDSALL_Le~0_badminton~1 176
999 COSIND_-0.05 176
999 COSGEN_-0.05 176
102 ESRank2 176
203 ESBackSacRefixation 176
999 WORDS_badminton~1 188
999 WORDFREQ_0.2 188
999 WORDSALL_Le~0_badminton~1 188
999 COSIND_-0.05 188
999 COSGEN_-0.05 188
103 ESRank3 188
203 ESBackSacRefixation 188
999 WORDS_badminton~1 254
999 WORDFREQ_0.2 254
999 WORDSALL_Le~0_badminton~1 254
999 COSIND_-0.05 254
999 COSGEN_-0.05 254
104 ESRank4 254
203 ESBackSacRefixation 254
999 WORDS_nécessite~2 259
999 WORDFREQ_1.08 259
999 WORDSALL_nécessite~2 259
999 COSIND_0.01 259
999 COSGEN_0.01 259
105 ESRank5 259
201 ESForwSacShort 259
999 WORDS_nécessite~2 335
999 WORDFREQ_1.08 335
999 WORDSALL_nécessite~2 335
999 COSIND_0.01 335
999 COSGEN_0.01 335
106 ESRank6 335
203 ESBackSacRefixation 335
999 WORDS_nécessite~2 94
999 WORDFREQ_1.08 94
999 WORDSALL_nécessite~2 94
999 COSIND_0.01 94
999 COSGEN_0.01 94
107 ESRank7 94
203 ESBackSacRefixation 94
999 WORDS_nombreuses~4 205
999 WORDFREQ_17.91 205
999 WORDSALL_de~3_nombreuses~4 205
999 COSIND_0.05 205
999 COSGEN_0.05 205
108 ESRank8 205
202 ESForwSacLong+2+4 205
999 WORDS_nombreuses~4 198
999 WORDFREQ_17.91 198
999 WORDSALL_de~3_nombreuses~4 198
999 COSIND_0.05 198
999 COSGEN_0.05 198
109 ESRank9 198
203 ESBackSacRefixation 198
999 WORDS_heures~5 369
999 WORDFREQ_484.19 369
999 WORDSALL_nombreuses~4_heures~5 369
999 COSIND_-0.06 369
999 COSGEN_-0.06 369
110 ESRank10 369
201 ESForwSacShort 369
999 WORDS_heures~5 151
999 WORDFREQ_484.19 151
999 WORDSALL_heures~5 151
999 COSIND_-0.06 151
999 COSGEN_-0.06 151
111 ESRank11 151
203 ESBackSacRefixation 151
999 WORDS_d'entraînement~6 256
999 WORDFREQ_7.91 256
999 WORDSALL_Le~0_badminton~1_d'entraînement~6 256
999 COSIND_-0.06 256
999 COSGEN_-0.06 256
112 ESRank12 256
201 ESForwSacShort 256
999 WORDS_d'entraînement~6 242
999 WORDFREQ_7.91 242
999 WORDSALL_Le~0_badminton~1_d'entraînement~6 242
999 COSIND_-0.06 242
999 COSGEN_-0.06 242
113 ESRank13 242
203 ESBackSacRefixation 242
999 WORDS_semaine~8 199
999 WORDFREQ_111.89 199
999 WORDSALL_nécessite~2_semaine~8 199
999 COSIND_-0.06 199
999 COSGEN_-0.06 199
114 ESRank14 199
202 ESForwSacLong+2+5 199
999 WORDS_semaine~8 198
999 WORDFREQ_111.89 198
999 WORDSALL_nécessite~2_semaine~8 198
999 COSIND_-0.06 198
999 COSGEN_-0.06 198
115 ESRank15 198
203 ESBackSacRefixation 198
999 WORDS_compris~10 243
999 WORDFREQ_9.46 243
999 WORDSALL_de~3_nombreuses~4_compris~10 243
999 COSIND_-0.04 243
999 COSGEN_-0.04 243
116 ESRank16 243
202 ESForwSacLong+2+3 243
999 WORDS_compris~10 256
999 WORDFREQ_9.46 256
999 WORDSALL_nombreuses~4_compris~10 256
999 COSIND_-0.04 256
999 COSGEN_-0.04 256
117 ESRank17 256
203 ESBackSacRefixation 256
999 WORDS_semaine~8 196
999 WORDFREQ_111.89 196
999 WORDSALL_semaine~8 196
999 COSIND_-0.06 196
999 COSGEN_-0.06 196
118 ESRank18 196
206 ESBackSacRegrLong-2-3 196
999 WORDS_compris~10 206
999 WORDFREQ_9.46 206
999 WORDSALL_nombreuses~4_compris~10 206
999 COSIND_-0.04 206
999 COSGEN_-0.04 206
119 ESRank19 206
202 ESForwSacLong+2+3 206
200 ESRankN 206
199 ESRankNMinus1 196
198 ESRankNMinus2 256
197 ESRankNMinus3 243
196 ESRankNMinus4 198
195 ESRankNMinus5 199
194 ESRankNMinus6 242
193 ESRankNMinus7 256
192 ESRankNMinus8 151
191 ESRankNMinus9 369
190 ESRankNMinus10 198
