999 WORDS_Plusieurs~0 139
999 WORDFREQ_14.86 139
999 WORDSALL_Plusieurs~0 139
999 COSIND_-0.04 139
999 COSGEN_-0.04 139
101 ESRank1 139
999 WORDS_tribunaux~1 187
999 WORDFREQ_3.04 187
999 WORDSALL_tribunaux~1 187
999 COSIND_-0.01 187
999 COSGEN_-0.01 187
102 ESRank2 187
201 ESForwSacShort 187
999 WORDS_administratifs~2 260
999 WORDFREQ_1.62 260
999 WORDSALL_administratifs~2 260
999 COSIND_0.08 260
999 COSGEN_0.08 260
103 ESRank3 260
201 ESForwSacShort 260
999 WORDS_administratifs~2 103
999 WORDFREQ_1.62 103
999 WORDSALL_administratifs~2 103
999 COSIND_0.08 103
999 COSGEN_0.08 103
104 ESRank4 103
203 ESBackSacRefixation 103
999 WORDS_sommé~4 186
999 WORDFREQ_1.42 186
999 WORDSALL_sommé~4 186
999 COSIND_0.03 186
999 COSGEN_0.03 186
105 ESRank5 186
202 ESForwSacLong+2+5 186
999 WORDS_préfets~6 176
999 WORDFREQ_1.35 176
999 WORDSALL_préfets~6 176
999 COSIND_0.02 176
999 COSGEN_0.02 176
106 ESRank6 176
202 ESForwSacLong+2+5 176
999 WORDS_treize~8 190
999 WORDFREQ_20.95 190
999 WORDSALL_de~7_treize~8 190
999 COSIND_0.01 190
999 COSGEN_0.01 190
107 ESRank7 190
202 ESForwSacLong+2+4 190
999 WORDS_départements~9 266
999 WORDFREQ_4.32 266
999 WORDSALL_départements~9 266
999 COSIND_0.35 266
999 COSGEN_0.35 266
108 ESRank8 266
201 ESForwSacShort 266
999 WORDS_prendre~11 264
999 WORDFREQ_344.05 264
999 WORDSALL_prendre~11 264
999 COSIND_0.02 264
999 COSGEN_0.02 264
109 ESRank9 264
202 ESForwSacLong+2+4 264
999 WORDS_arrêtés~13 204
999 WORDFREQ_1.22 204
999 WORDSALL_des~12_arrêtés~13 204
999 COSIND_-0.02 204
999 COSGEN_-0.02 204
110 ESRank10 204
202 ESForwSacLong+2+5 204
999 WORDS_fermeture~15 237
999 WORDFREQ_14.86 237
999 WORDSALL_de~14_fermeture~15 237
999 COSIND_0.23 237
999 COSGEN_0.23 237
111 ESRank11 237
202 ESForwSacLong+2+4 237
999 WORDS_fermeture~15 87
999 WORDFREQ_14.86 87
999 WORDSALL_fermeture~15 87
999 COSIND_0.23 87
999 COSGEN_0.23 87
112 ESRank12 87
203 ESBackSacRefixation 87
999 WORDS_chasse~18 281
999 WORDFREQ_53.38 281
999 WORDSALL_chasse~18 281
999 COSIND_0.98 281
999 COSGEN_0.98 281
113 ESRank13 281
202 ESForwSacLong+3+7 281
999 WORDS_oiseaux~20 221
999 WORDFREQ_65.07 221
999 WORDSALL_aux~19_oiseaux~20 221
999 COSIND_0.83 221
999 COSGEN_0.83 221
114 ESRank14 221
202 ESForwSacLong+2+5 221
999 WORDS_migrateurs~21 175
999 WORDFREQ_1.08 175
999 WORDSALL_migrateurs~21 175
999 COSIND_0.88 175
999 COSGEN_0.88 175
115 ESRank15 175
201 ESForwSacShort 175
999 WORDS_31~23 134
999 WORDFREQ_N/A 134
999 WORDSALL_au~22_31~23 134
999 COSIND_N/A 134
116 ESRank16 134
202 ESForwSacLong+2+4 134
999 WORDS_janvier~24 263
999 WORDFREQ_30.61 263
999 WORDSALL_janvier~24 263
999 COSIND_-0.00 263
999 COSGEN_-0.00 263
117 ESRank17 263
201 ESForwSacShort 263
999 WORDS_réduisant~25 173
999 WORDFREQ_1.55 173
999 WORDSALL_réduisant~25 173
999 COSIND_-0.10 173
999 COSGEN_-0.10 173
118 ESRank18 173
201 ESForwSacShort 173
999 WORDS_trois~27 227
999 WORDFREQ_660.34 227
999 WORDSALL_de~26_trois~27 227
999 COSIND_0.01 227
999 COSGEN_0.01 227
119 ESRank19 227
202 ESForwSacLong+2+4 227
999 WORDS_semaines~28 117
999 WORDFREQ_85.61 117
999 WORDSALL_semaines~28 117
999 COSIND_-0.02 117
999 COSGEN_-0.02 117
120 ESRank20 117
201 ESForwSacShort 117
999 WORDS_durée~30 172
999 WORDFREQ_19.12 172
999 WORDSALL_durée~30 172
999 COSIND_0.04 172
999 COSGEN_0.04 172
202 ESForwSacLong+2+4 172
999 WORDS_durée~30 140
999 WORDFREQ_19.12 140
999 WORDSALL_durée~30 140
999 COSIND_0.04 140
999 COSGEN_0.04 140
203 ESBackSacRefixation 140
200 ESRankN 140
199 ESRankNMinus1 172
198 ESRankNMinus2 117
197 ESRankNMinus3 227
196 ESRankNMinus4 173
195 ESRankNMinus5 263
194 ESRankNMinus6 134
193 ESRankNMinus7 175
192 ESRankNMinus8 221
191 ESRankNMinus9 281
190 ESRankNMinus10 87
