999 WORDS_L'indivision~0 102
999 WORDFREQ_0.07 102
999 WORDSALL_L'indivision~0 102
999 COSIND_0.05 102
999 COSGEN_0.05 102
101 ESRank1 102
999 WORDS_L'indivision~0 177
999 WORDFREQ_0.07 177
999 WORDSALL_L'indivision~0 177
999 COSIND_0.05 177
999 COSGEN_0.05 177
102 ESRank2 177
203 ESBackSacRefixation 177
999 WORDS_fléau~3 103
999 WORDFREQ_3.04 103
999 WORDSALL_est~1_fléau~3 103
999 COSIND_-0.05 103
999 COSGEN_-0.05 103
103 ESRank3 103
202 ESForwSacLong+3+8 103
999 WORDS_fléau~3 196
999 WORDFREQ_3.04 196
999 WORDSALL_un~2_fléau~3 196
999 COSIND_-0.05 196
999 COSGEN_-0.05 196
104 ESRank4 196
203 ESBackSacRefixation 196
999 WORDS_Corse~5 212
999 WORDFREQ_1.22 212
999 WORDSALL_en~4_Corse~5 212
999 COSIND_0.02 212
999 COSGEN_0.02 212
105 ESRank5 212
202 ESForwSacLong+2+4 212
999 WORDS_Corse~5 139
999 WORDFREQ_1.22 139
999 WORDSALL_Corse~5 139
999 COSIND_0.02 139
999 COSGEN_0.02 139
106 ESRank6 139
203 ESBackSacRefixation 139
999 WORDS_l'intérieur~8 129
999 WORDFREQ_133.51 129
999 WORDSALL_dans~7_l'intérieur~8 129
999 COSIND_-0.03 129
999 COSGEN_-0.03 129
107 ESRank7 129
202 ESForwSacLong+3+14 129
999 WORDS_l'intérieur~8 223
999 WORDFREQ_133.51 223
999 WORDSALL_dans~7_l'intérieur~8 223
999 COSIND_-0.03 223
999 COSGEN_-0.03 223
108 ESRank8 223
203 ESBackSacRefixation 223
999 WORDS_l'intérieur~8 140
999 WORDFREQ_133.51 140
999 WORDSALL_l'intérieur~8 140
999 COSIND_-0.03 140
999 COSGEN_-0.03 140
109 ESRank9 140
203 ESBackSacRefixation 140
999 WORDS_terres~10 198
999 WORDFREQ_32.03 198
999 WORDSALL_des~9_terres~10 198
999 COSIND_0.17 198
999 COSGEN_0.17 198
110 ESRank10 198
202 ESForwSacLong+2+5 198
999 WORDS_empêche~12 134
999 WORDFREQ_41.15 134
999 WORDSALL_Elle~11_empêche~12 134
999 COSIND_0.02 134
999 COSGEN_0.02 134
111 ESRank11 134
202 ESForwSacLong+2+6 134
999 WORDS_empêche~12 85
999 WORDFREQ_41.15 85
999 WORDSALL_Elle~11_empêche~12 85
999 COSIND_0.02 85
999 COSGEN_0.02 85
112 ESRank12 85
203 ESBackSacRefixation 85
999 WORDS_jeunes~14 134
999 WORDFREQ_136.55 134
999 WORDSALL_les~13_jeunes~14 134
999 COSIND_-0.03 134
999 COSGEN_-0.03 134
113 ESRank13 134
202 ESForwSacLong+2+5 134
999 WORDS_jeunes~14 87
999 WORDFREQ_136.55 87
999 WORDSALL_jeunes~14 87
999 COSIND_-0.03 87
999 COSGEN_-0.03 87
114 ESRank14 87
203 ESBackSacRefixation 87
200 ESRankN 87
199 ESRankNMinus1 134
198 ESRankNMinus2 85
197 ESRankNMinus3 134
196 ESRankNMinus4 198
195 ESRankNMinus5 140
194 ESRankNMinus6 223
193 ESRankNMinus7 129
192 ESRankNMinus8 139
191 ESRankNMinus9 212
190 ESRankNMinus10 196
