# 140 Fixation 1 (289.2,279.4): Les~0 galeries~1
# 144 Fixation 2 (476.9,259.3): d'anatomie~2
# 181 Fixation 3 (616.3,267.9): comparée~3
# 81 Fixation 4 (569,269.8): comparée~3
# 254 Fixation 5 (312.8,349.6): paléontologie~6
# 141 Fixation 6 (509.9,354.5): musée~8
# 98 Fixation 7 (590.8,354.8): national~9
# 137 Fixation 8 (708,341.8): d'histoire~10
# 156 Fixation 9 (321.1,406.6): naturelle~11
# 97 Fixation 10 (284.4,413.2): naturelle~11
# 161 Fixation 11 (498.5,411): de~13 nouveau~14
# 127 Fixation 12 (612.4,407.6): ouvertes~15
# 151 Fixation 13 (309.7,465.8): public~17
# 119 Fixation 14 (467,472.7): le~19 18~20
# 86 Fixation 15 (543.2,471.9): 18~20 décembre~21
# 141 Fixation 16 (706.6,462.4): après~22 trois~23
# 188 Fixation 17 (333.1,522.9): mois~24 travaux~26
# 160 Fixation 18 (264,529.9): mois~24
# 145 Fixation 19 (656.5,411.9): ouvertes~15
%%
# Les~0 Fixations= "1/"
# galeries~1 Fixations= "1/"
# d'anatomie~2 Fixations= "2/"
# comparée~3 Fixations= "4/"
# et~4 Fixations= ""
# de~5 Fixations= ""
# paléontologie~6 Fixations= "5/"
# du~7 Fixations= ""
# musée~8 Fixations= "6/"
# national~9 Fixations= "7/"
# d'histoire~10 Fixations= "8/"
# naturelle~11 Fixations= "10/"
# sont~12 Fixations= ""
# de~13 Fixations= "11/"
# nouveau~14 Fixations= "11/"
# ouvertes~15 Fixations= "19/"
# au~16 Fixations= ""
# public~17 Fixations= "13/"
# depuis~18 Fixations= ""
# le~19 Fixations= "14/"
# 18~20 Fixations= "15/"
# décembre~21 Fixations= "15/"
# après~22 Fixations= "16/"
# trois~23 Fixations= "16/"
# mois~24 Fixations= "18/"
# de~25 Fixations= ""
# travaux~26 Fixations= "17/"
%%
#  LES[1] GALERIES[1] D'ANATOMIE[2] COMPARéE[4] et de PALéONTOLOGIE[5] du MUSéE[6] NATIONAL[7] D'HISTOIRE[8] NATURELLE[10] sont DE[11] NOUVEAU[11] OUVERTES[19] au PUBLIC[13] depuis LE[14] 18[15] DéCEMBRE[15] APRèS[16] TROIS[16] MOIS[18] de TRAVAUX[17]
# s19 art_contemporain-m2 PercentageOfWordsProcessed= 0.740740740740741 PercentageOfWordsReallyProcessed= 0.740740740740741
