999 WORDS_président~1 143
999 WORDFREQ_76.22 143
999 WORDSALL_président~1 143
999 COSIND_-0.07 143
999 COSGEN_-0.07 143
101 ESRank1 143
999 WORDS_l'APM~3 268
999 WORDFREQ_N/A 268
999 WORDSALL_de~2_l'APM~3 268
999 COSIND_N/A 268
102 ESRank2 268
202 ESForwSacLong+2+4 268
999 WORDS_vilipendé~5 117
999 WORDFREQ_0.27 117
999 WORDSALL_a~4_vilipendé~5 117
999 COSIND_0.02 117
999 COSGEN_0.02 117
103 ESRank3 117
202 ESForwSacLong+2+3 117
999 WORDS_vilipendé~5 241
999 WORDFREQ_0.27 241
999 WORDSALL_vilipendé~5 241
999 COSIND_0.02 241
999 COSGEN_0.02 241
104 ESRank4 241
203 ESBackSacRefixation 241
999 WORDS_vilipendé~5 243
999 WORDFREQ_0.27 243
999 WORDSALL_a~4_vilipendé~5 243
999 COSIND_0.02 243
999 COSGEN_0.02 243
105 ESRank5 243
203 ESBackSacRefixation 243
999 WORDS_vilipendé~5 218
999 WORDFREQ_0.27 218
999 WORDSALL_vilipendé~5 218
999 COSIND_0.02 218
999 COSGEN_0.02 218
106 ESRank6 218
203 ESBackSacRefixation 218
999 WORDS_réforme~7 164
999 WORDFREQ_4.93 164
999 WORDSALL_réforme~7 164
999 COSIND_0.80 164
999 COSGEN_0.80 164
107 ESRank7 164
202 ESForwSacLong+2+4 164
999 WORDS_réforme~7 141
999 WORDFREQ_4.93 141
999 WORDSALL_réforme~7 141
999 COSIND_0.80 141
999 COSGEN_0.80 141
108 ESRank8 141
203 ESBackSacRefixation 141
999 WORDS_ministre~10 240
999 WORDFREQ_61.01 240
999 WORDSALL_la~9_ministre~10 240
999 COSIND_0.12 240
999 COSGEN_0.12 240
109 ESRank9 240
202 ESForwSacLong+3+7 240
999 WORDS_justice~13 253
999 WORDFREQ_46.22 253
999 WORDSALL_de~11_justice~13 253
999 COSIND_0.81 253
999 COSGEN_0.81 253
110 ESRank10 253
202 ESForwSacLong+3+7 253
999 WORDS_justice~13 143
999 WORDFREQ_46.22 143
999 WORDSALL_ministre~10_justice~13 143
999 COSIND_0.81 143
999 COSGEN_0.81 143
111 ESRank11 143
203 ESBackSacRefixation 143
999 WORDS_ministre~10 297
999 WORDFREQ_61.01 297
999 WORDSALL_de~8_ministre~10 297
999 COSIND_0.12 297
999 COSGEN_0.12 297
112 ESRank12 297
206 ESBackSacRegrLong-3-7 297
999 WORDS_justice~13 194
999 WORDFREQ_46.22 194
999 WORDSALL_de~11_justice~13 194
999 COSIND_0.81 194
999 COSGEN_0.81 194
113 ESRank13 194
202 ESForwSacLong+3+7 194
999 WORDS_justice~13 214
999 WORDFREQ_46.22 214
999 WORDSALL_la~12_justice~13 214
999 COSIND_0.81 214
999 COSGEN_0.81 214
114 ESRank14 214
203 ESBackSacRefixation 214
999 WORDS_justice~13 177
999 WORDFREQ_46.22 177
999 WORDSALL_justice~13 177
999 COSIND_0.81 177
999 COSGEN_0.81 177
115 ESRank15 177
203 ESBackSacRefixation 177
999 WORDS_a~16 189
999 WORDFREQ_2926.69 189
999 WORDSALL_a~16 189
999 COSIND_N/A 189
116 ESRank16 189
202 ESForwSacLong+3+9 189
999 WORDS_a~16 129
999 WORDFREQ_2926.69 129
999 WORDSALL_il~15_a~16 129
999 COSIND_N/A 129
117 ESRank17 129
203 ESBackSacRefixation 129
999 WORDS_mené~18 165
999 WORDFREQ_10.07 165
999 WORDSALL_mené~18 165
999 COSIND_0.09 165
999 COSGEN_0.09 165
118 ESRank18 165
202 ESForwSacLong+2+9 165
999 WORDS_charge~20 203
999 WORDFREQ_36.08 203
999 WORDSALL_la~19_charge~20 203
999 COSIND_-0.02 203
999 COSGEN_-0.02 203
119 ESRank19 203
202 ESForwSacLong+2+4 203
999 WORDS_contre~21 148
999 WORDFREQ_591.15 148
999 WORDSALL_contre~21 148
999 COSIND_N/A 148
120 ESRank20 148
201 ESForwSacShort 148
999 WORDS_élus~23 160
999 WORDFREQ_4.12 160
999 WORDSALL_élus~23 160
999 COSIND_-0.01 160
999 COSGEN_-0.01 160
202 ESForwSacLong+2+5 160
999 WORDS_élus~23 129
999 WORDFREQ_4.12 129
999 WORDSALL_élus~23 129
999 COSIND_-0.01 129
999 COSGEN_-0.01 129
203 ESBackSacRefixation 129
999 WORDS_contre~21 314
999 WORDFREQ_591.15 314
999 WORDSALL_contre~21 314
999 COSIND_N/A 314
206 ESBackSacRegrLong-2-5 314
999 WORDS_contre~21 149
999 WORDFREQ_591.15 149
999 WORDSALL_contre~21 149
999 COSIND_N/A 149
203 ESBackSacRefixation 149
999 WORDS_justice~13 198
999 WORDFREQ_46.22 198
999 WORDSALL_de~11_justice~13 198
999 COSIND_0.81 198
999 COSGEN_0.81 198
206 ESBackSacRegrLong-8-35 198
999 WORDS_dresser~26 199
999 WORDFREQ_14.93 199
999 WORDSALL_de~25_dresser~26 199
999 COSIND_0.01 199
999 COSGEN_0.01 199
202 ESForwSacLong+13+64 199
999 WORDS_accusés~24 156
999 WORDFREQ_0.81 156
999 WORDSALL_accusés~24 156
999 COSIND_0.03 156
999 COSGEN_0.03 156
206 ESBackSacRegrLong-2-4 156
999 WORDS_dresser~26 210
999 WORDFREQ_14.93 210
999 WORDSALL_dresser~26 210
999 COSIND_0.01 210
999 COSGEN_0.01 210
202 ESForwSacLong+2+4 210
999 WORDS_procès~28 185
999 WORDFREQ_24.32 185
999 WORDSALL_le~27_procès~28 185
999 COSIND_0.24 185
999 COSGEN_0.24 185
202 ESForwSacLong+2+4 185
999 WORDS_dresser~26 123
999 WORDFREQ_14.93 123
999 WORDSALL_de~25_dresser~26 123
999 COSIND_0.01 123
999 COSGEN_0.01 123
206 ESBackSacRegrLong-2-4 123
999 WORDS_dresser~26 184
999 WORDFREQ_14.93 184
999 WORDSALL_de~25_dresser~26 184
999 COSIND_0.01 184
999 COSGEN_0.01 184
203 ESBackSacRefixation 184
999 WORDS_magistrature~31 171
999 WORDFREQ_0.88 171
999 WORDSALL_magistrature~31 171
999 COSIND_0.75 171
999 COSGEN_0.75 171
202 ESForwSacLong+5+18 171
999 WORDS_procès~28 143
999 WORDFREQ_24.32 143
999 WORDSALL_procès~28 143
999 COSIND_0.24 143
999 COSGEN_0.24 143
206 ESBackSacRegrLong-3-7 143
999 WORDS_magistrature~31 208
999 WORDFREQ_0.88 208
999 WORDSALL_magistrature~31 208
999 COSIND_0.75 208
999 COSGEN_0.75 208
202 ESForwSacLong+3+7 208
999 WORDS_président~1 226
999 WORDFREQ_76.22 226
999 WORDSALL_Le~0_président~1 226
999 COSIND_-0.07 226
999 COSGEN_-0.07 226
206 ESBackSacRegrLong-30-152 226
999 WORDS_l'APM~3 211
999 WORDFREQ_N/A 211
999 WORDSALL_de~2_l'APM~3 211
999 COSIND_N/A 211
202 ESForwSacLong+2+4 211
999 WORDS_vilipendé~5 267
999 WORDFREQ_0.27 267
999 WORDSALL_a~4_vilipendé~5 267
999 COSIND_0.02 267
999 COSGEN_0.02 267
202 ESForwSacLong+2+3 267
999 WORDS_réforme~7 214
999 WORDFREQ_4.93 214
999 WORDSALL_réforme~7 214
999 COSIND_0.80 214
999 COSGEN_0.80 214
202 ESForwSacLong+2+4 214
999 WORDS_réforme~7 145
999 WORDFREQ_4.93 145
999 WORDSALL_réforme~7 145
999 COSIND_0.80 145
999 COSGEN_0.80 145
203 ESBackSacRefixation 145
200 ESRankN 145
199 ESRankNMinus1 214
198 ESRankNMinus2 267
197 ESRankNMinus3 211
196 ESRankNMinus4 226
195 ESRankNMinus5 208
194 ESRankNMinus6 143
193 ESRankNMinus7 171
192 ESRankNMinus8 184
191 ESRankNMinus9 123
190 ESRankNMinus10 185
