999 WORDS_Plusieurs~0 140
999 WORDFREQ_203.58 140
999 WORDSALL_Plusieurs~0 140
999 COSIND_-0.02 140
999 COSGEN_-0.02 140
101 ESRank1 140
999 WORDS_points~1 120
999 WORDFREQ_51.01 120
999 WORDSALL_Plusieurs~0_points~1 120
999 COSIND_0.03 120
999 COSGEN_0.03 120
102 ESRank2 120
201 ESForwSacShort 120
999 WORDS_contamination~3 166
999 WORDFREQ_1.22 166
999 WORDSALL_points~1_contamination~3 166
999 COSIND_0.12 166
999 COSGEN_0.12 166
103 ESRank3 166
202 ESForwSacLong+2+4 166
999 WORDS_contamination~3 291
999 WORDFREQ_1.22 291
999 WORDSALL_de~2_contamination~3 291
999 COSIND_0.12 291
999 COSGEN_0.12 291
104 ESRank4 291
203 ESBackSacRefixation 291
999 WORDS_radioactive~4 144
999 WORDFREQ_0.07 144
999 WORDSALL_radioactive~4 144
999 COSIND_0.91 144
999 COSGEN_0.91 144
105 ESRank5 144
201 ESForwSacShort 144
999 WORDS_radioactive~4 185
999 WORDFREQ_0.07 185
999 WORDSALL_radioactive~4 185
999 COSIND_0.91 185
999 COSGEN_0.91 185
106 ESRank6 185
203 ESBackSacRefixation 185
999 WORDS_été~6 184
999 WORDFREQ_818.99 184
999 WORDSALL_ont~5_été~6 184
999 COSIND_-0.01 184
999 COSGEN_-0.01 184
107 ESRank7 184
202 ESForwSacLong+2+5 184
999 WORDS_détectés~7 189
999 WORDFREQ_0.07 189
999 WORDSALL_été~6_détectés~7 189
999 COSIND_0.13 189
999 COSGEN_0.13 189
108 ESRank8 189
201 ESForwSacShort 189
999 WORDS_détectés~7 267
999 WORDFREQ_0.07 267
999 WORDSALL_été~6_détectés~7 267
999 COSIND_0.13 267
999 COSGEN_0.13 267
109 ESRank9 267
203 ESBackSacRefixation 267
999 WORDS_wagon~10 213
999 WORDFREQ_18.11 213
999 WORDSALL_dans~8_wagon~10 213
999 COSIND_0.15 213
999 COSGEN_0.15 213
110 ESRank10 213
202 ESForwSacLong+3+9 213
999 WORDS_wagon~10 124
999 WORDFREQ_18.11 124
999 WORDSALL_dans~8_wagon~10 124
999 COSIND_0.15 124
999 COSGEN_0.15 124
111 ESRank11 124
203 ESBackSacRefixation 124
999 WORDS_transportant~11 249
999 WORDFREQ_1.69 249
999 WORDSALL_transportant~11 249
999 COSIND_0.11 249
999 COSGEN_0.11 249
112 ESRank12 249
201 ESForwSacShort 249
200 ESRankN 249
199 ESRankNMinus1 124
198 ESRankNMinus2 213
197 ESRankNMinus3 267
196 ESRankNMinus4 189
195 ESRankNMinus5 184
194 ESRankNMinus6 185
193 ESRankNMinus7 144
192 ESRankNMinus8 291
191 ESRankNMinus9 166
190 ESRankNMinus10 120
