999 WORDS_L'étude~0 135
999 WORDFREQ_19.66 135
999 WORDSALL_L'étude~0 135
999 COSIND_0.08 135
999 COSGEN_0.08 135
101 ESRank1 135
999 WORDS_système~2 172
999 WORDFREQ_42.23 172
999 WORDSALL_du~1_système~2 172
999 COSIND_0.20 172
999 COSGEN_0.20 172
102 ESRank2 172
202 ESForwSacLong+2+4 172
999 WORDS_solaire~3 151
999 WORDFREQ_6.49 151
999 WORDSALL_solaire~3 151
999 COSIND_0.84 151
999 COSGEN_0.84 151
103 ESRank3 151
201 ESForwSacShort 151
999 WORDS_difficile~5 127
999 WORDFREQ_100.74 127
999 WORDSALL_est~4_difficile~5 127
999 COSIND_-0.07 127
999 COSGEN_-0.07 127
104 ESRank4 127
202 ESForwSacLong+2+5 127
200 ESRankN 127
199 ESRankNMinus1 151
198 ESRankNMinus2 172
197 ESRankNMinus3 135
