999 WORDS_6e~1 475
999 WORDFREQ_N/A 475
999 WORDSALL_Le~0_6e~1 475
999 COSIND_N/A 475
101 ESRank1 475
999 WORDS_festival~2 260
999 WORDFREQ_4.93 260
999 WORDSALL_6e~1_festival~2 260
999 COSIND_0.14 260
999 COSGEN_0.14 260
102 ESRank2 260
201 ESForwSacShort 260
999 WORDS_Gérardmer~4 403
999 WORDFREQ_N/A 403
999 WORDSALL_de~3_Gérardmer~4 403
999 COSIND_N/A 403
103 ESRank3 403
202 ESForwSacLong+2+4 403
999 WORDS_Gérardmer~4 206
999 WORDFREQ_N/A 206
999 WORDSALL_de~3_Gérardmer~4 206
999 COSIND_N/A 206
104 ESRank4 206
203 ESBackSacRefixation 206
999 WORDS_Gérardmer~4 137
999 WORDFREQ_N/A 137
999 WORDSALL_de~3_Gérardmer~4 137
999 COSIND_N/A 137
105 ESRank5 137
203 ESBackSacRefixation 137
999 WORDS_consacré~5 519
999 WORDFREQ_6.15 519
999 WORDSALL_consacré~5 519
999 COSIND_0.03 519
999 COSGEN_0.03 519
106 ESRank6 519
201 ESForwSacShort 519
999 WORDS_genre~7 206
999 WORDFREQ_155.2 206
999 WORDSALL_genre~7 206
999 COSIND_-0.04 206
999 COSGEN_-0.04 206
107 ESRank7 206
202 ESForwSacLong+2+4 206
999 WORDS_fantastique~8 212
999 WORDFREQ_7.09 212
999 WORDSALL_fantastique~8 212
999 COSIND_0.05 212
999 COSGEN_0.05 212
108 ESRank8 212
201 ESForwSacShort 212
999 WORDS_présente~9 179
999 WORDFREQ_27.5 179
999 WORDSALL_présente~9 179
999 COSIND_-0.01 179
999 COSGEN_-0.01 179
109 ESRank9 179
201 ESForwSacShort 179
999 WORDS_quinzaine~11 360
999 WORDFREQ_11.69 360
999 WORDSALL_une~10_quinzaine~11 360
999 COSIND_0.02 360
999 COSGEN_0.02 360
110 ESRank10 360
202 ESForwSacLong+2+5 360
200 ESRankN 360
199 ESRankNMinus1 179
198 ESRankNMinus2 212
197 ESRankNMinus3 206
196 ESRankNMinus4 519
195 ESRankNMinus5 137
194 ESRankNMinus6 206
193 ESRankNMinus7 403
192 ESRankNMinus8 260
191 ESRankNMinus9 475
