999 WORDS_a~2 142
999 WORDFREQ_1669.39 142
999 WORDSALL_Il~0_a~2 142
999 COSIND_N/A 142
101 ESRank1 142
999 WORDS_multitude~4 199
999 WORDFREQ_9.66 199
999 WORDSALL_une~3_multitude~4 199
999 COSIND_0.16 199
999 COSGEN_0.16 199
102 ESRank2 199
202 ESForwSacLong+2+5 199
999 WORDS_variantes~6 232
999 WORDFREQ_2.43 232
999 WORDSALL_de~5_variantes~6 232
999 COSIND_-0.01 232
999 COSGEN_-0.01 232
103 ESRank3 232
202 ESForwSacLong+2+4 232
999 WORDS_vont~8 115
999 WORDFREQ_116.62 115
999 WORDSALL_qui~7_vont~8 115
999 COSIND_0.04 115
999 COSGEN_0.04 115
104 ESRank4 115
202 ESForwSacLong+2+5 115
999 WORDS_l'impossibilité~10 186
999 WORDFREQ_7.16 186
999 WORDSALL_de~9_l'impossibilité~10 186
999 COSIND_0.01 186
999 COSGEN_0.01 186
105 ESRank5 186
202 ESForwSacLong+2+4 186
999 WORDS_l'impossibilité~10 104
999 WORDFREQ_7.16 104
999 WORDSALL_l'impossibilité~10 104
999 COSIND_0.01 104
999 COSGEN_0.01 104
106 ESRank6 104
203 ESBackSacRefixation 104
999 WORDS_sonde~13 205
999 WORDFREQ_0.81 205
999 WORDSALL_la~12_sonde~13 205
999 COSIND_0.74 205
999 COSGEN_0.74 205
107 ESRank7 205
202 ESForwSacLong+3+9 205
999 WORDS_pointer~15 212
999 WORDFREQ_5.14 212
999 WORDSALL_de~14_pointer~15 212
999 COSIND_0.06 212
999 COSGEN_0.06 212
108 ESRank8 212
202 ESForwSacLong+2+4 212
999 WORDS_antenne~17 178
999 WORDFREQ_3.65 178
999 WORDSALL_son~16_antenne~17 178
999 COSIND_0.14 178
999 COSGEN_0.14 178
109 ESRank9 178
202 ESForwSacLong+2+5 178
999 WORDS_antenne~17 105
999 WORDFREQ_3.65 105
999 WORDSALL_son~16_antenne~17 105
999 COSIND_0.14 105
999 COSGEN_0.14 105
110 ESRank10 105
203 ESBackSacRefixation 105
999 WORDS_à~20 212
999 WORDFREQ_19209.05 212
999 WORDSALL_vers~18_à~20 212
999 COSIND_N/A 212
111 ESRank11 212
202 ESForwSacLong+3+11 212
999 WORDS_basculement~22 230
999 WORDFREQ_0.14 230
999 WORDSALL_à~20_basculement~22 230
999 COSIND_0.05 230
999 COSGEN_0.05 230
112 ESRank12 230
202 ESForwSacLong+2+4 230
999 WORDS_antenne~17 180
999 WORDFREQ_3.65 180
999 WORDSALL_antenne~17 180
999 COSIND_0.14 180
999 COSGEN_0.14 180
113 ESRank13 180
206 ESBackSacRegrLong-5-17 180
999 WORDS_antenne~17 133
999 WORDFREQ_3.65 133
999 WORDSALL_son~16_antenne~17 133
999 COSIND_0.14 133
999 COSGEN_0.14 133
114 ESRank14 133
203 ESBackSacRefixation 133
999 WORDS_antenne~17 167
999 WORDFREQ_3.65 167
999 WORDSALL_son~16_antenne~17 167
999 COSIND_0.14 167
999 COSGEN_0.14 167
115 ESRank15 167
203 ESBackSacRefixation 167
999 WORDS_à~20 398
999 WORDFREQ_19209.05 398
999 WORDSALL_vers~18_à~20 398
999 COSIND_N/A 398
116 ESRank16 398
202 ESForwSacLong+3+11 398
999 WORDS_antenne~17 123
999 WORDFREQ_3.65 123
999 WORDSALL_antenne~17 123
999 COSIND_0.14 123
999 COSGEN_0.14 123
117 ESRank17 123
206 ESBackSacRegrLong-3-11 123
999 WORDS_à~20 158
999 WORDFREQ_19209.05 158
999 WORDSALL_vers~18_à~20 158
999 COSIND_N/A 158
118 ESRank18 158
202 ESForwSacLong+3+11 158
999 WORDS_basculement~22 176
999 WORDFREQ_0.14 176
999 WORDSALL_à~20_basculement~22 176
999 COSIND_0.05 176
999 COSGEN_0.05 176
119 ESRank19 176
202 ESForwSacLong+2+4 176
999 WORDS_basculement~22 136
999 WORDFREQ_0.14 136
999 WORDSALL_basculement~22 136
999 COSIND_0.05 136
999 COSGEN_0.05 136
120 ESRank20 136
203 ESBackSacRefixation 136
999 WORDS_l'engin~24 218
999 WORDFREQ_9.8 218
999 WORDSALL_l'engin~24 218
999 COSIND_0.50 218
999 COSGEN_0.50 218
202 ESForwSacLong+2+4 218
999 WORDS_aurait~26 178
999 WORDFREQ_491.15 178
999 WORDSALL_qui~25_aurait~26 178
999 COSIND_-0.02 178
999 COSGEN_-0.02 178
202 ESForwSacLong+2+5 178
999 WORDS_été~27 149
999 WORDFREQ_818.99 149
999 WORDSALL_été~27 149
999 COSIND_-0.01 149
999 COSGEN_-0.01 149
201 ESForwSacShort 149
999 WORDS_déséquilibré~28 132
999 WORDFREQ_0.54 132
999 WORDSALL_déséquilibré~28 132
999 COSIND_0.12 132
999 COSGEN_0.12 132
201 ESForwSacShort 132
999 WORDS_accident~31 156
999 WORDFREQ_36.62 156
999 WORDSALL_accident~31 156
999 COSIND_-0.08 156
999 COSGEN_-0.08 156
202 ESForwSacLong+3+8 156
999 WORDS_accident~31 141
999 WORDFREQ_36.62 141
999 WORDSALL_accident~31 141
999 COSIND_-0.08 141
999 COSGEN_-0.08 141
203 ESBackSacRefixation 141
999 WORDS_terrain~33 135
999 WORDFREQ_64.86 135
999 WORDSALL_de~32_terrain~33 135
999 COSIND_-0.03 135
999 COSGEN_-0.03 135
202 ESForwSacLong+2+4 135
200 ESRankN 135
199 ESRankNMinus1 141
198 ESRankNMinus2 156
197 ESRankNMinus3 132
196 ESRankNMinus4 149
195 ESRankNMinus5 178
194 ESRankNMinus6 218
193 ESRankNMinus7 136
192 ESRankNMinus8 176
191 ESRankNMinus9 158
190 ESRankNMinus10 123
