999 WORDS_inquiétude~1 84
999 WORDFREQ_41.35 84
999 WORDSALL_Une~0_inquiétude~1 84
999 COSIND_-0.01 84
999 COSGEN_-0.01 84
101 ESRank1 84
999 WORDS_inquiétude~1 133
999 WORDFREQ_41.35 133
999 WORDSALL_Une~0_inquiétude~1 133
999 COSIND_-0.01 133
999 COSGEN_-0.01 133
102 ESRank2 133
203 ESBackSacRefixation 133
999 WORDS_particulière~2 175
999 WORDFREQ_20 175
999 WORDSALL_particulière~2 175
999 COSIND_-0.00 175
999 COSGEN_-0.00 175
103 ESRank3 175
201 ESForwSacShort 175
999 WORDS_particulière~2 84
999 WORDFREQ_20 84
999 WORDSALL_particulière~2 84
999 COSIND_-0.00 84
999 COSGEN_-0.00 84
104 ESRank4 84
203 ESBackSacRefixation 84
999 WORDS_pointe~3 208
999 WORDFREQ_7.84 208
999 WORDSALL_pointe~3 208
999 COSIND_0.22 208
999 COSGEN_0.22 208
105 ESRank5 208
201 ESForwSacShort 208
999 WORDS_à~5 158
999 WORDFREQ_19209.05 158
999 WORDSALL_pointe~3_à~5 158
999 COSIND_N/A 158
106 ESRank6 158
202 ESForwSacLong+2+7 158
999 WORDS_responsabilité~7 184
999 WORDFREQ_18.11 184
999 WORDSALL_Une~0_inquiétude~1_responsabilité~7 184
999 COSIND_-0.03 184
999 COSGEN_-0.03 184
107 ESRank7 184
202 ESForwSacLong+2+4 184
999 WORDS_responsabilité~7 91
999 WORDFREQ_18.11 91
999 WORDSALL_inquiétude~1_responsabilité~7 91
999 COSIND_-0.03 91
999 COSGEN_-0.03 91
108 ESRank8 91
203 ESBackSacRefixation 91
999 WORDS_pénale~8 197
999 WORDFREQ_0.2 197
999 WORDSALL_pénale~8 197
999 COSIND_0.02 197
999 COSGEN_0.02 197
109 ESRank9 197
201 ESForwSacShort 197
999 WORDS_chefs~10 252
999 WORDFREQ_33.38 252
999 WORDSALL_des~9_chefs~10 252
999 COSIND_-0.02 252
999 COSGEN_-0.02 252
110 ESRank10 252
202 ESForwSacLong+2+5 252
999 WORDS_d'établissement~11 287
999 WORDFREQ_17.36 287
999 WORDSALL_la~6_responsabilité~7_d'établissement~11 287
999 COSIND_-0.00 287
999 COSGEN_-0.00 287
111 ESRank11 287
201 ESForwSacShort 287
999 WORDS_mise~12 173
999 WORDFREQ_2.5 173
999 WORDSALL_pénale~8_mise~12 173
999 COSIND_0.03 173
999 COSGEN_0.03 173
112 ESRank12 173
201 ESForwSacShort 173
999 WORDS_jeu~14 180
999 WORDFREQ_130.68 180
999 WORDSALL_pénale~8_chefs~10_jeu~14 180
999 COSIND_-0.07 180
999 COSGEN_-0.07 180
113 ESRank13 180
202 ESForwSacLong+2+4 180
999 WORDS_jeu~14 92
999 WORDFREQ_130.68 92
999 WORDSALL_des~9_chefs~10_jeu~14 92
999 COSIND_-0.07 92
999 COSGEN_-0.07 92
114 ESRank14 92
203 ESBackSacRefixation 92
999 WORDS_d'accidents~16 185
999 WORDFREQ_8.18 185
999 WORDSALL_d'établissement~11_d'accidents~16 185
999 COSIND_-0.10 185
999 COSGEN_-0.10 185
115 ESRank15 185
202 ESForwSacLong+2+6 185
999 WORDS_d'accidents~16 98
999 WORDFREQ_8.18 98
999 WORDSALL_d'établissement~11_d'accidents~16 98
999 COSIND_-0.10 98
999 COSGEN_-0.10 98
116 ESRank16 98
203 ESBackSacRefixation 98
999 WORDS_survenus~17 178
999 WORDFREQ_0.95 178
999 WORDSALL_mise~12_survenus~17 178
999 COSIND_-0.04 178
999 COSGEN_-0.04 178
117 ESRank17 178
201 ESForwSacShort 178
999 WORDS_cause~19 200
999 WORDFREQ_188.04 200
999 WORDSALL_en~13_jeu~14_à~18_cause~19 200
999 COSIND_-0.03 200
999 COSGEN_-0.03 200
118 ESRank18 200
202 ESForwSacLong+2+4 200
999 WORDS_d'équipements~20 171
999 WORDFREQ_2.09 171
999 WORDSALL_d'équipements~20 171
999 COSIND_-0.13 171
999 COSGEN_-0.13 171
119 ESRank19 171
201 ESForwSacShort 171
999 WORDS_survenus~17 183
999 WORDFREQ_0.95 183
999 WORDSALL_d'accidents~16_survenus~17 183
999 COSIND_-0.04 183
999 COSGEN_-0.04 183
120 ESRank20 183
206 ESBackSacRegrLong-3-10 183
999 WORDS_défectueux~21 159
999 WORDFREQ_0.74 159
999 WORDSALL_d'accidents~16_défectueux~21 159
999 COSIND_0.07 159
999 COSGEN_0.07 159
202 ESForwSacLong+4+25 159
999 WORDS_à~18 144
999 WORDFREQ_19209.05 144
999 WORDSALL_survenus~17_à~18 144
999 COSIND_N/A 144
206 ESBackSacRegrLong-3-22 144
999 WORDS_l'entretien~24 249
999 WORDFREQ_20.54 249
999 WORDSALL_cause~19_l'entretien~24 249
999 COSIND_0.00 249
999 COSGEN_0.00 249
202 ESForwSacLong+6+44 249
999 WORDS_collectivités~28 142
999 WORDFREQ_0.34 142
999 WORDSALL_alors~22_collectivités~28 142
999 COSIND_-0.00 142
999 COSGEN_-0.00 142
202 ESForwSacLong+4+16 142
999 WORDS_collectivités~28 139
999 WORDFREQ_0.34 139
999 WORDSALL_alors~22_collectivités~28 139
999 COSIND_-0.00 139
999 COSGEN_-0.00 139
203 ESBackSacRefixation 139
999 WORDS_incombe~26 107
999 WORDFREQ_1.76 107
999 WORDSALL_défectueux~21_incombe~26 107
999 COSIND_-0.03 107
999 COSGEN_-0.03 107
206 ESBackSacRegrLong-2-5 107
200 ESRankN 107
199 ESRankNMinus1 139
198 ESRankNMinus2 142
197 ESRankNMinus3 249
196 ESRankNMinus4 144
195 ESRankNMinus5 159
194 ESRankNMinus6 183
193 ESRankNMinus7 171
192 ESRankNMinus8 200
191 ESRankNMinus9 178
190 ESRankNMinus10 98
