999 WORDS_s'agit~1 157
999 WORDFREQ_73.72 157
999 WORDSALL_Il~0_s'agit~1 157
999 COSIND_0.05 157
999 COSGEN_0.05 157
101 ESRank1 157
999 WORDS_citoyens~4 180
999 WORDFREQ_8.65 180
999 WORDSALL_de~2_citoyens~4 180
999 COSIND_-0.03 180
999 COSGEN_-0.03 180
102 ESRank2 180
202 ESForwSacLong+3+8 180
999 WORDS_citoyens~4 174
999 WORDFREQ_8.65 174
999 WORDSALL_nos~3_citoyens~4 174
999 COSIND_-0.03 174
999 COSGEN_-0.03 174
103 ESRank3 174
203 ESBackSacRefixation 174
999 WORDS_devoir~7 172
999 WORDFREQ_33.04 172
999 WORDSALL_et~5_devoir~7 172
999 COSIND_-0.00 172
999 COSGEN_-0.00 172
104 ESRank4 172
202 ESForwSacLong+3+7 172
999 WORDS_devoir~7 239
999 WORDFREQ_33.04 239
999 WORDSALL_et~5_devoir~7 239
999 COSIND_-0.00 239
999 COSGEN_-0.00 239
105 ESRank5 239
203 ESBackSacRefixation 239
999 WORDS_devoir~7 186
999 WORDFREQ_33.04 186
999 WORDSALL_le~6_devoir~7 186
999 COSIND_-0.00 186
999 COSGEN_-0.00 186
106 ESRank6 186
203 ESBackSacRefixation 186
999 WORDS_devoir~7 194
999 WORDFREQ_33.04 194
999 WORDSALL_et~5_devoir~7 194
999 COSIND_-0.00 194
999 COSGEN_-0.00 194
107 ESRank7 194
203 ESBackSacRefixation 194
999 WORDS_devoir~7 144
999 WORDFREQ_33.04 144
999 WORDSALL_devoir~7 144
999 COSIND_-0.00 144
999 COSGEN_-0.00 144
108 ESRank8 144
203 ESBackSacRefixation 144
999 WORDS_devoir~7 100
999 WORDFREQ_33.04 100
999 WORDSALL_devoir~7 100
999 COSIND_-0.00 100
999 COSGEN_-0.00 100
109 ESRank9 100
203 ESBackSacRefixation 100
999 WORDS_n'importe~9 149
999 WORDFREQ_151.08 149
999 WORDSALL_n'importe~9 149
999 COSIND_-0.03 149
999 COSGEN_-0.03 149
110 ESRank10 149
202 ESForwSacLong+2+4 149
999 WORDS_n'importe~9 123
999 WORDFREQ_151.08 123
999 WORDSALL_n'importe~9 123
999 COSIND_-0.03 123
999 COSGEN_-0.03 123
111 ESRank11 123
203 ESBackSacRefixation 123
999 WORDS_gouvernement~11 161
999 WORDFREQ_119.73 161
999 WORDSALL_quel~10_gouvernement~11 161
999 COSIND_0.03 161
999 COSGEN_0.03 161
112 ESRank12 161
202 ESForwSacLong+2+6 161
999 WORDS_gouvernement~11 254
999 WORDFREQ_119.73 254
999 WORDSALL_gouvernement~11 254
999 COSIND_0.03 254
999 COSGEN_0.03 254
113 ESRank13 254
203 ESBackSacRefixation 254
999 WORDS_défendre~14 148
999 WORDFREQ_41.49 148
999 WORDSALL_est~12_défendre~14 148
999 COSIND_-0.06 148
999 COSGEN_-0.06 148
114 ESRank14 148
202 ESForwSacLong+3+8 148
999 WORDS_défendre~14 156
999 WORDFREQ_41.49 156
999 WORDSALL_de~13_défendre~14 156
999 COSIND_-0.06 156
999 COSGEN_-0.06 156
115 ESRank15 156
203 ESBackSacRefixation 156
999 WORDS_intérêts~16 217
999 WORDFREQ_22.36 217
999 WORDSALL_les~15_intérêts~16 217
999 COSIND_-0.02 217
999 COSGEN_-0.02 217
116 ESRank16 217
202 ESForwSacLong+2+5 217
999 WORDS_citoyens~19 157
999 WORDFREQ_8.65 157
999 WORDSALL_ses~18_citoyens~19 157
999 COSIND_-0.03 157
999 COSGEN_-0.03 157
117 ESRank17 157
202 ESForwSacLong+3+8 157
999 WORDS_citoyens~19 116
999 WORDFREQ_8.65 116
999 WORDSALL_citoyens~19 116
999 COSIND_-0.03 116
999 COSGEN_-0.03 116
118 ESRank18 116
203 ESBackSacRefixation 116
999 WORDS_mesures~21 175
999 WORDFREQ_20.68 175
999 WORDSALL_Des~20_mesures~21 175
999 COSIND_-0.05 175
999 COSGEN_-0.05 175
119 ESRank19 175
202 ESForwSacLong+2+5 175
999 WORDS_prises~23 169
999 WORDFREQ_12.16 169
999 WORDSALL_sont~22_prises~23 169
999 COSIND_0.02 169
999 COSGEN_0.02 169
120 ESRank20 169
202 ESForwSacLong+2+6 169
999 WORDS_citoyens~19 140
999 WORDFREQ_8.65 140
999 WORDSALL_citoyens~19 140
999 COSIND_-0.03 140
999 COSGEN_-0.03 140
206 ESBackSacRegrLong-4-18 140
999 WORDS_citoyens~19 120
999 WORDFREQ_8.65 120
999 WORDSALL_citoyens~19 120
999 COSIND_-0.03 120
999 COSGEN_-0.03 120
203 ESBackSacRefixation 120
999 WORDS_mesures~21 159
999 WORDFREQ_20.68 159
999 WORDSALL_Des~20_mesures~21 159
999 COSIND_-0.05 159
999 COSGEN_-0.05 159
202 ESForwSacLong+2+5 159
999 WORDS_prises~23 231
999 WORDFREQ_12.16 231
999 WORDSALL_sont~22_prises~23 231
999 COSIND_0.02 231
999 COSGEN_0.02 231
202 ESForwSacLong+2+6 231
999 WORDS_également~25 166
999 WORDFREQ_71.01 166
999 WORDSALL_mais~24_également~25 166
999 COSIND_0.03 166
999 COSGEN_0.03 166
202 ESForwSacLong+2+6 166
999 WORDS_également~25 204
999 WORDFREQ_71.01 204
999 WORDSALL_mais~24_également~25 204
999 COSIND_0.03 204
999 COSGEN_0.03 204
203 ESBackSacRefixation 204
999 WORDS_coopération~27 220
999 WORDFREQ_6.96 220
999 WORDSALL_coopération~27 220
999 COSIND_0.22 220
999 COSGEN_0.22 220
202 ESForwSacLong+2+5 220
999 WORDS_organisations~30 166
999 WORDFREQ_4.8 166
999 WORDSALL_avec~28_organisations~30 166
999 COSIND_0.35 166
999 COSGEN_0.35 166
202 ESForwSacLong+3+10 166
999 WORDS_organisations~30 150
999 WORDFREQ_4.8 150
999 WORDSALL_organisations~30 150
999 COSIND_0.35 150
999 COSGEN_0.35 150
203 ESBackSacRefixation 150
999 WORDS_internationales~31 258
999 WORDFREQ_3.99 258
999 WORDSALL_internationales~31 258
999 COSIND_0.08 258
999 COSGEN_0.08 258
201 ESForwSacShort 258
999 WORDS_gouvernement~11 107
999 WORDFREQ_119.73 107
999 WORDSALL_quel~10_gouvernement~11 107
999 COSIND_0.03 107
999 COSGEN_0.03 107
206 ESBackSacRegrLong-20-129 107
999 WORDS_s'agit~1 246
999 WORDFREQ_73.72 246
999 WORDSALL_s'agit~1 246
999 COSIND_0.05 246
999 COSGEN_0.05 246
206 ESBackSacRegrLong-10-48 246
999 WORDS_citoyens~4 135
999 WORDFREQ_8.65 135
999 WORDSALL_citoyens~4 135
999 COSIND_-0.03 135
999 COSGEN_-0.03 135
202 ESForwSacLong+3+8 135
999 WORDS_devoir~7 173
999 WORDFREQ_33.04 173
999 WORDSALL_et~5_devoir~7 173
999 COSIND_-0.00 173
999 COSGEN_-0.00 173
202 ESForwSacLong+3+7 173
999 WORDS_n'importe~9 192
999 WORDFREQ_151.08 192
999 WORDSALL_n'importe~9 192
999 COSIND_-0.03 192
999 COSGEN_-0.03 192
202 ESForwSacLong+2+4 192
999 WORDS_gouvernement~11 155
999 WORDFREQ_119.73 155
999 WORDSALL_quel~10_gouvernement~11 155
999 COSIND_0.03 155
999 COSGEN_0.03 155
202 ESForwSacLong+2+6 155
999 WORDS_défendre~14 208
999 WORDFREQ_41.49 208
999 WORDSALL_de~13_défendre~14 208
999 COSIND_-0.06 208
999 COSGEN_-0.06 208
202 ESForwSacLong+3+8 208
999 WORDS_intérêts~16 182
999 WORDFREQ_22.36 182
999 WORDSALL_les~15_intérêts~16 182
999 COSIND_-0.02 182
999 COSGEN_-0.02 182
202 ESForwSacLong+2+5 182
999 WORDS_citoyens~19 231
999 WORDFREQ_8.65 231
999 WORDSALL_ses~18_citoyens~19 231
999 COSIND_-0.03 231
999 COSGEN_-0.03 231
202 ESForwSacLong+3+8 231
999 WORDS_mesures~21 171
999 WORDFREQ_20.68 171
999 WORDSALL_Des~20_mesures~21 171
999 COSIND_-0.05 171
999 COSGEN_-0.05 171
202 ESForwSacLong+2+5 171
200 ESRankN 171
199 ESRankNMinus1 231
198 ESRankNMinus2 182
197 ESRankNMinus3 208
196 ESRankNMinus4 155
195 ESRankNMinus5 192
194 ESRankNMinus6 173
193 ESRankNMinus7 135
192 ESRankNMinus8 246
191 ESRankNMinus9 107
190 ESRankNMinus10 258
