999 WORDS_réforme~8 187
999 WORDFREQ_4.93 187
999 WORDSALL_sur~6_réforme~8 187
999 COSIND_0.08 187
999 COSGEN_0.08 187
101 ESRank1 187
999 WORDS_malaise~1 200
999 WORDFREQ_23.38 200
999 WORDSALL_Le~0_malaise~1 200
999 COSIND_0.15 200
999 COSGEN_0.15 200
102 ESRank2 200
206 ESBackSacRegrLong-7-41 200
999 WORDS_malaise~1 199
999 WORDFREQ_23.38 199
999 WORDSALL_Le~0_malaise~1 199
999 COSIND_0.15 199
999 COSGEN_0.15 199
103 ESRank3 199
203 ESBackSacRefixation 199
999 WORDS_personnels~3 226
999 WORDFREQ_0.61 226
999 WORDSALL_des~2_personnels~3 226
999 COSIND_0.48 226
999 COSGEN_0.48 226
104 ESRank4 226
202 ESForwSacLong+2+5 226
999 WORDS_malaise~1 253
999 WORDFREQ_23.38 253
999 WORDSALL_malaise~1 253
999 COSIND_0.15 253
999 COSGEN_0.15 253
105 ESRank5 253
206 ESBackSacRegrLong-2-5 253
999 WORDS_malaise~1 298
999 WORDFREQ_23.38 298
999 WORDSALL_Le~0_malaise~1 298
999 COSIND_0.15 298
999 COSGEN_0.15 298
106 ESRank6 298
203 ESBackSacRefixation 298
999 WORDS_malaise~1 237
999 WORDFREQ_23.38 237
999 WORDSALL_malaise~1 237
999 COSIND_0.15 237
999 COSGEN_0.15 237
107 ESRank7 237
203 ESBackSacRefixation 237
999 WORDS_porte~4 412
999 WORDFREQ_79.05 412
999 WORDSALL_personnels~3_porte~4 412
999 COSIND_-0.03 412
999 COSGEN_-0.03 412
108 ESRank8 412
202 ESForwSacLong+3+16 412
999 WORDS_personnels~3 173
999 WORDFREQ_0.61 173
999 WORDSALL_personnels~3 173
999 COSIND_0.48 173
999 COSGEN_0.48 173
109 ESRank9 173
205 ESBackSacRegrShort 173
999 WORDS_malaise~1 402
999 WORDFREQ_23.38 402
999 WORDSALL_malaise~1 402
999 COSIND_0.15 402
999 COSGEN_0.15 402
110 ESRank10 402
206 ESBackSacRegrLong-2-5 402
999 WORDS_personnels~3 205
999 WORDFREQ_0.61 205
999 WORDSALL_personnels~3 205
999 COSIND_0.48 205
999 COSGEN_0.48 205
111 ESRank11 205
202 ESForwSacLong+2+5 205
999 WORDS_porte~4 258
999 WORDFREQ_79.05 258
999 WORDSALL_personnels~3_porte~4 258
999 COSIND_-0.03 258
999 COSGEN_-0.03 258
112 ESRank12 258
201 ESForwSacShort 258
999 WORDS_porte~4 445
999 WORDFREQ_79.05 445
999 WORDSALL_personnels~3_porte~4 445
999 COSIND_-0.03 445
999 COSGEN_-0.03 445
113 ESRank13 445
203 ESBackSacRefixation 445
999 WORDS_également~5 184
999 WORDFREQ_71.01 184
999 WORDSALL_porte~4_également~5 184
999 COSIND_0.01 184
999 COSGEN_0.01 184
114 ESRank14 184
201 ESForwSacShort 184
999 WORDS_porte~4 160
999 WORDFREQ_79.05 160
999 WORDSALL_personnels~3_porte~4 160
999 COSIND_-0.03 160
999 COSGEN_-0.03 160
115 ESRank15 160
205 ESBackSacRegrShort 160
999 WORDS_également~5 177
999 WORDFREQ_71.01 177
999 WORDSALL_porte~4_également~5 177
999 COSIND_0.01 177
999 COSGEN_0.01 177
116 ESRank16 177
201 ESForwSacShort 177
999 WORDS_réforme~8 204
999 WORDFREQ_4.93 204
999 WORDSALL_sur~6_réforme~8 204
999 COSIND_0.08 204
999 COSGEN_0.08 204
117 ESRank17 204
202 ESForwSacLong+3+9 204
999 WORDS_réforme~8 214
999 WORDFREQ_4.93 214
999 WORDSALL_sur~6_réforme~8 214
999 COSIND_0.08 214
999 COSGEN_0.08 214
118 ESRank18 214
203 ESBackSacRefixation 214
999 WORDS_réforme~8 167
999 WORDFREQ_4.93 167
999 WORDSALL_réforme~8 167
999 COSIND_0.08 167
999 COSGEN_0.08 167
119 ESRank19 167
203 ESBackSacRefixation 167
999 WORDS_statut~11 252
999 WORDFREQ_4.66 252
999 WORDSALL_de~9_statut~11 252
999 COSIND_0.07 252
999 COSGEN_0.07 252
120 ESRank20 252
202 ESForwSacLong+3+9 252
999 WORDS_avertis~15 341
999 WORDFREQ_3.51 341
999 WORDSALL_avertis~15 341
999 COSIND_N/A 341
202 ESForwSacLong+4+15 341
999 WORDS_direction~18 250
999 WORDFREQ_103.04 250
999 WORDSALL_la~17_direction~18 250
999 COSIND_0.55 250
999 COSGEN_0.55 250
202 ESForwSacLong+3+8 250
999 WORDS_ont~13 155
999 WORDFREQ_553.31 155
999 WORDSALL_statut~11_ont~13 155
999 COSIND_0.08 155
999 COSGEN_0.08 155
206 ESBackSacRegrLong-5-22 155
999 WORDS_ont~13 156
999 WORDFREQ_553.31 156
999 WORDSALL_statut~11_ont~13 156
999 COSIND_0.08 156
999 COSGEN_0.08 156
203 ESBackSacRefixation 156
999 WORDS_ont~13 197
999 WORDFREQ_553.31 197
999 WORDSALL_Ils~12_ont~13 197
999 COSIND_0.08 197
999 COSGEN_0.08 197
203 ESBackSacRefixation 197
999 WORDS_avertis~15 235
999 WORDFREQ_3.51 235
999 WORDSALL_avertis~15 235
999 COSIND_N/A 235
202 ESForwSacLong+2+7 235
999 WORDS_avant~26 301
999 WORDFREQ_117.7 301
999 WORDSALL_juste~25_avant~26 301
999 COSIND_-0.01 301
999 COSGEN_-0.01 301
202 ESForwSacLong+11+55 301
200 ESRankN 301
199 ESRankNMinus1 235
198 ESRankNMinus2 197
197 ESRankNMinus3 156
196 ESRankNMinus4 155
195 ESRankNMinus5 250
194 ESRankNMinus6 341
193 ESRankNMinus7 252
192 ESRankNMinus8 167
191 ESRankNMinus9 214
190 ESRankNMinus10 204
