999 WORDS_Proche-orient~0 155
999 WORDFREQ_N/A 155
999 WORDSALL_Proche-orient~0 155
999 COSIND_N/A 155
101 ESRank1 155
999 WORDS_Proche-orient~0 177
999 WORDFREQ_N/A 177
999 WORDSALL_Proche-orient~0 177
999 COSIND_N/A 177
102 ESRank2 177
203 ESBackSacRefixation 177
999 WORDS_chef~2 257
999 WORDFREQ_172.57 257
999 WORDSALL_le~1_chef~2 257
999 COSIND_0.02 257
999 COSGEN_0.02 257
103 ESRank3 257
202 ESForwSacLong+2+4 257
999 WORDS_gouvernement~4 183
999 WORDFREQ_119.73 183
999 WORDSALL_du~3_gouvernement~4 183
999 COSIND_-0.00 183
999 COSGEN_-0.00 183
104 ESRank4 183
202 ESForwSacLong+2+4 183
999 WORDS_promis~6 143
999 WORDFREQ_42.43 143
999 WORDSALL_promis~6 143
999 COSIND_0.01 143
999 COSGEN_0.01 143
105 ESRank5 143
202 ESForwSacLong+2+3 143
999 WORDS_promis~6 185
999 WORDFREQ_42.43 185
999 WORDSALL_promis~6 185
999 COSIND_0.01 185
999 COSGEN_0.01 185
106 ESRank6 185
203 ESBackSacRefixation 185
999 WORDS_l'armée~9 166
999 WORDFREQ_114.46 166
999 WORDSALL_retirer~8_l'armée~9 166
999 COSIND_-0.04 166
999 COSGEN_-0.04 166
107 ESRank7 166
202 ESForwSacLong+3+12 166
999 WORDS_israélienne~10 364
999 WORDFREQ_0.07 364
999 WORDSALL_israélienne~10 364
999 COSIND_0.11 364
999 COSGEN_0.11 364
108 ESRank8 364
201 ESForwSacShort 364
999 WORDS_sud~13 200
999 WORDFREQ_6.62 200
999 WORDSALL_Liban~12_sud~13 200
999 COSIND_0.05 200
999 COSGEN_0.05 200
109 ESRank9 200
202 ESForwSacLong+3+10 200
999 WORDS_délai~16 180
999 WORDFREQ_14.59 180
999 WORDSALL_dans~14_délai~16 180
999 COSIND_0.02 180
999 COSGEN_0.02 180
110 ESRank10 180
202 ESForwSacLong+3+9 180
999 WORDS_sud~13 153
999 WORDFREQ_6.62 153
999 WORDSALL_Liban~12_sud~13 153
999 COSIND_0.05 153
999 COSGEN_0.05 153
111 ESRank11 153
206 ESBackSacRegrLong-3-9 153
999 WORDS_Liban~12 97
999 WORDFREQ_N/A 97
999 WORDSALL_Liban~12 97
999 COSIND_N/A 97
112 ESRank12 97
205 ESBackSacRegrShort 97
200 ESRankN 97
199 ESRankNMinus1 153
198 ESRankNMinus2 180
197 ESRankNMinus3 200
196 ESRankNMinus4 364
195 ESRankNMinus5 166
194 ESRankNMinus6 185
193 ESRankNMinus7 143
192 ESRankNMinus8 183
191 ESRankNMinus9 257
190 ESRankNMinus10 177
