999 WORDS_collectivités~1 244
999 WORDFREQ_0.34 244
999 WORDSALL_Les~0_collectivités~1 244
999 COSIND_0.01 244
999 COSGEN_0.01 244
101 ESRank1 244
999 WORDS_locales~2 143
999 WORDFREQ_4.8 143
999 WORDSALL_collectivités~1_locales~2 143
999 COSIND_0.02 143
999 COSGEN_0.02 143
102 ESRank2 143
201 ESForwSacShort 143
999 WORDS_locales~2 168
999 WORDFREQ_4.8 168
999 WORDSALL_locales~2 168
999 COSIND_0.02 168
999 COSGEN_0.02 168
103 ESRank3 168
203 ESBackSacRefixation 168
999 WORDS_encouragées~4 186
999 WORDFREQ_0.2 186
999 WORDSALL_sont~3_encouragées~4 186
999 COSIND_0.07 186
999 COSGEN_0.07 186
104 ESRank4 186
202 ESForwSacLong+2+6 186
999 WORDS_encouragées~4 89
999 WORDFREQ_0.2 89
999 WORDSALL_encouragées~4 89
999 COSIND_0.07 89
999 COSGEN_0.07 89
105 ESRank5 89
203 ESBackSacRefixation 89
999 WORDS_locales~2 232
999 WORDFREQ_4.8 232
999 WORDSALL_locales~2 232
999 COSIND_0.02 232
999 COSGEN_0.02 232
106 ESRank6 232
206 ESBackSacRegrLong-2-6 232
999 WORDS_encouragées~4 235
999 WORDFREQ_0.2 235
999 WORDSALL_sont~3_encouragées~4 235
999 COSIND_0.07 235
999 COSGEN_0.07 235
107 ESRank7 235
202 ESForwSacLong+2+6 235
999 WORDS_ 265
999 WORDFREQ_ 265
999 WORDSALL_ 265
108 ESRank8 265
999 WORDS_coordonner~6 246
999 WORDFREQ_1.22 246
999 WORDSALL_à~5_coordonner~6 246
999 COSIND_0.41 246
999 COSGEN_0.41 246
109 ESRank9 246
999 WORDS_action~8 157
999 WORDFREQ_72.91 157
999 WORDSALL_leur~7_action~8 157
999 COSIND_0.14 157
999 COSGEN_0.14 157
110 ESRank10 157
202 ESForwSacLong+2+6 157
999 WORDS_action~8 277
999 WORDFREQ_72.91 277
999 WORDSALL_leur~7_action~8 277
999 COSIND_0.14 277
999 COSGEN_0.14 277
111 ESRank11 277
203 ESBackSacRefixation 277
999 WORDS_faveur~10 180
999 WORDFREQ_27.64 180
999 WORDSALL_en~9_faveur~10 180
999 COSIND_0.07 180
999 COSGEN_0.07 180
112 ESRank12 180
202 ESForwSacLong+2+4 180
999 WORDS_réfugiés~12 174
999 WORDFREQ_8.18 174
999 WORDSALL_réfugiés~12 174
999 COSIND_0.12 174
999 COSGEN_0.12 174
113 ESRank13 174
202 ESForwSacLong+2+5 174
999 WORDS_réfugiés~12 467
999 WORDFREQ_8.18 467
999 WORDSALL_réfugiés~12 467
999 COSIND_0.12 467
999 COSGEN_0.12 467
114 ESRank14 467
203 ESBackSacRefixation 467
999 WORDS_envisagent~14 230
999 WORDFREQ_0.41 230
999 WORDSALL_Elles~13_envisagent~14 230
999 COSIND_0.06 230
999 COSGEN_0.06 230
115 ESRank15 230
202 ESForwSacLong+2+7 230
999 WORDS_envisagent~14 242
999 WORDFREQ_0.41 242
999 WORDSALL_Elles~13_envisagent~14 242
999 COSIND_0.06 242
999 COSGEN_0.06 242
116 ESRank16 242
203 ESBackSacRefixation 242
999 WORDS_monter~16 232
999 WORDFREQ_96.89 232
999 WORDSALL_de~15_monter~16 232
999 COSIND_0.06 232
999 COSGEN_0.06 232
117 ESRank17 232
202 ESForwSacLong+2+4 232
999 WORDS_plate-forme~18 289
999 WORDFREQ_8.45 289
999 WORDSALL_plate-forme~18 289
999 COSIND_N/A 289
118 ESRank18 289
202 ESForwSacLong+2+5 289
999 WORDS_plate-forme~18 110
999 WORDFREQ_8.45 110
999 WORDSALL_plate-forme~18 110
999 COSIND_N/A 110
119 ESRank19 110
203 ESBackSacRefixation 110
999 WORDS_assurer~20 178
999 WORDFREQ_38.85 178
999 WORDSALL_assurer~20 178
999 COSIND_0.08 178
999 COSGEN_0.08 178
120 ESRank20 178
202 ESForwSacLong+2+6 178
999 WORDS_traçabilité~22 206
999 WORDFREQ_0 206
999 WORDSALL_la~21_traçabilité~22 206
999 COSIND_N/A 206
202 ESForwSacLong+2+4 206
999 WORDS_l'acheminement~24 306
999 WORDFREQ_0.47 306
999 WORDSALL_l'acheminement~24 306
999 COSIND_0.49 306
999 COSGEN_0.49 306
202 ESForwSacLong+2+4 306
999 WORDS_humanitaires~27 240
999 WORDFREQ_0.34 240
999 WORDSALL_colis~26_humanitaires~27 240
999 COSIND_1.00 240
999 COSGEN_1.00 240
202 ESForwSacLong+3+11 240
999 WORDS_colis~26 342
999 WORDFREQ_10.54 342
999 WORDSALL_des~25_colis~26 342
999 COSIND_0.39 342
999 COSGEN_0.39 342
205 ESBackSacRegrShort 342
999 WORDS_colis~26 286
999 WORDFREQ_10.54 286
999 WORDSALL_des~25_colis~26 286
999 COSIND_0.39 286
999 COSGEN_0.39 286
203 ESBackSacRefixation 286
999 WORDS_humanitaires~27 286
999 WORDFREQ_0.34 286
999 WORDSALL_colis~26_humanitaires~27 286
999 COSIND_1.00 286
999 COSGEN_1.00 286
201 ESForwSacShort 286
200 ESRankN 286
199 ESRankNMinus1 286
198 ESRankNMinus2 342
197 ESRankNMinus3 240
196 ESRankNMinus4 306
195 ESRankNMinus5 206
194 ESRankNMinus6 178
193 ESRankNMinus7 110
192 ESRankNMinus8 289
191 ESRankNMinus9 232
190 ESRankNMinus10 242
