999 WORDS_société~1 142
999 WORDFREQ_56.55 142
999 WORDSALL_La~0_société~1 142
999 COSIND_0.07 142
999 COSGEN_0.07 142
101 ESRank1 142
999 WORDS_a~4 191
999 WORDFREQ_2926.69 191
999 WORDSALL_3F~3_a~4 191
999 COSIND_N/A 191
102 ESRank2 191
202 ESForwSacLong+3+8 191
999 WORDS_HLM~2 148
999 WORDFREQ_N/A 148
999 WORDSALL_HLM~2 148
999 COSIND_N/A 148
103 ESRank3 148
206 ESBackSacRegrLong-2-4 148
999 WORDS_HLM~2 136
999 WORDFREQ_N/A 136
999 WORDSALL_société~1_HLM~2 136
999 COSIND_N/A 136
104 ESRank4 136
203 ESBackSacRefixation 136
999 WORDS_organisé~5 190
999 WORDFREQ_7.16 190
999 WORDSALL_a~4_organisé~5 190
999 COSIND_0.12 190
999 COSGEN_0.12 190
105 ESRank5 190
202 ESForwSacLong+3+6 190
999 WORDS_formation~7 182
999 WORDFREQ_9.32 182
999 WORDSALL_une~6_formation~7 182
999 COSIND_-0.01 182
999 COSGEN_-0.01 182
106 ESRank6 182
202 ESForwSacLong+2+5 182
999 WORDS_trois~9 192
999 WORDFREQ_660.34 192
999 WORDSALL_de~8_trois~9 192
999 COSIND_-0.01 192
999 COSGEN_-0.01 192
107 ESRank7 192
202 ESForwSacLong+2+4 192
999 WORDS_jours~10 93
999 WORDFREQ_515.41 93
999 WORDSALL_jours~10 93
999 COSIND_0.01 93
999 COSGEN_0.01 93
108 ESRank8 93
201 ESForwSacShort 93
999 WORDS_réservée~11 172
999 WORDFREQ_2.36 172
999 WORDSALL_réservée~11 172
999 COSIND_0.01 172
999 COSGEN_0.01 172
109 ESRank9 172
201 ESForwSacShort 172
999 WORDS_gardiens~13 153
999 WORDFREQ_9.59 153
999 WORDSALL_aux~12_gardiens~13 153
999 COSIND_0.32 153
999 COSGEN_0.32 153
110 ESRank10 153
202 ESForwSacLong+2+5 153
999 WORDS_d'immeubles~14 223
999 WORDFREQ_17.91 223
999 WORDSALL_d'immeubles~14 223
999 COSIND_0.10 223
999 COSGEN_0.10 223
111 ESRank11 223
201 ESForwSacShort 223
999 WORDS_L'objectif~15 336
999 WORDFREQ_9.19 336
999 WORDSALL_L'objectif~15 336
999 COSIND_0.04 336
999 COSGEN_0.04 336
112 ESRank12 336
201 ESForwSacShort 336
999 WORDS_réservée~11 94
999 WORDFREQ_2.36 94
999 WORDSALL_réservée~11 94
999 COSIND_0.01 94
999 COSGEN_0.01 94
113 ESRank13 94
206 ESBackSacRegrLong-4-26 94
999 WORDS_réservée~11 82
999 WORDFREQ_2.36 82
999 WORDSALL_réservée~11 82
999 COSIND_0.01 82
999 COSGEN_0.01 82
114 ESRank14 82
203 ESBackSacRefixation 82
999 WORDS_réservée~11 133
999 WORDFREQ_2.36 133
999 WORDSALL_jours~10_réservée~11 133
999 COSIND_0.01 133
999 COSGEN_0.01 133
115 ESRank15 133
203 ESBackSacRefixation 133
999 WORDS_gardiens~13 162
999 WORDFREQ_9.59 162
999 WORDSALL_aux~12_gardiens~13 162
999 COSIND_0.32 162
999 COSGEN_0.32 162
116 ESRank16 162
202 ESForwSacLong+2+5 162
999 WORDS_gardiens~13 115
999 WORDFREQ_9.59 115
999 WORDSALL_aux~12_gardiens~13 115
999 COSIND_0.32 115
999 COSGEN_0.32 115
117 ESRank17 115
203 ESBackSacRefixation 115
999 WORDS_d'immeubles~14 104
999 WORDFREQ_17.91 104
999 WORDSALL_d'immeubles~14 104
999 COSIND_0.10 104
999 COSGEN_0.10 104
118 ESRank18 104
201 ESForwSacShort 104
999 WORDS_L'objectif~15 143
999 WORDFREQ_9.19 143
999 WORDSALL_L'objectif~15 143
999 COSIND_0.04 143
999 COSGEN_0.04 143
119 ESRank19 143
201 ESForwSacShort 143
999 WORDS_permettre~18 199
999 WORDFREQ_25.81 199
999 WORDSALL_est~16_permettre~18 199
999 COSIND_0.03 199
999 COSGEN_0.03 199
120 ESRank20 199
202 ESForwSacLong+3+8 199
999 WORDS_personnels~20 198
999 WORDFREQ_0.61 198
999 WORDSALL_aux~19_personnels~20 198
999 COSIND_-0.02 198
999 COSGEN_-0.02 198
202 ESForwSacLong+2+5 198
999 WORDS_terrain~22 149
999 WORDFREQ_64.86 149
999 WORDSALL_de~21_terrain~22 149
999 COSIND_0.17 149
999 COSGEN_0.17 149
202 ESForwSacLong+2+4 149
999 WORDS_garder~24 155
999 WORDFREQ_68.31 155
999 WORDSALL_terrain~22_garder~24 155
999 COSIND_-0.12 155
999 COSGEN_-0.12 155
202 ESForwSacLong+2+4 155
999 WORDS_garder~24 112
999 WORDFREQ_68.31 112
999 WORDSALL_de~23_garder~24 112
999 COSIND_-0.12 112
999 COSGEN_-0.12 112
203 ESBackSacRefixation 112
999 WORDS_distance~26 189
999 WORDFREQ_52.64 189
999 WORDSALL_distance~26 189
999 COSIND_-0.04 189
999 COSGEN_-0.04 189
202 ESForwSacLong+2+4 189
999 WORDS_nécessaire~27 208
999 WORDFREQ_48.45 208
999 WORDSALL_nécessaire~27 208
999 COSIND_0.18 208
999 COSGEN_0.18 208
201 ESForwSacShort 208
999 WORDS_distance~26 184
999 WORDFREQ_52.64 184
999 WORDSALL_distance~26 184
999 COSIND_-0.04 184
999 COSGEN_-0.04 184
205 ESBackSacRegrShort 184
999 WORDS_nécessaire~27 140
999 WORDFREQ_48.45 140
999 WORDSALL_nécessaire~27 140
999 COSIND_0.18 140
999 COSGEN_0.18 140
201 ESForwSacShort 140
999 WORDS_situations~30 128
999 WORDFREQ_8.24 128
999 WORDSALL_dans~28_situations~30 128
999 COSIND_0.07 128
999 COSGEN_0.07 128
202 ESForwSacLong+3+10 128
999 WORDS_situations~30 261
999 WORDFREQ_8.24 261
999 WORDSALL_situations~30 261
999 COSIND_0.07 261
999 COSGEN_0.07 261
203 ESBackSacRefixation 261
999 WORDS_violence~32 262
999 WORDFREQ_53.11 262
999 WORDSALL_violence~32 262
999 COSIND_0.43 262
999 COSGEN_0.43 262
202 ESForwSacLong+2+4 262
200 ESRankN 262
199 ESRankNMinus1 261
198 ESRankNMinus2 128
197 ESRankNMinus3 140
196 ESRankNMinus4 184
195 ESRankNMinus5 208
194 ESRankNMinus6 189
193 ESRankNMinus7 112
192 ESRankNMinus8 155
191 ESRankNMinus9 149
190 ESRankNMinus10 198
