999 WORDS_aura~1 162
999 WORDFREQ_39.86 162
999 WORDSALL_Il~0_aura~1 162
999 COSIND_0.00 162
999 COSGEN_0.00 162
101 ESRank1 162
999 WORDS_suffi~2 155
999 WORDFREQ_17.97 155
999 WORDSALL_aura~1_suffi~2 155
999 COSIND_0.15 155
999 COSGEN_0.15 155
102 ESRank2 155
201 ESForwSacShort 155
999 WORDS_aura~1 148
999 WORDFREQ_39.86 148
999 WORDSALL_Il~0_aura~1 148
999 COSIND_0.00 148
999 COSGEN_0.00 148
103 ESRank3 148
205 ESBackSacRegrShort 148
999 WORDS_suffi~2 273
999 WORDFREQ_17.97 273
999 WORDSALL_suffi~2 273
999 COSIND_0.15 273
999 COSGEN_0.15 273
104 ESRank4 273
201 ESForwSacShort 273
999 WORDS_aura~1 150
999 WORDFREQ_39.86 150
999 WORDSALL_aura~1 150
999 COSIND_0.00 150
999 COSGEN_0.00 150
105 ESRank5 150
205 ESBackSacRegrShort 150
999 WORDS_aura~1 213
999 WORDFREQ_39.86 213
999 WORDSALL_Il~0_aura~1 213
999 COSIND_0.00 213
999 COSGEN_0.00 213
106 ESRank6 213
203 ESBackSacRefixation 213
999 WORDS_suffi~2 97
999 WORDFREQ_17.97 97
999 WORDSALL_aura~1_suffi~2 97
999 COSIND_0.15 97
999 COSGEN_0.15 97
107 ESRank7 97
201 ESForwSacShort 97
999 WORDS_soleil~5 237
999 WORDFREQ_328.78 237
999 WORDSALL_que~3_soleil~5 237
999 COSIND_0.43 237
999 COSGEN_0.43 237
108 ESRank8 237
202 ESForwSacLong+3+8 237
999 WORDS_montre~6 252
999 WORDFREQ_38.99 252
999 WORDSALL_soleil~5_montre~6 252
999 COSIND_0.06 252
999 COSGEN_0.06 252
109 ESRank9 252
201 ESForwSacShort 252
999 WORDS_soleil~5 108
999 WORDFREQ_328.78 108
999 WORDSALL_le~4_soleil~5 108
999 COSIND_0.43 108
999 COSGEN_0.43 108
110 ESRank10 108
205 ESBackSacRegrShort 108
999 WORDS_montre~6 219
999 WORDFREQ_38.99 219
999 WORDSALL_montre~6 219
999 COSIND_0.06 219
999 COSGEN_0.06 219
111 ESRank11 219
201 ESForwSacShort 219
999 WORDS_nez~11 211
999 WORDFREQ_177.64 211
999 WORDSALL_de~9_nez~11 211
999 COSIND_0.39 211
999 COSGEN_0.39 211
112 ESRank12 211
202 ESForwSacLong+5+16 211
999 WORDS_pour~12 83
999 WORDFREQ_6198.24 83
999 WORDSALL_pour~12 83
999 COSIND_N/A 83
113 ESRank13 83
201 ESForwSacShort 83
999 WORDS_jardineries~15 208
999 WORDFREQ_N/A 208
999 WORDSALL_les~14_jardineries~15 208
999 COSIND_N/A 208
114 ESRank14 208
202 ESForwSacLong+3+9 208
999 WORDS_soient~16 140
999 WORDFREQ_21.89 140
999 WORDSALL_soient~16 140
999 COSIND_0.10 140
999 COSGEN_0.10 140
115 ESRank15 140
201 ESForwSacShort 140
999 WORDS_d'assaut~18 181
999 WORDFREQ_27.36 181
999 WORDSALL_prises~17_d'assaut~18 181
999 COSIND_0.14 181
999 COSGEN_0.14 181
116 ESRank16 181
202 ESForwSacLong+2+8 181
999 WORDS_dépense~20 192
999 WORDFREQ_1.55 192
999 WORDSALL_On~19_dépense~20 192
999 COSIND_0.05 192
999 COSGEN_0.05 192
117 ESRank17 192
202 ESForwSacLong+2+4 192
999 WORDS_plus~22 158
999 WORDFREQ_5014.53 158
999 WORDSALL_de~21_plus~22 158
999 COSIND_0.12 158
999 COSGEN_0.12 158
118 ESRank18 158
202 ESForwSacLong+2+4 158
999 WORDS_plantation~27 256
999 WORDFREQ_3.72 256
999 WORDSALL_pour~25_plantation~27 256
999 COSIND_0.69 256
999 COSGEN_0.69 256
119 ESRank19 256
202 ESForwSacLong+5+17 256
999 WORDS_fleurs~29 131
999 WORDFREQ_121.42 131
999 WORDSALL_fleurs~29 131
999 COSIND_0.98 131
999 COSGEN_0.98 131
120 ESRank20 131
202 ESForwSacLong+2+4 131
200 ESRankN 131
199 ESRankNMinus1 256
198 ESRankNMinus2 158
197 ESRankNMinus3 192
196 ESRankNMinus4 181
195 ESRankNMinus5 140
194 ESRankNMinus6 208
193 ESRankNMinus7 83
192 ESRankNMinus8 211
191 ESRankNMinus9 219
190 ESRankNMinus10 108
