# 160 Fixation 1 (368.8,277.5): les~1 vacanciers~2
# 138 Fixation 2 (517.9,283.9): qui~3 souhaitent~4
# 149 Fixation 3 (667.3,275.6): souhaitent~4 avant~5
# 183 Fixation 4 (320.6,340.7): tout~6 reposer~8
# 88 Fixation 5 (439.6,343.3): reposer~8
# 136 Fixation 6 (608.1,348.1): cadre~11
# 204 Fixation 7 (313.9,397.4): les~13 résidences~14
# 178 Fixation 8 (498.3,408.3): proposent~15
# 152 Fixation 9 (645.4,410.2): un~16 hébergement~17
# 205 Fixation 10 (322.7,471.8): adapté~18
# 193 Fixation 11 (429.2,472.3): leur~19 permettant~20
# 168 Fixation 12 (623.3,469): de~21 partir~22
# 99 Fixation 13 (729.3,467.9): avec~23
# 267 Fixation 14 (337.9,529.9): amis~25 sportifs~26
# 213 Fixation 15 (499.6,535.3): sans~27
# 175 Fixation 16 (575.2,536.4): pour~28 rester~30
%%
# Pour~0 Fixations= ""
# les~1 Fixations= "1/"
# vacanciers~2 Fixations= "1/"
# qui~3 Fixations= "2/"
# souhaitent~4 Fixations= "3/"
# avant~5 Fixations= "3/"
# tout~6 Fixations= "4/"
# se~7 Fixations= ""
# reposer~8 Fixations= "5/"
# dans~9 Fixations= ""
# un~10 Fixations= ""
# cadre~11 Fixations= "6/"
# bucolique~12 Fixations= ""
# les~13 Fixations= "7/"
# résidences~14 Fixations= "7/"
# proposent~15 Fixations= "8/"
# un~16 Fixations= "9/"
# hébergement~17 Fixations= "9/"
# adapté~18 Fixations= "10/"
# leur~19 Fixations= "11/"
# permettant~20 Fixations= "11/"
# de~21 Fixations= "12/"
# partir~22 Fixations= "12/"
# avec~23 Fixations= "13/"
# des~24 Fixations= ""
# amis~25 Fixations= "14/"
# sportifs~26 Fixations= "14/"
# sans~27 Fixations= "15/"
# pour~28 Fixations= "16/"
# autant~29 Fixations= ""
# rester~30 Fixations= "16/"
# inactifs~31 Fixations= ""
%%
#  Pour LES[1] VACANCIERS[1] QUI[2] SOUHAITENT[3] AVANT[3] TOUT[4] se REPOSER[5] dans un CADRE[6] bucolique LES[7] RéSIDENCES[7] PROPOSENT[8] UN[9] HéBERGEMENT[9] ADAPTé[10] LEUR[11] PERMETTANT[11] DE[12] PARTIR[12] AVEC[13] des AMIS[14] SPORTIFS[14] SANS[15] POUR[16] autant RESTER[16] inactifs
# s07 tourisme_montagne-m1 PercentageOfWordsProcessed= 0.75 PercentageOfWordsReallyProcessed= 0.774193548387097
