# 135 Fixation 1 (376.8,274.8): problème~1
# 163 Fixation 2 (537.2,291.8): devra~3 gérer~4
# 112 Fixation 3 (693.8,303.4): gouvernement~6
# 178 Fixation 4 (289.1,340.3): est~7 canaliser~9
# 140 Fixation 5 (364.5,319): de~8 canaliser~9
# 179 Fixation 6 (526.8,351): le~10 retour~11
# 171 Fixation 7 (653.7,338.7): des~12 sinistrés~13
# 131 Fixation 8 (383.6,405.5): les~15 familles~16
# 154 Fixation 9 (304.2,386.9): dans~14 familles~16
# 265 Fixation 10 (636,401.3): Le~18 préalable~19
# 365 Fixation 11 (339,436.7): dans~14 familles~16
# 148 Fixation 12 (531.7,431.9): d'accueil~17
# 147 Fixation 13 (643,464): car~23 n'ont~25
# 89 Fixation 14 (687.2,464.2): ils~24 n'ont~25
# 177 Fixation 15 (311.2,491.7): est~20 identification~22
%%
# Le~0 Fixations= ""
# problème~1 Fixations= "1/"
# que~2 Fixations= ""
# devra~3 Fixations= "2/"
# gérer~4 Fixations= "2/"
# le~5 Fixations= ""
# gouvernement~6 Fixations= "3/"
# est~7 Fixations= "4/"
# de~8 Fixations= "5/"
# canaliser~9 Fixations= "5/"
# le~10 Fixations= "6/"
# retour~11 Fixations= "6/"
# des~12 Fixations= "7/"
# sinistrés~13 Fixations= "7/"
# dans~14 Fixations= "11/"
# les~15 Fixations= "8/"
# familles~16 Fixations= "11/"
# d'accueil~17 Fixations= "12/"
# Le~18 Fixations= "10/"
# préalable~19 Fixations= "10/"
# est~20 Fixations= "15/"
# leur~21 Fixations= ""
# identification~22 Fixations= "15/"
# car~23 Fixations= "13/"
# ils~24 Fixations= "14/"
# n'ont~25 Fixations= "14/"
# plus~26 Fixations= ""
# de~27 Fixations= ""
# pièce~28 Fixations= ""
# d'identité~29 Fixations= ""
%%
#  Le PROBLèME[1] que DEVRA[2] GéRER[2] le GOUVERNEMENT[3] EST[4] DE[5] CANALISER[5] LE[6] RETOUR[6] DES[7] SINISTRéS[7] DANS[11] LES[8] FAMILLES[11] D'ACCUEIL[12] LE[10] PRéALABLE[10] EST[15] leur IDENTIFICATION[15] CAR[13] ILS[14] N'ONT[14] plus de pièce d'identité
# s07 associations_humanitaires-m2 PercentageOfWordsProcessed= 0.733333333333333 PercentageOfWordsReallyProcessed= 0.846153846153846
