# 164 Fixation 1 (253.7,280.4): Outre~0
# 188 Fixation 2 (359.4,270.3): la~1 pollution~2
# 126 Fixation 3 (462.7,271.6): pollution~2
# 195 Fixation 4 (523.1,274.7): de~3 surface~4
# 269 Fixation 5 (412.4,280.3): pollution~2
# 99 Fixation 6 (560.5,290.5): de~3 surface~4
# 159 Fixation 7 (537.2,294.3): de~3 surface~4
# 199 Fixation 8 (682.1,290.2): se~5 pose~6
# 174 Fixation 9 (264.6,341.5): aussi~7 problème~9
# 188 Fixation 10 (392.9,346.8): le~8 problème~9
# 173 Fixation 11 (536.6,354.4): des~10 tonnes~11
# 193 Fixation 12 (673.4,360.8): de~12 pétrole~13
# 112 Fixation 13 (261.5,419.7): encore~14 contenues~15
# 133 Fixation 14 (275.7,401.6): encore~14 contenues~15
# 203 Fixation 15 (364.1,400.9): contenues~15
# 152 Fixation 16 (501.8,400.6): dans~16 soutes~18
# 165 Fixation 17 (600.6,403.5): les~17 soutes~18
# 287 Fixation 18 (729.8,408.8): du~19 navire~20
# 116 Fixation 19 (304.6,444.9): Les~21 sondages~22
# 182 Fixation 20 (252.9,455.2): Les~21 sondages~22
# 138 Fixation 21 (315.5,465.2): Les~21 sondages~22
# 138 Fixation 22 (398.2,464.7): sondages~22 effectués~23
# 158 Fixation 23 (472.3,463.2): effectués~23
# 198 Fixation 24 (573.8,468.6): indiquent~24
# 161 Fixation 25 (692.1,481.1): que~25
# 258 Fixation 26 (267.4,544.6): morceaux~27
%%
# Outre~0 Fixations= "1/"
# la~1 Fixations= "2/"
# pollution~2 Fixations= "5/"
# de~3 Fixations= "7/"
# surface~4 Fixations= "7/"
# se~5 Fixations= "8/"
# pose~6 Fixations= "8/"
# aussi~7 Fixations= "9/"
# le~8 Fixations= "10/"
# problème~9 Fixations= "10/"
# des~10 Fixations= "11/"
# tonnes~11 Fixations= "11/"
# de~12 Fixations= "12/"
# pétrole~13 Fixations= "12/"
# encore~14 Fixations= "14/"
# contenues~15 Fixations= "15/"
# dans~16 Fixations= "16/"
# les~17 Fixations= "17/"
# soutes~18 Fixations= "17/"
# du~19 Fixations= "18/"
# navire~20 Fixations= "18/"
# Les~21 Fixations= "21/"
# sondages~22 Fixations= "22/"
# effectués~23 Fixations= "23/"
# indiquent~24 Fixations= "24/"
# que~25 Fixations= "25/"
# les~26 Fixations= ""
# morceaux~27 Fixations= "26/"
# du~28 Fixations= ""
# bateau~29 Fixations= ""
# sont~30 Fixations= ""
# stabilisés~31 Fixations= ""
%%
#  OUTRE[1] LA[2] POLLUTION[5] DE[7] SURFACE[7] SE[8] POSE[8] AUSSI[9] LE[10] PROBLèME[10] DES[11] TONNES[11] DE[12] PéTROLE[12] ENCORE[14] CONTENUES[15] DANS[16] LES[17] SOUTES[17] DU[18] NAVIRE[18] LES[21] SONDAGES[22] EFFECTUéS[23] INDIQUENT[24] QUE[25] les MORCEAUX[26] du bateau sont stabilisés
# s06 prix_petrole-m2 PercentageOfWordsProcessed= 0.84375 PercentageOfWordsReallyProcessed= 0.964285714285714
