# 91 Fixation 1 (321.1,281): Le~0 moral~1
# 222 Fixation 2 (298.7,285.9): Le~0 moral~1
# 243 Fixation 3 (399.4,285.8): des~2 boursiers~3
# 162 Fixation 4 (440.7,281): des~2 boursiers~3
# 186 Fixation 5 (263.5,282.9): Le~0 moral~1
# 162 Fixation 6 (292.2,286.9): Le~0 moral~1
# 87 Fixation 7 (310.5,283.8): Le~0 moral~1
# 311 Fixation 8 (423.8,279.2): des~2 boursiers~3
# 305 Fixation 9 (562.2,282.4): s'est~4 sérieusement~5
# 225 Fixation 10 (641.3,289.1): s'est~4 sérieusement~5
# 207 Fixation 11 (318.8,334.2): Le~0 moral~1 dégradé~6
# 240 Fixation 12 (301.4,341.4): Le~0 moral~1 dégradé~6
# 171 Fixation 13 (405.1,343.6): des~2 boursiers~3 doutent~8
# 116 Fixation 14 (438.5,347.4): des~2 boursiers~3 doutent~8
# 308 Fixation 15 (554.2,350.8): désormais~9
# 187 Fixation 16 (672.6,355.4): désormais~9
# 253 Fixation 17 (283,422): nouvelles~12
# 242 Fixation 18 (409.1,414.2): marges~13
# 225 Fixation 19 (544.3,415.1): de~14 fluctuation~15
# 258 Fixation 20 (522.1,416): de~14 fluctuation~15
# 165 Fixation 21 (634.2,415.8): fluctuation~15 mercredi~21
# 196 Fixation 22 (595.9,414.6): fluctuation~15
# 169 Fixation 23 (520.3,416.5): de~14 fluctuation~15
%%
# Le~0 Fixations= "12/"
# moral~1 Fixations= "12/"
# des~2 Fixations= "14/"
# boursiers~3 Fixations= "14/"
# s'est~4 Fixations= "10/"
# sérieusement~5 Fixations= "10/"
# dégradé~6 Fixations= "12/"
# ils~7 Fixations= ""
# doutent~8 Fixations= "14/"
# désormais~9 Fixations= "16/"
# que~10 Fixations= ""
# les~11 Fixations= ""
# nouvelles~12 Fixations= "17/"
# marges~13 Fixations= "18/"
# de~14 Fixations= "23/"
# fluctuation~15 Fixations= "23/"
# de~16 Fixations= ""
# la~17 Fixations= ""
# devise~18 Fixations= ""
# brésilienne~19 Fixations= ""
# fixées~20 Fixations= ""
# mercredi~21 Fixations= "21/"
# par~22 Fixations= ""
# la~23 Fixations= ""
# banque~24 Fixations= ""
# centrale~25 Fixations= ""
# puissent~26 Fixations= ""
# tenir~27 Fixations= ""
# longtemps~28 Fixations= ""
%%
#  LE[12] MORAL[12] DES[14] BOURSIERS[14] S'EST[10] SéRIEUSEMENT[10] DéGRADé[12] ils DOUTENT[14] DéSORMAIS[16] que les NOUVELLES[17] MARGES[18] DE[23] FLUCTUATION[23] de la devise brésilienne fixées MERCREDI[21] par la banque centrale puissent tenir longtemps
# s13 syndicat_agricole-a1 PercentageOfWordsProcessed= 0.482758620689655 PercentageOfWordsReallyProcessed= 0.636363636363636
