999 WORDS_revenu~1 167
999 WORDFREQ_2.23 167
999 WORDSALL_Le~0_revenu~1 167
999 COSIND_0.33 167
999 COSGEN_0.33 167
101 ESRank1 167
999 WORDS_moyen~2 160
999 WORDFREQ_28.24 160
999 WORDSALL_moyen~2 160
999 COSIND_0.01 160
999 COSGEN_0.01 160
102 ESRank2 160
201 ESForwSacShort 160
999 WORDS_imposable~3 176
999 WORDFREQ_0.07 176
999 WORDSALL_imposable~3 176
999 COSIND_0.34 176
999 COSGEN_0.34 176
103 ESRank3 176
201 ESForwSacShort 176
999 WORDS_foyer~5 199
999 WORDFREQ_25.81 199
999 WORDSALL_par~4_foyer~5 199
999 COSIND_0.27 199
999 COSGEN_0.27 199
104 ESRank4 199
202 ESForwSacLong+2+5 199
999 WORDS_Riches-pauvres~15 182
999 WORDFREQ_N/A 182
999 WORDSALL_Riches-pauvres~15 182
999 COSIND_N/A 182
105 ESRank5 182
202 ESForwSacLong+10+60 182
999 WORDS_Riches-pauvres~15 185
999 WORDFREQ_N/A 185
999 WORDSALL_Riches-pauvres~15 185
999 COSIND_N/A 185
106 ESRank6 185
203 ESBackSacRefixation 185
999 WORDS_l'agglomération~14 99
999 WORDFREQ_1.62 99
999 WORDSALL_l'agglomération~14 99
999 COSIND_0.30 99
999 COSGEN_0.30 99
107 ESRank7 99
205 ESBackSacRegrShort 99
999 WORDS_l'agglomération~14 205
999 WORDFREQ_1.62 205
999 WORDSALL_l'agglomération~14 205
999 COSIND_0.30 205
999 COSGEN_0.30 205
108 ESRank8 205
203 ESBackSacRefixation 205
999 WORDS_Riches-pauvres~15 216
999 WORDFREQ_N/A 216
999 WORDSALL_Riches-pauvres~15 216
999 COSIND_N/A 216
109 ESRank9 216
201 ESForwSacShort 216
999 WORDS_Riches-pauvres~15 127
999 WORDFREQ_N/A 127
999 WORDSALL_Riches-pauvres~15 127
999 COSIND_N/A 127
110 ESRank10 127
203 ESBackSacRefixation 127
999 WORDS_n'échappe~17 246
999 WORDFREQ_18.65 246
999 WORDSALL_n'échappe~17 246
999 COSIND_-0.02 246
999 COSGEN_-0.02 246
111 ESRank11 246
202 ESForwSacLong+2+4 246
999 WORDS_face-à-face~20 189
999 WORDFREQ_0.47 189
999 WORDSALL_face-à-face~20 189
999 COSIND_N/A 189
112 ESRank12 189
202 ESForwSacLong+3+8 189
999 WORDS_C'est~21 190
999 WORDFREQ_6331.76 190
999 WORDSALL_C'est~21 190
999 COSIND_0.03 190
999 COSGEN_0.03 190
113 ESRank13 190
201 ESForwSacShort 190
999 WORDS_embrase~24 130
999 WORDFREQ_1.01 130
999 WORDSALL_embrase~24 130
999 COSIND_0.07 130
999 COSGEN_0.07 130
114 ESRank14 130
202 ESForwSacLong+3+11 130
999 WORDS_embrase~24 144
999 WORDFREQ_1.01 144
999 WORDSALL_qui~23_embrase~24 144
999 COSIND_0.07 144
999 COSGEN_0.07 144
115 ESRank15 144
203 ESBackSacRefixation 144
999 WORDS_convulsions~28 208
999 WORDFREQ_4.32 208
999 WORDSALL_des~27_convulsions~28 208
999 COSIND_-0.14 208
999 COSGEN_-0.14 208
116 ESRank16 208
202 ESForwSacLong+4+16 208
200 ESRankN 208
199 ESRankNMinus1 144
198 ESRankNMinus2 130
197 ESRankNMinus3 190
196 ESRankNMinus4 189
195 ESRankNMinus5 246
194 ESRankNMinus6 127
193 ESRankNMinus7 216
192 ESRankNMinus8 205
191 ESRankNMinus9 99
190 ESRankNMinus10 185
