999 WORDS_semble~1 83
999 WORDFREQ_154.19 83
999 WORDSALL_Il~0_semble~1 83
999 COSIND_0.05 83
999 COSGEN_0.05 83
101 ESRank1 83
999 WORDS_semble~1 103
999 WORDFREQ_154.19 103
999 WORDSALL_Il~0_semble~1 103
999 COSIND_0.05 103
999 COSGEN_0.05 103
102 ESRank2 103
203 ESBackSacRefixation 103
999 WORDS_à~3 322
999 WORDFREQ_19209.05 322
999 WORDSALL_que~2_à~3 322
999 COSIND_N/A 322
103 ESRank3 322
202 ESForwSacLong+2+5 322
999 WORDS_l'instar~4 220
999 WORDFREQ_N/A 220
999 WORDSALL_à~3_l'instar~4 220
999 COSIND_N/A 220
104 ESRank4 220
201 ESForwSacShort 220
999 WORDS_l'instar~4 172
999 WORDFREQ_N/A 172
999 WORDSALL_l'instar~4 172
999 COSIND_N/A 172
105 ESRank5 172
203 ESBackSacRefixation 172
999 WORDS_Anglais~6 180
999 WORDFREQ_69.46 180
999 WORDSALL_des~5_Anglais~6 180
999 COSIND_0.11 180
999 COSGEN_0.11 180
106 ESRank6 180
202 ESForwSacLong+2+5 180
999 WORDS_Gallois~8 270
999 WORDFREQ_0 270
999 WORDSALL_Gallois~8 270
999 COSIND_0.45 270
999 COSGEN_0.45 270
107 ESRank7 270
202 ESForwSacLong+2+5 270
999 WORDS_soient~9 221
999 WORDFREQ_21.89 221
999 WORDSALL_soient~9 221
999 COSIND_0.12 221
999 COSGEN_0.12 221
108 ESRank8 221
201 ESForwSacShort 221
999 WORDS_parvenus~10 172
999 WORDFREQ_5.2 172
999 WORDSALL_parvenus~10 172
999 COSIND_0.06 172
999 COSGEN_0.06 172
109 ESRank9 172
201 ESForwSacShort 172
999 WORDS_assimiler~12 288
999 WORDFREQ_3.04 288
999 WORDSALL_à~11_assimiler~12 288
999 COSIND_-0.01 288
999 COSGEN_-0.01 288
110 ESRank10 288
202 ESForwSacLong+2+4 288
999 WORDS_assimiler~12 106
999 WORDFREQ_3.04 106
999 WORDSALL_assimiler~12 106
999 COSIND_-0.01 106
999 COSGEN_-0.01 106
111 ESRank11 106
203 ESBackSacRefixation 106
999 WORDS_éléments~14 251
999 WORDFREQ_46.89 251
999 WORDSALL_éléments~14 251
999 COSIND_0.00 251
999 COSGEN_0.00 251
112 ESRank12 251
202 ESForwSacLong+2+5 251
999 WORDS_ont~16 180
999 WORDFREQ_553.31 180
999 WORDSALL_éléments~14_ont~16 180
999 COSIND_0.14 180
999 COSGEN_0.14 180
113 ESRank13 180
202 ESForwSacLong+2+5 180
999 WORDS_permis~17 177
999 WORDFREQ_35.54 177
999 WORDSALL_ont~16_permis~17 177
999 COSIND_0.17 177
999 COSGEN_0.17 177
114 ESRank14 177
201 ESForwSacShort 177
999 WORDS_l'hémisphère~19 201
999 WORDFREQ_0.88 201
999 WORDSALL_l'hémisphère~19 201
999 COSIND_0.16 201
999 COSGEN_0.16 201
115 ESRank15 201
202 ESForwSacLong+2+4 201
999 WORDS_l'hémisphère~19 134
999 WORDFREQ_0.88 134
999 WORDSALL_à~18_l'hémisphère~19 134
999 COSIND_0.16 134
999 COSGEN_0.16 134
116 ESRank16 134
203 ESBackSacRefixation 134
999 WORDS_Sud~20 141
999 WORDFREQ_6.62 141
999 WORDSALL_Sud~20 141
999 COSIND_0.05 141
999 COSGEN_0.05 141
117 ESRank17 141
201 ESForwSacShort 141
999 WORDS_dominer~22 170
999 WORDFREQ_10.34 170
999 WORDSALL_de~21_dominer~22 170
999 COSIND_0.35 170
999 COSGEN_0.35 170
118 ESRank18 170
202 ESForwSacLong+2+4 170
999 WORDS_dominer~22 194
999 WORDFREQ_10.34 194
999 WORDSALL_de~21_dominer~22 194
999 COSIND_0.35 194
999 COSGEN_0.35 194
119 ESRank19 194
203 ESBackSacRefixation 194
999 WORDS_rugby~24 216
999 WORDFREQ_3.11 216
999 WORDSALL_le~23_rugby~24 216
999 COSIND_0.13 216
999 COSGEN_0.13 216
120 ESRank20 216
202 ESForwSacLong+2+4 216
999 WORDS_rugby~24 120
999 WORDFREQ_3.11 120
999 WORDSALL_le~23_rugby~24 120
999 COSIND_0.13 120
999 COSGEN_0.13 120
203 ESBackSacRefixation 120
200 ESRankN 120
199 ESRankNMinus1 216
198 ESRankNMinus2 194
197 ESRankNMinus3 170
196 ESRankNMinus4 141
195 ESRankNMinus5 134
194 ESRankNMinus6 201
193 ESRankNMinus7 177
192 ESRankNMinus8 180
191 ESRankNMinus9 251
190 ESRankNMinus10 106
