# 252 Fixation 1 (281.9,288.3): Il~0 semble~1
# 157 Fixation 2 (401.2,278.9): que~2 à~3
# 207 Fixation 3 (494.8,262.1): à~3 l'instar~4
# 210 Fixation 4 (649.3,201):
# 208 Fixation 5 (685.3,200.7):
# 208 Fixation 6 (765.6,160.4):
# 196 Fixation 7 (289.3,353.8): Gallois~8
# 482 Fixation 8 (259.3,356.3): Gallois~8
# 440 Fixation 9 (252.5,349.9): Gallois~8
# 124 Fixation 10 (290.2,351.8): Gallois~8
# 188 Fixation 11 (367.7,348.1): Gallois~8 soient~9
# 202 Fixation 12 (471.7,338.2): parvenus~10
# 304 Fixation 13 (610.2,329.2): à~11 assimiler~12
# 191 Fixation 14 (288.5,404.6): éléments~14
# 162 Fixation 15 (270.7,409.2): éléments~14
# 158 Fixation 16 (447.8,400.4): qui~15 ont~16
# 143 Fixation 17 (500.2,413.3): ont~16 permis~17
# 316 Fixation 18 (608.4,413.7): à~18 l'hémisphère~19
# 244 Fixation 19 (298.4,471.4): de~21 dominer~22
# 192 Fixation 20 (469.1,487.3): le~23 rugby~24
# 294 Fixation 21 (447.6,485.1): le~23 rugby~24
# 413 Fixation 22 (530.5,478.7): rugby~24 mondial~25
# 268 Fixation 23 (635.7,482.5): depuis~26
%%
# Il~0 Fixations= "1/"
# semble~1 Fixations= "1/"
# que~2 Fixations= "2/"
# à~3 Fixations= "3/"
# l'instar~4 Fixations= "3/"
# des~5 Fixations= ""
# Anglais~6 Fixations= ""
# les~7 Fixations= ""
# Gallois~8 Fixations= "11/"
# soient~9 Fixations= "11/"
# parvenus~10 Fixations= "12/"
# à~11 Fixations= "13/"
# assimiler~12 Fixations= "13/"
# les~13 Fixations= ""
# éléments~14 Fixations= "15/"
# qui~15 Fixations= "16/"
# ont~16 Fixations= "17/"
# permis~17 Fixations= "17/"
# à~18 Fixations= "18/"
# l'hémisphère~19 Fixations= "18/"
# Sud~20 Fixations= ""
# de~21 Fixations= "19/"
# dominer~22 Fixations= "19/"
# le~23 Fixations= "21/"
# rugby~24 Fixations= "22/"
# mondial~25 Fixations= "22/"
# depuis~26 Fixations= "23/"
# quelques~27 Fixations= ""
# années~28 Fixations= ""
%%
#  IL[1] SEMBLE[1] QUE[2] à[3] L'INSTAR[3] des Anglais les GALLOIS[11] SOIENT[11] PARVENUS[12] à[13] ASSIMILER[13] les éLéMENTS[15] QUI[16] ONT[17] PERMIS[17] à[18] L'HéMISPHèRE[18] Sud DE[19] DOMINER[19] LE[21] RUGBY[22] MONDIAL[22] DEPUIS[23] quelques années
# s20 victoire_footballeurs-m2 PercentageOfWordsProcessed= 0.758620689655172 PercentageOfWordsReallyProcessed= 0.814814814814815
