999 WORDS_L'impact~0 148
999 WORDFREQ_2.3 148
999 WORDSALL_L'impact~0 148
999 COSIND_0.38 148
999 COSGEN_0.38 148
101 ESRank1 148
999 WORDS_tourisme~2 169
999 WORDFREQ_4.66 169
999 WORDSALL_du~1_tourisme~2 169
999 COSIND_0.06 169
999 COSGEN_0.06 169
102 ESRank2 169
202 ESForwSacLong+2+4 169
999 WORDS_tourisme~2 148
999 WORDFREQ_4.66 148
999 WORDSALL_tourisme~2 148
999 COSIND_0.06 148
999 COSGEN_0.06 148
103 ESRank3 148
203 ESBackSacRefixation 148
999 WORDS_l'évolution~4 178
999 WORDFREQ_11.69 178
999 WORDSALL_sur~3_l'évolution~4 178
999 COSIND_0.21 178
999 COSGEN_0.21 178
104 ESRank4 178
202 ESForwSacLong+2+5 178
999 WORDS_l'évolution~4 108
999 WORDFREQ_11.69 108
999 WORDSALL_l'évolution~4 108
999 COSIND_0.21 108
999 COSGEN_0.21 108
105 ESRank5 108
203 ESBackSacRefixation 108
999 WORDS_l'évolution~4 90
999 WORDFREQ_11.69 90
999 WORDSALL_l'évolution~4 90
999 COSIND_0.21 90
999 COSGEN_0.21 90
106 ESRank6 90
203 ESBackSacRefixation 90
999 WORDS_climat~6 275
999 WORDFREQ_17.16 275
999 WORDSALL_climat~6 275
999 COSIND_0.49 275
999 COSGEN_0.49 275
107 ESRank7 275
202 ESForwSacLong+2+4 275
999 WORDS_pourrait~7 177
999 WORDFREQ_159.32 177
999 WORDSALL_pourrait~7 177
999 COSIND_0.04 177
999 COSGEN_0.04 177
108 ESRank8 177
201 ESForwSacShort 177
999 WORDS_plus~8 163
999 WORDFREQ_5014.53 163
999 WORDSALL_plus~8 163
999 COSIND_0.12 163
999 COSGEN_0.12 163
109 ESRank9 163
201 ESForwSacShort 163
999 WORDS_doubler~10 208
999 WORDFREQ_4.39 208
999 WORDSALL_que~9_doubler~10 208
999 COSIND_0.07 208
999 COSGEN_0.07 208
110 ESRank10 208
202 ESForwSacLong+2+5 208
999 WORDS_dans~11 114
999 WORDFREQ_8296.08 114
999 WORDSALL_dans~11 114
999 COSIND_N/A 114
111 ESRank11 114
201 ESForwSacShort 114
999 WORDS_prochaines~14 181
999 WORDFREQ_2.7 181
999 WORDSALL_trente~13_prochaines~14 181
999 COSIND_0.08 181
999 COSGEN_0.08 181
112 ESRank12 181
202 ESForwSacLong+3+12 181
200 ESRankN 181
199 ESRankNMinus1 114
198 ESRankNMinus2 208
197 ESRankNMinus3 163
196 ESRankNMinus4 177
195 ESRankNMinus5 275
194 ESRankNMinus6 90
193 ESRankNMinus7 108
192 ESRankNMinus8 178
191 ESRankNMinus9 148
190 ESRankNMinus10 169
