999 WORDS_problème~1 105
999 WORDFREQ_55.2 105
999 WORDSALL_Le~0_problème~1 105
999 COSIND_0.00 105
999 COSGEN_0.00 105
101 ESRank1 105
999 WORDS_problème~1 86
999 WORDFREQ_55.2 86
999 WORDSALL_Le~0_problème~1 86
999 COSIND_0.00 86
999 COSGEN_0.00 86
102 ESRank2 86
203 ESBackSacRefixation 86
999 WORDS_problème~1 112
999 WORDFREQ_55.2 112
999 WORDSALL_problème~1 112
999 COSIND_0.00 112
999 COSGEN_0.00 112
103 ESRank3 112
203 ESBackSacRefixation 112
999 WORDS_devra~3 153
999 WORDFREQ_8.04 153
999 WORDSALL_que~2_devra~3 153
999 COSIND_-0.00 153
999 COSGEN_-0.00 153
104 ESRank4 153
202 ESForwSacLong+2+5 153
999 WORDS_gérer~4 115
999 WORDFREQ_1.22 115
999 WORDSALL_devra~3_gérer~4 115
999 COSIND_0.14 115
999 COSGEN_0.14 115
105 ESRank5 115
201 ESForwSacShort 115
999 WORDS_gérer~4 85
999 WORDFREQ_1.22 85
999 WORDSALL_gérer~4 85
999 COSIND_0.14 85
999 COSGEN_0.14 85
106 ESRank6 85
203 ESBackSacRefixation 85
999 WORDS_gouvernement~6 127
999 WORDFREQ_119.73 127
999 WORDSALL_le~5_gouvernement~6 127
999 COSIND_0.03 127
999 COSGEN_0.03 127
107 ESRank7 127
202 ESForwSacLong+2+4 127
999 WORDS_canaliser~9 147
999 WORDFREQ_0.74 147
999 WORDSALL_est~7_canaliser~9 147
999 COSIND_0.27 147
999 COSGEN_0.27 147
108 ESRank8 147
202 ESForwSacLong+3+8 147
999 WORDS_canaliser~9 131
999 WORDFREQ_0.74 131
999 WORDSALL_de~8_canaliser~9 131
999 COSIND_0.27 131
999 COSGEN_0.27 131
109 ESRank9 131
203 ESBackSacRefixation 131
999 WORDS_canaliser~9 145
999 WORDFREQ_0.74 145
999 WORDSALL_canaliser~9 145
999 COSIND_0.27 145
999 COSGEN_0.27 145
110 ESRank10 145
203 ESBackSacRefixation 145
999 WORDS_retour~11 206
999 WORDFREQ_153.31 206
999 WORDSALL_le~10_retour~11 206
999 COSIND_0.20 206
999 COSGEN_0.20 206
111 ESRank11 206
202 ESForwSacLong+2+4 206
999 WORDS_sinistrés~13 122
999 WORDFREQ_0.54 122
999 WORDSALL_des~12_sinistrés~13 122
999 COSIND_0.32 122
999 COSGEN_0.32 122
112 ESRank12 122
202 ESForwSacLong+2+5 122
999 WORDS_sinistrés~13 132
999 WORDFREQ_0.54 132
999 WORDSALL_sinistrés~13 132
999 COSIND_0.32 132
999 COSGEN_0.32 132
113 ESRank13 132
203 ESBackSacRefixation 132
999 WORDS_familles~16 124
999 WORDFREQ_32.7 124
999 WORDSALL_dans~14_familles~16 124
999 COSIND_0.09 124
999 COSGEN_0.09 124
114 ESRank14 124
202 ESForwSacLong+3+10 124
999 WORDS_familles~16 208
999 WORDFREQ_32.7 208
999 WORDSALL_les~15_familles~16 208
999 COSIND_0.09 208
999 COSGEN_0.09 208
115 ESRank15 208
203 ESBackSacRefixation 208
999 WORDS_d'accueil~17 244
999 WORDFREQ_16.22 244
999 WORDSALL_d'accueil~17 244
999 COSIND_0.51 244
999 COSGEN_0.51 244
116 ESRank16 244
201 ESForwSacShort 244
999 WORDS_préalable~19 132
999 WORDFREQ_1.96 132
999 WORDSALL_Le~18_préalable~19 132
999 COSIND_-0.03 132
999 COSGEN_-0.03 132
117 ESRank17 132
202 ESForwSacLong+2+4 132
999 WORDS_préalable~19 119
999 WORDFREQ_1.96 119
999 WORDSALL_préalable~19 119
999 COSIND_-0.03 119
999 COSGEN_-0.03 119
118 ESRank18 119
203 ESBackSacRefixation 119
999 WORDS_identification~22 178
999 WORDFREQ_1.76 178
999 WORDSALL_est~20_identification~22 178
999 COSIND_0.06 178
999 COSGEN_0.06 178
119 ESRank19 178
202 ESForwSacLong+3+10 178
999 WORDS_identification~22 250
999 WORDFREQ_1.76 250
999 WORDSALL_identification~22 250
999 COSIND_0.06 250
999 COSGEN_0.06 250
120 ESRank20 250
203 ESBackSacRefixation 250
999 WORDS_identification~22 95
999 WORDFREQ_1.76 95
999 WORDSALL_identification~22 95
999 COSIND_0.06 95
999 COSGEN_0.06 95
203 ESBackSacRefixation 95
999 WORDS_n'ont~25 104
999 WORDFREQ_240.61 104
999 WORDSALL_car~23_n'ont~25 104
999 COSIND_0.00 104
999 COSGEN_0.00 104
202 ESForwSacLong+3+9 104
999 WORDS_n'ont~25 104
999 WORDFREQ_240.61 104
999 WORDSALL_ils~24_n'ont~25 104
999 COSIND_0.00 104
999 COSGEN_0.00 104
203 ESBackSacRefixation 104
999 WORDS_pièce~28 168
999 WORDFREQ_193.78 168
999 WORDSALL_de~27_pièce~28 168
999 COSIND_-0.00 168
999 COSGEN_-0.00 168
202 ESForwSacLong+3+9 168
999 WORDS_d'identité~29 240
999 WORDFREQ_22.64 240
999 WORDSALL_d'identité~29 240
999 COSIND_-0.03 240
999 COSGEN_-0.03 240
201 ESForwSacShort 240
200 ESRankN 240
199 ESRankNMinus1 168
198 ESRankNMinus2 104
197 ESRankNMinus3 104
196 ESRankNMinus4 95
195 ESRankNMinus5 250
194 ESRankNMinus6 178
193 ESRankNMinus7 119
192 ESRankNMinus8 132
191 ESRankNMinus9 244
190 ESRankNMinus10 208
