999 WORDS_Trois~0 151
999 WORDFREQ_660.34 151
999 WORDSALL_Trois~0 151
999 COSIND_0.02 151
999 COSGEN_0.02 151
101 ESRank1 151
999 WORDS_jours~1 158
999 WORDFREQ_515.41 158
999 WORDSALL_Trois~0_jours~1 158
999 COSIND_0.01 158
999 COSGEN_0.01 158
102 ESRank2 158
201 ESForwSacShort 158
999 WORDS_après~2 216
999 WORDFREQ_821.55 216
999 WORDSALL_jours~1_après~2 216
999 COSIND_0.01 216
999 COSGEN_0.01 216
103 ESRank3 216
201 ESForwSacShort 216
999 WORDS_tir~4 208
999 WORDFREQ_16.01 208
999 WORDSALL_après~2_tir~4 208
999 COSIND_-0.05 208
999 COSGEN_-0.05 208
104 ESRank4 208
202 ESForwSacLong+2+4 208
999 WORDS_missile~6 283
999 WORDFREQ_0.41 283
999 WORDSALL_tir~4_missile~6 283
999 COSIND_-0.07 283
999 COSGEN_-0.07 283
105 ESRank5 283
202 ESForwSacLong+2+4 283
999 WORDS_missile~6 172
999 WORDFREQ_0.41 172
999 WORDSALL_missile~6 172
999 COSIND_-0.07 172
999 COSGEN_-0.07 172
106 ESRank6 172
203 ESBackSacRefixation 172
999 WORDS_Agni-2~8 158
999 WORDFREQ_N/A 158
999 WORDSALL_Trois~0_Agni-2~8 158
999 COSIND_N/A 158
107 ESRank7 158
202 ESForwSacLong+2+8 158
999 WORDS_Agni-2~8 103
999 WORDFREQ_N/A 103
999 WORDSALL_Trois~0_Agni-2~8 103
999 COSIND_N/A 103
108 ESRank8 103
203 ESBackSacRefixation 103
999 WORDS_Pakistan~10 208
999 WORDFREQ_N/A 208
999 WORDSALL_jours~1_après~2_Pakistan~10 208
999 COSIND_N/A 208
109 ESRank9 208
202 ESForwSacLong+2+4 208
999 WORDS_répliqué~12 214
999 WORDFREQ_N/A 214
999 WORDSALL_le~3_tir~4_a~11_répliqué~12 214
999 COSIND_N/A 214
110 ESRank10 214
202 ESForwSacLong+2+3 214
999 WORDS_tirant~14 294
999 WORDFREQ_25.95 294
999 WORDSALL_en~13_tirant~14 294
999 COSIND_-0.02 294
999 COSGEN_-0.02 294
111 ESRank11 294
202 ESForwSacLong+2+4 294
999 WORDS_version~16 150
999 WORDFREQ_11.01 150
999 WORDSALL_Agni-2~8_version~16 150
999 COSIND_0.04 150
999 COSGEN_0.04 150
112 ESRank12 150
202 ESForwSacLong+2+5 150
999 WORDS_version~16 122
999 WORDFREQ_11.01 122
999 WORDSALL_Agni-2~8_version~16 122
999 COSIND_0.04 122
999 COSGEN_0.04 122
113 ESRank13 122
203 ESBackSacRefixation 122
999 WORDS_améliorée~17 260
999 WORDFREQ_0.07 260
999 WORDSALL_le~9_Pakistan~10_améliorée~17 260
999 COSIND_-0.05 260
999 COSGEN_-0.05 260
114 ESRank14 260
201 ESForwSacShort 260
999 WORDS_a~11 186
999 WORDFREQ_2926.69 186
999 WORDSALL_Pakistan~10_a~11 186
999 COSIND_N/A 186
115 ESRank15 186
206 ESBackSacRegrLong-6-34 186
999 WORDS_missile~20 160
999 WORDFREQ_0.41 160
999 WORDSALL_a~11_répliqué~12_missile~20 160
999 COSIND_-0.07 160
999 COSGEN_-0.07 160
116 ESRank16 160
202 ESForwSacLong+9+53 160
999 WORDS_balistique~21 186
999 WORDFREQ_0.07 186
999 WORDSALL_balistique~21 186
999 COSIND_-0.11 186
999 COSGEN_-0.11 186
117 ESRank17 186
201 ESForwSacShort 186
999 WORDS_Ghauri~26 124
999 WORDFREQ_N/A 124
999 WORDSALL_Ghauri~26 124
999 COSIND_N/A 124
118 ESRank18 124
202 ESForwSacLong+5+23 124
200 ESRankN 124
199 ESRankNMinus1 186
198 ESRankNMinus2 160
197 ESRankNMinus3 186
196 ESRankNMinus4 260
195 ESRankNMinus5 122
194 ESRankNMinus6 150
193 ESRankNMinus7 294
192 ESRankNMinus8 214
191 ESRankNMinus9 208
190 ESRankNMinus10 103
