999 WORDS_a~2 150
999 WORDFREQ_2926.69 150
999 WORDSALL_aubry~1_a~2 150
999 COSIND_N/A 150
101 ESRank1 150
999 WORDS_aubry~1 182
999 WORDFREQ_N/A 182
999 WORDSALL_Mme~0_aubry~1 182
999 COSIND_N/A 182
102 ESRank2 182
205 ESBackSacRegrShort 182
999 WORDS_aubry~1 139
999 WORDFREQ_N/A 139
999 WORDSALL_Mme~0_aubry~1 139
999 COSIND_N/A 139
103 ESRank3 139
203 ESBackSacRefixation 139
999 WORDS_annoncé~3 115
999 WORDFREQ_15.68 115
999 WORDSALL_a~2_annoncé~3 115
999 COSIND_0.06 115
999 COSGEN_0.06 115
104 ESRank4 115
202 ESForwSacLong+2+3 115
999 WORDS_l'objectif~5 215
999 WORDFREQ_9.19 215
999 WORDSALL_que~4_l'objectif~5 215
999 COSIND_-0.08 215
999 COSGEN_-0.08 215
105 ESRank5 215
202 ESForwSacLong+2+5 215
999 WORDS_national~6 195
999 WORDFREQ_42.7 195
999 WORDSALL_l'objectif~5_national~6 195
999 COSIND_-0.02 195
999 COSGEN_-0.02 195
106 ESRank6 195
201 ESForwSacShort 195
999 WORDS_dépenses~8 311
999 WORDFREQ_5.07 311
999 WORDSALL_des~7_dépenses~8 311
999 COSIND_0.15 311
999 COSGEN_0.15 311
107 ESRank7 311
202 ESForwSacLong+2+5 311
999 WORDS_d'assurance~9 241
999 WORDFREQ_25.14 241
999 WORDSALL_d'assurance~9 241
999 COSIND_0.24 241
999 COSGEN_0.24 241
108 ESRank8 241
201 ESForwSacShort 241
999 WORDS_maladie~10 99
999 WORDFREQ_49.59 99
999 WORDSALL_maladie~10 99
999 COSIND_0.12 99
999 COSGEN_0.12 99
109 ESRank9 99
201 ESForwSacShort 99
999 WORDS_maladie~10 87
999 WORDFREQ_49.59 87
999 WORDSALL_maladie~10 87
999 COSIND_0.12 87
999 COSGEN_0.12 87
110 ESRank10 87
203 ESBackSacRefixation 87
999 WORDS_voté~11 125
999 WORDFREQ_1.76 125
999 WORDSALL_voté~11 125
999 COSIND_-0.07 125
999 COSGEN_-0.07 125
111 ESRank11 125
201 ESForwSacShort 125
999 WORDS_parlement~14 190
999 WORDFREQ_5.54 190
999 WORDSALL_parlement~14 190
999 COSIND_-0.08 190
999 COSGEN_-0.08 190
112 ESRank12 190
202 ESForwSacLong+3+8 190
999 WORDS_parlement~14 179
999 WORDFREQ_5.54 179
999 WORDSALL_le~13_parlement~14 179
999 COSIND_-0.08 179
999 COSGEN_-0.08 179
113 ESRank13 179
203 ESBackSacRefixation 179
999 WORDS_sera~15 312
999 WORDFREQ_66.69 312
999 WORDSALL_sera~15 312
999 COSIND_0.09 312
999 COSGEN_0.09 312
114 ESRank14 312
201 ESForwSacShort 312
999 WORDS_dépassé~16 149
999 WORDFREQ_12.09 149
999 WORDSALL_sera~15_dépassé~16 149
999 COSIND_0.12 149
999 COSGEN_0.12 149
115 ESRank15 149
201 ESForwSacShort 149
999 WORDS_d'environ~17 282
999 WORDFREQ_27.43 282
999 WORDSALL_d'environ~17 282
999 COSIND_0.09 282
999 COSGEN_0.09 282
116 ESRank16 282
201 ESForwSacShort 282
999 WORDS_milliards~19 163
999 WORDFREQ_11.96 163
999 WORDSALL_milliards~19 163
999 COSIND_0.02 163
999 COSGEN_0.02 163
117 ESRank17 163
202 ESForwSacLong+2+3 163
999 WORDS_d'euros~20 114
999 WORDFREQ_0 114
999 WORDSALL_d'euros~20 114
999 COSIND_N/A 114
118 ESRank18 114
201 ESForwSacShort 114
999 WORDS_sera~15 143
999 WORDFREQ_66.69 143
999 WORDSALL_sera~15 143
999 COSIND_0.09 143
999 COSGEN_0.09 143
119 ESRank19 143
206 ESBackSacRegrLong-5-33 143
999 WORDS_parlement~14 200
999 WORDFREQ_5.54 200
999 WORDSALL_le~13_parlement~14 200
999 COSIND_-0.08 200
999 COSGEN_-0.08 200
120 ESRank20 200
205 ESBackSacRegrShort 200
999 WORDS_sera~15 213
999 WORDFREQ_66.69 213
999 WORDSALL_parlement~14_sera~15 213
999 COSIND_0.09 213
999 COSGEN_0.09 213
201 ESForwSacShort 213
999 WORDS_d'assurance~9 262
999 WORDFREQ_25.14 262
999 WORDSALL_d'assurance~9 262
999 COSIND_0.24 262
999 COSGEN_0.24 262
206 ESBackSacRegrLong-6-32 262
999 WORDS_dépassé~16 182
999 WORDFREQ_12.09 182
999 WORDSALL_sera~15_dépassé~16 182
999 COSIND_0.12 182
999 COSGEN_0.12 182
202 ESForwSacLong+7+37 182
999 WORDS_maladie~10 226
999 WORDFREQ_49.59 226
999 WORDSALL_maladie~10 226
999 COSIND_0.12 226
999 COSGEN_0.12 226
206 ESBackSacRegrLong-6-29 226
999 WORDS_d'assurance~9 284
999 WORDFREQ_25.14 284
999 WORDSALL_d'assurance~9 284
999 COSIND_0.24 284
999 COSGEN_0.24 284
205 ESBackSacRegrShort 284
999 WORDS_annoncé~3 138
999 WORDFREQ_15.68 138
999 WORDSALL_annoncé~3 138
999 COSIND_0.06 138
999 COSGEN_0.06 138
206 ESBackSacRegrLong-6-39 138
999 WORDS_l'objectif~5 143
999 WORDFREQ_9.19 143
999 WORDSALL_l'objectif~5 143
999 COSIND_-0.08 143
999 COSGEN_-0.08 143
202 ESForwSacLong+2+5 143
999 WORDS_national~6 135
999 WORDFREQ_42.7 135
999 WORDSALL_national~6 135
999 COSIND_-0.02 135
999 COSGEN_-0.02 135
201 ESForwSacShort 135
999 WORDS_dépenses~8 306
999 WORDFREQ_5.07 306
999 WORDSALL_dépenses~8 306
999 COSIND_0.15 306
999 COSGEN_0.15 306
202 ESForwSacLong+2+5 306
999 WORDS_maladie~10 205
999 WORDFREQ_49.59 205
999 WORDSALL_d'assurance~9_maladie~10 205
999 COSIND_0.12 205
999 COSGEN_0.12 205
202 ESForwSacLong+2+13 205
999 WORDS_d'assurance~9 177
999 WORDFREQ_25.14 177
999 WORDSALL_d'assurance~9 177
999 COSIND_0.24 177
999 COSGEN_0.24 177
205 ESBackSacRegrShort 177
999 WORDS_maladie~10 146
999 WORDFREQ_49.59 146
999 WORDSALL_maladie~10 146
999 COSIND_0.12 146
999 COSGEN_0.12 146
201 ESForwSacShort 146
999 WORDS_voté~11 115
999 WORDFREQ_1.76 115
999 WORDSALL_voté~11 115
999 COSIND_-0.07 115
999 COSGEN_-0.07 115
201 ESForwSacShort 115
999 WORDS_parlement~14 210
999 WORDFREQ_5.54 210
999 WORDSALL_parlement~14 210
999 COSIND_-0.08 210
999 COSGEN_-0.08 210
202 ESForwSacLong+3+8 210
999 WORDS_parlement~14 291
999 WORDFREQ_5.54 291
999 WORDSALL_le~13_parlement~14 291
999 COSIND_-0.08 291
999 COSGEN_-0.08 291
203 ESBackSacRefixation 291
999 WORDS_dépassé~16 235
999 WORDFREQ_12.09 235
999 WORDSALL_sera~15_dépassé~16 235
999 COSIND_0.12 235
999 COSGEN_0.12 235
202 ESForwSacLong+2+6 235
999 WORDS_d'environ~17 241
999 WORDFREQ_27.43 241
999 WORDSALL_d'environ~17 241
999 COSIND_0.09 241
999 COSGEN_0.09 241
201 ESForwSacShort 241
999 WORDS_d'euros~20 286
999 WORDFREQ_0 286
999 WORDSALL_milliards~19_d'euros~20 286
999 COSIND_N/A 286
202 ESForwSacLong+3+13 286
999 WORDS_parlement~14 141
999 WORDFREQ_5.54 141
999 WORDSALL_le~13_parlement~14 141
999 COSIND_-0.08 141
999 COSGEN_-0.08 141
206 ESBackSacRegrLong-6-38 141
999 WORDS_a~2 186
999 WORDFREQ_2926.69 186
999 WORDSALL_aubry~1_a~2 186
999 COSIND_N/A 186
206 ESBackSacRegrLong-12-81 186
999 WORDS_annoncé~3 183
999 WORDFREQ_15.68 183
999 WORDSALL_a~2_annoncé~3 183
999 COSIND_0.06 183
999 COSGEN_0.06 183
201 ESForwSacShort 183
200 ESRankN 183
199 ESRankNMinus1 186
198 ESRankNMinus2 141
197 ESRankNMinus3 286
196 ESRankNMinus4 241
195 ESRankNMinus5 235
194 ESRankNMinus6 291
193 ESRankNMinus7 210
192 ESRankNMinus8 115
191 ESRankNMinus9 146
190 ESRankNMinus10 177
