999 WORDS_réaction~1 234
999 WORDFREQ_20 234
999 WORDSALL_Cette~0_réaction~1 234
999 COSIND_-0.05 234
999 COSGEN_-0.05 234
101 ESRank1 234
999 WORDS_réaction~1 201
999 WORDFREQ_20 201
999 WORDSALL_Cette~0_réaction~1 201
999 COSIND_-0.05 201
999 COSGEN_-0.05 201
102 ESRank2 201
203 ESBackSacRefixation 201
999 WORDS_réaction~1 135
999 WORDFREQ_20 135
999 WORDSALL_Cette~0_réaction~1 135
999 COSIND_-0.05 135
999 COSGEN_-0.05 135
103 ESRank3 135
203 ESBackSacRefixation 135
999 WORDS_conduit~2 258
999 WORDFREQ_33.45 258
999 WORDSALL_réaction~1_conduit~2 258
999 COSIND_-0.07 258
999 COSGEN_-0.07 258
104 ESRank4 258
201 ESForwSacShort 258
999 WORDS_conduit~2 165
999 WORDFREQ_33.45 165
999 WORDSALL_conduit~2 165
999 COSIND_-0.07 165
999 COSGEN_-0.07 165
105 ESRank5 165
203 ESBackSacRefixation 165
999 WORDS_industriels~3 236
999 WORDFREQ_2.23 236
999 WORDSALL_conduit~2_industriels~3 236
999 COSIND_-0.00 236
999 COSGEN_-0.00 236
106 ESRank6 236
201 ESForwSacShort 236
999 WORDS_industriels~3 228
999 WORDFREQ_2.23 228
999 WORDSALL_industriels~3 228
999 COSIND_-0.00 228
999 COSGEN_-0.00 228
107 ESRank7 228
203 ESBackSacRefixation 228
999 WORDS_industriels~3 205
999 WORDFREQ_2.23 205
999 WORDSALL_industriels~3 205
999 COSIND_-0.00 205
999 COSGEN_-0.00 205
108 ESRank8 205
203 ESBackSacRefixation 205
999 WORDS_conduit~2 242
999 WORDFREQ_33.45 242
999 WORDSALL_conduit~2 242
999 COSIND_-0.07 242
999 COSGEN_-0.07 242
109 ESRank9 242
205 ESBackSacRegrShort 242
999 WORDS_industriels~3 159
999 WORDFREQ_2.23 159
999 WORDSALL_industriels~3 159
999 COSIND_-0.00 159
999 COSGEN_-0.00 159
110 ESRank10 159
201 ESForwSacShort 159
999 WORDS_industriels~3 125
999 WORDFREQ_2.23 125
999 WORDSALL_industriels~3 125
999 COSIND_-0.00 125
999 COSGEN_-0.00 125
111 ESRank11 125
203 ESBackSacRefixation 125
999 WORDS_et~4 94
999 WORDFREQ_20879.73 94
999 WORDSALL_et~4 94
999 COSIND_N/A 94
112 ESRank12 94
201 ESForwSacShort 94
999 WORDS_milieux~5 188
999 WORDFREQ_9.39 188
999 WORDSALL_milieux~5 188
999 COSIND_0.00 188
999 COSGEN_0.00 188
113 ESRank13 188
201 ESForwSacShort 188
999 WORDS_milieux~5 144
999 WORDFREQ_9.39 144
999 WORDSALL_milieux~5 144
999 COSIND_0.00 144
999 COSGEN_0.00 144
114 ESRank14 144
203 ESBackSacRefixation 144
999 WORDS_financiers~6 155
999 WORDFREQ_2.36 155
999 WORDSALL_financiers~6 155
999 COSIND_0.08 155
999 COSGEN_0.08 155
115 ESRank15 155
201 ESForwSacShort 155
999 WORDS_à~7 162
999 WORDFREQ_19209.05 162
999 WORDSALL_à~7 162
999 COSIND_N/A 162
116 ESRank16 162
201 ESForwSacShort 162
999 WORDS_prudence~9 676
999 WORDFREQ_19.32 676
999 WORDSALL_prudence~9 676
999 COSIND_0.16 676
999 COSGEN_0.16 676
117 ESRank17 676
202 ESForwSacLong+2+4 676
999 WORDS_OGM~15 545
999 WORDFREQ_N/A 545
999 WORDSALL_des~14_OGM~15 545
999 COSIND_N/A 545
118 ESRank18 545
202 ESForwSacLong+6+30 545
999 WORDS_valeurs~23 451
999 WORDFREQ_11.55 451
999 WORDSALL_Les~22_valeurs~23 451
999 COSIND_0.54 451
999 COSGEN_0.54 451
119 ESRank19 451
202 ESForwSacLong+8+40 451
999 WORDS_attrait~30 355
999 WORDFREQ_6.96 355
999 WORDSALL_de~28_attrait~30 355
999 COSIND_-0.04 355
999 COSGEN_-0.04 355
120 ESRank20 355
202 ESForwSacLong+7+37 355
200 ESRankN 355
199 ESRankNMinus1 451
198 ESRankNMinus2 545
197 ESRankNMinus3 676
196 ESRankNMinus4 162
195 ESRankNMinus5 155
194 ESRankNMinus6 144
193 ESRankNMinus7 188
192 ESRankNMinus8 94
191 ESRankNMinus9 125
190 ESRankNMinus10 159
