999 WORDS_collectif~6 121
999 WORDFREQ_4.73 121
999 WORDSALL_Le~0_football~1_collectif~6 121
999 COSIND_0.04 121
999 COSGEN_0.04 121
101 ESRank1 121
999 WORDS_football~1 169
999 WORDFREQ_6.28 169
999 WORDSALL_Le~0_football~1 169
999 COSIND_0.02 169
999 COSGEN_0.02 169
102 ESRank2 169
206 ESBackSacRegrLong-5-25 169
999 WORDS_football~1 142
999 WORDFREQ_6.28 142
999 WORDSALL_Le~0_football~1 142
999 COSIND_0.02 142
999 COSGEN_0.02 142
103 ESRank3 142
203 ESBackSacRefixation 142
999 WORDS_américain~2 319
999 WORDFREQ_25.95 319
999 WORDSALL_américain~2 319
999 COSIND_-0.00 319
999 COSGEN_-0.00 319
104 ESRank4 319
201 ESForwSacShort 319
999 WORDS_mélanger~9 193
999 WORDFREQ_3.18 193
999 WORDSALL_est~3_sport~5_mélanger~9 193
999 COSIND_-0.06 193
999 COSGEN_-0.06 193
105 ESRank5 193
202 ESForwSacLong+7+35 193
999 WORDS_sport~5 124
999 WORDFREQ_15.54 124
999 WORDSALL_est~3_sport~5 124
999 COSIND_0.01 124
999 COSGEN_0.01 124
106 ESRank6 124
206 ESBackSacRegrLong-4-22 124
999 WORDS_collectif~6 260
999 WORDFREQ_4.73 260
999 WORDSALL_collectif~6 260
999 COSIND_0.04 260
999 COSGEN_0.04 260
107 ESRank7 260
201 ESForwSacShort 260
999 WORDS_collectif~6 119
999 WORDFREQ_4.73 119
999 WORDSALL_Le~0_football~1_collectif~6 119
999 COSIND_0.04 119
999 COSGEN_0.04 119
108 ESRank8 119
203 ESBackSacRefixation 119
999 WORDS_connu~7 198
999 WORDFREQ_16.01 198
999 WORDSALL_américain~2_connu~7 198
999 COSIND_0.16 198
999 COSGEN_0.16 198
109 ESRank9 198
201 ESForwSacShort 198
999 WORDS_mélanger~9 397
999 WORDFREQ_3.18 397
999 WORDSALL_mélanger~9 397
999 COSIND_-0.06 397
999 COSGEN_-0.06 397
110 ESRank10 397
202 ESForwSacLong+2+6 397
999 WORDS_mélanger~9 155
999 WORDFREQ_3.18 155
999 WORDSALL_américain~2_mélanger~9 155
999 COSIND_-0.06 155
999 COSGEN_-0.06 155
111 ESRank11 155
203 ESBackSacRefixation 155
999 WORDS_jeu~15 115
999 WORDFREQ_130.68 115
999 WORDSALL_mélanger~9_jeu~15 115
999 COSIND_-0.01 115
999 COSGEN_-0.01 115
112 ESRank12 115
202 ESForwSacLong+6+33 115
999 WORDS_stratégies~11 254
999 WORDFREQ_0.34 254
999 WORDSALL_stratégies~11 254
999 COSIND_0.01 254
999 COSGEN_0.01 254
113 ESRank13 254
206 ESBackSacRegrLong-4-17 254
999 WORDS_stratégies~11 138
999 WORDFREQ_0.34 138
999 WORDSALL_collectif~6_stratégies~11 138
999 COSIND_0.01 138
999 COSGEN_0.01 138
114 ESRank14 138
203 ESBackSacRefixation 138
999 WORDS_jeu~21 167
999 WORDFREQ_130.68 167
999 WORDSALL_complexes~12_jeu~21 167
999 COSIND_-0.01 167
999 COSGEN_-0.01 167
115 ESRank15 167
202 ESForwSacLong+10+48 167
999 WORDS_portant~28 131
999 WORDFREQ_39.93 131
999 WORDSALL_portant~28 131
999 COSIND_0.03 131
999 COSGEN_0.03 131
116 ESRank16 131
202 ESForwSacLong+7+30 131
999 WORDS_nommée~37 126
999 WORDFREQ_0.54 126
999 WORDSALL_but~36_nommée~37 126
999 COSIND_-0.05 126
999 COSGEN_-0.05 126
117 ESRank17 126
202 ESForwSacLong+9+42 126
999 WORDS_end~38 149
999 WORDFREQ_N/A 149
999 WORDSALL_un~29_ballon~30_nommée~37_end~38 149
999 COSIND_N/A 149
118 ESRank18 149
201 ESForwSacShort 149
200 ESRankN 149
199 ESRankNMinus1 126
198 ESRankNMinus2 131
197 ESRankNMinus3 167
196 ESRankNMinus4 138
195 ESRankNMinus5 254
194 ESRankNMinus6 115
193 ESRankNMinus7 155
192 ESRankNMinus8 397
191 ESRankNMinus9 198
190 ESRankNMinus10 119
