# 119 Fixation 1 (271.2,279.2): Le~0 juge~1
# 205 Fixation 2 (384.7,286.6): administratif~2
# 122 Fixation 3 (533.9,292.9): estime~3
# 111 Fixation 4 (605.3,296.1): estime~3 locations~10
# 98 Fixation 5 (664,289.9): que~4 locations~10
# 212 Fixation 6 (284.9,334.9): Le~0 juge~1 extension~6
# 231 Fixation 7 (420.7,346.5): administratif~2 système~8
# 102 Fixation 8 (547.5,353.7): de~9 locations~10
# 137 Fixation 9 (607.1,353.7): locations~10
# 152 Fixation 10 (712.3,357.4): de~11 vélos~12
# 129 Fixation 11 (300.3,412): extension~6 libre-service~14
# 143 Fixation 12 (300.9,406): extension~6 libre-service~14
%%
# Le~0 Fixations= "6/"
# juge~1 Fixations= "6/"
# administratif~2 Fixations= "7/"
# estime~3 Fixations= "4/"
# que~4 Fixations= "5/"
# cette~5 Fixations= ""
# extension~6 Fixations= "12/"
# du~7 Fixations= ""
# système~8 Fixations= "7/"
# de~9 Fixations= "8/"
# locations~10 Fixations= "9/"
# de~11 Fixations= "10/"
# vélos~12 Fixations= "10/"
# en~13 Fixations= ""
# libre-service~14 Fixations= "12/"
# constitue~15 Fixations= ""
# un~16 Fixations= ""
# nouveau~17 Fixations= ""
# marché~18 Fixations= ""
# Il~19 Fixations= ""
# fournit~20 Fixations= ""
# pour~21 Fixations= ""
# les~22 Fixations= ""
# communes~23 Fixations= ""
# un~24 Fixations= ""
# réel~25 Fixations= ""
# service~26 Fixations= ""
# de~27 Fixations= ""
# bicyclettes~28 Fixations= ""
# en~29 Fixations= ""
# libre-service~30 Fixations= ""
%%
#  LE[6] JUGE[6] ADMINISTRATIF[7] ESTIME[4] QUE[5] cette EXTENSION[12] du SYSTèME[7] DE[8] LOCATIONS[9] DE[10] VéLOS[10] en LIBRE-SERVICE[12] constitue un nouveau marché Il fournit pour les communes un réel service de bicyclettes en libre-service
# s02 conflit_israelo_palestinien-a1 PercentageOfWordsProcessed= 0.387096774193548 PercentageOfWordsReallyProcessed= 0.8
