999 WORDS_transports~1 136
999 WORDFREQ_8.04 136
999 WORDSALL_Les~0_transports~1 136
999 COSIND_0.24 136
999 COSGEN_0.24 136
101 ESRank1 136
999 WORDS_perturbations~5 177
999 WORDFREQ_1.08 177
999 WORDSALL_perturbations~5 177
999 COSIND_0.46 177
999 COSGEN_0.46 177
102 ESRank2 177
202 ESForwSacLong+4+38 177
999 WORDS_quatrième~7 137
999 WORDFREQ_15.74 137
999 WORDSALL_au~6_quatrième~7 137
999 COSIND_0.00 137
999 COSGEN_0.00 137
103 ESRank3 137
202 ESForwSacLong+2+4 137
999 WORDS_d'importantes~4 220
999 WORDFREQ_8.99 220
999 WORDSALL_d'importantes~4 220
999 COSIND_0.03 220
999 COSGEN_0.03 220
104 ESRank4 220
206 ESBackSacRegrLong-3-18 220
999 WORDS_perturbations~5 177
999 WORDFREQ_1.08 177
999 WORDSALL_perturbations~5 177
999 COSIND_0.46 177
999 COSGEN_0.46 177
105 ESRank5 177
201 ESForwSacShort 177
999 WORDS_syndicats~14 172
999 WORDFREQ_3.24 172
999 WORDSALL_les~13_syndicats~14 172
999 COSIND_0.69 172
999 COSGEN_0.69 172
106 ESRank6 172
202 ESForwSacLong+9+49 172
999 WORDS_jour~8 100
999 WORDFREQ_826.35 100
999 WORDSALL_jour~8 100
999 COSIND_0.09 100
999 COSGEN_0.09 100
107 ESRank7 100
206 ESBackSacRegrLong-6-30 100
999 WORDS_projet~19 260
999 WORDFREQ_39.86 260
999 WORDSALL_contre~17_projet~19 260
999 COSIND_0.05 260
999 COSGEN_0.05 260
108 ESRank8 260
202 ESForwSacLong+11+65 260
999 WORDS_projet~19 184
999 WORDFREQ_39.86 184
999 WORDSALL_projet~19 184
999 COSIND_0.05 184
999 COSGEN_0.05 184
109 ESRank9 184
203 ESBackSacRefixation 184
999 WORDS_temps~23 194
999 WORDFREQ_1289.39 194
999 WORDSALL_temps~23 194
999 COSIND_-0.04 194
999 COSGEN_-0.04 194
110 ESRank10 194
202 ESForwSacLong+4+18 194
999 WORDS_travail~25 143
999 WORDFREQ_223.99 143
999 WORDSALL_travail~25 143
999 COSIND_0.05 143
999 COSGEN_0.05 143
111 ESRank11 143
202 ESForwSacLong+2+4 143
999 WORDS_travail~25 153
999 WORDFREQ_223.99 153
999 WORDSALL_travail~25 153
999 COSIND_0.05 153
999 COSGEN_0.05 153
112 ESRank12 153
203 ESBackSacRefixation 153
200 ESRankN 153
199 ESRankNMinus1 143
198 ESRankNMinus2 194
197 ESRankNMinus3 184
196 ESRankNMinus4 260
195 ESRankNMinus5 100
194 ESRankNMinus6 172
193 ESRankNMinus7 177
192 ESRankNMinus8 220
191 ESRankNMinus9 137
190 ESRankNMinus10 177
