# 140 Fixation 1 (304.7,286.5): Aujourd'hui~0
# 202 Fixation 2 (485.4,268.9): les~1 grands~2
# 158 Fixation 3 (587.4,277.8): noms~3
# 196 Fixation 4 (636.1,271.6): noms~3
# 147 Fixation 5 (336,313.7): Aujourd'hui~0 pâtisserie~6
# 171 Fixation 6 (292.2,331.5): Aujourd'hui~0 pâtisserie~6
# 174 Fixation 7 (430.7,335.5): les~1 grands~2 française~7
# 185 Fixation 8 (589,345.6): noms~3 sont~8 présents~9
# 171 Fixation 9 (713.3,353.3): présents~9 Japon~11
# 185 Fixation 10 (306.5,399.4): pâtisserie~6 associés~12
# 200 Fixation 11 (450.1,404.3): française~7 nippons~15
# 173 Fixation 12 (632.8,410.6): présents~9 a~18
# 180 Fixation 13 (326.1,467.8): associés~12 à~13 pléthore~21
# 180 Fixation 14 (433.2,469.6): à~13 nippons~15 d'excellents~22
# 193 Fixation 15 (635.5,468.7): Il~16 a~18 pâtissiers~24
%%
# Aujourd'hui~0 Fixations= "6/"
# les~1 Fixations= "7/"
# grands~2 Fixations= "7/"
# noms~3 Fixations= "8/"
# de~4 Fixations= ""
# la~5 Fixations= ""
# pâtisserie~6 Fixations= "10/"
# française~7 Fixations= "11/"
# sont~8 Fixations= "8/"
# présents~9 Fixations= "12/"
# au~10 Fixations= ""
# Japon~11 Fixations= "9/"
# associés~12 Fixations= "13/"
# à~13 Fixations= "14/"
# des~14 Fixations= ""
# nippons~15 Fixations= "14/"
# Il~16 Fixations= "15/"
# y~17 Fixations= ""
# a~18 Fixations= "15/"
# en~19 Fixations= ""
# outre~20 Fixations= ""
# pléthore~21 Fixations= "13/"
# d'excellents~22 Fixations= "14/"
# petits~23 Fixations= ""
# pâtissiers~24 Fixations= "15/"
# japonais~25 Fixations= ""
# de~26 Fixations= ""
# quartiers~27 Fixations= ""
%%
#  AUJOURD'HUI[6] LES[7] GRANDS[7] NOMS[8] de la PâTISSERIE[10] FRANçAISE[11] SONT[8] PRéSENTS[12] au JAPON[9] ASSOCIéS[13] à[14] des NIPPONS[14] IL[15] y A[15] en outre PLéTHORE[13] D'EXCELLENTS[14] petits PâTISSIERS[15] japonais de quartiers
# s17 decollage_fusee-a1 PercentageOfWordsProcessed= 0.607142857142857 PercentageOfWordsReallyProcessed= 0.68
