# 180 Fixation 1 (285.2,278.3): L'indice~0
# 214 Fixation 2 (479.6,342.4): en~10 hausse~11
# 210 Fixation 3 (589.7,347.7): hausse~11 était~13
# 174 Fixation 4 (628.7,304.5): Bourse~4
# 167 Fixation 5 (679.2,307): de~5 Londres~6
# 202 Fixation 6 (507.5,273.6): de~2 Bourse~4
# 128 Fixation 7 (312.6,327.4): clôturé~8
# 126 Fixation 8 (258.2,334.4): clôturé~8
# 175 Fixation 9 (373.6,401.2): encouragé~14
# 176 Fixation 10 (490.4,407.9): les~16 diverses~17
# 156 Fixation 11 (580.5,466.8): par~23 spéculations~25
# 106 Fixation 12 (655.5,474.5): spéculations~25
# 151 Fixation 13 (384,553.5): rapprochements~27
# 225 Fixation 14 (290.7,558.9): rapprochements~27
%%
# L'indice~0 Fixations= "1/"
# vedette~1 Fixations= ""
# de~2 Fixations= "6/"
# la~3 Fixations= ""
# Bourse~4 Fixations= "6/"
# de~5 Fixations= "5/"
# Londres~6 Fixations= "5/"
# a~7 Fixations= ""
# clôturé~8 Fixations= "8/"
# mardi~9 Fixations= ""
# en~10 Fixations= "2/"
# hausse~11 Fixations= "3/"
# Il~12 Fixations= ""
# était~13 Fixations= "3/"
# encouragé~14 Fixations= "9/"
# par~15 Fixations= ""
# les~16 Fixations= "10/"
# diverses~17 Fixations= "10/"
# annonces~18 Fixations= ""
# de~19 Fixations= ""
# sociétés~20 Fixations= ""
# et~21 Fixations= ""
# nourri~22 Fixations= ""
# par~23 Fixations= "11/"
# les~24 Fixations= ""
# spéculations~25 Fixations= "12/"
# de~26 Fixations= ""
# rapprochements~27 Fixations= "14/"
# industriels~28 Fixations= ""
%%
#  L'INDICE[1] vedette DE[6] la BOURSE[6] DE[5] LONDRES[5] a CLôTURé[8] mardi EN[2] HAUSSE[3] Il éTAIT[3] ENCOURAGé[9] par LES[10] DIVERSES[10] annonces de sociétés et nourri PAR[11] les SPéCULATIONS[12] de RAPPROCHEMENTS[14] industriels
# s21 hausse_bourse-f2 PercentageOfWordsProcessed= 0.517241379310345 PercentageOfWordsReallyProcessed= 0.535714285714286
