999 WORDS_moitié~1 215
999 WORDFREQ_76.96 215
999 WORDSALL_La~0_moitié~1 215
999 COSIND_0.12 215
999 COSGEN_0.12 215
101 ESRank1 215
999 WORDS_moitié~1 104
999 WORDFREQ_76.96 104
999 WORDSALL_La~0_moitié~1 104
999 COSIND_0.12 104
999 COSGEN_0.12 104
102 ESRank2 104
203 ESBackSacRefixation 104
999 WORDS_tout-petits~3 362
999 WORDFREQ_0.41 362
999 WORDSALL_des~2_tout-petits~3 362
999 COSIND_N/A 362
103 ESRank3 362
202 ESForwSacLong+2+5 362
999 WORDS_tout-petits~3 101
999 WORDFREQ_0.41 101
999 WORDSALL_tout-petits~3 101
999 COSIND_N/A 101
104 ESRank4 101
203 ESBackSacRefixation 101
999 WORDS_moitié~1 213
999 WORDFREQ_76.96 213
999 WORDSALL_La~0_moitié~1 213
999 COSIND_0.12 213
999 COSGEN_0.12 213
105 ESRank5 213
206 ESBackSacRegrLong-2-5 213
999 WORDS_moitié~1 197
999 WORDFREQ_76.96 197
999 WORDSALL_La~0_moitié~1 197
999 COSIND_0.12 197
999 COSGEN_0.12 197
106 ESRank6 197
203 ESBackSacRefixation 197
999 WORDS_tout-petits~3 293
999 WORDFREQ_0.41 293
999 WORDSALL_des~2_tout-petits~3 293
999 COSIND_N/A 293
107 ESRank7 293
202 ESForwSacLong+2+5 293
999 WORDS_tout-petits~3 238
999 WORDFREQ_0.41 238
999 WORDSALL_tout-petits~3 238
999 COSIND_N/A 238
108 ESRank8 238
203 ESBackSacRefixation 238
999 WORDS_sont~4 194
999 WORDFREQ_386.35 194
999 WORDSALL_sont~4 194
999 COSIND_0.09 194
999 COSGEN_0.09 194
109 ESRank9 194
201 ESForwSacShort 194
999 WORDS_gardés~5 278
999 WORDFREQ_2.77 278
999 WORDSALL_sont~4_gardés~5 278
999 COSIND_0.10 278
999 COSGEN_0.10 278
110 ESRank10 278
201 ESForwSacShort 278
999 WORDS_gardés~5 99
999 WORDFREQ_2.77 99
999 WORDSALL_gardés~5 99
999 COSIND_0.10 99
999 COSGEN_0.10 99
111 ESRank11 99
203 ESBackSacRefixation 99
999 WORDS_foyer~7 221
999 WORDFREQ_25.81 221
999 WORDSALL_foyer~7 221
999 COSIND_0.40 221
999 COSGEN_0.40 221
112 ESRank12 221
202 ESForwSacLong+2+4 221
999 WORDS_foyer~7 135
999 WORDFREQ_25.81 135
999 WORDSALL_foyer~7 135
999 COSIND_0.40 135
999 COSGEN_0.40 135
113 ESRank13 135
203 ESBackSacRefixation 135
999 WORDS_parent~10 243
999 WORDFREQ_4.53 243
999 WORDSALL_par~8_parent~10 243
999 COSIND_0.31 243
999 COSGEN_0.31 243
114 ESRank14 243
202 ESForwSacLong+3+8 243
999 WORDS_parent~10 239
999 WORDFREQ_4.53 239
999 WORDSALL_un~9_parent~10 239
999 COSIND_0.31 239
999 COSGEN_0.31 239
115 ESRank15 239
203 ESBackSacRefixation 239
999 WORDS_parent~10 140
999 WORDFREQ_4.53 140
999 WORDSALL_par~8_parent~10 140
999 COSIND_0.31 140
999 COSGEN_0.31 140
116 ESRank16 140
203 ESBackSacRefixation 140
999 WORDS_foyer~7 158
999 WORDFREQ_25.81 158
999 WORDSALL_foyer~7 158
999 COSIND_0.40 158
999 COSGEN_0.40 158
117 ESRank17 158
206 ESBackSacRegrLong-3-8 158
999 WORDS_foyer~7 108
999 WORDFREQ_25.81 108
999 WORDSALL_foyer~7 108
999 COSIND_0.40 108
999 COSGEN_0.40 108
118 ESRank18 108
203 ESBackSacRefixation 108
999 WORDS_parent~10 93
999 WORDFREQ_4.53 93
999 WORDSALL_par~8_parent~10 93
999 COSIND_0.31 93
999 COSGEN_0.31 93
119 ESRank19 93
202 ESForwSacLong+3+8 93
999 WORDS_maman~12 220
999 WORDFREQ_140.2 220
999 WORDSALL_maman~12 220
999 COSIND_0.13 220
999 COSGEN_0.13 220
120 ESRank20 220
202 ESForwSacLong+2+4 220
999 WORDS_maman~12 298
999 WORDFREQ_140.2 298
999 WORDSALL_la~11_maman~12 298
999 COSIND_0.13 298
999 COSGEN_0.13 298
203 ESBackSacRefixation 298
999 WORDS_dans~13 159
999 WORDFREQ_8296.08 159
999 WORDSALL_dans~13 159
999 COSIND_N/A 159
201 ESForwSacShort 159
999 WORDS_quasi-totalité~15 167
999 WORDFREQ_0.88 167
999 WORDSALL_quasi-totalité~15 167
999 COSIND_N/A 167
202 ESForwSacLong+2+4 167
999 WORDS_quasi-totalité~15 176
999 WORDFREQ_0.88 176
999 WORDSALL_quasi-totalité~15 176
999 COSIND_N/A 176
203 ESBackSacRefixation 176
999 WORDS_quasi-totalité~15 255
999 WORDFREQ_0.88 255
999 WORDSALL_quasi-totalité~15 255
999 COSIND_N/A 255
203 ESBackSacRefixation 255
999 WORDS_Seuls~18 253
999 WORDFREQ_8.38 253
999 WORDSALL_cas~17_Seuls~18 253
999 COSIND_0.02 253
999 COSGEN_0.02 253
202 ESForwSacLong+3+9 253
999 WORDS_Seuls~18 254
999 WORDFREQ_8.38 254
999 WORDSALL_cas~17_Seuls~18 254
999 COSIND_0.02 254
999 COSGEN_0.02 254
203 ESBackSacRefixation 254
999 WORDS_8%~19 280
999 WORDFREQ_N/A 280
999 WORDSALL_Seuls~18_8%~19 280
999 COSIND_N/A 280
201 ESForwSacShort 280
999 WORDS_ont~20 164
999 WORDFREQ_240.61 164
999 WORDSALL_8%~19_ont~20 164
999 COSIND_0.09 164
999 COSGEN_0.09 164
201 ESForwSacShort 164
999 WORDS_à~22 229
999 WORDFREQ_19209.05 229
999 WORDSALL_à~22 229
999 COSIND_N/A 229
202 ESForwSacLong+2+8 229
999 WORDS_crèche~24 150
999 WORDFREQ_8.31 150
999 WORDSALL_crèche~24 150
999 COSIND_0.43 150
999 COSGEN_0.43 150
202 ESForwSacLong+2+5 150
999 WORDS_crèche~24 107
999 WORDFREQ_8.31 107
999 WORDSALL_une~23_crèche~24 107
999 COSIND_0.43 107
999 COSGEN_0.43 107
203 ESBackSacRefixation 107
999 WORDS_collective~25 319
999 WORDFREQ_7.91 319
999 WORDSALL_collective~25 319
999 COSIND_0.05 319
999 COSGEN_0.05 319
201 ESForwSacShort 319
200 ESRankN 319
199 ESRankNMinus1 107
198 ESRankNMinus2 150
197 ESRankNMinus3 229
196 ESRankNMinus4 164
195 ESRankNMinus5 280
194 ESRankNMinus6 254
193 ESRankNMinus7 253
192 ESRankNMinus8 255
191 ESRankNMinus9 176
190 ESRankNMinus10 167
