# 99 Fixation 1 (298.2,289.2): Bien~0
# 177 Fixation 2 (424.2,300.1): les~2 preuves~3
# 222 Fixation 3 (581,293.9): de~4 discrimination~6
# 147 Fixation 4 (633.3,299): la~5 discrimination~6
# 204 Fixation 5 (310.4,362.9): l'embauche~8
# 190 Fixation 6 (389.5,360.2): l'embauche~8 soient~9
# 171 Fixation 7 (525.6,349.5): souvent~10 difficiles~11
# 298 Fixation 8 (585.3,348.7): souvent~10 difficiles~11
# 171 Fixation 9 (434.7,420.3): devant~14 juges~16
# 164 Fixation 10 (505.7,422.8): les~15 juges~16
# 146 Fixation 11 (593.9,427.1): juges~16
# 204 Fixation 12 (289.7,419): établir~13
# 177 Fixation 13 (378.4,420.1): devant~14 juges~16
# 185 Fixation 14 (467.1,420): devant~14 juges~16
# 196 Fixation 15 (617.1,426.3): quelques~17 affaires~18
# 135 Fixation 16 (695.4,422.2): quelques~17 affaires~18
# 217 Fixation 17 (362.8,474.8): pu~20 aboutir~21
# 231 Fixation 18 (504,484.1): à~22 confondre~23
# 132 Fixation 19 (521.4,552.7): des~29 condamnations~30
# 132 Fixation 20 (662.6,499.4): des~24 employeurs~25
%%
# Bien~0 Fixations= "1/"
# que~1 Fixations= ""
# les~2 Fixations= "2/"
# preuves~3 Fixations= "2/"
# de~4 Fixations= "3/"
# la~5 Fixations= "4/"
# discrimination~6 Fixations= "4/"
# à~7 Fixations= ""
# l'embauche~8 Fixations= "6/"
# soient~9 Fixations= "6/"
# souvent~10 Fixations= "8/"
# difficiles~11 Fixations= "8/"
# à~12 Fixations= ""
# établir~13 Fixations= "12/"
# devant~14 Fixations= "14/"
# les~15 Fixations= "10/"
# juges~16 Fixations= "14/"
# quelques~17 Fixations= "16/"
# affaires~18 Fixations= "16/"
# ont~19 Fixations= ""
# pu~20 Fixations= "17/"
# aboutir~21 Fixations= "17/"
# à~22 Fixations= "18/"
# confondre~23 Fixations= "18/"
# des~24 Fixations= "20/"
# employeurs~25 Fixations= "20/"
# et~26 Fixations= ""
# ont~27 Fixations= ""
# entraîné~28 Fixations= ""
# des~29 Fixations= "19/"
# condamnations~30 Fixations= "19/"
%%
#  BIEN[1] que LES[2] PREUVES[2] DE[3] LA[4] DISCRIMINATION[4] à L'EMBAUCHE[6] SOIENT[6] SOUVENT[8] DIFFICILES[8] à éTABLIR[12] DEVANT[14] LES[10] JUGES[14] QUELQUES[16] AFFAIRES[16] ont PU[17] ABOUTIR[17] à[18] CONFONDRE[18] DES[20] EMPLOYEURS[20] et ont entraîné DES[19] CONDAMNATIONS[19]
# s18 reforme_justice-m1 PercentageOfWordsProcessed= 0.774193548387097 PercentageOfWordsReallyProcessed= 0.774193548387097
