# 111 Fixation 1 (298.6,277.4): L'étude~0
# 170 Fixation 2 (433,267): la~2 dynamique~3
# 205 Fixation 3 (620.6,263.9): des~4 anneaux~5
# 88 Fixation 4 (309.3,322.7): entourent~7
# 140 Fixation 5 (271.5,343.9): entourent~7
# 150 Fixation 6 (447.1,335.6): toutes~8
# 129 Fixation 7 (535.1,328.1): les~9 planètes~10
# 215 Fixation 8 (663.5,333.8): géantes~11
# 112 Fixation 9 (311.9,392.4): orbite~13
# 145 Fixation 10 (579.7,408.1): Soleil~16 aide~17
%%
# L'étude~0 Fixations= "1/"
# de~1 Fixations= ""
# la~2 Fixations= "2/"
# dynamique~3 Fixations= "2/"
# des~4 Fixations= "3/"
# anneaux~5 Fixations= "3/"
# qui~6 Fixations= ""
# entourent~7 Fixations= "5/"
# toutes~8 Fixations= "6/"
# les~9 Fixations= "7/"
# planètes~10 Fixations= "7/"
# géantes~11 Fixations= "8/"
# en~12 Fixations= ""
# orbite~13 Fixations= "9/"
# autour~14 Fixations= ""
# du~15 Fixations= ""
# Soleil~16 Fixations= "10/"
# aide~17 Fixations= "10/"
# les~18 Fixations= ""
# astronomes~19 Fixations= ""
# à~20 Fixations= ""
# comprendre~21 Fixations= ""
# le~22 Fixations= ""
# processus~23 Fixations= ""
# de~24 Fixations= ""
# formation~25 Fixations= ""
# des~26 Fixations= ""
# lunes~27 Fixations= ""
# du~28 Fixations= ""
# système~29 Fixations= ""
# solaire~30 Fixations= ""
%%
#  L'éTUDE[1] de LA[2] DYNAMIQUE[2] DES[3] ANNEAUX[3] qui ENTOURENT[5] TOUTES[6] LES[7] PLANèTES[7] GéANTES[8] en ORBITE[9] autour du SOLEIL[10] AIDE[10] les astronomes à comprendre le processus de formation des lunes du système solaire
# s19 observation_planetes-f1 PercentageOfWordsProcessed= 0.419354838709677 PercentageOfWordsReallyProcessed= 0.722222222222222
