# 232 Fixation 1 (289.4,285.4): L'écrivain~0
# 287 Fixation 2 (383.7,283): L'écrivain~0 Amélie~1
# 263 Fixation 3 (497.7,270.2): Amélie~1 Nothomb~2
# 309 Fixation 4 (603.1,275.8): Nothomb~2 présidera~3
# 255 Fixation 5 (550.2,327.3): auditeurs~10
# 194 Fixation 6 (611.1,297.4): présidera~3
# 230 Fixation 7 (363.8,367.4): Livre~7 Inter~8
%%
# L'écrivain~0 Fixations= "2/"
# Amélie~1 Fixations= "3/"
# Nothomb~2 Fixations= "4/"
# présidera~3 Fixations= "6/"
# le~4 Fixations= ""
# jury~5 Fixations= ""
# du~6 Fixations= ""
# Livre~7 Fixations= "7/"
# Inter~8 Fixations= "7/"
# Les~9 Fixations= ""
# auditeurs~10 Fixations= "5/"
# qui~11 Fixations= ""
# souhaitent~12 Fixations= ""
# participer~13 Fixations= ""
# au~14 Fixations= ""
# jury~15 Fixations= ""
# sont~16 Fixations= ""
# invités~17 Fixations= ""
# à~18 Fixations= ""
# écrire~19 Fixations= ""
# à~20 Fixations= ""
# la~21 Fixations= ""
# station~22 Fixations= ""
# en~23 Fixations= ""
# exposant~24 Fixations= ""
# leurs~25 Fixations= ""
# goûts~26 Fixations= ""
# littéraires~27 Fixations= ""
%%
#  L'éCRIVAIN[2] AMéLIE[3] NOTHOMB[4] PRéSIDERA[6] le jury du LIVRE[7] INTER[7] Les AUDITEURS[5] qui souhaitent participer au jury sont invités à écrire à la station en exposant leurs goûts littéraires
# s14 prix_litteraire-f1 PercentageOfWordsProcessed= 0.25 PercentageOfWordsReallyProcessed= 0.636363636363636
