# 260 Fixation 1 (322.8,275.6): Le~0 catalogue~1
# 261 Fixation 2 (517.5,220.4): principes~3
# 217 Fixation 3 (660.3,148.7):
# 161 Fixation 4 (312.9,329.8): calme~7 à~8
# 227 Fixation 5 (271.4,345.7): calme~7
# 463 Fixation 6 (428.9,343): la~9 frontière~10
# 273 Fixation 7 (555.5,338.5): établi~11
# 271 Fixation 8 (282.6,400.7): ministres~14
# 243 Fixation 9 (428.9,412): reprend~15
# 239 Fixation 10 (537.8,415.7): l'essentiel~16
# 141 Fixation 11 (700.2,401.9): des~17 cinq~18
# 205 Fixation 12 (306.4,459.6): conditions~19
# 239 Fixation 13 (286.8,463.1): conditions~19
# 165 Fixation 14 (430.8,479.5): posées~20
# 296 Fixation 15 (602.1,483.5): les~22 gouvernements~23
# 184 Fixation 16 (321.2,542.3): occidentaux~24
# 256 Fixation 17 (279.9,537): occidentaux~24
# 328 Fixation 18 (515.8,557.3): un~26 arrêt~27
# 207 Fixation 19 (653.9,566.2): des~28 frappes~29
%%
# Le~0 Fixations= "1/"
# catalogue~1 Fixations= "1/"
# des~2 Fixations= ""
# principes~3 Fixations= "2/"
# du~4 Fixations= ""
# retour~5 Fixations= ""
# au~6 Fixations= ""
# calme~7 Fixations= "5/"
# à~8 Fixations= "4/"
# la~9 Fixations= "6/"
# frontière~10 Fixations= "6/"
# établi~11 Fixations= "7/"
# par~12 Fixations= ""
# les~13 Fixations= ""
# ministres~14 Fixations= "8/"
# reprend~15 Fixations= "9/"
# l'essentiel~16 Fixations= "10/"
# des~17 Fixations= "11/"
# cinq~18 Fixations= "11/"
# conditions~19 Fixations= "13/"
# posées~20 Fixations= "14/"
# par~21 Fixations= ""
# les~22 Fixations= "15/"
# gouvernements~23 Fixations= "15/"
# occidentaux~24 Fixations= "17/"
# pour~25 Fixations= ""
# un~26 Fixations= "18/"
# arrêt~27 Fixations= "18/"
# des~28 Fixations= "19/"
# frappes~29 Fixations= "19/"
%%
#  LE[1] CATALOGUE[1] des PRINCIPES[2] du retour au CALME[5] à[4] LA[6] FRONTIèRE[6] éTABLI[7] par les MINISTRES[8] REPREND[9] L'ESSENTIEL[10] DES[11] CINQ[11] CONDITIONS[13] POSéES[14] par LES[15] GOUVERNEMENTS[15] OCCIDENTAUX[17] pour UN[18] ARRêT[18] DES[19] FRAPPES[19]
# s20 aide_refugies-m1 PercentageOfWordsProcessed= 0.733333333333333 PercentageOfWordsReallyProcessed= 0.733333333333333
