# 138 Fixation 1 (305.1,278.4): Plusieurs~0
# 244 Fixation 2 (428.4,284.1): tribunaux~1
# 342 Fixation 3 (546,284.8): administratifs~2
# 96 Fixation 4 (655,291.2): administratifs~2 ont~3
# 223 Fixation 5 (288.6,371.8): sommé~4
# 156 Fixation 6 (415.3,351.6): préfets~6
# 271 Fixation 7 (392.6,357.1): les~5 préfets~6
# 221 Fixation 8 (537.7,356.7): de~7 treize~8
# 190 Fixation 9 (653.7,356.8): départements~9
# 94 Fixation 10 (630.5,360.8): treize~8 départements~9
# 207 Fixation 11 (311.9,424.6): prendre~11
# 92 Fixation 12 (279.2,426.9): prendre~11
# 180 Fixation 13 (404.2,418.1): des~12 arrêtés~13
# 89 Fixation 14 (459.9,417.3): arrêtés~13
# 302 Fixation 15 (570.6,420.4): de~14 fermeture~15
# 251 Fixation 16 (305.4,477): chasse~18
# 209 Fixation 17 (402.5,484.3): aux~19 oiseaux~20
# 222 Fixation 18 (533.8,482.3): migrateurs~21
# 96 Fixation 19 (647.6,486.7): au~22 31~23
%%
# Plusieurs~0 Fixations= "1/"
# tribunaux~1 Fixations= "2/"
# administratifs~2 Fixations= "4/"
# ont~3 Fixations= "4/"
# sommé~4 Fixations= "5/"
# les~5 Fixations= "7/"
# préfets~6 Fixations= "7/"
# de~7 Fixations= "8/"
# treize~8 Fixations= "10/"
# départements~9 Fixations= "10/"
# de~10 Fixations= ""
# prendre~11 Fixations= "12/"
# des~12 Fixations= "13/"
# arrêtés~13 Fixations= "14/"
# de~14 Fixations= "15/"
# fermeture~15 Fixations= "15/"
# de~16 Fixations= ""
# la~17 Fixations= ""
# chasse~18 Fixations= "16/"
# aux~19 Fixations= "17/"
# oiseaux~20 Fixations= "17/"
# migrateurs~21 Fixations= "18/"
# au~22 Fixations= "19/"
# 31~23 Fixations= "19/"
# janvier~24 Fixations= ""
# réduisant~25 Fixations= ""
# de~26 Fixations= ""
# trois~27 Fixations= ""
# semaines~28 Fixations= ""
# la~29 Fixations= ""
# durée~30 Fixations= ""
# de~31 Fixations= ""
# la~32 Fixations= ""
# chasse~33 Fixations= ""
%%
#  PLUSIEURS[1] TRIBUNAUX[2] ADMINISTRATIFS[4] ONT[4] SOMMé[5] LES[7] PRéFETS[7] DE[8] TREIZE[10] DéPARTEMENTS[10] de PRENDRE[12] DES[13] ARRêTéS[14] DE[15] FERMETURE[15] de la CHASSE[16] AUX[17] OISEAUX[17] MIGRATEURS[18] AU[19] 31[19] janvier réduisant de trois semaines la durée de la chasse
# s01 chasse_oiseaux-f2 PercentageOfWordsProcessed= 0.617647058823529 PercentageOfWordsReallyProcessed= 0.875
