# 106 Fixation 1 (267.9,287.8): Ces~0 combats~1
# 165 Fixation 2 (317.4,281.9): Ces~0 combats~1
# 112 Fixation 3 (424.7,285.6): qui~2 remettent~4
# 96 Fixation 4 (497,288.1): qui~2 remettent~4
# 200 Fixation 5 (573.3,285.1): remettent~4
# 145 Fixation 6 (674.1,289.9): pas~5 cause~7
# 141 Fixation 7 (270.6,340.9): la~8 suprématie~9
# 159 Fixation 8 (331.8,338): suprématie~9
# 171 Fixation 9 (472,343.6): des~10 talibans~11
# 168 Fixation 10 (523.7,350.8): talibans~11
# 191 Fixation 11 (294.2,399.7): l'Afghanistan~13
# 153 Fixation 12 (360.8,399.8): l'Afghanistan~13
# 84 Fixation 13 (446,403.9): prouvent~14
# 215 Fixation 14 (501.1,402.3): prouvent~14
# 105 Fixation 15 (384.4,469.8): et~18 peut~19
%%
# Ces~0 Fixations= "2/"
# combats~1 Fixations= "2/"
# qui~2 Fixations= "4/"
# ne~3 Fixations= ""
# remettent~4 Fixations= "5/"
# pas~5 Fixations= "6/"
# en~6 Fixations= ""
# cause~7 Fixations= "6/"
# la~8 Fixations= "7/"
# suprématie~9 Fixations= "8/"
# des~10 Fixations= "9/"
# talibans~11 Fixations= "10/"
# sur~12 Fixations= ""
# l'Afghanistan~13 Fixations= "12/"
# prouvent~14 Fixations= "14/"
# que~15 Fixations= ""
# l'état-major~16 Fixations= ""
# veut~17 Fixations= ""
# et~18 Fixations= "15/"
# peut~19 Fixations= "15/"
# maintenir~20 Fixations= ""
# la~21 Fixations= ""
# pression~22 Fixations= ""
# sur~23 Fixations= ""
# ses~24 Fixations= ""
# adversaires~25 Fixations= ""
%%
#  CES[2] COMBATS[2] QUI[4] ne REMETTENT[5] PAS[6] en CAUSE[6] LA[7] SUPRéMATIE[8] DES[9] TALIBANS[10] sur L'AFGHANISTAN[12] PROUVENT[14] que l'état-major veut ET[15] PEUT[15] maintenir la pression sur ses adversaires
# s02 chef_russie-m1 PercentageOfWordsProcessed= 0.538461538461538 PercentageOfWordsReallyProcessed= 0.7
