999 WORDS_obtenir~1 136
999 WORDFREQ_37.77 136
999 WORDSALL_Pour~0_obtenir~1 136
999 COSIND_0.07 136
999 COSGEN_0.07 136
101 ESRank1 136
999 WORDS_obtenir~1 165
999 WORDFREQ_37.77 165
999 WORDSALL_obtenir~1 165
999 COSIND_0.07 165
999 COSGEN_0.07 165
102 ESRank2 165
203 ESBackSacRefixation 165
999 WORDS_belles~3 169
999 WORDFREQ_62.57 169
999 WORDSALL_de~2_belles~3 169
999 COSIND_0.28 169
999 COSGEN_0.28 169
103 ESRank3 169
202 ESForwSacLong+2+4 169
999 WORDS_roses~4 153
999 WORDFREQ_26.96 153
999 WORDSALL_belles~3_roses~4 153
999 COSIND_0.69 153
999 COSGEN_0.69 153
104 ESRank4 153
201 ESForwSacShort 153
999 WORDS_jardinier~6 207
999 WORDFREQ_6.22 207
999 WORDSALL_le~5_jardinier~6 207
999 COSIND_0.77 207
999 COSGEN_0.77 207
105 ESRank5 207
202 ESForwSacLong+2+4 207
999 WORDS_rosiers~9 168
999 WORDFREQ_4.19 168
999 WORDSALL_les~8_rosiers~9 168
999 COSIND_0.80 168
999 COSGEN_0.80 168
106 ESRank6 168
202 ESForwSacLong+3+12 168
999 WORDS_plante~7 137
999 WORDFREQ_5 137
999 WORDSALL_plante~7 137
999 COSIND_0.78 137
999 COSGEN_0.78 137
107 ESRank7 137
206 ESBackSacRegrLong-2-5 137
999 WORDS_plante~7 142
999 WORDFREQ_5 142
999 WORDSALL_plante~7 142
999 COSIND_0.78 142
999 COSGEN_0.78 142
108 ESRank8 142
203 ESBackSacRefixation 142
200 ESRankN 142
199 ESRankNMinus1 137
198 ESRankNMinus2 168
197 ESRankNMinus3 207
196 ESRankNMinus4 153
195 ESRankNMinus5 169
194 ESRankNMinus6 165
193 ESRankNMinus7 136
