999 WORDS_Principal~0 132
999 WORDFREQ_15.81 132
999 WORDSALL_Principal~0 132
999 COSIND_0.06 132
999 COSGEN_0.06 132
101 ESRank1 132
999 WORDS_accusé~1 184
999 WORDFREQ_6.89 184
999 WORDSALL_Principal~0_accusé~1 184
999 COSIND_0.28 184
999 COSGEN_0.28 184
102 ESRank2 184
201 ESForwSacShort 184
999 WORDS_volet~3 129
999 WORDFREQ_6.89 129
999 WORDSALL_accusé~1_volet~3 129
999 COSIND_-0.02 129
999 COSGEN_-0.02 129
103 ESRank3 129
202 ESForwSacLong+2+4 129
999 WORDS_accusé~1 111
999 WORDFREQ_6.89 111
999 WORDSALL_accusé~1 111
999 COSIND_0.28 111
999 COSGEN_0.28 111
104 ESRank4 111
206 ESBackSacRegrLong-2-4 111
999 WORDS_accusé~1 156
999 WORDFREQ_6.89 156
999 WORDSALL_Principal~0_accusé~1 156
999 COSIND_0.28 156
999 COSGEN_0.28 156
105 ESRank5 156
203 ESBackSacRefixation 156
999 WORDS_accusé~1 156
999 WORDFREQ_6.89 156
999 WORDSALL_accusé~1 156
999 COSIND_0.28 156
999 COSGEN_0.28 156
106 ESRank6 156
203 ESBackSacRefixation 156
999 WORDS_volet~3 204
999 WORDFREQ_6.89 204
999 WORDSALL_du~2_volet~3 204
999 COSIND_-0.02 204
999 COSGEN_-0.02 204
107 ESRank7 204
202 ESForwSacLong+2+4 204
999 WORDS_corruption~4 200
999 WORDFREQ_3.45 200
999 WORDSALL_volet~3_corruption~4 200
999 COSIND_0.23 200
999 COSGEN_0.23 200
108 ESRank8 200
201 ESForwSacShort 200
999 WORDS_corruption~4 154
999 WORDFREQ_3.45 154
999 WORDSALL_corruption~4 154
999 COSIND_0.23 154
999 COSGEN_0.23 154
109 ESRank9 154
203 ESBackSacRefixation 154
999 WORDS_corruption~4 119
999 WORDFREQ_3.45 119
999 WORDSALL_corruption~4 119
999 COSIND_0.23 119
999 COSGEN_0.23 119
110 ESRank10 119
203 ESBackSacRefixation 119
999 WORDS_escroquerie~6 222
999 WORDFREQ_2.16 222
999 WORDSALL_escroquerie~6 222
999 COSIND_0.32 222
999 COSGEN_0.32 222
111 ESRank11 222
202 ESForwSacLong+2+4 222
999 WORDS_escroquerie~6 159
999 WORDFREQ_2.16 159
999 WORDSALL_escroquerie~6 159
999 COSIND_0.32 159
999 COSGEN_0.32 159
112 ESRank12 159
203 ESBackSacRefixation 159
999 WORDS_ancien~8 193
999 WORDFREQ_59.26 193
999 WORDSALL_un~7_ancien~8 193
999 COSIND_0.00 193
999 COSGEN_0.00 193
113 ESRank13 193
202 ESForwSacLong+2+4 193
999 WORDS_ancien~8 92
999 WORDFREQ_59.26 92
999 WORDSALL_un~7_ancien~8 92
999 COSIND_0.00 92
999 COSGEN_0.00 92
114 ESRank14 92
203 ESBackSacRefixation 92
999 WORDS_cadre~9 255
999 WORDFREQ_29.8 255
999 WORDSALL_ancien~8_cadre~9 255
999 COSIND_0.05 255
999 COSGEN_0.05 255
115 ESRank15 255
201 ESForwSacShort 255
999 WORDS_grande~11 311
999 WORDFREQ_378.65 311
999 WORDSALL_d'une~10_grande~11 311
999 COSIND_0.10 311
999 COSGEN_0.10 311
116 ESRank16 311
202 ESForwSacLong+2+7 311
999 WORDS_entreprise~12 128
999 WORDFREQ_29.05 128
999 WORDSALL_entreprise~12 128
999 COSIND_-0.02 128
999 COSGEN_-0.02 128
117 ESRank17 128
201 ESForwSacShort 128
999 WORDS_entreprise~12 185
999 WORDFREQ_29.05 185
999 WORDSALL_entreprise~12 185
999 COSIND_-0.02 185
999 COSGEN_-0.02 185
118 ESRank18 185
203 ESBackSacRefixation 185
999 WORDS_poursuivi~14 167
999 WORDFREQ_9.59 167
999 WORDSALL_est~13_poursuivi~14 167
999 COSIND_0.30 167
999 COSGEN_0.30 167
119 ESRank19 167
202 ESForwSacLong+2+5 167
999 WORDS_poursuivi~14 160
999 WORDFREQ_9.59 160
999 WORDSALL_est~13_poursuivi~14 160
999 COSIND_0.30 160
999 COSGEN_0.30 160
120 ESRank20 160
203 ESBackSacRefixation 160
999 WORDS_avoir~16 194
999 WORDFREQ_649.26 194
999 WORDSALL_pour~15_avoir~16 194
999 COSIND_-0.01 194
999 COSGEN_-0.01 194
202 ESForwSacLong+2+6 194
999 WORDS_perçu~17 164
999 WORDFREQ_4.53 164
999 WORDSALL_avoir~16_perçu~17 164
999 COSIND_-0.03 164
999 COSGEN_-0.03 164
201 ESForwSacShort 164
999 WORDS_millions~19 142
999 WORDFREQ_46.22 142
999 WORDSALL_millions~19 142
999 COSIND_-0.01 142
999 COSGEN_-0.01 142
202 ESForwSacLong+2+5 142
999 WORDS_millions~19 163
999 WORDFREQ_46.22 163
999 WORDSALL_des~18_millions~19 163
999 COSIND_-0.01 163
999 COSGEN_-0.01 163
203 ESBackSacRefixation 163
999 WORDS_d'euros~20 143
999 WORDFREQ_0 143
999 WORDSALL_d'euros~20 143
999 COSIND_N/A 143
201 ESForwSacShort 143
999 WORDS_commissions~22 266
999 WORDFREQ_6.62 266
999 WORDSALL_en~21_commissions~22 266
999 COSIND_-0.05 266
999 COSGEN_-0.05 266
202 ESForwSacLong+2+4 266
999 WORDS_auprès~24 143
999 WORDFREQ_1.62 143
999 WORDSALL_auprès~24 143
999 COSIND_0.02 143
999 COSGEN_0.02 143
202 ESForwSacLong+2+10 143
999 WORDS_auprès~24 125
999 WORDFREQ_1.62 125
999 WORDSALL_occultes~23_auprès~24 125
999 COSIND_0.02 125
999 COSGEN_0.02 125
203 ESBackSacRefixation 125
999 WORDS_occultes~23 264
999 WORDFREQ_1.49 264
999 WORDSALL_occultes~23 264
999 COSIND_N/A 264
205 ESBackSacRegrShort 264
999 WORDS_auprès~24 138
999 WORDFREQ_1.62 138
999 WORDSALL_occultes~23_auprès~24 138
999 COSIND_0.02 138
999 COSGEN_0.02 138
201 ESForwSacShort 138
999 WORDS_d'entrepreneurs~27 122
999 WORDFREQ_0.74 122
999 WORDSALL_d'entrepreneurs~27 122
999 COSIND_-0.03 122
999 COSGEN_-0.03 122
202 ESForwSacLong+3+15 122
999 WORDS_d'entrepreneurs~27 154
999 WORDFREQ_0.74 154
999 WORDSALL_d'entrepreneurs~27 154
999 COSIND_-0.03 154
999 COSGEN_-0.03 154
203 ESBackSacRefixation 154
999 WORDS_dizaine~26 241
999 WORDFREQ_26.55 241
999 WORDSALL_d'une~25_dizaine~26 241
999 COSIND_0.00 241
999 COSGEN_0.00 241
205 ESBackSacRegrShort 241
999 WORDS_auprès~24 172
999 WORDFREQ_1.62 172
999 WORDSALL_auprès~24 172
999 COSIND_0.02 172
999 COSGEN_0.02 172
206 ESBackSacRegrLong-2-7 172
999 WORDS_occultes~23 288
999 WORDFREQ_1.49 288
999 WORDSALL_occultes~23 288
999 COSIND_N/A 288
205 ESBackSacRegrShort 288
200 ESRankN 288
199 ESRankNMinus1 172
198 ESRankNMinus2 241
197 ESRankNMinus3 154
196 ESRankNMinus4 122
195 ESRankNMinus5 138
194 ESRankNMinus6 264
193 ESRankNMinus7 125
192 ESRankNMinus8 143
191 ESRankNMinus9 266
190 ESRankNMinus10 143
