999 WORDS_Malgré~0 171
999 WORDFREQ_191.55 171
999 WORDSALL_Malgré~0 171
999 COSIND_0.02 171
999 COSGEN_0.02 171
101 ESRank1 171
999 WORDS_accord~2 182
999 WORDFREQ_124.66 182
999 WORDSALL_un~1_accord~2 182
999 COSIND_-0.05 182
999 COSGEN_-0.05 182
102 ESRank2 182
202 ESForwSacLong+2+4 182
999 WORDS_principe~4 422
999 WORDFREQ_30.88 422
999 WORDSALL_de~3_principe~4 422
999 COSIND_-0.00 422
999 COSGEN_-0.00 422
103 ESRank3 422
202 ESForwSacLong+2+4 422
999 WORDS_sur~5 120
999 WORDFREQ_5320.47 120
999 WORDSALL_sur~5 120
999 COSIND_N/A 120
104 ESRank4 120
201 ESForwSacShort 120
999 WORDS_nécessité~7 245
999 WORDFREQ_28.78 245
999 WORDSALL_nécessité~7 245
999 COSIND_0.26 245
999 COSGEN_0.26 245
105 ESRank5 245
202 ESForwSacLong+2+4 245
999 WORDS_réforme~9 169
999 WORDFREQ_4.93 169
999 WORDSALL_d'une~8_réforme~9 169
999 COSIND_0.93 169
999 COSGEN_0.93 169
106 ESRank6 169
202 ESForwSacLong+2+7 169
999 WORDS_réforme~9 88
999 WORDFREQ_4.93 88
999 WORDSALL_réforme~9 88
999 COSIND_0.93 88
999 COSGEN_0.93 88
107 ESRank7 88
203 ESBackSacRefixation 88
999 WORDS_comprenant~10 201
999 WORDFREQ_9.32 201
999 WORDSALL_comprenant~10 201
999 COSIND_-0.05 201
999 COSGEN_-0.05 201
108 ESRank8 201
201 ESForwSacShort 201
999 WORDS_aide~12 155
999 WORDFREQ_52.3 155
999 WORDSALL_une~11_aide~12 155
999 COSIND_0.07 155
999 COSGEN_0.07 155
109 ESRank9 155
202 ESForwSacLong+2+5 155
999 WORDS_individualisée~13 269
999 WORDFREQ_N/A 269
999 WORDSALL_individualisée~13 269
999 COSIND_N/A 269
110 ESRank10 269
201 ESForwSacShort 269
999 WORDS_élèves~15 167
999 WORDFREQ_36.08 167
999 WORDSALL_aux~14_élèves~15 167
999 COSIND_-0.11 167
999 COSGEN_-0.11 167
111 ESRank11 167
202 ESForwSacLong+2+5 167
999 WORDS_élèves~15 118
999 WORDFREQ_36.08 118
999 WORDSALL_élèves~15 118
999 COSIND_-0.11 118
999 COSGEN_-0.11 118
112 ESRank12 118
203 ESBackSacRefixation 118
999 WORDS_syndicat~17 340
999 WORDFREQ_5.2 340
999 WORDSALL_le~16_syndicat~17 340
999 COSIND_0.19 340
999 COSGEN_0.19 340
113 ESRank13 340
202 ESForwSacLong+2+4 340
999 WORDS_syndicat~17 142
999 WORDFREQ_5.2 142
999 WORDSALL_syndicat~17 142
999 COSIND_0.19 142
999 COSGEN_0.19 142
114 ESRank14 142
203 ESBackSacRefixation 142
999 WORDS_affirmait~20 162
999 WORDFREQ_11.08 162
999 WORDSALL_enseignants~19_affirmait~20 162
999 COSIND_0.03 162
999 COSGEN_0.03 162
115 ESRank15 162
202 ESForwSacLong+3+17 162
999 WORDS_enseignants~19 159
999 WORDFREQ_0.81 159
999 WORDSALL_enseignants~19 159
999 COSIND_0.52 159
999 COSGEN_0.52 159
116 ESRank16 159
205 ESBackSacRegrShort 159
999 WORDS_affirmait~20 173
999 WORDFREQ_11.08 173
999 WORDSALL_affirmait~20 173
999 COSIND_0.03 173
999 COSGEN_0.03 173
117 ESRank17 173
201 ESForwSacShort 173
999 WORDS_fallait~22 191
999 WORDFREQ_310.61 191
999 WORDSALL_qu'il~21_fallait~22 191
999 COSIND_-0.01 191
999 COSGEN_-0.01 191
118 ESRank18 191
202 ESForwSacLong+2+7 191
999 WORDS_abandonner~23 229
999 WORDFREQ_27.7 229
999 WORDSALL_abandonner~23 229
999 COSIND_0.05 229
999 COSGEN_0.05 229
119 ESRank19 229
201 ESForwSacShort 229
999 WORDS_projet~25 186
999 WORDFREQ_39.86 186
999 WORDSALL_ce~24_projet~25 186
999 COSIND_0.07 186
999 COSGEN_0.07 186
120 ESRank20 186
202 ESForwSacLong+2+4 186
999 WORDS_projet~25 98
999 WORDFREQ_39.86 98
999 WORDSALL_projet~25 98
999 COSIND_0.07 98
999 COSGEN_0.07 98
203 ESBackSacRefixation 98
999 WORDS_retravailler~27 221
999 WORDFREQ_0.14 221
999 WORDSALL_et~26_retravailler~27 221
999 COSIND_0.05 221
999 COSGEN_0.05 221
202 ESForwSacLong+2+4 221
999 WORDS_retravailler~27 129
999 WORDFREQ_0.14 129
999 WORDSALL_et~26_retravailler~27 129
999 COSIND_0.05 129
999 COSGEN_0.05 129
203 ESBackSacRefixation 129
999 WORDS_retravailler~27 109
999 WORDFREQ_0.14 109
999 WORDSALL_retravailler~27 109
999 COSIND_0.05 109
999 COSGEN_0.05 109
203 ESBackSacRefixation 109
999 WORDS_bases~30 166
999 WORDFREQ_12.5 166
999 WORDSALL_d'autres~29_bases~30 166
999 COSIND_0.06 166
999 COSGEN_0.06 166
202 ESForwSacLong+3+14 166
999 WORDS_bases~30 302
999 WORDFREQ_12.5 302
999 WORDSALL_d'autres~29_bases~30 302
999 COSIND_0.06 302
999 COSGEN_0.06 302
203 ESBackSacRefixation 302
200 ESRankN 302
199 ESRankNMinus1 166
198 ESRankNMinus2 109
197 ESRankNMinus3 129
196 ESRankNMinus4 221
195 ESRankNMinus5 98
194 ESRankNMinus6 186
193 ESRankNMinus7 229
192 ESRankNMinus8 191
191 ESRankNMinus9 173
190 ESRankNMinus10 159
