# 153 Fixation 1 (273.5,282.6): Un~0 décret~1
# 133 Fixation 2 (416.7,288.8): a~2 été~3
# 193 Fixation 3 (387.1,288.1): décret~1 a~2 été~3
# 124 Fixation 4 (443.1,289.8): a~2 été~3 émis~4
# 165 Fixation 5 (545,295.2): émis~4 modifie~6
# 158 Fixation 6 (570.5,295.8): qui~5 modifie~6
# 201 Fixation 7 (669.2,296.8): modifie~6 code~8
# 166 Fixation 8 (687.1,296.6): modifie~6 code~8
# 238 Fixation 9 (295.7,337.4): la~10 construction~11
# 152 Fixation 10 (529.2,341.9): et~12 l'habitation~14
# 263 Fixation 11 (572.5,346.9): de~13 l'habitation~14
%%
# Un~0 Fixations= "1/"
# décret~1 Fixations= "3/"
# a~2 Fixations= "4/"
# été~3 Fixations= "4/"
# émis~4 Fixations= "5/"
# qui~5 Fixations= "6/"
# modifie~6 Fixations= "8/"
# le~7 Fixations= ""
# code~8 Fixations= "8/"
# de~9 Fixations= ""
# la~10 Fixations= "9/"
# construction~11 Fixations= "9/"
# et~12 Fixations= "10/"
# de~13 Fixations= "11/"
# l'habitation~14 Fixations= "11/"
# Il~15 Fixations= ""
# est~16 Fixations= ""
# relatif~17 Fixations= ""
# aux~18 Fixations= ""
# subventions~19 Fixations= ""
# et~20 Fixations= ""
# prêts~21 Fixations= ""
# pour~22 Fixations= ""
# la~23 Fixations= ""
# construction~24 Fixations= ""
# l'acquisition~25 Fixations= ""
# et~26 Fixations= ""
# l'amélioration~27 Fixations= ""
# des~28 Fixations= ""
# logements~29 Fixations= ""
# locatifs~30 Fixations= ""
# aidés~31 Fixations= ""
%%
#  UN[1] DéCRET[3] A[4] éTé[4] éMIS[5] QUI[6] MODIFIE[8] le CODE[8] de LA[9] CONSTRUCTION[9] ET[10] DE[11] L'HABITATION[11] Il est relatif aux subventions et prêts pour la construction l'acquisition et l'amélioration des logements locatifs aidés
# s05 rehabilitation_logement-f2 PercentageOfWordsProcessed= 0.40625 PercentageOfWordsReallyProcessed= 0.866666666666667
