999 WORDS_moral~1 144
999 WORDFREQ_14.19 144
999 WORDSALL_Le~0_moral~1 144
999 COSIND_-0.03 144
999 COSGEN_-0.03 144
101 ESRank1 144
999 WORDS_boursiers~3 166
999 WORDFREQ_0.07 166
999 WORDSALL_des~2_boursiers~3 166
999 COSIND_-0.01 166
999 COSGEN_-0.01 166
102 ESRank2 166
202 ESForwSacLong+2+5 166
999 WORDS_désormais~9 163
999 WORDFREQ_88.45 163
999 WORDSALL_s'est~4_sérieusement~5_désormais~9 163
999 COSIND_0.03 163
999 COSGEN_0.03 163
103 ESRank3 163
202 ESForwSacLong+6+43 163
999 WORDS_sérieusement~5 85
999 WORDFREQ_21.76 85
999 WORDSALL_sérieusement~5 85
999 COSIND_-0.02 85
999 COSGEN_-0.02 85
104 ESRank4 85
206 ESBackSacRegrLong-4-23 85
999 WORDS_dégradé~6 193
999 WORDFREQ_0.47 193
999 WORDSALL_moral~1_dégradé~6 193
999 COSIND_0.12 193
999 COSGEN_0.12 193
105 ESRank5 193
201 ESForwSacShort 193
999 WORDS_doutent~8 160
999 WORDFREQ_1.82 160
999 WORDSALL_ils~7_doutent~8 160
999 COSIND_-0.04 160
999 COSGEN_-0.04 160
106 ESRank6 160
202 ESForwSacLong+2+5 160
999 WORDS_désormais~9 246
999 WORDFREQ_88.45 246
999 WORDSALL_désormais~9 246
999 COSIND_0.03 246
999 COSGEN_0.03 246
107 ESRank7 246
201 ESForwSacShort 246
999 WORDS_marges~13 97
999 WORDFREQ_2.23 97
999 WORDSALL_ils~7_doutent~8_marges~13 97
999 COSIND_0.03 97
999 COSGEN_0.03 97
108 ESRank8 97
202 ESForwSacLong+4+19 97
999 WORDS_nouvelles~12 165
999 WORDFREQ_41.69 165
999 WORDSALL_dégradé~6_nouvelles~12 165
999 COSIND_-0.01 165
999 COSGEN_-0.01 165
109 ESRank9 165
205 ESBackSacRegrShort 165
999 WORDS_fluctuation~15 209
999 WORDFREQ_0.07 209
999 WORDSALL_doutent~8_désormais~9_fluctuation~15 209
999 COSIND_-0.07 209
999 COSGEN_-0.07 209
110 ESRank10 209
202 ESForwSacLong+3+11 209
999 WORDS_fluctuation~15 183
999 WORDFREQ_0.07 183
999 WORDSALL_fluctuation~15 183
999 COSIND_-0.07 183
999 COSGEN_-0.07 183
111 ESRank11 183
203 ESBackSacRefixation 183
999 WORDS_fixées~20 133
999 WORDFREQ_2.97 133
999 WORDSALL_fluctuation~15_fixées~20 133
999 COSIND_-0.13 133
999 COSGEN_-0.13 133
112 ESRank12 133
202 ESForwSacLong+5+27 133
999 WORDS_mercredi~21 140
999 WORDFREQ_11.82 140
999 WORDSALL_fluctuation~15_mercredi~21 140
999 COSIND_0.00 140
999 COSGEN_0.00 140
113 ESRank13 140
201 ESForwSacShort 140
999 WORDS_de~16 154
999 WORDFREQ_38928.92 154
999 WORDSALL_de~16 154
999 COSIND_N/A 154
114 ESRank14 154
206 ESBackSacRegrLong-5-32 154
999 WORDS_mercredi~21 109
999 WORDFREQ_11.82 109
999 WORDSALL_mercredi~21 109
999 COSIND_0.00 109
999 COSGEN_0.00 109
115 ESRank15 109
202 ESForwSacLong+5+32 109
999 WORDS_fixées~20 195
999 WORDFREQ_2.97 195
999 WORDSALL_fixées~20 195
999 COSIND_-0.13 195
999 COSGEN_-0.13 195
116 ESRank16 195
205 ESBackSacRegrShort 195
200 ESRankN 195
199 ESRankNMinus1 109
198 ESRankNMinus2 154
197 ESRankNMinus3 140
196 ESRankNMinus4 133
195 ESRankNMinus5 183
194 ESRankNMinus6 209
193 ESRankNMinus7 165
192 ESRankNMinus8 97
191 ESRankNMinus9 246
190 ESRankNMinus10 160
