# 154 Fixation 1 (320.7,301): Des~0 trafiquants~1 sabordés~7
# 165 Fixation 2 (364.4,296.7): trafiquants~1
# 146 Fixation 3 (492.1,291.8): de~2 cocaïne~3
# 122 Fixation 4 (561.4,291.3): cocaïne~3
# 204 Fixation 5 (645.2,286.8): colombiens~4
# 136 Fixation 6 (469.1,391.2): par~8 sous-marin~10 Pacifique~16
# 134 Fixation 7 (518.2,376.3): un~9 sous-marin~10
# 162 Fixation 8 (582.6,344.8): cocaïne~3 sous-marin~10
# 226 Fixation 9 (700.5,348.3): colombiens~4 ont~5 large~12
# 175 Fixation 10 (615.1,416.8): la~18 deuxième~19
# 137 Fixation 11 (517.1,407.5): un~9 sous-marin~10
# 96 Fixation 12 (688.3,418.7): deuxième~19
# 137 Fixation 13 (358.1,456.2): côte~15 Pacifique~16 forces~23
# 154 Fixation 14 (493.9,462.8): C'est~17 colombiennes~24
# 142 Fixation 15 (639.2,468.9): la~18 deuxième~19 arrêtent~25
# 138 Fixation 16 (346.6,518.8): les~22 forces~23 afin~28
# 154 Fixation 17 (484.6,524.5): colombiennes~24 détruire~30
# 150 Fixation 18 (634.6,533.2): arrêtent~25 cargaison~32
# 122 Fixation 19 (316.5,580.4): engin~27 afin~28
%%
# Des~0 Fixations= "1/"
# trafiquants~1 Fixations= "2/"
# de~2 Fixations= "3/"
# cocaïne~3 Fixations= "8/"
# colombiens~4 Fixations= "9/"
# ont~5 Fixations= "9/"
# été~6 Fixations= ""
# sabordés~7 Fixations= "1/"
# par~8 Fixations= "6/"
# un~9 Fixations= "11/"
# sous-marin~10 Fixations= "11/"
# au~11 Fixations= ""
# large~12 Fixations= "9/"
# de~13 Fixations= ""
# la~14 Fixations= ""
# côte~15 Fixations= "13/"
# Pacifique~16 Fixations= "13/"
# C'est~17 Fixations= "14/"
# la~18 Fixations= "15/"
# deuxième~19 Fixations= "15/"
# fois~20 Fixations= ""
# que~21 Fixations= ""
# les~22 Fixations= "16/"
# forces~23 Fixations= "16/"
# colombiennes~24 Fixations= "17/"
# arrêtent~25 Fixations= "18/"
# un~26 Fixations= ""
# engin~27 Fixations= "19/"
# afin~28 Fixations= "19/"
# d'en~29 Fixations= ""
# détruire~30 Fixations= "17/"
# la~31 Fixations= ""
# cargaison~32 Fixations= "18/"
# illicite~33 Fixations= ""
%%
#  DES[1] TRAFIQUANTS[2] DE[3] COCAïNE[8] COLOMBIENS[9] ONT[9] été SABORDéS[1] PAR[6] UN[11] SOUS-MARIN[11] au LARGE[9] de la CôTE[13] PACIFIQUE[13] C'EST[14] LA[15] DEUXIèME[15] fois que LES[16] FORCES[16] COLOMBIENNES[17] ARRêTENT[18] un ENGIN[19] AFIN[19] d'en DéTRUIRE[17] la CARGAISON[18] illicite
# s10 tourisme_montagne-a1 PercentageOfWordsProcessed= 0.705882352941177 PercentageOfWordsReallyProcessed= 0.727272727272727
