999 WORDS_3e~1 171
999 WORDFREQ_N/A 171
999 WORDSALL_Le~0_3e~1 171
999 COSIND_N/A 171
101 ESRank1 171
999 WORDS_ligne~2 159
999 WORDFREQ_101.01 159
999 WORDSALL_3e~1_ligne~2 159
999 COSIND_0.13 159
999 COSGEN_0.13 159
102 ESRank2 159
201 ESForwSacShort 159
999 WORDS_XV~4 239
999 WORDFREQ_N/A 239
999 WORDSALL_ligne~2_XV~4 239
999 COSIND_N/A 239
103 ESRank3 239
202 ESForwSacLong+2+4 239
999 WORDS_d'Angleterre~5 196
999 WORDFREQ_0.47 196
999 WORDSALL_XV~4_d'Angleterre~5 196
999 COSIND_0.05 196
999 COSGEN_0.05 196
104 ESRank4 196
201 ESForwSacShort 196
999 WORDS_retraite~12 140
999 WORDFREQ_38.78 140
999 WORDSALL_d'Angleterre~5_85~7_retraite~12 140
999 COSIND_-0.00 140
999 COSGEN_-0.00 140
105 ESRank5 140
202 ESForwSacLong+7+34 140
999 WORDS_85~7 181
999 WORDFREQ_N/A 181
999 WORDSALL_aux~6_85~7 181
999 COSIND_N/A 181
106 ESRank6 181
206 ESBackSacRegrLong-5-27 181
999 WORDS_sélections~8 124
999 WORDFREQ_0.27 124
999 WORDSALL_Le~0_3e~1_ligne~2_sélections~8 124
999 COSIND_-0.04 124
999 COSGEN_-0.04 124
107 ESRank7 124
201 ESForwSacShort 124
999 WORDS_sélections~8 142
999 WORDFREQ_0.27 142
999 WORDSALL_Le~0_3e~1_sélections~8 142
999 COSIND_-0.04 142
999 COSGEN_-0.04 142
108 ESRank8 142
203 ESBackSacRefixation 142
999 WORDS_annoncé~10 220
999 WORDFREQ_15.68 220
999 WORDSALL_du~3_XV~4_a~9_annoncé~10 220
999 COSIND_0.04 220
999 COSGEN_0.04 220
109 ESRank9 220
202 ESForwSacLong+2+3 220
999 WORDS_retraite~12 229
999 WORDFREQ_38.78 229
999 WORDSALL_sa~11_retraite~12 229
999 COSIND_-0.00 229
999 COSGEN_-0.00 229
110 ESRank10 229
202 ESForwSacLong+2+4 229
999 WORDS_sélections~8 193
999 WORDFREQ_0.27 193
999 WORDSALL_sélections~8 193
999 COSIND_-0.04 193
999 COSGEN_-0.04 193
111 ESRank11 193
206 ESBackSacRegrLong-4-15 193
999 WORDS_internationale~13 148
999 WORDFREQ_10 148
999 WORDSALL_sélections~8_internationale~13 148
999 COSIND_-0.03 148
999 COSGEN_-0.03 148
112 ESRank12 148
202 ESForwSacLong+5+24 148
999 WORDS_annoncé~10 155
999 WORDFREQ_15.68 155
999 WORDSALL_annoncé~10 155
999 COSIND_0.04 155
999 COSGEN_0.04 155
113 ESRank13 155
206 ESBackSacRegrLong-3-13 155
200 ESRankN 155
199 ESRankNMinus1 148
198 ESRankNMinus2 193
197 ESRankNMinus3 229
196 ESRankNMinus4 220
195 ESRankNMinus5 142
194 ESRankNMinus6 124
193 ESRankNMinus7 181
192 ESRankNMinus8 140
191 ESRankNMinus9 196
190 ESRankNMinus10 239
