999 WORDS_jugement~2 163
999 WORDFREQ_24.12 163
999 WORDSALL_le~1_jugement~2 163
999 COSIND_0.01 163
999 COSGEN_0.01 163
101 ESRank1 163
999 WORDS_cité~3 156
999 WORDFREQ_1.28 156
999 WORDSALL_cité~3 156
999 COSIND_-0.03 156
999 COSGEN_-0.03 156
102 ESRank2 156
201 ESForwSacShort 156
999 WORDS_Nacion~6 159
999 WORDFREQ_N/A 159
999 WORDSALL_La~5_Nacion~6 159
999 COSIND_N/A 159
103 ESRank3 159
202 ESForwSacLong+3+8 159
999 WORDS_juges~8 101
999 WORDFREQ_14.66 101
999 WORDSALL_Dans~0_jugement~2_juges~8 101
999 COSIND_-0.03 101
999 COSGEN_-0.03 101
104 ESRank4 101
202 ESForwSacLong+2+5 101
999 WORDS_avant~11 104
999 WORDFREQ_21.22 104
999 WORDSALL_cité~3_avant~11 104
999 COSIND_0.03 104
999 COSGEN_0.03 104
105 ESRank5 104
202 ESForwSacLong+3+12 104
999 WORDS_arguments~13 192
999 WORDFREQ_9.93 192
999 WORDSALL_Nacion~6_arguments~13 192
999 COSIND_-0.02 192
999 COSGEN_-0.02 192
106 ESRank6 192
202 ESForwSacLong+2+11 192
999 WORDS_forme~15 169
999 WORDFREQ_137.91 169
999 WORDSALL_juges~8_mettent~9_forme~15 169
999 COSIND_-0.12 169
999 COSGEN_-0.12 169
107 ESRank7 169
202 ESForwSacLong+2+4 169
999 WORDS_avant~11 151
999 WORDFREQ_21.22 151
999 WORDSALL_en~10_avant~11 151
999 COSIND_0.03 151
999 COSGEN_0.03 151
108 ESRank8 151
206 ESBackSacRegrLong-4-24 151
999 WORDS_type~19 118
999 WORDFREQ_145.95 118
999 WORDSALL_plusieurs~12_type~19 118
999 COSIND_0.19 118
999 COSGEN_0.19 118
109 ESRank9 118
202 ESForwSacLong+8+45 118
999 WORDS_procédure~21 137
999 WORDFREQ_3.38 137
999 WORDSALL_arguments~13_procédure~21 137
999 COSIND_0.04 137
999 COSGEN_0.04 137
110 ESRank10 137
202 ESForwSacLong+2+4 137
999 WORDS_forme~15 156
999 WORDFREQ_137.91 156
999 WORDSALL_de~14_forme~15 156
999 COSIND_-0.12 156
999 COSGEN_-0.12 156
111 ESRank11 156
206 ESBackSacRegrLong-6-24 156
999 WORDS_Cerda~26 150
999 WORDFREQ_N/A 150
999 WORDSALL_arguant~16_juge~25_Cerda~26 150
999 COSIND_N/A 150
112 ESRank12 150
202 ESForwSacLong+11+54 150
999 WORDS_serait~27 90
999 WORDFREQ_111.35 90
999 WORDSALL_le~18_type~19_serait~27 90
999 COSIND_0.10 90
999 COSGEN_0.10 90
113 ESRank13 90
201 ESForwSacShort 90
200 ESRankN 90
199 ESRankNMinus1 150
198 ESRankNMinus2 156
197 ESRankNMinus3 137
196 ESRankNMinus4 118
195 ESRankNMinus5 151
194 ESRankNMinus6 169
193 ESRankNMinus7 192
192 ESRankNMinus8 104
191 ESRankNMinus9 101
190 ESRankNMinus10 159
