# 141 Fixation 1 (308,284.7): La~0 plainte~1
# 223 Fixation 2 (429.9,277.8): avait~2
# 152 Fixation 3 (407.4,276.5): plainte~1 avait~2
# 156 Fixation 4 (314.5,278.4): La~0 plainte~1
# 241 Fixation 5 (480.3,283.4): avait~2 été~3
# 172 Fixation 6 (540.8,283.8): été~3 déposée~4
# 93 Fixation 7 (585.2,290.6): déposée~4
# 157 Fixation 8 (333.4,346.7): plainte~1 l'entreprise~6
# 169 Fixation 9 (304.5,356.2): l'entreprise~6
# 194 Fixation 10 (452.7,352.4): et~7 portait~8
# 143 Fixation 11 (528,349.8): portait~8
# 228 Fixation 12 (641.6,353.1): sur~9 mobilier~11
# 204 Fixation 13 (324.9,428): urbain~12 libre~21
# 169 Fixation 14 (268.1,416.3): urbain~12
# 219 Fixation 15 (447,419): le~14 service~15
# 149 Fixation 16 (630.4,426.7): location~17
%%
# La~0 Fixations= "4/"
# plainte~1 Fixations= "8/"
# avait~2 Fixations= "5/"
# été~3 Fixations= "6/"
# déposée~4 Fixations= "7/"
# par~5 Fixations= ""
# l'entreprise~6 Fixations= "9/"
# et~7 Fixations= "10/"
# portait~8 Fixations= "11/"
# sur~9 Fixations= "12/"
# le~10 Fixations= ""
# mobilier~11 Fixations= "12/"
# urbain~12 Fixations= "14/"
# et~13 Fixations= ""
# le~14 Fixations= "15/"
# service~15 Fixations= "15/"
# de~16 Fixations= ""
# location~17 Fixations= "16/"
# de~18 Fixations= ""
# vélos~19 Fixations= ""
# en~20 Fixations= ""
# libre~21 Fixations= "13/"
# service~22 Fixations= ""
# Le~23 Fixations= ""
# groupe~24 Fixations= ""
# américain~25 Fixations= ""
# a~26 Fixations= ""
# déposé~27 Fixations= ""
# un~28 Fixations= ""
# recours~29 Fixations= ""
%%
#  LA[4] PLAINTE[8] AVAIT[5] éTé[6] DéPOSéE[7] par L'ENTREPRISE[9] ET[10] PORTAIT[11] SUR[12] le MOBILIER[12] URBAIN[14] et LE[15] SERVICE[15] de LOCATION[16] de vélos en LIBRE[13] service Le groupe américain a déposé un recours
# s01 observation_planetes-a1 PercentageOfWordsProcessed= 0.5 PercentageOfWordsReallyProcessed= 0.681818181818182
