999 WORDS_contexte~2 125
999 WORDFREQ_2.16 125
999 WORDSALL_Dans~0_contexte~2 125
999 COSIND_-0.07 125
999 COSGEN_-0.07 125
101 ESRank1 125
999 WORDS_contexte~2 90
999 WORDFREQ_2.16 90
999 WORDSALL_Dans~0_contexte~2 90
999 COSIND_-0.07 90
999 COSGEN_-0.07 90
102 ESRank2 90
203 ESBackSacRefixation 90
999 WORDS_contexte~2 128
999 WORDFREQ_2.16 128
999 WORDSALL_contexte~2 128
999 COSIND_-0.07 128
999 COSGEN_-0.07 128
103 ESRank3 128
203 ESBackSacRefixation 128
999 WORDS_relevé~3 281
999 WORDFREQ_4.19 281
999 WORDSALL_relevé~3 281
999 COSIND_0.07 281
999 COSGEN_0.07 281
104 ESRank4 281
201 ESForwSacShort 281
999 WORDS_joueurs~5 240
999 WORDFREQ_9.53 240
999 WORDSALL_les~4_joueurs~5 240
999 COSIND_0.30 240
999 COSGEN_0.30 240
105 ESRank5 240
202 ESForwSacLong+2+5 240
999 WORDS_marseillais~6 94
999 WORDFREQ_0.88 94
999 WORDSALL_marseillais~6 94
999 COSIND_0.43 94
999 COSGEN_0.43 94
106 ESRank6 94
201 ESForwSacShort 94
999 WORDS_marseillais~6 169
999 WORDFREQ_0.88 169
999 WORDSALL_marseillais~6 169
999 COSIND_0.43 169
999 COSGEN_0.43 169
107 ESRank7 169
203 ESBackSacRefixation 169
999 WORDS_marseillais~6 127
999 WORDFREQ_0.88 127
999 WORDSALL_marseillais~6 127
999 COSIND_0.43 127
999 COSGEN_0.43 127
108 ESRank8 127
203 ESBackSacRefixation 127
999 WORDS_voulaient~7 152
999 WORDFREQ_30.2 152
999 WORDSALL_voulaient~7 152
999 COSIND_0.01 152
999 COSGEN_0.01 152
109 ESRank9 152
201 ESForwSacShort 152
999 WORDS_satisfaire~9 227
999 WORDFREQ_12.36 227
999 WORDSALL_surtout~8_satisfaire~9 227
999 COSIND_0.08 227
999 COSGEN_0.08 227
110 ESRank10 227
202 ESForwSacLong+2+9 227
999 WORDS_satisfaire~9 218
999 WORDFREQ_12.36 218
999 WORDSALL_satisfaire~9 218
999 COSIND_0.08 218
999 COSGEN_0.08 218
111 ESRank11 218
203 ESBackSacRefixation 218
999 WORDS_satisfaire~9 100
999 WORDFREQ_12.36 100
999 WORDSALL_satisfaire~9 100
999 COSIND_0.08 100
999 COSGEN_0.08 100
112 ESRank12 100
203 ESBackSacRefixation 100
999 WORDS_marseillais~6 160
999 WORDFREQ_0.88 160
999 WORDSALL_marseillais~6 160
999 COSIND_0.43 160
999 COSGEN_0.43 160
113 ESRank13 160
206 ESBackSacRegrLong-3-19 160
999 WORDS_public~11 124
999 WORDFREQ_37.91 124
999 WORDSALL_leur~10_public~11 124
999 COSIND_0.03 124
999 COSGEN_0.03 124
114 ESRank14 124
202 ESForwSacLong+5+35 124
999 WORDS_public~11 129
999 WORDFREQ_37.91 129
999 WORDSALL_public~11 129
999 COSIND_0.03 129
999 COSGEN_0.03 129
115 ESRank15 129
203 ESBackSacRefixation 129
999 WORDS_finale~14 130
999 WORDFREQ_2.5 130
999 WORDSALL_Avec~12_finale~14 130
999 COSIND_0.74 130
999 COSGEN_0.74 130
116 ESRank16 130
202 ESForwSacLong+3+12 130
999 WORDS_finale~14 140
999 WORDFREQ_2.5 140
999 WORDSALL_finale~14 140
999 COSIND_0.74 140
999 COSGEN_0.74 140
117 ESRank17 140
203 ESBackSacRefixation 140
999 WORDS_gagnée~15 202
999 WORDFREQ_0.81 202
999 WORDSALL_finale~14_gagnée~15 202
999 COSIND_0.44 202
999 COSGEN_0.44 202
118 ESRank18 202
201 ESForwSacShort 202
999 WORDS_finale~14 178
999 WORDFREQ_2.5 178
999 WORDSALL_cette~13_finale~14 178
999 COSIND_0.74 178
999 COSGEN_0.74 178
119 ESRank19 178
205 ESBackSacRegrShort 178
999 WORDS_gagnée~15 218
999 WORDFREQ_0.81 218
999 WORDSALL_finale~14_gagnée~15 218
999 COSIND_0.44 218
999 COSGEN_0.44 218
120 ESRank20 218
201 ESForwSacShort 218
200 ESRankN 218
199 ESRankNMinus1 178
198 ESRankNMinus2 202
197 ESRankNMinus3 140
196 ESRankNMinus4 130
195 ESRankNMinus5 129
194 ESRankNMinus6 124
193 ESRankNMinus7 160
192 ESRankNMinus8 100
191 ESRankNMinus9 218
190 ESRankNMinus10 227
