# 110 Fixation 1 (332.6,271): Les~0 via~1
# 402 Fixation 2 (382.4,264.9): via~1 ferrata~2
# 156 Fixation 3 (517,272.1): et~3 sports~5
# 176 Fixation 4 (564.7,277.6): les~4 sports~5
# 205 Fixation 5 (642.2,283.1): sports~5 d'eau~6
# 172 Fixation 6 (306.6,356.1): connaissent~8
# 146 Fixation 7 (494.9,343.3): succès~10
# 265 Fixation 8 (567.3,342.4): constant~11
%%
# Les~0 Fixations= "1/"
# via~1 Fixations= "2/"
# ferrata~2 Fixations= "2/"
# et~3 Fixations= "3/"
# les~4 Fixations= "4/"
# sports~5 Fixations= "5/"
# d'eau~6 Fixations= "5/"
# vive~7 Fixations= ""
# connaissent~8 Fixations= "6/"
# un~9 Fixations= ""
# succès~10 Fixations= "7/"
# constant~11 Fixations= "8/"
# Les~12 Fixations= ""
# candidats~13 Fixations= ""
# au~14 Fixations= ""
# vertige~15 Fixations= ""
# se~16 Fixations= ""
# comptent~17 Fixations= ""
# par~18 Fixations= ""
# milliers~19 Fixations= ""
# sur~20 Fixations= ""
# la~21 Fixations= ""
# cinquantaine~22 Fixations= ""
# de~23 Fixations= ""
# parcours~24 Fixations= ""
# de~25 Fixations= ""
# via~26 Fixations= ""
# ferrata~27 Fixations= ""
# ancrés~28 Fixations= ""
# en~29 Fixations= ""
# pleine~30 Fixations= ""
# falaise~31 Fixations= ""
%%
#  LES[1] VIA[2] FERRATA[2] ET[3] LES[4] SPORTS[5] D'EAU[5] vive CONNAISSENT[6] un SUCCèS[7] CONSTANT[8] Les candidats au vertige se comptent par milliers sur la cinquantaine de parcours de via ferrata ancrés en pleine falaise
# s01 tourisme_montagne-f1 PercentageOfWordsProcessed= 0.3125 PercentageOfWordsReallyProcessed= 0.833333333333333
