999 WORDS_monocoque~1 148
999 WORDFREQ_0 148
999 WORDSALL_Le~0_monocoque~1 148
999 COSIND_0.70 148
999 COSGEN_0.70 148
101 ESRank1 148
999 WORDS_Gartmore~2 199
999 WORDFREQ_N/A 199
999 WORDSALL_Gartmore~2 199
999 COSIND_N/A 199
102 ESRank2 199
201 ESForwSacShort 199
999 WORDS_Britannique~4 253
999 WORDFREQ_0.88 253
999 WORDSALL_du~3_Britannique~4 253
999 COSIND_-0.01 253
999 COSGEN_-0.01 253
103 ESRank3 253
202 ESForwSacLong+2+4 253
999 WORDS_démâté~6 123
999 WORDFREQ_0.07 123
999 WORDSALL_démâté~6 123
999 COSIND_0.69 123
999 COSGEN_0.69 123
104 ESRank4 123
202 ESForwSacLong+2+3 123
200 ESRankN 123
199 ESRankNMinus1 253
198 ESRankNMinus2 199
197 ESRankNMinus3 148
