# 160 Fixation 1 (269.6,250.7): Principal~0
# 198 Fixation 2 (390.9,249.6): accusé~1
# 231 Fixation 3 (504.8,246.2): du~2 volet~3
# 162 Fixation 4 (620.4,251.9): corruption~4
# 158 Fixation 5 (492.5,254.5): accusé~1 volet~3
# 135 Fixation 6 (630.4,257.7): corruption~4
# 197 Fixation 7 (297.4,343.6): escroquerie~6
# 241 Fixation 8 (469.1,331.8): un~7 ancien~8
# 223 Fixation 9 (556.8,336): ancien~8 cadre~9
# 166 Fixation 10 (665.8,337.3): d'une~10 grande~11
# 193 Fixation 11 (483.3,338): un~7 ancien~8
# 169 Fixation 12 (570.4,336.7): cadre~9
# 217 Fixation 13 (659.6,341.3): d'une~10 grande~11
# 83 Fixation 14 (703.4,337.6): d'une~10 grande~11
# 202 Fixation 15 (545.5,343.6): ancien~8 cadre~9
# 141 Fixation 16 (555.6,337.9): ancien~8 cadre~9
# 186 Fixation 17 (653.9,338.9): d'une~10 grande~11
# 177 Fixation 18 (705.6,334.7): d'une~10 grande~11
# 157 Fixation 19 (300.8,396.5): entreprise~12
# 118 Fixation 20 (271.7,398): entreprise~12
# 277 Fixation 21 (435.7,409): est~13 poursuivi~14
# 166 Fixation 22 (616.8,409.5): pour~15 avoir~16
# 181 Fixation 23 (685.1,412.5): avoir~16
# 166 Fixation 24 (716.1,414.8): avoir~16 perçu~17
# 230 Fixation 25 (300.5,462.6): des~18 millions~19
# 195 Fixation 26 (455.4,477.8): d'euros~20
# 180 Fixation 27 (561.4,468.4): en~21 commissions~22
# 144 Fixation 28 (322.4,522.8): occultes~23
# 192 Fixation 29 (522.9,536.2): d'une~25 dizaine~26
# 365 Fixation 30 (317,582.5): d'entrepreneurs~27
# 103 Fixation 31 (326.2,295.7): Principal~0
# 137 Fixation 32 (352.1,265.4): Principal~0 accusé~1
# 148 Fixation 33 (532.3,259.6): du~2 volet~3
# 138 Fixation 34 (621.9,265.2): corruption~4
# 246 Fixation 35 (357.1,323): escroquerie~6
# 172 Fixation 36 (494.4,327.4): un~7 ancien~8
# 100 Fixation 37 (608.3,337.1): cadre~9
# 148 Fixation 38 (681.3,346.1): d'une~10 grande~11
# 160 Fixation 39 (337.9,399.3): entreprise~12
%%
# Principal~0 Fixations= "32/"
# accusé~1 Fixations= "32/"
# du~2 Fixations= "33/"
# volet~3 Fixations= "33/"
# corruption~4 Fixations= "34/"
# et~5 Fixations= ""
# escroquerie~6 Fixations= "35/"
# un~7 Fixations= "36/"
# ancien~8 Fixations= "36/"
# cadre~9 Fixations= "37/"
# d'une~10 Fixations= "38/"
# grande~11 Fixations= "38/"
# entreprise~12 Fixations= "39/"
# est~13 Fixations= "21/"
# poursuivi~14 Fixations= "21/"
# pour~15 Fixations= "22/"
# avoir~16 Fixations= "24/"
# perçu~17 Fixations= "24/"
# des~18 Fixations= "25/"
# millions~19 Fixations= "25/"
# d'euros~20 Fixations= "26/"
# en~21 Fixations= "27/"
# commissions~22 Fixations= "27/"
# occultes~23 Fixations= "28/"
# auprès~24 Fixations= ""
# d'une~25 Fixations= "29/"
# dizaine~26 Fixations= "29/"
# d'entrepreneurs~27 Fixations= "30/"
%%
#  PRINCIPAL[32] ACCUSé[32] DU[33] VOLET[33] CORRUPTION[34] et ESCROQUERIE[35] UN[36] ANCIEN[36] CADRE[37] D'UNE[38] GRANDE[38] ENTREPRISE[39] EST[21] POURSUIVI[21] POUR[22] AVOIR[24] PERçU[24] DES[25] MILLIONS[25] D'EUROS[26] EN[27] COMMISSIONS[27] OCCULTES[28] auprès D'UNE[29] DIZAINE[29] D'ENTREPRENEURS[30]
# s17 tribunal_international-m1 PercentageOfWordsProcessed= 0.928571428571429 PercentageOfWordsReallyProcessed= 0.928571428571429
