999 WORDS_moitié~1 113
999 WORDFREQ_76.96 113
999 WORDSALL_La~0_moitié~1 113
999 COSIND_0.12 113
999 COSGEN_0.12 113
101 ESRank1 113
999 WORDS_moitié~1 118
999 WORDFREQ_76.96 118
999 WORDSALL_La~0_moitié~1 118
999 COSIND_0.12 118
999 COSGEN_0.12 118
102 ESRank2 118
203 ESBackSacRefixation 118
999 WORDS_moitié~1 82
999 WORDFREQ_76.96 82
999 WORDSALL_moitié~1 82
999 COSIND_0.12 82
999 COSGEN_0.12 82
103 ESRank3 82
203 ESBackSacRefixation 82
999 WORDS_tout-petits~3 120
999 WORDFREQ_0.41 120
999 WORDSALL_des~2_tout-petits~3 120
999 COSIND_N/A 120
104 ESRank4 120
202 ESForwSacLong+2+5 120
999 WORDS_tout-petits~3 138
999 WORDFREQ_0.41 138
999 WORDSALL_tout-petits~3 138
999 COSIND_N/A 138
105 ESRank5 138
203 ESBackSacRefixation 138
999 WORDS_gardés~5 167
999 WORDFREQ_2.77 167
999 WORDSALL_sont~4_gardés~5 167
999 COSIND_0.10 167
999 COSGEN_0.10 167
106 ESRank6 167
202 ESForwSacLong+2+6 167
999 WORDS_gardés~5 144
999 WORDFREQ_2.77 144
999 WORDSALL_sont~4_gardés~5 144
999 COSIND_0.10 144
999 COSGEN_0.10 144
107 ESRank7 144
203 ESBackSacRefixation 144
999 WORDS_gardés~5 134
999 WORDFREQ_2.77 134
999 WORDSALL_gardés~5 134
999 COSIND_0.10 134
999 COSGEN_0.10 134
108 ESRank8 134
203 ESBackSacRefixation 134
999 WORDS_foyer~7 164
999 WORDFREQ_25.81 164
999 WORDSALL_foyer~7 164
999 COSIND_0.40 164
999 COSGEN_0.40 164
109 ESRank9 164
202 ESForwSacLong+2+4 164
999 WORDS_parent~10 90
999 WORDFREQ_4.53 90
999 WORDSALL_par~8_parent~10 90
999 COSIND_0.31 90
999 COSGEN_0.31 90
110 ESRank10 90
202 ESForwSacLong+3+8 90
999 WORDS_parent~10 205
999 WORDFREQ_4.53 205
999 WORDSALL_un~9_parent~10 205
999 COSIND_0.31 205
999 COSGEN_0.31 205
111 ESRank11 205
203 ESBackSacRefixation 205
999 WORDS_maman~12 178
999 WORDFREQ_140.2 178
999 WORDSALL_la~11_maman~12 178
999 COSIND_0.13 178
999 COSGEN_0.13 178
112 ESRank12 178
202 ESForwSacLong+2+4 178
999 WORDS_maman~12 168
999 WORDFREQ_140.2 168
999 WORDSALL_maman~12 168
999 COSIND_0.13 168
999 COSGEN_0.13 168
113 ESRank13 168
203 ESBackSacRefixation 168
999 WORDS_quasi-totalité~15 233
999 WORDFREQ_0.88 233
999 WORDSALL_quasi-totalité~15 233
999 COSIND_N/A 233
114 ESRank14 233
202 ESForwSacLong+3+9 233
999 WORDS_quasi-totalité~15 125
999 WORDFREQ_0.88 125
999 WORDSALL_quasi-totalité~15 125
999 COSIND_N/A 125
115 ESRank15 125
203 ESBackSacRefixation 125
999 WORDS_cas~17 152
999 WORDFREQ_217.36 152
999 WORDSALL_des~16_cas~17 152
999 COSIND_0.08 152
999 COSGEN_0.08 152
116 ESRank16 152
202 ESForwSacLong+2+5 152
999 WORDS_Seuls~18 178
999 WORDFREQ_8.38 178
999 WORDSALL_cas~17_Seuls~18 178
999 COSIND_0.02 178
999 COSGEN_0.02 178
117 ESRank17 178
201 ESForwSacShort 178
999 WORDS_ont~20 121
999 WORDFREQ_240.61 121
999 WORDSALL_8%~19_ont~20 121
999 COSIND_0.09 121
999 COSGEN_0.09 121
118 ESRank18 121
202 ESForwSacLong+2+4 121
999 WORDS_accès~21 119
999 WORDFREQ_23.78 119
999 WORDSALL_ont~20_accès~21 119
999 COSIND_0.10 119
999 COSGEN_0.10 119
119 ESRank19 119
201 ESForwSacShort 119
999 WORDS_crèche~24 154
999 WORDFREQ_8.31 154
999 WORDSALL_à~22_crèche~24 154
999 COSIND_0.43 154
999 COSGEN_0.43 154
120 ESRank20 154
202 ESForwSacLong+3+8 154
999 WORDS_crèche~24 112
999 WORDFREQ_8.31 112
999 WORDSALL_crèche~24 112
999 COSIND_0.43 112
999 COSGEN_0.43 112
203 ESBackSacRefixation 112
999 WORDS_collective~25 163
999 WORDFREQ_7.91 163
999 WORDSALL_collective~25 163
999 COSIND_0.05 163
999 COSGEN_0.05 163
201 ESForwSacShort 163
999 WORDS_parentale~27 249
999 WORDFREQ_0.61 249
999 WORDSALL_ou~26_parentale~27 249
999 COSIND_0.44 249
999 COSGEN_0.44 249
202 ESForwSacLong+2+4 249
200 ESRankN 249
199 ESRankNMinus1 163
198 ESRankNMinus2 112
197 ESRankNMinus3 154
196 ESRankNMinus4 119
195 ESRankNMinus5 121
194 ESRankNMinus6 178
193 ESRankNMinus7 152
192 ESRankNMinus8 125
191 ESRankNMinus9 233
190 ESRankNMinus10 168
