999 WORDS_déflagration~1 125
999 WORDFREQ_1.55 125
999 WORDSALL_La~0_déflagration~1 125
999 COSIND_0.00 125
999 COSGEN_0.00 125
101 ESRank1 125
999 WORDS_déflagration~1 155
999 WORDFREQ_1.55 155
999 WORDSALL_déflagration~1 155
999 COSIND_0.00 155
999 COSGEN_0.00 155
102 ESRank2 155
203 ESBackSacRefixation 155
999 WORDS_produite~3 157
999 WORDFREQ_3.31 157
999 WORDSALL_s'est~2_produite~3 157
999 COSIND_-0.03 157
999 COSGEN_-0.03 157
103 ESRank3 157
202 ESForwSacLong+2+7 157
999 WORDS_produite~3 123
999 WORDFREQ_3.31 123
999 WORDSALL_s'est~2_produite~3 123
999 COSIND_-0.03 123
999 COSGEN_-0.03 123
104 ESRank4 123
203 ESBackSacRefixation 123
999 WORDS_passage~5 136
999 WORDFREQ_136.82 136
999 WORDSALL_au~4_passage~5 136
999 COSIND_0.07 136
999 COSGEN_0.07 136
105 ESRank5 136
202 ESForwSacLong+2+4 136
999 WORDS_véhicule~7 185
999 WORDFREQ_14.86 185
999 WORDSALL_La~0_déflagration~1_véhicule~7 185
999 COSIND_-0.00 185
999 COSGEN_-0.00 185
106 ESRank6 185
202 ESForwSacLong+2+6 185
999 WORDS_militaire~8 201
999 WORDFREQ_69.19 201
999 WORDSALL_s'est~2_produite~3_militaire~8 201
999 COSIND_0.24 201
999 COSGEN_0.24 201
107 ESRank7 201
201 ESForwSacShort 201
999 WORDS_route~11 134
999 WORDFREQ_251.35 134
999 WORDSALL_produite~3_route~11 134
999 COSIND_0.02 134
999 COSGEN_0.02 134
108 ESRank8 134
202 ESForwSacLong+3+9 134
999 WORDS_route~11 96
999 WORDFREQ_251.35 96
999 WORDSALL_une~10_route~11 96
999 COSIND_0.02 96
999 COSGEN_0.02 96
109 ESRank9 96
203 ESBackSacRefixation 96
999 WORDS_centre-ville~13 167
999 WORDFREQ_0.54 167
999 WORDSALL_d'un~6_véhicule~7_centre-ville~13 167
999 COSIND_N/A 167
110 ESRank10 167
202 ESForwSacLong+2+4 167
200 ESRankN 167
199 ESRankNMinus1 96
198 ESRankNMinus2 134
197 ESRankNMinus3 201
196 ESRankNMinus4 185
195 ESRankNMinus5 136
194 ESRankNMinus6 123
193 ESRankNMinus7 157
192 ESRankNMinus8 155
191 ESRankNMinus9 125
