999 WORDS_limogeage~2 203
999 WORDFREQ_0.07 203
999 WORDSALL_Depuis~0_limogeage~2 203
999 COSIND_0.22 203
999 COSGEN_0.22 203
101 ESRank1 203
999 WORDS_limogeage~2 470
999 WORDFREQ_0.07 470
999 WORDSALL_le~1_limogeage~2 470
999 COSIND_0.22 470
999 COSGEN_0.22 470
102 ESRank2 470
203 ESBackSacRefixation 470
999 WORDS_limogeage~2 229
999 WORDFREQ_0.07 229
999 WORDSALL_Depuis~0_limogeage~2 229
999 COSIND_0.22 229
999 COSGEN_0.22 229
103 ESRank3 229
203 ESBackSacRefixation 229
999 WORDS_limogeage~2 385
999 WORDFREQ_0.07 385
999 WORDSALL_le~1_limogeage~2 385
999 COSIND_0.22 385
999 COSGEN_0.22 385
104 ESRank4 385
203 ESBackSacRefixation 385
999 WORDS_limogeage~2 179
999 WORDFREQ_0.07 179
999 WORDSALL_limogeage~2 179
999 COSIND_0.22 179
999 COSGEN_0.22 179
105 ESRank5 179
203 ESBackSacRefixation 179
999 WORDS_surprise~3 244
999 WORDFREQ_6.89 244
999 WORDSALL_limogeage~2_surprise~3 244
999 COSIND_0.10 244
999 COSGEN_0.10 244
106 ESRank6 244
201 ESForwSacShort 244
999 WORDS_précédent~5 267
999 WORDFREQ_6.15 267
999 WORDSALL_du~4_précédent~5 267
999 COSIND_-0.00 267
999 COSGEN_-0.00 267
107 ESRank7 267
202 ESForwSacLong+2+4 267
999 WORDS_gouvernement~8 223
999 WORDFREQ_119.73 223
999 WORDSALL_du~7_gouvernement~8 223
999 COSIND_0.05 223
999 COSGEN_0.05 223
108 ESRank8 223
202 ESForwSacLong+3+9 223
999 WORDS_chef~6 405
999 WORDFREQ_172.57 405
999 WORDSALL_chef~6 405
999 COSIND_1.00 405
999 COSGEN_1.00 405
109 ESRank9 405
206 ESBackSacRegrLong-2-4 405
999 WORDS_russe~9 348
999 WORDFREQ_35.34 348
999 WORDSALL_gouvernement~8_russe~9 348
999 COSIND_0.01 348
999 COSGEN_0.01 348
110 ESRank10 348
202 ESForwSacLong+3+17 348
999 WORDS_après~10 307
999 WORDFREQ_821.55 307
999 WORDSALL_russe~9_après~10 307
999 COSIND_0.02 307
999 COSGEN_0.02 307
111 ESRank11 307
201 ESForwSacShort 307
999 WORDS_après~10 324
999 WORDFREQ_821.55 324
999 WORDSALL_russe~9_après~10 324
999 COSIND_0.02 324
999 COSGEN_0.02 324
112 ESRank12 324
203 ESBackSacRefixation 324
999 WORDS_après~10 255
999 WORDFREQ_821.55 255
999 WORDSALL_après~10 255
999 COSIND_0.02 255
999 COSGEN_0.02 255
113 ESRank13 255
203 ESBackSacRefixation 255
999 WORDS_stabilité~14 333
999 WORDFREQ_3.18 333
999 WORDSALL_de~13_stabilité~14 333
999 COSIND_0.00 333
999 COSGEN_0.00 333
114 ESRank14 333
202 ESForwSacLong+4+13 333
999 WORDS_président~16 265
999 WORDFREQ_76.22 265
999 WORDSALL_le~15_président~16 265
999 COSIND_-0.00 265
999 COSGEN_-0.00 265
115 ESRank15 265
202 ESForwSacLong+2+4 265
999 WORDS_maîtriser~21 179
999 WORDFREQ_8.24 179
999 WORDSALL_maîtriser~21 179
999 COSIND_0.10 179
999 COSGEN_0.10 179
116 ESRank16 179
202 ESForwSacLong+5+23 179
999 WORDS_nombreux~27 255
999 WORDFREQ_37.03 255
999 WORDSALL_sont~26_nombreux~27 255
999 COSIND_-0.00 255
999 COSGEN_-0.00 255
117 ESRank17 255
202 ESForwSacLong+6+37 255
999 WORDS_président~16 338
999 WORDFREQ_76.22 338
999 WORDSALL_le~15_président~16 338
999 COSIND_-0.00 338
999 COSGEN_-0.00 338
118 ESRank18 338
206 ESBackSacRegrLong-11-70 338
200 ESRankN 338
199 ESRankNMinus1 255
198 ESRankNMinus2 179
197 ESRankNMinus3 265
196 ESRankNMinus4 333
195 ESRankNMinus5 255
194 ESRankNMinus6 324
193 ESRankNMinus7 307
192 ESRankNMinus8 348
191 ESRankNMinus9 405
190 ESRankNMinus10 223
