999 WORDS_31~2 117
999 WORDFREQ_N/A 117
999 WORDSALL_Entre~0_31~2 117
999 COSIND_N/A 117
101 ESRank1 117
999 WORDS_31~2 135
999 WORDFREQ_N/A 135
999 WORDSALL_le~1_31~2 135
999 COSIND_N/A 135
102 ESRank2 135
203 ESBackSacRefixation 135
999 WORDS_décembre~3 142
999 WORDFREQ_31.15 142
999 WORDSALL_31~2_décembre~3 142
999 COSIND_-0.04 142
999 COSGEN_-0.04 142
103 ESRank3 142
201 ESForwSacShort 142
999 WORDS_minuit~5 165
999 WORDFREQ_29.80 165
999 WORDSALL_à~4_minuit~5 165
999 COSIND_-0.04 165
999 COSGEN_-0.04 165
104 ESRank4 165
202 ESForwSacLong+2+4 165
999 WORDS_jusqu'à~7 144
999 WORDFREQ_0.27 144
999 WORDSALL_et~6_jusqu'à~7 144
999 COSIND_N/A 144
105 ESRank5 144
202 ESForwSacLong+2+4 144
999 WORDS_jusqu'à~7 119
999 WORDFREQ_0.27 119
999 WORDSALL_jusqu'à~7 119
999 COSIND_N/A 119
106 ESRank6 119
203 ESBackSacRefixation 119
999 WORDS_fin~9 150
999 WORDFREQ_303.31 150
999 WORDSALL_Entre~0_31~2_fin~9 150
999 COSIND_-0.03 150
999 COSGEN_-0.03 150
107 ESRank7 150
202 ESForwSacLong+2+4 150
999 WORDS_janvier~13 175
999 WORDFREQ_30.61 175
999 WORDSALL_décembre~3_janvier~13 175
999 COSIND_0.00 175
999 COSGEN_0.00 175
108 ESRank8 175
202 ESForwSacLong+4+12 175
999 WORDS_clubs~15 145
999 WORDFREQ_2.84 145
999 WORDSALL_à~4_minuit~5_clubs~15 145
999 COSIND_-0.04 145
999 COSGEN_-0.04 145
109 ESRank9 145
202 ESForwSacLong+2+5 145
999 WORDS_football~17 164
999 WORDFREQ_6.28 164
999 WORDSALL_fin~9_football~17 164
999 COSIND_-0.02 164
999 COSGEN_-0.02 164
110 ESRank10 164
202 ESForwSacLong+2+4 164
999 WORDS_autorisés~19 124
999 WORDFREQ_1.49 124
999 WORDSALL_mois~11_janvier~13_sont~18_autorisés~19 124
999 COSIND_0.01 124
999 COSGEN_0.01 124
111 ESRank11 124
202 ESForwSacLong+2+6 124
999 WORDS_autorisés~19 102
999 WORDFREQ_1.49 102
999 WORDSALL_janvier~13_autorisés~19 102
999 COSIND_0.01 102
999 COSGEN_0.01 102
112 ESRank12 102
203 ESBackSacRefixation 102
999 WORDS_renouveler~21 161
999 WORDFREQ_5.81 161
999 WORDSALL_les~14_clubs~15_renouveler~21 161
999 COSIND_0.03 161
999 COSGEN_0.03 161
113 ESRank13 161
202 ESForwSacLong+2+4 161
999 WORDS_renouveler~21 109
999 WORDFREQ_5.81 109
999 WORDSALL_clubs~15_renouveler~21 109
999 COSIND_0.03 109
999 COSGEN_0.03 109
114 ESRank14 109
203 ESBackSacRefixation 109
999 WORDS_effectif~23 149
999 WORDFREQ_2.23 149
999 WORDSALL_football~17_effectif~23 149
999 COSIND_0.04 149
999 COSGEN_0.04 149
115 ESRank15 149
202 ESForwSacLong+2+6 149
999 WORDS_effectif~23 232
999 WORDFREQ_2.23 232
999 WORDSALL_football~17_effectif~23 232
999 COSIND_0.04 232
999 COSGEN_0.04 232
116 ESRank16 232
203 ESBackSacRefixation 232
999 WORDS_renouveler~21 132
999 WORDFREQ_5.81 132
999 WORDSALL_renouveler~21 132
999 COSIND_0.03 132
999 COSGEN_0.03 132
117 ESRank17 132
206 ESBackSacRegrLong-2-6 132
999 WORDS_renouveler~21 84
999 WORDFREQ_5.81 84
999 WORDSALL_renouveler~21 84
999 COSIND_0.03 84
999 COSGEN_0.03 84
118 ESRank18 84
203 ESBackSacRefixation 84
200 ESRankN 84
199 ESRankNMinus1 132
198 ESRankNMinus2 232
197 ESRankNMinus3 149
196 ESRankNMinus4 109
195 ESRankNMinus5 161
194 ESRankNMinus6 102
193 ESRankNMinus7 124
192 ESRankNMinus8 164
191 ESRankNMinus9 145
190 ESRankNMinus10 175
