999 WORDS_bourse~1 127
999 WORDFREQ_11.22 127
999 WORDSALL_La~0_bourse~1 127
999 COSIND_0.89 127
999 COSGEN_0.89 127
101 ESRank1 127
999 WORDS_Tokyo~3 191
999 WORDFREQ_N/A 191
999 WORDSALL_de~2_Tokyo~3 191
999 COSIND_N/A 191
102 ESRank2 191
202 ESForwSacLong+2+4 191
999 WORDS_clôturé~5 96
999 WORDFREQ_0.34 96
999 WORDSALL_a~4_clôturé~5 96
999 COSIND_0.85 96
999 COSGEN_0.85 96
103 ESRank3 96
202 ESForwSacLong+2+3 96
999 WORDS_séance~7 189
999 WORDFREQ_22.3 189
999 WORDSALL_la~6_séance~7 189
999 COSIND_0.78 189
999 COSGEN_0.78 189
104 ESRank4 189
202 ESForwSacLong+2+4 189
999 WORDS_mardi~9 140
999 WORDFREQ_15.47 140
999 WORDSALL_mardi~9 140
999 COSIND_0.14 140
999 COSGEN_0.14 140
105 ESRank5 140
202 ESForwSacLong+2+4 140
999 WORDS_légère~11 135
999 WORDFREQ_47.84 135
999 WORDSALL_légère~11 135
999 COSIND_0.33 135
999 COSGEN_0.33 135
106 ESRank6 135
202 ESForwSacLong+2+4 135
999 WORDS_investisseurs~18 226
999 WORDFREQ_0.07 226
999 WORDSALL_investisseurs~18 226
999 COSIND_0.50 226
999 COSGEN_0.50 226
107 ESRank7 226
202 ESForwSacLong+7+36 226
999 WORDS_hausse~12 229
999 WORDFREQ_2.09 229
999 WORDSALL_hausse~12 229
999 COSIND_0.85 229
999 COSGEN_0.85 229
108 ESRank8 229
206 ESBackSacRegrLong-6-29 229
200 ESRankN 229
199 ESRankNMinus1 226
198 ESRankNMinus2 135
197 ESRankNMinus3 140
196 ESRankNMinus4 189
195 ESRankNMinus5 96
194 ESRankNMinus6 191
193 ESRankNMinus7 127
