999 WORDS_annonce~1 89
999 WORDFREQ_13.18 89
999 WORDSALL_Cette~0_annonce~1 89
999 COSIND_0.25 89
999 COSGEN_0.25 89
101 ESRank1 89
999 WORDS_annonce~1 215
999 WORDFREQ_13.18 215
999 WORDSALL_Cette~0_annonce~1 215
999 COSIND_0.25 215
999 COSGEN_0.25 215
102 ESRank2 215
203 ESBackSacRefixation 215
999 WORDS_avait~3 168
999 WORDFREQ_3116.42 168
999 WORDSALL_qui~2_avait~3 168
999 COSIND_0.08 168
999 COSGEN_0.08 168
103 ESRank3 168
202 ESForwSacLong+2+5 168
999 WORDS_déjà~4 133
999 WORDFREQ_702.23 133
999 WORDSALL_déjà~4 133
999 COSIND_N/A 133
104 ESRank4 133
201 ESForwSacShort 133
999 WORDS_pronostiquée~6 195
999 WORDFREQ_N/A 195
999 WORDSALL_pronostiquée~6 195
999 COSIND_N/A 195
105 ESRank5 195
202 ESForwSacLong+2+7 195
999 WORDS_certains~8 115
999 WORDFREQ_32.64 115
999 WORDSALL_par~7_certains~8 115
999 COSIND_-0.05 115
999 COSGEN_-0.05 115
106 ESRank6 115
202 ESForwSacLong+2+5 115
999 WORDS_certains~8 210
999 WORDFREQ_32.64 210
999 WORDSALL_certains~8 210
999 COSIND_-0.05 210
999 COSGEN_-0.05 210
107 ESRank7 210
203 ESBackSacRefixation 210
999 WORDS_analystes~9 229
999 WORDFREQ_0.2 229
999 WORDSALL_analystes~9 229
999 COSIND_0.50 229
999 COSGEN_0.50 229
108 ESRank8 229
201 ESForwSacShort 229
999 WORDS_analystes~9 136
999 WORDFREQ_0.2 136
999 WORDSALL_analystes~9 136
999 COSIND_0.50 136
999 COSGEN_0.50 136
109 ESRank9 136
203 ESBackSacRefixation 136
999 WORDS_semaine~11 227
999 WORDFREQ_111.89 227
999 WORDSALL_semaine~11 227
999 COSIND_0.07 227
999 COSGEN_0.07 227
110 ESRank10 227
202 ESForwSacLong+2+4 227
999 WORDS_dernière~12 223
999 WORDFREQ_145.27 223
999 WORDSALL_dernière~12 223
999 COSIND_-0.10 223
999 COSGEN_-0.10 223
111 ESRank11 223
201 ESForwSacShort 223
999 WORDS_été~14 106
999 WORDFREQ_818.99 106
999 WORDSALL_a~13_été~14 106
999 COSIND_0.01 106
999 COSGEN_0.01 106
112 ESRank12 106
202 ESForwSacLong+2+3 106
999 WORDS_fraîchement~15 90
999 WORDFREQ_8.31 90
999 WORDSALL_été~14_fraîchement~15 90
999 COSIND_0.06 90
999 COSGEN_0.06 90
113 ESRank13 90
201 ESForwSacShort 90
999 WORDS_accueillie~16 159
999 WORDFREQ_2.23 159
999 WORDSALL_accueillie~16 159
999 COSIND_0.04 159
999 COSGEN_0.04 159
114 ESRank14 159
201 ESForwSacShort 159
999 WORDS_accueillie~16 98
999 WORDFREQ_2.23 98
999 WORDSALL_accueillie~16 98
999 COSIND_0.04 98
999 COSGEN_0.04 98
115 ESRank15 98
203 ESBackSacRefixation 98
999 WORDS_diminution~18 158
999 WORDFREQ_1.01 158
999 WORDSALL_Cette~17_diminution~18 158
999 COSIND_0.12 158
999 COSGEN_0.12 158
116 ESRank16 158
202 ESForwSacLong+2+7 158
999 WORDS_diminution~18 208
999 WORDFREQ_1.01 208
999 WORDSALL_diminution~18 208
999 COSIND_0.12 208
999 COSGEN_0.12 208
117 ESRank17 208
203 ESBackSacRefixation 208
999 WORDS_fait~20 141
999 WORDFREQ_1459.26 141
999 WORDSALL_ne~19_fait~20 141
999 COSIND_0.02 141
999 COSGEN_0.02 141
118 ESRank18 141
202 ESForwSacLong+2+4 141
999 WORDS_fait~20 120
999 WORDFREQ_1459.26 120
999 WORDSALL_ne~19_fait~20 120
999 COSIND_0.02 120
999 COSGEN_0.02 120
119 ESRank19 120
203 ESBackSacRefixation 120
999 WORDS_poursuivre~22 185
999 WORDFREQ_22.23 185
999 WORDSALL_poursuivre~22 185
999 COSIND_0.11 185
999 COSGEN_0.11 185
120 ESRank20 185
202 ESForwSacLong+2+5 185
999 WORDS_tendance~24 113
999 WORDFREQ_14.26 113
999 WORDSALL_une~23_tendance~24 113
999 COSIND_0.24 113
999 COSGEN_0.24 113
202 ESForwSacLong+2+5 113
999 WORDS_à~25 128
999 WORDFREQ_19209.05 128
999 WORDSALL_tendance~24_à~25 128
999 COSIND_N/A 128
201 ESForwSacShort 128
999 WORDS_baisse~27 222
999 WORDFREQ_3.38 222
999 WORDSALL_à~25_baisse~27 222
999 COSIND_0.44 222
999 COSGEN_0.44 222
202 ESForwSacLong+2+4 222
999 WORDS_titre~29 112
999 WORDFREQ_53.04 112
999 WORDSALL_titre~29 112
999 COSIND_0.07 112
999 COSGEN_0.07 112
202 ESForwSacLong+2+4 112
999 WORDS_titre~29 146
999 WORDFREQ_53.04 146
999 WORDSALL_titre~29 146
999 COSIND_0.07 146
999 COSGEN_0.07 146
203 ESBackSacRefixation 146
999 WORDS_titre~29 107
999 WORDFREQ_53.04 107
999 WORDSALL_titre~29 107
999 COSIND_0.07 107
999 COSGEN_0.07 107
203 ESBackSacRefixation 107
200 ESRankN 107
199 ESRankNMinus1 146
198 ESRankNMinus2 112
197 ESRankNMinus3 222
196 ESRankNMinus4 128
195 ESRankNMinus5 113
194 ESRankNMinus6 185
193 ESRankNMinus7 120
192 ESRankNMinus8 141
191 ESRankNMinus9 208
190 ESRankNMinus10 158
