999 WORDS_souvient~2 132
999 WORDFREQ_15.68 132
999 WORDSALL_On~0_souvient~2 132
999 COSIND_-0.03 132
999 COSGEN_-0.03 132
101 ESRank1 132
999 WORDS_souvient~2 122
999 WORDFREQ_15.68 122
999 WORDSALL_On~0_souvient~2 122
999 COSIND_-0.03 122
999 COSGEN_-0.03 122
102 ESRank2 122
203 ESBackSacRefixation 122
999 WORDS_souvient~2 98
999 WORDFREQ_15.68 98
999 WORDSALL_souvient~2 98
999 COSIND_-0.03 98
999 COSGEN_-0.03 98
103 ESRank3 98
203 ESBackSacRefixation 98
999 WORDS_fameux~4 385
999 WORDFREQ_33.31 385
999 WORDSALL_du~3_fameux~4 385
999 COSIND_0.00 385
999 COSGEN_0.00 385
104 ESRank4 385
202 ESForwSacLong+2+4 385
999 WORDS_fameux~4 129
999 WORDFREQ_33.31 129
999 WORDSALL_du~3_fameux~4 129
999 COSIND_0.00 129
999 COSGEN_0.00 129
105 ESRank5 129
203 ESBackSacRefixation 129
999 WORDS_symbole~5 167
999 WORDFREQ_12.57 167
999 WORDSALL_fameux~4_symbole~5 167
999 COSIND_0.03 167
999 COSGEN_0.03 167
106 ESRank6 167
201 ESForwSacShort 167
999 WORDS_dollar~7 204
999 WORDFREQ_3.85 204
999 WORDSALL_symbole~5_dollar~7 204
999 COSIND_0.04 204
999 COSGEN_0.04 204
107 ESRank7 204
202 ESForwSacLong+2+4 204
999 WORDS_Andy~10 162
999 WORDFREQ_N/A 162
999 WORDSALL_revu~8_Andy~10 162
999 COSIND_N/A 162
108 ESRank8 162
202 ESForwSacLong+3+10 162
999 WORDS_revu~8 133
999 WORDFREQ_0.68 133
999 WORDSALL_revu~8 133
999 COSIND_0.01 133
999 COSGEN_0.01 133
109 ESRank9 133
206 ESBackSacRegrLong-2-5 133
999 WORDS_revu~8 95
999 WORDFREQ_0.68 95
999 WORDSALL_revu~8 95
999 COSIND_0.01 95
999 COSGEN_0.01 95
110 ESRank10 95
203 ESBackSacRefixation 95
999 WORDS_Andy~10 171
999 WORDFREQ_N/A 171
999 WORDSALL_par~9_Andy~10 171
999 COSIND_N/A 171
111 ESRank11 171
202 ESForwSacLong+2+5 171
999 WORDS_Warhol~11 113
999 WORDFREQ_N/A 113
999 WORDSALL_Andy~10_Warhol~11 113
999 COSIND_N/A 113
112 ESRank12 113
201 ESForwSacShort 113
999 WORDS_pop-artiste~13 205
999 WORDFREQ_N/A 205
999 WORDSALL_Le~12_pop-artiste~13 205
999 COSIND_N/A 205
113 ESRank13 205
202 ESForwSacLong+2+4 205
999 WORDS_avait~15 177
999 WORDFREQ_3116.42 177
999 WORDSALL_avait~15 177
999 COSIND_0.03 177
999 COSGEN_0.03 177
114 ESRank14 177
202 ESForwSacLong+2+12 177
999 WORDS_américain~14 149
999 WORDFREQ_25.95 149
999 WORDSALL_américain~14 149
999 COSIND_0.02 149
999 COSGEN_0.02 149
115 ESRank15 149
205 ESBackSacRegrShort 149
999 WORDS_pop-artiste~13 169
999 WORDFREQ_N/A 169
999 WORDSALL_Le~12_pop-artiste~13 169
999 COSIND_N/A 169
116 ESRank16 169
205 ESBackSacRegrShort 169
999 WORDS_pop-artiste~13 85
999 WORDFREQ_N/A 85
999 WORDSALL_Le~12_pop-artiste~13 85
999 COSIND_N/A 85
117 ESRank17 85
203 ESBackSacRefixation 85
999 WORDS_américain~14 255
999 WORDFREQ_25.95 255
999 WORDSALL_américain~14 255
999 COSIND_0.02 255
999 COSGEN_0.02 255
118 ESRank18 255
201 ESForwSacShort 255
999 WORDS_signe~17 268
999 WORDFREQ_119.19 268
999 WORDSALL_signe~17 268
999 COSIND_0.08 268
999 COSGEN_0.08 268
119 ESRank19 268
202 ESForwSacLong+3+12 268
999 WORDS_pop-artiste~13 124
999 WORDFREQ_N/A 124
999 WORDSALL_Le~12_pop-artiste~13 124
999 COSIND_N/A 124
120 ESRank20 124
206 ESBackSacRegrLong-4-23 124
999 WORDS_amalgamé~19 398
999 WORDFREQ_0.14 398
999 WORDSALL_simple~18_amalgamé~19 398
999 COSIND_0.28 398
999 COSGEN_0.28 398
202 ESForwSacLong+6+36 398
999 WORDS_l'art~20 215
999 WORDFREQ_81.49 215
999 WORDSALL_l'art~20 215
999 COSIND_1.00 215
999 COSGEN_1.00 215
201 ESForwSacShort 215
999 WORDS_l'argent~22 180
999 WORDFREQ_194.32 180
999 WORDSALL_l'argent~22 180
999 COSIND_0.03 180
999 COSGEN_0.03 180
202 ESForwSacLong+2+4 180
999 WORDS_l'argent~22 141
999 WORDFREQ_194.32 141
999 WORDSALL_et~21_l'argent~22 141
999 COSIND_0.03 141
999 COSGEN_0.03 141
203 ESBackSacRefixation 141
200 ESRankN 141
199 ESRankNMinus1 180
198 ESRankNMinus2 215
197 ESRankNMinus3 398
196 ESRankNMinus4 124
195 ESRankNMinus5 268
194 ESRankNMinus6 255
193 ESRankNMinus7 85
192 ESRankNMinus8 169
191 ESRankNMinus9 149
190 ESRankNMinus10 177
