999 WORDS_plainte~1 141
999 WORDFREQ_17.09 141
999 WORDSALL_La~0_plainte~1 141
999 COSIND_-0.04 141
999 COSGEN_-0.04 141
101 ESRank1 141
999 WORDS_avait~2 223
999 WORDFREQ_3116.42 223
999 WORDSALL_avait~2 223
999 COSIND_-0.02 223
999 COSGEN_-0.02 223
102 ESRank2 223
201 ESForwSacShort 223
999 WORDS_avait~2 152
999 WORDFREQ_3116.42 152
999 WORDSALL_plainte~1_avait~2 152
999 COSIND_-0.02 152
999 COSGEN_-0.02 152
103 ESRank3 152
203 ESBackSacRefixation 152
999 WORDS_plainte~1 156
999 WORDFREQ_17.09 156
999 WORDSALL_La~0_plainte~1 156
999 COSIND_-0.04 156
999 COSGEN_-0.04 156
104 ESRank4 156
205 ESBackSacRegrShort 156
999 WORDS_été~3 241
999 WORDFREQ_40.2 241
999 WORDSALL_avait~2_été~3 241
999 COSIND_-0.01 241
999 COSGEN_-0.01 241
105 ESRank5 241
202 ESForwSacLong+2+7 241
999 WORDS_déposée~4 172
999 WORDFREQ_3.58 172
999 WORDSALL_été~3_déposée~4 172
999 COSIND_-0.02 172
999 COSGEN_-0.02 172
106 ESRank6 172
201 ESForwSacShort 172
999 WORDS_déposée~4 93
999 WORDFREQ_3.58 93
999 WORDSALL_déposée~4 93
999 COSIND_-0.02 93
999 COSGEN_-0.02 93
107 ESRank7 93
203 ESBackSacRefixation 93
999 WORDS_l'entreprise~6 157
999 WORDFREQ_29.05 157
999 WORDSALL_plainte~1_l'entreprise~6 157
999 COSIND_-0.03 157
999 COSGEN_-0.03 157
108 ESRank8 157
202 ESForwSacLong+2+5 157
999 WORDS_l'entreprise~6 169
999 WORDFREQ_29.05 169
999 WORDSALL_l'entreprise~6 169
999 COSIND_-0.03 169
999 COSGEN_-0.03 169
109 ESRank9 169
203 ESBackSacRefixation 169
999 WORDS_portait~8 194
999 WORDFREQ_113.85 194
999 WORDSALL_et~7_portait~8 194
999 COSIND_-0.07 194
999 COSGEN_-0.07 194
110 ESRank10 194
202 ESForwSacLong+2+4 194
999 WORDS_portait~8 143
999 WORDFREQ_113.85 143
999 WORDSALL_portait~8 143
999 COSIND_-0.07 143
999 COSGEN_-0.07 143
111 ESRank11 143
203 ESBackSacRefixation 143
999 WORDS_mobilier~11 228
999 WORDFREQ_5.27 228
999 WORDSALL_sur~9_mobilier~11 228
999 COSIND_-0.13 228
999 COSGEN_-0.13 228
112 ESRank12 228
202 ESForwSacLong+3+8 228
999 WORDS_libre~21 204
999 WORDFREQ_130.14 204
999 WORDSALL_urbain~12_libre~21 204
999 COSIND_0.01 204
999 COSGEN_0.01 204
113 ESRank13 204
202 ESForwSacLong+10+47 204
999 WORDS_urbain~12 169
999 WORDFREQ_1.89 169
999 WORDSALL_urbain~12 169
999 COSIND_-0.03 169
999 COSGEN_-0.03 169
114 ESRank14 169
206 ESBackSacRegrLong-9-40 169
999 WORDS_service~15 219
999 WORDFREQ_106.28 219
999 WORDSALL_le~14_service~15 219
999 COSIND_0.05 219
999 COSGEN_0.05 219
115 ESRank15 219
202 ESForwSacLong+3+7 219
999 WORDS_location~17 149
999 WORDFREQ_5 149
999 WORDSALL_location~17 149
999 COSIND_-0.05 149
999 COSGEN_-0.05 149
116 ESRank16 149
202 ESForwSacLong+2+4 149
200 ESRankN 149
199 ESRankNMinus1 219
198 ESRankNMinus2 169
197 ESRankNMinus3 204
196 ESRankNMinus4 228
195 ESRankNMinus5 143
194 ESRankNMinus6 194
193 ESRankNMinus7 169
192 ESRankNMinus8 157
191 ESRankNMinus9 93
190 ESRankNMinus10 172
