# 163 Fixation 1 (371.2,291.2): soixantaine~1
# 101 Fixation 2 (320,283.3): Une~0 soixantaine~1
# 211 Fixation 3 (506.2,280.9): de~2 jeunes~3
# 210 Fixation 4 (644.1,285.6): de~4 Courneuve~6
# 175 Fixation 5 (673,285.1): la~5 Courneuve~6
# 168 Fixation 6 (323.5,333.4): ont~7 incendié~8
# 129 Fixation 7 (304.4,342): ont~7 incendié~8
# 263 Fixation 8 (476.9,343.3): des~9 voitures~10
# 91 Fixation 9 (426.9,346): incendié~8 voitures~10
# 211 Fixation 10 (621.2,345.8): brisé~11
# 319 Fixation 11 (305.4,395.4): vitrines~13
# 83 Fixation 12 (274.9,398.8): vitrines~13
# 222 Fixation 13 (438.9,398.4): et~14 sont~16
# 176 Fixation 14 (571.7,404.6): pris~17
# 217 Fixation 15 (654.3,400.4): aux~18 policiers~19
# 170 Fixation 16 (569,402.8): pris~17
# 143 Fixation 17 (467.5,400.6): s'en~15 sont~16
# 310 Fixation 18 (402.7,400.3): et~14 sont~16
# 217 Fixation 19 (528.9,407.1): sont~16 pris~17
# 157 Fixation 20 (308.6,457.8): auxquels~20
# 296 Fixation 21 (431.8,460): ils~21 attribuent~22
# 233 Fixation 22 (602.4,464.9): la~23 responsabilité~24
# 155 Fixation 23 (661.7,462.5): responsabilité~24
# 242 Fixation 24 (340.5,513.9): la~26 mort~27
# 162 Fixation 25 (481,519.5): d'un~28
# 137 Fixation 26 (434,319): des~9 voitures~10
# 214 Fixation 27 (351,293.4): soixantaine~1
# 162 Fixation 28 (507.3,293.5): de~2 jeunes~3
# 231 Fixation 29 (657.6,302.6): de~4 Courneuve~6
# 144 Fixation 30 (690.2,288.9): la~5 Courneuve~6
# 226 Fixation 31 (303.2,350.5): ont~7 incendié~8
# 92 Fixation 32 (386.3,356.3): incendié~8
# 232 Fixation 33 (494.8,528.8): des~29
# 160 Fixation 34 (387.1,519.1): mort~27
# 343 Fixation 35 (471.6,381.4): s'en~15 sont~16
# 302 Fixation 36 (545.9,369.9): voitures~10
%%
# Une~0 Fixations= "2/"
# soixantaine~1 Fixations= "27/"
# de~2 Fixations= "28/"
# jeunes~3 Fixations= "28/"
# de~4 Fixations= "29/"
# la~5 Fixations= "30/"
# Courneuve~6 Fixations= "30/"
# ont~7 Fixations= "31/"
# incendié~8 Fixations= "32/"
# des~9 Fixations= "26/"
# voitures~10 Fixations= "36/"
# brisé~11 Fixations= "10/"
# des~12 Fixations= ""
# vitrines~13 Fixations= "12/"
# et~14 Fixations= "18/"
# s'en~15 Fixations= "35/"
# sont~16 Fixations= "35/"
# pris~17 Fixations= "19/"
# aux~18 Fixations= "15/"
# policiers~19 Fixations= "15/"
# auxquels~20 Fixations= "20/"
# ils~21 Fixations= "21/"
# attribuent~22 Fixations= "21/"
# la~23 Fixations= "22/"
# responsabilité~24 Fixations= "23/"
# de~25 Fixations= ""
# la~26 Fixations= "24/"
# mort~27 Fixations= "34/"
# d'un~28 Fixations= "25/"
# des~29 Fixations= "33/"
# leurs~30 Fixations= ""
%%
#  UNE[2] SOIXANTAINE[27] DE[28] JEUNES[28] DE[29] LA[30] COURNEUVE[30] ONT[31] INCENDIé[32] DES[26] VOITURES[36] BRISé[10] des VITRINES[12] ET[18] S'EN[35] SONT[35] PRIS[19] AUX[15] POLICIERS[15] AUXQUELS[20] ILS[21] ATTRIBUENT[21] LA[22] RESPONSABILITé[23] de LA[24] MORT[34] D'UN[25] DES[33] leurs
# s04 delinquance_juvenile-f2 PercentageOfWordsProcessed= 0.903225806451613 PercentageOfWordsReallyProcessed= 0.933333333333333
