# 127 Fixation 1 (291.2,282.2): Plus~0
# 114 Fixation 2 (378.9,284.1): de~1 200~2
# 148 Fixation 3 (472.1,288.9): infractions~3
# 214 Fixation 4 (630.4,281.6): l'environnement~5
# 177 Fixation 5 (318.7,335.8): ont~6 été~7
# 210 Fixation 6 (401.1,339.8): constatées~8
# 183 Fixation 7 (531.2,352.1): dans~9 marais~11
# 238 Fixation 8 (599.1,364.5): le~10 marais~11
# 209 Fixation 9 (334.8,420.2): Fontenay-le-vicomte~13
# 186 Fixation 10 (427.2,417.5): Fontenay-le-vicomte~13
# 210 Fixation 11 (273.9,412.7): Fontenay-le-vicomte~13
# 187 Fixation 12 (376.8,416.5): Fontenay-le-vicomte~13
# 184 Fixation 13 (415.6,414.8): Fontenay-le-vicomte~13
# 170 Fixation 14 (603.9,418.8): lors~14 opération~16
# 235 Fixation 15 (667.5,427.5): d'une~15 opération~16
# 207 Fixation 16 (332.6,476.1): lancée~17
# 221 Fixation 17 (429.3,480.6): le~19 parquet~20
# 276 Fixation 18 (543.5,477.9): parquet~20 d'Evry~21
# 165 Fixation 19 (617.7,478.4): d'Evry~21
# 192 Fixation 20 (665.2,484.9): plusieurs~22
# 177 Fixation 21 (366.1,521.9): constructions~23
# 170 Fixation 22 (305.4,523.9): constructions~23
# 151 Fixation 23 (529.8,536.4): été~25 recensées~26
# 99 Fixation 24 (612.9,534.1): recensées~26
# 119 Fixation 25 (717,539.4): dans~27
# 165 Fixation 26 (353.2,589.8): non~30 constructible~31
# 188 Fixation 27 (295.9,580.9): zone~29
# 190 Fixation 28 (404.1,592): constructible~31
# 120 Fixation 29 (360.2,346.8): été~7 constatées~8
# 132 Fixation 30 (378.8,298.1): de~1 200~2
# 492 Fixation 31 (472.3,306.8): infractions~3
%%
# Plus~0 Fixations= "1/"
# de~1 Fixations= "30/"
# 200~2 Fixations= "30/"
# infractions~3 Fixations= "31/"
# à~4 Fixations= ""
# l'environnement~5 Fixations= "4/"
# ont~6 Fixations= "5/"
# été~7 Fixations= "29/"
# constatées~8 Fixations= "29/"
# dans~9 Fixations= "7/"
# le~10 Fixations= "8/"
# marais~11 Fixations= "8/"
# de~12 Fixations= ""
# Fontenay-le-vicomte~13 Fixations= "13/"
# lors~14 Fixations= "14/"
# d'une~15 Fixations= "15/"
# opération~16 Fixations= "15/"
# lancée~17 Fixations= "16/"
# par~18 Fixations= ""
# le~19 Fixations= "17/"
# parquet~20 Fixations= "18/"
# d'Evry~21 Fixations= "19/"
# plusieurs~22 Fixations= "20/"
# constructions~23 Fixations= "22/"
# ont~24 Fixations= ""
# été~25 Fixations= "23/"
# recensées~26 Fixations= "24/"
# dans~27 Fixations= "25/"
# cette~28 Fixations= ""
# zone~29 Fixations= "27/"
# non~30 Fixations= "26/"
# constructible~31 Fixations= "28/"
%%
#  PLUS[1] DE[30] 200[30] INFRACTIONS[31] à L'ENVIRONNEMENT[4] ONT[5] éTé[29] CONSTATéES[29] DANS[7] LE[8] MARAIS[8] de FONTENAY-LE-VICOMTE[13] LORS[14] D'UNE[15] OPéRATION[15] LANCéE[16] par LE[17] PARQUET[18] D'EVRY[19] PLUSIEURS[20] CONSTRUCTIONS[22] ont éTé[23] RECENSéES[24] DANS[25] cette ZONE[27] NON[26] CONSTRUCTIBLE[28]
# s17 dechets_nucleaires-m2 PercentageOfWordsProcessed= 0.84375 PercentageOfWordsReallyProcessed= 0.84375
