# 117 Fixation 1 (370.9,398.1): Dakar-Lyon~12 mardi~13
# 129 Fixation 2 (436.7,400.1): mardi~13
# 185 Fixation 3 (500.4,406.5): mardi~13 dernier~14
# 126 Fixation 4 (355.7,305.1): miraculé~1
# 266 Fixation 5 (472.8,268.2): de~2 l'aviation~3
# 208 Fixation 6 (627.8,271.9): un~4 jeune~5
# 118 Fixation 7 (634.5,280): un~4 jeune~5
# 93 Fixation 8 (294.6,280.5): Un~0 miraculé~1
%%
# Un~0 Fixations= "8/"
# miraculé~1 Fixations= "8/"
# de~2 Fixations= "5/"
# l'aviation~3 Fixations= "5/"
# un~4 Fixations= "7/"
# jeune~5 Fixations= "7/"
# passager~6 Fixations= ""
# clandestin~7 Fixations= ""
# a~8 Fixations= ""
# fait~9 Fixations= ""
# le~10 Fixations= ""
# trajet~11 Fixations= ""
# Dakar-Lyon~12 Fixations= "1/"
# mardi~13 Fixations= "3/"
# dernier~14 Fixations= "3/"
# dans~15 Fixations= ""
# le~16 Fixations= ""
# train~17 Fixations= ""
# d'atterrissage~18 Fixations= ""
# d'un~19 Fixations= ""
# Airbus~20 Fixations= ""
# A300~21 Fixations= ""
%%
#  UN[8] MIRACULé[8] DE[5] L'AVIATION[5] UN[7] JEUNE[7] passager clandestin a fait le trajet DAKAR-LYON[1] MARDI[3] DERNIER[3] dans le train d'atterrissage d'un Airbus A300
# s02 salon_aeronautique-m2 PercentageOfWordsProcessed= 0.409090909090909 PercentageOfWordsReallyProcessed= 0.6
