# 143 Fixation 1 (237.5,281.2): Le~0 3e~1
# 202 Fixation 2 (318.7,290.7): Le~0 3e~1 ligne~2
# 152 Fixation 3 (291.7,282.8): Le~0 3e~1
# 264 Fixation 4 (259.9,285): Le~0 3e~1
# 275 Fixation 5 (249.7,287.1): Le~0 3e~1
# 182 Fixation 6 (254.5,302.4): Le~0 3e~1
# 216 Fixation 7 (241.6,288.3): Le~0 3e~1
# 338 Fixation 8 (257.8,293.1): Le~0 3e~1
# 597 Fixation 9 (264.7,286): Le~0 3e~1
# 241 Fixation 10 (305.5,284.2): Le~0 3e~1
# 392 Fixation 11 (338.8,288.3): 3e~1 ligne~2
# 249 Fixation 12 (440.3,282.8): du~3 XV~4
# 316 Fixation 13 (518.6,280.3): XV~4 d'Angleterre~5
# 301 Fixation 14 (639.5,291.2): d'Angleterre~5 85~7
# 280 Fixation 15 (298.6,341): Le~0 3e~1 sélections~8
# 159 Fixation 16 (475.2,363.6): annoncé~10
# 194 Fixation 17 (523.4,427.4): dans~14 colonnes~16 bien~21
# 196 Fixation 18 (588.1,452.7): les~15 colonnes~16
# 158 Fixation 19 (613.5,469.6): colonnes~16 méritée~22
%%
# Le~0 Fixations= "15/"
# 3e~1 Fixations= "15/"
# ligne~2 Fixations= "11/"
# du~3 Fixations= "12/"
# XV~4 Fixations= "13/"
# d'Angleterre~5 Fixations= "14/"
# aux~6 Fixations= ""
# 85~7 Fixations= "14/"
# sélections~8 Fixations= "15/"
# a~9 Fixations= ""
# annoncé~10 Fixations= "16/"
# sa~11 Fixations= ""
# retraite~12 Fixations= ""
# internationale~13 Fixations= ""
# dans~14 Fixations= "17/"
# les~15 Fixations= "18/"
# colonnes~16 Fixations= "19/"
# du~17 Fixations= ""
# tabloïd~18 Fixations= ""
# Une~19 Fixations= ""
# retraite~20 Fixations= ""
# bien~21 Fixations= "17/"
# méritée~22 Fixations= "19/"
# avec~23 Fixations= ""
# une~24 Fixations= ""
# vie~25 Fixations= ""
# bien~26 Fixations= ""
# menée~27 Fixations= ""
%%
#  LE[15] 3E[15] LIGNE[11] DU[12] XV[13] D'ANGLETERRE[14] aux 85[14] SéLECTIONS[15] a ANNONCé[16] sa retraite internationale DANS[17] LES[18] COLONNES[19] du tabloïd Une retraite BIEN[17] MéRITéE[19] avec une vie bien menée
# s14 greve_cheminot-a2 PercentageOfWordsProcessed= 0.5 PercentageOfWordsReallyProcessed= 0.608695652173913
