# 132 Fixation 1 (274,293.4): Principal~0
# 298 Fixation 2 (404.9,284): accusé~1
# 170 Fixation 3 (516.5,288.2): du~2 volet~3
# 288 Fixation 4 (628.4,299.3): corruption~4
# 157 Fixation 5 (335,356.1): escroquerie~6
# 166 Fixation 6 (305.6,365.9): escroquerie~6
# 262 Fixation 7 (476.2,359): un~7 ancien~8
# 242 Fixation 8 (571.3,349.2): cadre~9
# 124 Fixation 9 (679.2,356.3): d'une~10 grande~11
# 180 Fixation 10 (369.5,419.9): entreprise~12
# 289 Fixation 11 (318.4,427.9): entreprise~12
# 208 Fixation 12 (475.6,424): est~13 poursuivi~14
# 227 Fixation 13 (667,421.3): pour~15 avoir~16
# 302 Fixation 14 (344.5,480.8): millions~19
# 137 Fixation 15 (537.8,488.3): d'euros~20 commissions~22
# 137 Fixation 16 (608,487.3): commissions~22
# 248 Fixation 17 (366,532.5): occultes~23 auprès~24
# 214 Fixation 18 (525.7,543.5): d'une~25 dizaine~26
# 221 Fixation 19 (303,550.7): occultes~23
# 286 Fixation 20 (296.8,597.1): d'entrepreneurs~27
%%
# Principal~0 Fixations= "1/"
# accusé~1 Fixations= "2/"
# du~2 Fixations= "3/"
# volet~3 Fixations= "3/"
# corruption~4 Fixations= "4/"
# et~5 Fixations= ""
# escroquerie~6 Fixations= "6/"
# un~7 Fixations= "7/"
# ancien~8 Fixations= "7/"
# cadre~9 Fixations= "8/"
# d'une~10 Fixations= "9/"
# grande~11 Fixations= "9/"
# entreprise~12 Fixations= "11/"
# est~13 Fixations= "12/"
# poursuivi~14 Fixations= "12/"
# pour~15 Fixations= "13/"
# avoir~16 Fixations= "13/"
# perçu~17 Fixations= ""
# des~18 Fixations= ""
# millions~19 Fixations= "14/"
# d'euros~20 Fixations= "15/"
# en~21 Fixations= ""
# commissions~22 Fixations= "16/"
# occultes~23 Fixations= "19/"
# auprès~24 Fixations= "17/"
# d'une~25 Fixations= "18/"
# dizaine~26 Fixations= "18/"
# d'entrepreneurs~27 Fixations= "20/"
%%
#  PRINCIPAL[1] ACCUSé[2] DU[3] VOLET[3] CORRUPTION[4] et ESCROQUERIE[6] UN[7] ANCIEN[7] CADRE[8] D'UNE[9] GRANDE[9] ENTREPRISE[11] EST[12] POURSUIVI[12] POUR[13] AVOIR[13] perçu des MILLIONS[14] D'EUROS[15] en COMMISSIONS[16] OCCULTES[19] AUPRèS[17] D'UNE[18] DIZAINE[18] D'ENTREPRENEURS[20]
# s01 tribunal_international-m1 PercentageOfWordsProcessed= 0.857142857142857 PercentageOfWordsReallyProcessed= 0.857142857142857
