999 WORDS_livres~1 128
999 WORDFREQ_134.73 128
999 WORDSALL_Des~0_livres~1 128
999 COSIND_-0.02 128
999 COSGEN_-0.02 128
101 ESRank1 128
999 WORDS_mémoires~3 130
999 WORDFREQ_5.14 130
999 WORDSALL_de~2_mémoires~3 130
999 COSIND_-0.02 130
999 COSGEN_-0.02 130
102 ESRank2 130
202 ESForwSacLong+2+4 130
999 WORDS_mémoires~3 118
999 WORDFREQ_5.14 118
999 WORDSALL_mémoires~3 118
999 COSIND_-0.02 118
999 COSGEN_-0.02 118
103 ESRank3 118
203 ESBackSacRefixation 118
999 WORDS_d'anciens~4 162
999 WORDFREQ_39.86 162
999 WORDSALL_d'anciens~4 162
999 COSIND_-0.01 162
999 COSGEN_-0.01 162
104 ESRank4 162
201 ESForwSacShort 162
999 WORDS_déportés~5 161
999 WORDFREQ_4.66 161
999 WORDSALL_déportés~5 161
999 COSIND_0.05 161
999 COSGEN_0.05 161
105 ESRank5 161
201 ESForwSacShort 161
999 WORDS_paraît~8 129
999 WORDFREQ_113.92 129
999 WORDSALL_Des~0_livres~1_paraît~8 129
999 COSIND_0.01 129
999 COSGEN_0.01 129
106 ESRank6 129
202 ESForwSacLong+3+7 129
999 WORDS_paraît~8 109
999 WORDFREQ_113.92 109
999 WORDSALL_livres~1_paraît~8 109
999 COSIND_0.01 109
999 COSGEN_0.01 109
107 ESRank7 109
203 ESBackSacRefixation 109
999 WORDS_régulièrement~9 148
999 WORDFREQ_27.77 148
999 WORDSALL_mémoires~3_régulièrement~9 148
999 COSIND_-0.11 148
999 COSGEN_-0.11 148
108 ESRank8 148
201 ESForwSacShort 148
999 WORDS_qualité~11 198
999 WORDFREQ_42.7 198
999 WORDSALL_d'anciens~4_qualité~11 198
999 COSIND_0.05 198
999 COSGEN_0.05 198
109 ESRank9 198
202 ESForwSacLong+2+4 198
999 WORDS_d'intérêt~14 135
999 WORDFREQ_75 135
999 WORDSALL_et~13_d'intérêt~14 135
999 COSIND_0.05 135
999 COSGEN_0.05 135
110 ESRank10 135
202 ESForwSacLong+3+13 135
999 WORDS_d'intérêt~14 125
999 WORDFREQ_75 125
999 WORDSALL_d'intérêt~14 125
999 COSIND_0.05 125
999 COSGEN_0.05 125
111 ESRank11 125
203 ESBackSacRefixation 125
999 WORDS_inégal~15 152
999 WORDFREQ_2.84 152
999 WORDSALL_régulièrement~9_inégal~15 152
999 COSIND_0.06 152
999 COSGEN_0.06 152
112 ESRank12 152
201 ESForwSacShort 152
999 WORDS_ressenti~25 130
999 WORDFREQ_0.61 130
999 WORDSALL_mais~16_ressenti~25 130
999 COSIND_N/A 130
113 ESRank13 130
202 ESForwSacLong+10+47 130
999 WORDS_ressenti~25 136
999 WORDFREQ_0.61 136
999 WORDSALL_mais~16_ressenti~25 136
999 COSIND_N/A 136
114 ESRank14 136
203 ESBackSacRefixation 136
999 WORDS_même~21 158
999 WORDFREQ_705.81 158
999 WORDSALL_inégale~12_d'intérêt~14_même~21 158
999 COSIND_N/A 158
115 ESRank15 158
206 ESBackSacRegrLong-4-17 158
999 WORDS_histoire~22 149
999 WORDFREQ_292.23 149
999 WORDSALL_d'intérêt~14_inégal~15_histoire~22 149
999 COSIND_0.01 149
999 COSGEN_0.01 149
116 ESRank16 149
201 ESForwSacShort 149
999 WORDS_ressenti~25 159
999 WORDFREQ_0.61 159
999 WORDSALL_le~24_ressenti~25 159
999 COSIND_N/A 159
117 ESRank17 159
202 ESForwSacLong+3+8 159
999 WORDS_ressenti~25 82
999 WORDFREQ_0.61 82
999 WORDSALL_ressenti~25 82
999 COSIND_N/A 82
118 ESRank18 82
203 ESBackSacRefixation 82
999 WORDS_fois~29 131
999 WORDFREQ_1140 131
999 WORDSALL_la~20_même~21_fois~29 131
999 COSIND_-0.02 131
999 COSGEN_-0.02 131
119 ESRank19 131
202 ESForwSacLong+4+15 131
200 ESRankN 131
199 ESRankNMinus1 82
198 ESRankNMinus2 159
197 ESRankNMinus3 149
196 ESRankNMinus4 158
195 ESRankNMinus5 136
194 ESRankNMinus6 130
193 ESRankNMinus7 152
192 ESRankNMinus8 125
191 ESRankNMinus9 135
190 ESRankNMinus10 198
