999 WORDS_producteurs~1 143
999 WORDFREQ_2.03 143
999 WORDSALL_Les~0_producteurs~1 143
999 COSIND_0.32 143
999 COSGEN_0.32 143
101 ESRank1 143
999 WORDS_producteurs~1 125
999 WORDFREQ_2.03 125
999 WORDSALL_Les~0_producteurs~1 125
999 COSIND_0.32 125
999 COSGEN_0.32 125
102 ESRank2 125
203 ESBackSacRefixation 125
999 WORDS_fruits~3 169
999 WORDFREQ_42.09 169
999 WORDSALL_de~2_fruits~3 169
999 COSIND_0.34 169
999 COSGEN_0.34 169
103 ESRank3 169
202 ESForwSacLong+2+4 169
999 WORDS_légumes~5 159
999 WORDFREQ_21.35 159
999 WORDSALL_fruits~3_légumes~5 159
999 COSIND_0.43 159
999 COSGEN_0.43 159
104 ESRank4 159
202 ESForwSacLong+2+4 159
999 WORDS_producteurs~1 149
999 WORDFREQ_2.03 149
999 WORDSALL_Les~0_producteurs~1 149
999 COSIND_0.32 149
999 COSGEN_0.32 149
105 ESRank5 149
206 ESBackSacRegrLong-4-14 149
999 WORDS_producteurs~1 108
999 WORDFREQ_2.03 108
999 WORDSALL_Les~0_producteurs~1 108
999 COSIND_0.32 108
999 COSGEN_0.32 108
106 ESRank6 108
203 ESBackSacRefixation 108
999 WORDS_puissante~10 150
999 WORDFREQ_14.26 150
999 WORDSALL_la~9_puissante~10 150
999 COSIND_0.28 150
999 COSGEN_0.28 150
107 ESRank7 150
202 ESForwSacLong+9+47 150
999 WORDS_Fédération~11 150
999 WORDFREQ_2.23 150
999 WORDSALL_Fédération~11 150
999 COSIND_0.39 150
999 COSGEN_0.39 150
108 ESRank8 150
201 ESForwSacShort 150
999 WORDS_Nationale~12 222
999 WORDFREQ_48.18 222
999 WORDSALL_Nationale~12 222
999 COSIND_0.07 222
999 COSGEN_0.07 222
109 ESRank9 222
201 ESForwSacShort 222
999 WORDS_Syndicats~14 182
999 WORDFREQ_3.24 182
999 WORDSALL_Syndicats~14 182
999 COSIND_0.86 182
999 COSGEN_0.86 182
110 ESRank10 182
202 ESForwSacLong+2+5 182
999 WORDS_ont~17 153
999 WORDFREQ_240.61 153
999 WORDSALL_ont~17 153
999 COSIND_0.04 153
999 COSGEN_0.04 153
111 ESRank11 153
202 ESForwSacLong+3+25 153
999 WORDS_Agricoles~16 215
999 WORDFREQ_3.04 215
999 WORDSALL_Agricoles~16 215
999 COSIND_0.70 215
999 COSGEN_0.70 215
112 ESRank12 215
205 ESBackSacRegrShort 215
999 WORDS_ont~17 158
999 WORDFREQ_240.61 158
999 WORDSALL_ont~17 158
999 COSIND_0.04 158
999 COSGEN_0.04 158
113 ESRank13 158
201 ESForwSacShort 158
999 WORDS_grandes~19 85
999 WORDFREQ_126.49 85
999 WORDSALL_grandes~19 85
999 COSIND_0.00 85
999 COSGEN_0.00 85
114 ESRank14 85
202 ESForwSacLong+2+5 85
999 WORDS_surfaces~20 186
999 WORDFREQ_0.14 186
999 WORDSALL_surfaces~20 186
999 COSIND_N/A 186
115 ESRank15 186
201 ESForwSacShort 186
999 WORDS_ligne~23 125
999 WORDFREQ_101.01 125
999 WORDSALL_ligne~23 125
999 COSIND_0.05 125
999 COSGEN_0.05 125
116 ESRank16 125
202 ESForwSacLong+3+11 125
999 WORDS_ligne~23 284
999 WORDFREQ_101.01 284
999 WORDSALL_leur~22_ligne~23 284
999 COSIND_0.05 284
999 COSGEN_0.05 284
117 ESRank17 284
203 ESBackSacRefixation 284
999 WORDS_mire~25 108
999 WORDFREQ_2.03 108
999 WORDSALL_ligne~23_mire~25 108
999 COSIND_0.07 108
999 COSGEN_0.07 108
118 ESRank18 108
202 ESForwSacLong+2+4 108
999 WORDS_Syndicats~14 213
999 WORDFREQ_3.24 213
999 WORDSALL_des~13_Syndicats~14 213
999 COSIND_0.86 213
999 COSGEN_0.86 213
119 ESRank19 213
206 ESBackSacRegrLong-11-69 213
999 WORDS_Syndicats~14 102
999 WORDFREQ_3.24 102
999 WORDSALL_des~13_Syndicats~14 102
999 COSIND_0.86 102
999 COSGEN_0.86 102
120 ESRank20 102
203 ESBackSacRefixation 102
200 ESRankN 102
199 ESRankNMinus1 213
198 ESRankNMinus2 108
197 ESRankNMinus3 284
196 ESRankNMinus4 125
195 ESRankNMinus5 186
194 ESRankNMinus6 85
193 ESRankNMinus7 158
192 ESRankNMinus8 215
191 ESRankNMinus9 153
190 ESRankNMinus10 182
