# 83 Fixation 1 (295.5,276.2): Qui~0 sont~1
# 168 Fixation 2 (421.4,271.7): ces~2 étudiants~3
# 197 Fixation 3 (615.3,272.6): qui~4 n'ont~5
# 100 Fixation 4 (289.5,334.8): Qui~0 sont~1 moyens~8
# 126 Fixation 5 (417.9,344.8): ces~2 étudiants~3 s'offrir~10
# 178 Fixation 6 (605.3,338): qui~4 n'ont~5 repas~12 à~13
# 99 Fixation 7 (539,344): étudiants~3 n'ont~5 repas~12
# 191 Fixation 8 (302.5,414.4): Principalement~16
# 146 Fixation 9 (533.8,414.4): étudiants~18
# 162 Fixation 10 (695.5,406.9): 3~14 euros~15 étrangers~19
# 196 Fixation 11 (409.9,477.5): pas~22 bourses~24
# 122 Fixation 12 (540.5,481.1): d'études~25
# 115 Fixation 13 (321.6,537.5): n'ont~21 l'assistante~27
%%
# Qui~0 Fixations= "4/"
# sont~1 Fixations= "4/"
# ces~2 Fixations= "5/"
# étudiants~3 Fixations= "7/"
# qui~4 Fixations= "6/"
# n'ont~5 Fixations= "7/"
# pas~6 Fixations= ""
# les~7 Fixations= ""
# moyens~8 Fixations= "4/"
# de~9 Fixations= ""
# s'offrir~10 Fixations= "5/"
# un~11 Fixations= ""
# repas~12 Fixations= "7/"
# à~13 Fixations= "6/"
# 3~14 Fixations= "10/"
# euros~15 Fixations= "10/"
# Principalement~16 Fixations= "8/"
# des~17 Fixations= ""
# étudiants~18 Fixations= "9/"
# étrangers~19 Fixations= "10/"
# qui~20 Fixations= ""
# n'ont~21 Fixations= "13/"
# pas~22 Fixations= "11/"
# de~23 Fixations= ""
# bourses~24 Fixations= "11/"
# d'études~25 Fixations= "12/"
# résume~26 Fixations= ""
# l'assistante~27 Fixations= "13/"
# sociale~28 Fixations= ""
# du~29 Fixations= ""
# Crous~30 Fixations= ""
%%
#  QUI[4] SONT[4] CES[5] éTUDIANTS[7] QUI[6] N'ONT[7] pas les MOYENS[4] de S'OFFRIR[5] un REPAS[7] à[6] 3[10] EUROS[10] PRINCIPALEMENT[8] des éTUDIANTS[9] éTRANGERS[10] qui N'ONT[13] PAS[11] de BOURSES[11] D'éTUDES[12] résume L'ASSISTANTE[13] sociale du Crous
# s19 salon_aeronautique-a1 PercentageOfWordsProcessed= 0.645161290322581 PercentageOfWordsReallyProcessed= 0.714285714285714
