999 WORDS_a~2 128
999 WORDFREQ_1669.39 128
999 WORDSALL_Il~0_a~2 128
999 COSIND_N/A 128
101 ESRank1 128
999 WORDS_multitude~4 232
999 WORDFREQ_9.66 232
999 WORDSALL_une~3_multitude~4 232
999 COSIND_0.16 232
999 COSGEN_0.16 232
102 ESRank2 232
202 ESForwSacLong+2+5 232
999 WORDS_variantes~6 134
999 WORDFREQ_2.43 134
999 WORDSALL_de~5_variantes~6 134
999 COSIND_-0.01 134
999 COSGEN_-0.01 134
103 ESRank3 134
202 ESForwSacLong+2+4 134
999 WORDS_l'impossibilité~10 185
999 WORDFREQ_7.16 185
999 WORDSALL_l'impossibilité~10 185
999 COSIND_0.01 185
999 COSGEN_0.01 185
104 ESRank4 185
202 ESForwSacLong+4+13 185
999 WORDS_l'impossibilité~10 105
999 WORDFREQ_7.16 105
999 WORDSALL_de~9_l'impossibilité~10 105
999 COSIND_0.01 105
999 COSGEN_0.01 105
105 ESRank5 105
203 ESBackSacRefixation 105
999 WORDS_à~20 353
999 WORDFREQ_19209.05 353
999 WORDSALL_à~20 353
999 COSIND_N/A 353
106 ESRank6 353
202 ESForwSacLong+10+48 353
999 WORDS_à~20 202
999 WORDFREQ_19209.05 202
999 WORDSALL_vers~18_à~20 202
999 COSIND_N/A 202
107 ESRank7 202
203 ESBackSacRefixation 202
999 WORDS_été~27 196
999 WORDFREQ_818.99 196
999 WORDSALL_aurait~26_été~27 196
999 COSIND_-0.01 196
999 COSGEN_-0.01 196
108 ESRank8 196
202 ESForwSacLong+7+38 196
999 WORDS_été~27 159
999 WORDFREQ_818.99 159
999 WORDSALL_aurait~26_été~27 159
999 COSIND_-0.01 159
999 COSGEN_-0.01 159
109 ESRank9 159
203 ESBackSacRefixation 159
999 WORDS_été~27 88
999 WORDFREQ_818.99 88
999 WORDSALL_été~27 88
999 COSIND_-0.01 88
999 COSGEN_-0.01 88
110 ESRank10 88
203 ESBackSacRefixation 88
999 WORDS_terrain~33 196
999 WORDFREQ_64.86 196
999 WORDSALL_accident~31_terrain~33 196
999 COSIND_-0.03 196
999 COSGEN_-0.03 196
111 ESRank11 196
202 ESForwSacLong+6+36 196
999 WORDS_accident~31 320
999 WORDFREQ_36.62 320
999 WORDSALL_accident~31 320
999 COSIND_-0.08 320
999 COSGEN_-0.08 320
112 ESRank12 320
206 ESBackSacRegrLong-2-4 320
999 WORDS_terrain~33 111
999 WORDFREQ_64.86 111
999 WORDSALL_de~32_terrain~33 111
999 COSIND_-0.03 111
999 COSGEN_-0.03 111
113 ESRank13 111
202 ESForwSacLong+2+4 111
999 WORDS_déséquilibré~28 205
999 WORDFREQ_0.54 205
999 WORDSALL_déséquilibré~28 205
999 COSIND_0.12 205
999 COSGEN_0.12 205
114 ESRank14 205
206 ESBackSacRegrLong-5-20 205
999 WORDS_par~29 207
999 WORDFREQ_3727.09 207
999 WORDSALL_par~29 207
999 COSIND_N/A 207
115 ESRank15 207
201 ESForwSacShort 207
200 ESRankN 207
199 ESRankNMinus1 205
198 ESRankNMinus2 111
197 ESRankNMinus3 320
196 ESRankNMinus4 196
195 ESRankNMinus5 88
194 ESRankNMinus6 159
193 ESRankNMinus7 196
192 ESRankNMinus8 202
191 ESRankNMinus9 353
190 ESRankNMinus10 105
