# 143 Fixation 1 (223.7,277.1): Un~0 groupe~1
# 157 Fixation 2 (275.2,280.2): Un~0 groupe~1
# 159 Fixation 3 (300.8,273.1): Un~0 groupe~1
# 247 Fixation 4 (403,271): d'ingénieurs~2
# 234 Fixation 5 (447.3,267.7): d'ingénieurs~2
# 302 Fixation 6 (581.3,272.3): météorologistes~3
# 185 Fixation 7 (566.2,272.1): météorologistes~3
# 98 Fixation 8 (675.8,278.3): météorologistes~3
# 120 Fixation 9 (716.1,279.1): météorologistes~3 a~4
# 116 Fixation 10 (287,354.8): obtenu~5
# 162 Fixation 11 (277.3,348.1): obtenu~5
# 205 Fixation 12 (398.1,346.8): le~6 prix~7
# 174 Fixation 13 (449,347.7): prix~7 Nobel~8
# 161 Fixation 14 (568.5,341.8): pour~9 travaux~11
# 176 Fixation 15 (634.2,344.5): ses~10 travaux~11
# 228 Fixation 16 (285.3,450.3): climatiques~18
# 208 Fixation 17 (295.3,477.8): climatiques~18
# 335 Fixation 18 (351.5,465.4): climatiques~18 à~19
# 171 Fixation 19 (431.2,463.3): à~19 long~20
# 208 Fixation 20 (521.5,465): long~20 terme~21
%%
# Un~0 Fixations= "3/"
# groupe~1 Fixations= "3/"
# d'ingénieurs~2 Fixations= "5/"
# météorologistes~3 Fixations= "9/"
# a~4 Fixations= "9/"
# obtenu~5 Fixations= "11/"
# le~6 Fixations= "12/"
# prix~7 Fixations= "13/"
# Nobel~8 Fixations= "13/"
# pour~9 Fixations= "14/"
# ses~10 Fixations= "15/"
# travaux~11 Fixations= "15/"
# relatifs~12 Fixations= ""
# à~13 Fixations= ""
# la~14 Fixations= ""
# prévision~15 Fixations= ""
# des~16 Fixations= ""
# évènements~17 Fixations= ""
# climatiques~18 Fixations= "18/"
# à~19 Fixations= "19/"
# long~20 Fixations= "20/"
# terme~21 Fixations= "20/"
# et~22 Fixations= ""
# aux~23 Fixations= ""
# effets~24 Fixations= ""
# de~25 Fixations= ""
# la~26 Fixations= ""
# pollution~27 Fixations= ""
# de~28 Fixations= ""
# l'atmosphère~29 Fixations= ""
%%
#  UN[3] GROUPE[3] D'INGéNIEURS[5] MéTéOROLOGISTES[9] A[9] OBTENU[11] LE[12] PRIX[13] NOBEL[13] POUR[14] SES[15] TRAVAUX[15] relatifs à la prévision des évènements CLIMATIQUES[18] à[19] LONG[20] TERME[20] et aux effets de la pollution de l'atmosphère
# s13 rechauffement_climatique-m2 PercentageOfWordsProcessed= 0.533333333333333 PercentageOfWordsReallyProcessed= 0.727272727272727
