999 WORDS_grands~1 97
999 WORDFREQ_201.55 97
999 WORDSALL_Les~0_grands~1 97
999 COSIND_-0.03 97
999 COSGEN_-0.03 97
101 ESRank1 97
999 WORDS_constructeurs~2 159
999 WORDFREQ_1.01 159
999 WORDSALL_constructeurs~2 159
999 COSIND_0.05 159
999 COSGEN_0.05 159
102 ESRank2 159
201 ESForwSacShort 159
999 WORDS_automobiles~3 224
999 WORDFREQ_1.35 224
999 WORDSALL_automobiles~3 224
999 COSIND_0.06 224
999 COSGEN_0.06 224
103 ESRank3 224
201 ESForwSacShort 224
999 WORDS_cherchent~4 229
999 WORDFREQ_12.09 229
999 WORDSALL_Les~0_grands~1_cherchent~4 229
999 COSIND_-0.08 229
999 COSGEN_-0.08 229
104 ESRank4 229
201 ESForwSacShort 229
999 WORDS_rajeunir~6 150
999 WORDFREQ_0.88 150
999 WORDSALL_constructeurs~2_à~5_rajeunir~6 150
999 COSIND_0.03 150
999 COSGEN_0.03 150
105 ESRank5 150
202 ESForwSacLong+2+4 150
999 WORDS_effectifs~8 160
999 WORDFREQ_5.41 160
999 WORDSALL_leurs~7_effectifs~8 160
999 COSIND_0.20 160
999 COSGEN_0.20 160
106 ESRank6 160
202 ESForwSacLong+2+7 160
999 WORDS_effectifs~8 286
999 WORDFREQ_5.41 286
999 WORDSALL_leurs~7_effectifs~8 286
999 COSIND_0.20 286
999 COSGEN_0.20 286
107 ESRank7 286
203 ESBackSacRefixation 286
999 WORDS_l'automobile~15 110
999 WORDFREQ_12.7 110
999 WORDSALL_effectifs~8_l'automobile~15 110
999 COSIND_0.06 110
999 COSGEN_0.06 110
108 ESRank8 110
202 ESForwSacLong+7+36 110
999 WORDS_moyenne~10 265
999 WORDFREQ_7.5 265
999 WORDSALL_cherchent~4_moyenne~10 265
999 COSIND_0.14 265
999 COSGEN_0.14 265
109 ESRank9 265
206 ESBackSacRegrLong-5-25 265
999 WORDS_d'âge~11 141
999 WORDFREQ_205.27 141
999 WORDSALL_cherchent~4_à~5_d'âge~11 141
999 COSIND_0.09 141
999 COSGEN_0.09 141
110 ESRank10 141
201 ESForwSacShort 141
999 WORDS_salariés~13 177
999 WORDFREQ_0.2 177
999 WORDSALL_rajeunir~6_salariés~13 177
999 COSIND_-0.02 177
999 COSGEN_-0.02 177
111 ESRank11 177
202 ESForwSacLong+2+5 177
999 WORDS_salariés~13 115
999 WORDFREQ_0.2 115
999 WORDSALL_leurs~7_effectifs~8_salariés~13 115
999 COSIND_-0.02 115
999 COSGEN_-0.02 115
112 ESRank12 115
203 ESBackSacRefixation 115
999 WORDS_l'automobile~15 285
999 WORDFREQ_12.7 285
999 WORDSALL_de~14_l'automobile~15 285
999 COSIND_0.06 285
999 COSGEN_0.06 285
113 ESRank13 285
202 ESForwSacLong+2+4 285
999 WORDS_qu'elle~23 176
999 WORDFREQ_N/A 176
999 WORDSALL_de~14_l'automobile~15_qu'elle~23 176
999 COSIND_N/A 176
114 ESRank14 176
202 ESForwSacLong+8+34 176
200 ESRankN 176
199 ESRankNMinus1 285
198 ESRankNMinus2 115
197 ESRankNMinus3 177
196 ESRankNMinus4 141
195 ESRankNMinus5 265
194 ESRankNMinus6 110
193 ESRankNMinus7 286
192 ESRankNMinus8 160
191 ESRankNMinus9 150
190 ESRankNMinus10 229
