999 WORDS_Facile~0 156
999 WORDFREQ_88.65 156
999 WORDSALL_Facile~0 156
999 COSIND_0.04 156
999 COSGEN_0.04 156
101 ESRank1 156
999 WORDS_cultiver~2 203
999 WORDFREQ_4.32 203
999 WORDSALL_à~1_cultiver~2 203
999 COSIND_-0.12 203
999 COSGEN_-0.12 203
102 ESRank2 203
202 ESForwSacLong+2+4 203
999 WORDS_Facile~0 168
999 WORDFREQ_88.65 168
999 WORDSALL_Facile~0 168
999 COSIND_0.04 168
999 COSGEN_0.04 168
103 ESRank3 168
206 ESBackSacRegrLong-2-4 168
999 WORDS_décorative~3 284
999 WORDFREQ_0.88 284
999 WORDSALL_décorative~3 284
999 COSIND_0.01 284
999 COSGEN_0.01 284
104 ESRank4 284
202 ESForwSacLong+3+13 284
999 WORDS_à~1 160
999 WORDFREQ_19209.05 160
999 WORDSALL_Facile~0_à~1 160
999 COSIND_N/A 160
105 ESRank5 160
206 ESBackSacRegrLong-2-10 160
999 WORDS_Facile~0 127
999 WORDFREQ_88.65 127
999 WORDSALL_Facile~0 127
999 COSIND_0.04 127
999 COSGEN_0.04 127
106 ESRank6 127
205 ESBackSacRegrShort 127
999 WORDS_décorative~3 136
999 WORDFREQ_0.88 136
999 WORDSALL_décorative~3 136
999 COSIND_0.01 136
999 COSGEN_0.01 136
107 ESRank7 136
202 ESForwSacLong+3+13 136
999 WORDS_décorative~3 190
999 WORDFREQ_0.88 190
999 WORDSALL_décorative~3 190
999 COSIND_0.01 190
999 COSGEN_0.01 190
108 ESRank8 190
203 ESBackSacRefixation 190
999 WORDS_savoureuse~7 180
999 WORDFREQ_1.82 180
999 WORDSALL_cultiver~2_savoureuse~7 180
999 COSIND_-0.03 180
999 COSGEN_-0.03 180
109 ESRank9 180
202 ESForwSacLong+4+22 180
999 WORDS_variée~4 222
999 WORDFREQ_0.74 222
999 WORDSALL_variée~4 222
999 COSIND_0.05 222
999 COSGEN_0.05 222
110 ESRank10 222
206 ESBackSacRegrLong-3-14 222
999 WORDS_tellement~6 229
999 WORDFREQ_168.51 229
999 WORDSALL_tellement~6 229
999 COSIND_-0.05 229
999 COSGEN_-0.05 229
111 ESRank11 229
202 ESForwSacLong+2+4 229
999 WORDS_tellement~6 140
999 WORDFREQ_168.51 140
999 WORDSALL_tellement~6 140
999 COSIND_-0.05 140
999 COSGEN_-0.05 140
112 ESRank12 140
203 ESBackSacRefixation 140
999 WORDS_savoureuse~7 222
999 WORDFREQ_1.82 222
999 WORDSALL_savoureuse~7 222
999 COSIND_-0.03 222
999 COSGEN_-0.03 222
113 ESRank13 222
201 ESForwSacShort 222
999 WORDS_incontournable~19 150
999 WORDFREQ_0.41 150
999 WORDSALL_quand~8_cueille~11_incontournable~19 150
999 COSIND_N/A 150
114 ESRank14 150
202 ESForwSacLong+12+52 150
999 WORDS_cueille~11 107
999 WORDFREQ_2.3 107
999 WORDSALL_on~9_cueille~11 107
999 COSIND_-0.11 107
999 COSGEN_-0.11 107
115 ESRank15 107
206 ESBackSacRegrLong-8-32 107
999 WORDS_pied~15 124
999 WORDFREQ_248.18 124
999 WORDSALL_tellement~6_savoureuse~7_pied~15 124
999 COSIND_-0.00 124
999 COSGEN_-0.00 124
116 ESRank16 124
202 ESForwSacLong+4+13 124
999 WORDS_tomate~17 266
999 WORDFREQ_5.74 266
999 WORDSALL_tomate~17 266
999 COSIND_-0.04 266
999 COSGEN_-0.04 266
117 ESRank17 266
202 ESForwSacLong+2+4 266
999 WORDS_incontournable~19 260
999 WORDFREQ_0.41 260
999 WORDSALL_est~18_incontournable~19 260
999 COSIND_N/A 260
118 ESRank18 260
202 ESForwSacLong+2+5 260
999 WORDS_incontournable~19 122
999 WORDFREQ_0.41 122
999 WORDSALL_incontournable~19 122
999 COSIND_N/A 122
119 ESRank19 122
203 ESBackSacRefixation 122
999 WORDS_potager~21 233
999 WORDFREQ_3.04 233
999 WORDSALL_le~14_pied~15_potager~21 233
999 COSIND_-0.04 233
999 COSGEN_-0.04 233
120 ESRank20 233
202 ESForwSacLong+2+4 233
999 WORDS_potager~21 181
999 WORDFREQ_3.04 181
999 WORDSALL_même~13_pied~15_potager~21 181
999 COSIND_-0.04 181
999 COSGEN_-0.04 181
203 ESBackSacRefixation 181
999 WORDS_d'Amérique~23 183
999 WORDFREQ_1.08 183
999 WORDSALL_la~16_tomate~17_d'Amérique~23 183
999 COSIND_N/A 183
202 ESForwSacLong+2+7 183
999 WORDS_d'Amérique~23 103
999 WORDFREQ_1.08 103
999 WORDSALL_tomate~17_d'Amérique~23 103
999 COSIND_N/A 103
203 ESBackSacRefixation 103
999 WORDS_Venue~22 94
999 WORDFREQ_11.69 94
999 WORDSALL_pied~15_tomate~17_Venue~22 94
999 COSIND_-0.01 94
999 COSGEN_-0.01 94
205 ESBackSacRegrShort 94
999 WORDS_centrale~24 226
999 WORDFREQ_15.34 226
999 WORDSALL_incontournable~19_centrale~24 226
999 COSIND_-0.05 226
999 COSGEN_-0.05 226
202 ESForwSacLong+2+13 226
999 WORDS_fournir~28 143
999 WORDFREQ_19.46 143
999 WORDSALL_potager~21_fournir~28 143
999 COSIND_0.01 143
999 COSGEN_0.01 143
202 ESForwSacLong+4+13 143
999 WORDS_faut~26 93
999 WORDFREQ_653.92 93
999 WORDSALL_au~20_potager~21_faut~26 93
999 COSIND_0.02 93
999 COSGEN_0.02 93
206 ESBackSacRegrLong-2-5 93
999 WORDS_sol~30 249
999 WORDFREQ_148.31 249
999 WORDSALL_Venue~22_d'Amérique~23_sol~30 249
999 COSIND_-0.01 249
999 COSGEN_-0.01 249
202 ESForwSacLong+4+16 249
999 WORDS_riche~31 258
999 WORDFREQ_42.57 258
999 WORDSALL_d'Amérique~23_sol~30_riche~31 258
999 COSIND_-0.07 258
999 COSGEN_-0.07 258
201 ESForwSacShort 258
999 WORDS_centrale~24 179
999 WORDFREQ_15.34 179
999 WORDSALL_centrale~24 179
999 COSIND_-0.05 179
999 COSGEN_-0.05 179
206 ESBackSacRegrLong-7-28 179
999 WORDS_fournir~28 327
999 WORDFREQ_19.46 327
999 WORDSALL_faut~26_fournir~28 327
999 COSIND_0.01 327
999 COSGEN_0.01 327
202 ESForwSacLong+4+13 327
999 WORDS_faut~26 151
999 WORDFREQ_653.92 151
999 WORDSALL_faut~26 151
999 COSIND_0.02 151
999 COSGEN_0.02 151
206 ESBackSacRegrLong-2-5 151
999 WORDS_riche~31 142
999 WORDFREQ_42.57 142
999 WORDSALL_riche~31 142
999 COSIND_-0.07 142
999 COSGEN_-0.07 142
202 ESForwSacLong+5+20 142
200 ESRankN 142
199 ESRankNMinus1 151
198 ESRankNMinus2 327
197 ESRankNMinus3 179
196 ESRankNMinus4 258
195 ESRankNMinus5 249
194 ESRankNMinus6 93
193 ESRankNMinus7 143
192 ESRankNMinus8 226
191 ESRankNMinus9 94
190 ESRankNMinus10 103
