999 WORDS_Facile~0 108
999 WORDFREQ_88.65 108
999 WORDSALL_Facile~0 108
999 COSIND_0.04 108
999 COSGEN_0.04 108
101 ESRank1 108
999 WORDS_cultiver~2 254
999 WORDFREQ_4.32 254
999 WORDSALL_à~1_cultiver~2 254
999 COSIND_-0.12 254
999 COSGEN_-0.12 254
102 ESRank2 254
202 ESForwSacLong+2+4 254
999 WORDS_décorative~3 295
999 WORDFREQ_0.88 295
999 WORDSALL_décorative~3 295
999 COSIND_0.01 295
999 COSGEN_0.01 295
103 ESRank3 295
201 ESForwSacShort 295
999 WORDS_cultiver~2 191
999 WORDFREQ_4.32 191
999 WORDSALL_à~1_cultiver~2 191
999 COSIND_-0.12 191
999 COSGEN_-0.12 191
104 ESRank4 191
205 ESBackSacRegrShort 191
999 WORDS_variée~4 210
999 WORDFREQ_0.74 210
999 WORDSALL_variée~4 210
999 COSIND_0.05 210
999 COSGEN_0.05 210
105 ESRank5 210
202 ESForwSacLong+2+13 210
999 WORDS_tellement~6 279
999 WORDFREQ_168.51 279
999 WORDSALL_tellement~6 279
999 COSIND_-0.05 279
999 COSGEN_-0.05 279
106 ESRank6 279
202 ESForwSacLong+2+4 279
999 WORDS_savoureuse~7 245
999 WORDFREQ_1.82 245
999 WORDSALL_à~1_cultiver~2_savoureuse~7 245
999 COSIND_-0.03 245
999 COSGEN_-0.03 245
107 ESRank7 245
201 ESForwSacShort 245
999 WORDS_pied~15 206
999 WORDFREQ_248.18 206
999 WORDSALL_le~14_pied~15 206
999 COSIND_-0.00 206
999 COSGEN_-0.00 206
108 ESRank8 206
202 ESForwSacLong+8+33 206
999 WORDS_tomate~17 373
999 WORDFREQ_5.74 373
999 WORDSALL_la~16_tomate~17 373
999 COSIND_-0.04 373
999 COSGEN_-0.04 373
109 ESRank9 373
202 ESForwSacLong+2+4 373
999 WORDS_centrale~24 187
999 WORDFREQ_15.34 187
999 WORDSALL_est~18_incontournable~19_centrale~24 187
999 COSIND_-0.05 187
999 COSGEN_-0.05 187
110 ESRank10 187
202 ESForwSacLong+7+49 187
200 ESRankN 187
199 ESRankNMinus1 373
198 ESRankNMinus2 206
197 ESRankNMinus3 245
196 ESRankNMinus4 279
195 ESRankNMinus5 210
194 ESRankNMinus6 191
193 ESRankNMinus7 295
192 ESRankNMinus8 254
191 ESRankNMinus9 108
