# 289 Fixation 1 (452.4,277): les~2 communiqués~3
# 179 Fixation 2 (420,330.8): Dans~7 Daghestan~9
# 155 Fixation 3 (524.4,343.7): le~8 Daghestan~9
# 132 Fixation 4 (542.3,348.5): Daghestan~9
# 238 Fixation 5 (671.5,351.3): les~10 rebelles~11
# 253 Fixation 6 (347.9,421.4): complètement~13
# 228 Fixation 7 (434.9,476.8): est~18 blessé~19
# 265 Fixation 8 (629.6,424.2): leur~15 chef~16
# 226 Fixation 9 (282.6,471.2): militaire~17
# 210 Fixation 10 (405,466.7): est~18 blessé~19
# 184 Fixation 11 (387,521.2): de~24 lourdes~25
# 109 Fixation 12 (523.5,500.9): blessé~19
# 257 Fixation 13 (518.9,288.4): communiqués~3
# 119 Fixation 14 (601.9,281.2): triomphants~4
%%
# A~0 Fixations= ""
# Moscou~1 Fixations= ""
# les~2 Fixations= "1/"
# communiqués~3 Fixations= "13/"
# triomphants~4 Fixations= "14/"
# se~5 Fixations= ""
# succèdent~6 Fixations= ""
# Dans~7 Fixations= "2/"
# le~8 Fixations= "3/"
# Daghestan~9 Fixations= "4/"
# les~10 Fixations= "5/"
# rebelles~11 Fixations= "5/"
# sont~12 Fixations= ""
# complètement~13 Fixations= "6/"
# encerclés~14 Fixations= ""
# leur~15 Fixations= "8/"
# chef~16 Fixations= "8/"
# militaire~17 Fixations= "9/"
# est~18 Fixations= "10/"
# blessé~19 Fixations= "12/"
# les~20 Fixations= ""
# islamistes~21 Fixations= ""
# ont~22 Fixations= ""
# subi~23 Fixations= ""
# de~24 Fixations= "11/"
# lourdes~25 Fixations= "11/"
# pertes~26 Fixations= ""
%%
#  A Moscou LES[1] COMMUNIQUéS[13] TRIOMPHANTS[14] se succèdent DANS[2] LE[3] DAGHESTAN[4] LES[5] REBELLES[5] sont COMPLèTEMENT[6] encerclés LEUR[8] CHEF[8] MILITAIRE[9] EST[10] BLESSé[12] les islamistes ont subi DE[11] LOURDES[11] pertes
# s18 chef_russie-f1 PercentageOfWordsProcessed= 0.592592592592593 PercentageOfWordsReallyProcessed= 0.615384615384615
