# 132 Fixation 1 (307.7,280.6): Comment~0
# 145 Fixation 2 (475.6,281.1): France~2
# 142 Fixation 3 (469.8,338.9): France~2 L'interdiction~9
# 182 Fixation 4 (380,350.2): cigarette~8
# 126 Fixation 5 (301.9,351.4): de~6 cigarette~8
# 255 Fixation 6 (629.4,256.1): pourra-t-elle~3
# 86 Fixation 7 (680.6,281.3): se~4 passer~5
# 181 Fixation 8 (598.2,358): L'interdiction~9
# 242 Fixation 9 (571.1,443.2): est~16 largement~17
# 104 Fixation 10 (590.1,480.1): comme~23 atteinte~25
%%
# Comment~0 Fixations= "1/"
# la~1 Fixations= ""
# France~2 Fixations= "3/"
# pourra-t-elle~3 Fixations= "6/"
# se~4 Fixations= "7/"
# passer~5 Fixations= "7/"
# de~6 Fixations= "5/"
# la~7 Fixations= ""
# cigarette~8 Fixations= "5/"
# L'interdiction~9 Fixations= "8/"
# de~10 Fixations= ""
# fumer~11 Fixations= ""
# dans~12 Fixations= ""
# les~13 Fixations= ""
# lieux~14 Fixations= ""
# publics~15 Fixations= ""
# est~16 Fixations= "9/"
# largement~17 Fixations= "9/"
# perçue~18 Fixations= ""
# par~19 Fixations= ""
# la~20 Fixations= ""
# presse~21 Fixations= ""
# étrangère~22 Fixations= ""
# comme~23 Fixations= "10/"
# une~24 Fixations= ""
# atteinte~25 Fixations= "10/"
# à~26 Fixations= ""
# la~27 Fixations= ""
# culture~28 Fixations= ""
# française~29 Fixations= ""
%%
#  COMMENT[1] la FRANCE[3] POURRA-T-ELLE[6] SE[7] PASSER[7] DE[5] la CIGARETTE[5] L'INTERDICTION[8] de fumer dans les lieux publics EST[9] LARGEMENT[9] perçue par la presse étrangère COMME[10] une ATTEINTE[10] à la culture française
# s21 prix_petrole-a1 PercentageOfWordsProcessed= 0.4 PercentageOfWordsReallyProcessed= 0.461538461538462
