999 WORDS_chef~1 88
999 WORDFREQ_172.57 88
999 WORDSALL_Le~0_chef~1 88
999 COSIND_0.02 88
999 COSGEN_0.02 88
101 ESRank1 88
999 WORDS_chef~1 124
999 WORDFREQ_172.57 124
999 WORDSALL_Le~0_chef~1 124
999 COSIND_0.02 124
999 COSGEN_0.02 124
102 ESRank2 124
203 ESBackSacRefixation 124
999 WORDS_gouvernement~3 114
999 WORDFREQ_119.73 114
999 WORDSALL_chef~1_gouvernement~3 114
999 COSIND_-0.01 114
999 COSGEN_-0.01 114
103 ESRank3 114
202 ESForwSacLong+2+4 114
999 WORDS_gouvernement~3 114
999 WORDFREQ_119.73 114
999 WORDSALL_gouvernement~3 114
999 COSIND_-0.01 114
999 COSGEN_-0.01 114
104 ESRank4 114
203 ESBackSacRefixation 114
999 WORDS_a~4 211
999 WORDFREQ_2926.69 211
999 WORDSALL_a~4 211
999 COSIND_N/A 211
105 ESRank5 211
201 ESForwSacShort 211
999 WORDS_croissance~8 137
999 WORDFREQ_3.92 137
999 WORDSALL_croissance~8 137
999 COSIND_-0.03 137
999 COSGEN_-0.03 137
106 ESRank6 137
202 ESForwSacLong+4+16 137
999 WORDS_bonne~16 127
999 WORDFREQ_294.53 127
999 WORDSALL_croissance~8_bonne~16 127
999 COSIND_-0.02 127
999 COSGEN_-0.02 127
107 ESRank7 127
202 ESForwSacLong+8+40 127
999 WORDS_bonne~16 82
999 WORDFREQ_294.53 82
999 WORDSALL_croissance~8_bonne~16 82
999 COSIND_-0.02 82
999 COSGEN_-0.02 82
108 ESRank8 82
203 ESBackSacRefixation 82
999 WORDS_voie~17 169
999 WORDFREQ_53.58 169
999 WORDSALL_économique~9_voie~17 169
999 COSIND_-0.02 169
999 COSGEN_-0.02 169
109 ESRank9 169
201 ESForwSacShort 169
999 WORDS_contrairement~18 227
999 WORDFREQ_10.41 227
999 WORDSALL_économique~9_contrairement~18 227
999 COSIND_0.01 227
999 COSGEN_0.01 227
110 ESRank10 227
201 ESForwSacShort 227
999 WORDS_croissance~24 136
999 WORDFREQ_3.92 136
999 WORDSALL_contrairement~18_croissance~24 136
999 COSIND_-0.03 136
999 COSGEN_-0.03 136
111 ESRank11 136
202 ESForwSacLong+6+32 136
999 WORDS_prévisions~20 148
999 WORDFREQ_3.45 148
999 WORDSALL_la~15_bonne~16_prévisions~20 148
999 COSIND_-0.03 148
999 COSGEN_-0.03 148
112 ESRank12 148
206 ESBackSacRegrLong-4-16 148
999 WORDS_prévisions~20 198
999 WORDFREQ_3.45 198
999 WORDSALL_sur~14_bonne~16_prévisions~20 198
999 COSIND_-0.03 198
999 COSGEN_-0.03 198
113 ESRank13 198
203 ESBackSacRefixation 198
999 WORDS_experts~22 208
999 WORDFREQ_3.04 208
999 WORDSALL_voie~17_experts~22 208
999 COSIND_0.02 208
999 COSGEN_0.02 208
114 ESRank14 208
202 ESForwSacLong+2+5 208
999 WORDS_contrairement~18 175
999 WORDFREQ_10.41 175
999 WORDSALL_de~10_France~12_contrairement~18 175
999 COSIND_0.01 175
999 COSGEN_0.01 175
115 ESRank15 175
206 ESBackSacRegrLong-4-21 175
999 WORDS_économique~9 203
999 WORDFREQ_14.53 203
999 WORDSALL_du~2_gouvernement~3_économique~9 203
999 COSIND_0.05 203
999 COSGEN_0.05 203
116 ESRank16 203
206 ESBackSacRegrLong-9-39 203
999 WORDS_étonnante~30 139
999 WORDFREQ_10.47 139
999 WORDSALL_La~23_croissance~24_étonnante~30 139
999 COSIND_-0.04 139
999 COSGEN_-0.04 139
117 ESRank17 139
202 ESForwSacLong+21+126 139
999 WORDS_étonnante~30 110
999 WORDFREQ_10.47 110
999 WORDSALL_croissance~24_étonnante~30 110
999 COSIND_-0.04 110
999 COSGEN_-0.04 110
118 ESRank18 110
203 ESBackSacRefixation 110
999 WORDS_intérieur~27 88
999 WORDFREQ_18.99 88
999 WORDSALL_prévisions~20_intérieur~27 88
999 COSIND_-0.00 88
999 COSGEN_-0.00 88
119 ESRank19 88
206 ESBackSacRegrLong-3-10 88
200 ESRankN 88
199 ESRankNMinus1 110
198 ESRankNMinus2 139
197 ESRankNMinus3 203
196 ESRankNMinus4 175
195 ESRankNMinus5 208
194 ESRankNMinus6 198
193 ESRankNMinus7 148
192 ESRankNMinus8 136
191 ESRankNMinus9 227
190 ESRankNMinus10 169
