999 WORDS_représentant~1 181
999 WORDFREQ_12.3 181
999 WORDSALL_Le~0_représentant~1 181
999 COSIND_0.14 181
999 COSGEN_0.14 181
101 ESRank1 181
999 WORDS_consortium~3 159
999 WORDFREQ_0.07 159
999 WORDSALL_du~2_consortium~3 159
999 COSIND_0.29 159
999 COSGEN_0.29 159
102 ESRank2 159
202 ESForwSacLong+2+4 159
999 WORDS_aéronautique~4 195
999 WORDFREQ_0.07 195
999 WORDSALL_consortium~3_aéronautique~4 195
999 COSIND_0.60 195
999 COSGEN_0.60 195
103 ESRank3 195
201 ESForwSacShort 195
999 WORDS_aéronautique~4 116
999 WORDFREQ_0.07 116
999 WORDSALL_aéronautique~4 116
999 COSIND_0.60 116
999 COSGEN_0.60 116
104 ESRank4 116
203 ESBackSacRefixation 116
999 WORDS_européen~5 300
999 WORDFREQ_3.78 300
999 WORDSALL_européen~5 300
999 COSIND_0.09 300
999 COSGEN_0.09 300
105 ESRank5 300
201 ESForwSacShort 300
999 WORDS_pouvait~6 161
999 WORDFREQ_445 161
999 WORDSALL_pouvait~6 161
999 COSIND_-0.01 161
999 COSGEN_-0.01 161
106 ESRank6 161
201 ESForwSacShort 161
999 WORDS_parader~7 149
999 WORDFREQ_0.81 149
999 WORDSALL_parader~7 149
999 COSIND_0.02 149
999 COSGEN_0.02 149
107 ESRank7 149
201 ESForwSacShort 149
999 WORDS_avions~18 214
999 WORDFREQ_31.22 214
999 WORDSALL_52~17_avions~18 214
999 COSIND_0.34 214
999 COSGEN_0.34 214
108 ESRank8 214
202 ESForwSacLong+11+51 214
999 WORDS_européen~5 136
999 WORDFREQ_3.78 136
999 WORDSALL_européen~5 136
999 COSIND_0.09 136
999 COSGEN_0.09 136
109 ESRank9 136
206 ESBackSacRegrLong-13-67 136
999 WORDS_Airbus~11 265
999 WORDFREQ_0 265
999 WORDSALL_Airbus~11 265
999 COSIND_N/A 265
110 ESRank10 265
202 ESForwSacLong+6+33 265
999 WORDS_reçu~13 171
999 WORDFREQ_56.15 171
999 WORDSALL_a~12_reçu~13 171
999 COSIND_-0.00 171
999 COSGEN_-0.00 171
111 ESRank11 171
202 ESForwSacLong+2+3 171
999 WORDS_commande~15 156
999 WORDFREQ_12.64 156
999 WORDSALL_commande~15 156
999 COSIND_0.37 156
999 COSGEN_0.37 156
112 ESRank12 156
202 ESForwSacLong+2+5 156
999 WORDS_52~17 178
999 WORDFREQ_N/A 178
999 WORDSALL_de~16_52~17 178
999 COSIND_N/A 178
113 ESRank13 178
202 ESForwSacLong+2+4 178
999 WORDS_dès~19 108
999 WORDFREQ_275.07 108
999 WORDSALL_avions~18_dès~19 108
999 COSIND_0.02 108
999 COSGEN_0.02 108
114 ESRank14 108
202 ESForwSacLong+2+8 108
999 WORDS_a~12 163
999 WORDFREQ_2926.69 163
999 WORDSALL_Airbus~11_a~12 163
999 COSIND_N/A 163
115 ESRank15 163
206 ESBackSacRegrLong-7-33 163
999 WORDS_premier~21 146
999 WORDFREQ_237.91 146
999 WORDSALL_le~20_premier~21 146
999 COSIND_-0.00 146
999 COSGEN_-0.00 146
116 ESRank16 146
202 ESForwSacLong+9+41 146
999 WORDS_salon~24 194
999 WORDFREQ_84.12 194
999 WORDSALL_jour~22_salon~24 194
999 COSIND_0.89 194
999 COSGEN_0.89 194
117 ESRank17 194
202 ESForwSacLong+3+9 194
999 WORDS_Bourget~26 322
999 WORDFREQ_N/A 322
999 WORDSALL_du~25_Bourget~26 322
999 COSIND_N/A 322
118 ESRank18 322
202 ESForwSacLong+2+4 322
200 ESRankN 322
199 ESRankNMinus1 194
198 ESRankNMinus2 146
197 ESRankNMinus3 163
196 ESRankNMinus4 108
195 ESRankNMinus5 178
194 ESRankNMinus6 156
193 ESRankNMinus7 171
192 ESRankNMinus8 265
191 ESRankNMinus9 136
190 ESRankNMinus10 214
