999 WORDS_jour~10 154
999 WORDFREQ_826.35 154
999 WORDSALL_C'est~0_fête~2_jour~10 154
999 COSIND_-0.04 154
999 COSGEN_-0.04 154
101 ESRank1 154
999 WORDS_à~5 141
999 WORDFREQ_19209.05 141
999 WORDSALL_du~3_vin~4_à~5 141
999 COSIND_N/A 141
102 ESRank2 141
206 ESBackSacRegrLong-5-24 141
999 WORDS_beignets~15 247
999 WORDFREQ_2.16 247
999 WORDSALL_en~7_Haute-corse~8_beignets~15 247
999 COSIND_-0.05 247
999 COSGEN_-0.05 247
103 ESRank3 247
202 ESForwSacLong+10+55 247
999 WORDS_vendeurs~13 279
999 WORDFREQ_4.59 279
999 WORDSALL_vin~4_à~5_vendeurs~13 279
999 COSIND_-0.11 279
999 COSGEN_-0.11 279
104 ESRank4 279
206 ESBackSacRegrLong-2-4 279
999 WORDS_gâteaux~19 169
999 WORDFREQ_18.24 169
999 WORDSALL_entre~12_vendeurs~13_gâteaux~19 169
999 COSIND_-0.10 169
999 COSGEN_-0.10 169
105 ESRank5 169
202 ESForwSacLong+6+27 169
999 WORDS_farine~22 153
999 WORDFREQ_13.51 153
999 WORDSALL_vendeurs~13_à~20_farine~22 153
999 COSIND_0.04 153
999 COSGEN_0.04 153
106 ESRank6 153
202 ESForwSacLong+3+7 153
999 WORDS_bruccio~17 128
999 WORDFREQ_N/A 128
999 WORDSALL_bruccio~17 128
999 COSIND_N/A 128
107 ESRank7 128
206 ESBackSacRegrLong-5-19 128
999 WORDS_châtaigne~24 133
999 WORDFREQ_0.88 133
999 WORDSALL_châtaigne~24 133
999 COSIND_-0.07 133
999 COSGEN_-0.07 133
108 ESRank8 133
202 ESForwSacLong+7+29 133
200 ESRankN 133
199 ESRankNMinus1 128
198 ESRankNMinus2 153
197 ESRankNMinus3 169
196 ESRankNMinus4 279
195 ESRankNMinus5 247
194 ESRankNMinus6 141
193 ESRankNMinus7 154
