999 WORDS_L'indivision~0 133
999 WORDFREQ_0.07 133
999 WORDSALL_L'indivision~0 133
999 COSIND_0.05 133
999 COSGEN_0.05 133
101 ESRank1 133
999 WORDS_L'indivision~0 138
999 WORDFREQ_0.07 138
999 WORDSALL_L'indivision~0 138
999 COSIND_0.05 138
999 COSGEN_0.05 138
102 ESRank2 138
203 ESBackSacRefixation 138
999 WORDS_fléau~3 358
999 WORDFREQ_3.04 358
999 WORDSALL_un~2_fléau~3 358
999 COSIND_-0.05 358
999 COSGEN_-0.05 358
103 ESRank3 358
202 ESForwSacLong+3+8 358
999 WORDS_fléau~3 141
999 WORDFREQ_3.04 141
999 WORDSALL_est~1_fléau~3 141
999 COSIND_-0.05 141
999 COSGEN_-0.05 141
104 ESRank4 141
203 ESBackSacRefixation 141
999 WORDS_L'indivision~0 241
999 WORDFREQ_0.07 241
999 WORDSALL_L'indivision~0 241
999 COSIND_0.05 241
999 COSGEN_0.05 241
105 ESRank5 241
206 ESBackSacRegrLong-3-8 241
999 WORDS_L'indivision~0 138
999 WORDFREQ_0.07 138
999 WORDSALL_L'indivision~0 138
999 COSIND_0.05 138
999 COSGEN_0.05 138
106 ESRank6 138
203 ESBackSacRefixation 138
999 WORDS_fléau~3 160
999 WORDFREQ_3.04 160
999 WORDSALL_fléau~3 160
999 COSIND_-0.05 160
999 COSGEN_-0.05 160
107 ESRank7 160
202 ESForwSacLong+3+8 160
999 WORDS_L'indivision~0 261
999 WORDFREQ_0.07 261
999 WORDSALL_L'indivision~0 261
999 COSIND_0.05 261
999 COSGEN_0.05 261
108 ESRank8 261
206 ESBackSacRegrLong-3-8 261
999 WORDS_fléau~3 204
999 WORDFREQ_3.04 204
999 WORDSALL_un~2_fléau~3 204
999 COSIND_-0.05 204
999 COSGEN_-0.05 204
109 ESRank9 204
202 ESForwSacLong+3+8 204
999 WORDS_fléau~3 132
999 WORDFREQ_3.04 132
999 WORDSALL_est~1_fléau~3 132
999 COSIND_-0.05 132
999 COSGEN_-0.05 132
110 ESRank10 132
203 ESBackSacRefixation 132
999 WORDS_Corse~5 103
999 WORDFREQ_1.22 103
999 WORDSALL_en~4_Corse~5 103
999 COSIND_0.02 103
999 COSGEN_0.02 103
111 ESRank11 103
202 ESForwSacLong+2+4 103
999 WORDS_Corse~5 94
999 WORDFREQ_1.22 94
999 WORDSALL_en~4_Corse~5 94
999 COSIND_0.02 94
999 COSGEN_0.02 94
112 ESRank12 94
203 ESBackSacRefixation 94
999 WORDS_fléau~3 196
999 WORDFREQ_3.04 196
999 WORDSALL_est~1_fléau~3 196
999 COSIND_-0.05 196
999 COSGEN_-0.05 196
113 ESRank13 196
206 ESBackSacRegrLong-2-4 196
999 WORDS_L'indivision~0 104
999 WORDFREQ_0.07 104
999 WORDSALL_L'indivision~0 104
999 COSIND_0.05 104
999 COSGEN_0.05 104
114 ESRank14 104
206 ESBackSacRegrLong-3-8 104
999 WORDS_Corse~5 147
999 WORDFREQ_1.22 147
999 WORDSALL_Corse~5 147
999 COSIND_0.02 147
999 COSGEN_0.02 147
115 ESRank15 147
202 ESForwSacLong+5+18 147
999 WORDS_Corse~5 107
999 WORDFREQ_1.22 107
999 WORDSALL_Corse~5 107
999 COSIND_0.02 107
999 COSGEN_0.02 107
116 ESRank16 107
203 ESBackSacRefixation 107
999 WORDS_l'intérieur~8 262
999 WORDFREQ_133.51 262
999 WORDSALL_dans~7_l'intérieur~8 262
999 COSIND_-0.03 262
999 COSGEN_-0.03 262
117 ESRank17 262
202 ESForwSacLong+3+14 262
999 WORDS_terres~10 169
999 WORDFREQ_32.03 169
999 WORDSALL_des~9_terres~10 169
999 COSIND_0.17 169
999 COSGEN_0.17 169
118 ESRank18 169
202 ESForwSacLong+2+5 169
999 WORDS_terres~10 134
999 WORDFREQ_32.03 134
999 WORDSALL_des~9_terres~10 134
999 COSIND_0.17 134
999 COSGEN_0.17 134
119 ESRank19 134
203 ESBackSacRefixation 134
999 WORDS_l'intérieur~8 309
999 WORDFREQ_133.51 309
999 WORDSALL_l'intérieur~8 309
999 COSIND_-0.03 309
999 COSGEN_-0.03 309
120 ESRank20 309
206 ESBackSacRegrLong-2-5 309
999 WORDS_empêche~12 198
999 WORDFREQ_41.15 198
999 WORDSALL_Elle~11_empêche~12 198
999 COSIND_0.02 198
999 COSGEN_0.02 198
202 ESForwSacLong+4+17 198
999 WORDS_jeunes~14 188
999 WORDFREQ_136.55 188
999 WORDSALL_jeunes~14 188
999 COSIND_-0.03 188
999 COSGEN_-0.03 188
202 ESForwSacLong+2+5 188
999 WORDS_agriculteurs~15 172
999 WORDFREQ_1.08 172
999 WORDSALL_agriculteurs~15 172
999 COSIND_0.63 172
999 COSGEN_0.63 172
201 ESForwSacShort 172
999 WORDS_s'installer~17 111
999 WORDFREQ_29.73 111
999 WORDSALL_de~16_s'installer~17 111
999 COSIND_-0.03 111
999 COSGEN_-0.03 111
202 ESForwSacLong+2+4 111
999 WORDS_savoir~20 161
999 WORDFREQ_250 161
999 WORDSALL_faute~18_savoir~20 161
999 COSIND_0.02 161
999 COSGEN_0.02 161
202 ESForwSacLong+3+10 161
999 WORDS_savoir~20 154
999 WORDFREQ_250 154
999 WORDSALL_de~19_savoir~20 154
999 COSIND_0.02 154
999 COSGEN_0.02 154
203 ESBackSacRefixation 154
999 WORDS_faute~18 119
999 WORDFREQ_81.08 119
999 WORDSALL_faute~18 119
999 COSIND_-0.03 119
999 COSGEN_-0.03 119
206 ESBackSacRegrLong-2-4 119
999 WORDS_racheter~23 351
999 WORDFREQ_6.08 351
999 WORDSALL_qui~22_racheter~23 351
999 COSIND_-0.02 351
999 COSGEN_-0.02 351
202 ESForwSacLong+5+18 351
999 WORDS_terre~25 145
999 WORDFREQ_420.88 145
999 WORDSALL_racheter~23_terre~25 145
999 COSIND_0.17 145
999 COSGEN_0.17 145
202 ESForwSacLong+2+4 145
999 WORDS_à~21 264
999 WORDFREQ_19209.05 264
999 WORDSALL_à~21 264
999 COSIND_N/A 264
206 ESBackSacRegrLong-4-17 264
200 ESRankN 264
199 ESRankNMinus1 145
198 ESRankNMinus2 351
197 ESRankNMinus3 119
196 ESRankNMinus4 154
195 ESRankNMinus5 161
194 ESRankNMinus6 111
193 ESRankNMinus7 172
192 ESRankNMinus8 188
191 ESRankNMinus9 198
190 ESRankNMinus10 309
