999 WORDS_décret~1 154
999 WORDFREQ_6.42 154
999 WORDSALL_Un~0_décret~1 154
999 COSIND_0.08 154
999 COSGEN_0.08 154
101 ESRank1 154
999 WORDS_a~2 126
999 WORDFREQ_2926.69 126
999 WORDSALL_décret~1_a~2 126
999 COSIND_N/A 126
102 ESRank2 126
201 ESForwSacShort 126
999 WORDS_émis~4 231
999 WORDFREQ_2.3 231
999 WORDSALL_a~2_été~3_émis~4 231
999 COSIND_0.11 231
999 COSGEN_0.11 231
103 ESRank3 231
202 ESForwSacLong+2+7 231
999 WORDS_émis~4 88
999 WORDFREQ_2.3 88
999 WORDSALL_émis~4 88
999 COSIND_0.11 88
999 COSGEN_0.11 88
104 ESRank4 88
203 ESBackSacRefixation 88
999 WORDS_modifie~6 196
999 WORDFREQ_1.76 196
999 WORDSALL_qui~5_modifie~6 196
999 COSIND_-0.06 196
999 COSGEN_-0.06 196
105 ESRank5 196
202 ESForwSacLong+2+5 196
999 WORDS_code~8 173
999 WORDFREQ_13.58 173
999 WORDSALL_le~7_code~8 173
999 COSIND_0.02 173
999 COSGEN_0.02 173
106 ESRank6 173
202 ESForwSacLong+2+4 173
999 WORDS_construction~11 154
999 WORDFREQ_18.24 154
999 WORDSALL_construction~11 154
999 COSIND_0.46 154
999 COSGEN_0.46 154
107 ESRank7 154
202 ESForwSacLong+3+7 154
999 WORDS_construction~11 88
999 WORDFREQ_18.24 88
999 WORDSALL_la~10_construction~11 88
999 COSIND_0.46 88
999 COSGEN_0.46 88
108 ESRank8 88
203 ESBackSacRefixation 88
999 WORDS_l'habitation~14 205
999 WORDFREQ_3.58 205
999 WORDSALL_de~13_l'habitation~14 205
999 COSIND_0.46 205
999 COSGEN_0.46 205
109 ESRank9 205
202 ESForwSacLong+3+7 205
999 WORDS_l'habitation~14 135
999 WORDFREQ_3.58 135
999 WORDSALL_l'habitation~14 135
999 COSIND_0.46 135
999 COSGEN_0.46 135
110 ESRank10 135
203 ESBackSacRefixation 135
999 WORDS_Il~15 204
999 WORDFREQ_15832.09 204
999 WORDSALL_Il~15 204
999 COSIND_N/A 204
111 ESRank11 204
201 ESForwSacShort 204
999 WORDS_relatif~17 197
999 WORDFREQ_3.78 197
999 WORDSALL_relatif~17 197
999 COSIND_-0.01 197
999 COSGEN_-0.01 197
112 ESRank12 197
202 ESForwSacLong+2+5 197
999 WORDS_relatif~17 211
999 WORDFREQ_3.78 211
999 WORDSALL_relatif~17 211
999 COSIND_-0.01 211
999 COSGEN_-0.01 211
113 ESRank13 211
203 ESBackSacRefixation 211
999 WORDS_subventions~19 239
999 WORDFREQ_0.34 239
999 WORDSALL_subventions~19 239
999 COSIND_0.24 239
999 COSGEN_0.24 239
114 ESRank14 239
202 ESForwSacLong+2+5 239
999 WORDS_prêts~21 197
999 WORDFREQ_1.55 197
999 WORDSALL_prêts~21 197
999 COSIND_0.18 197
999 COSGEN_0.18 197
115 ESRank15 197
202 ESForwSacLong+2+4 197
999 WORDS_construction~24 167
999 WORDFREQ_18.24 167
999 WORDSALL_construction~24 167
999 COSIND_0.46 167
999 COSGEN_0.46 167
116 ESRank16 167
202 ESForwSacLong+3+9 167
999 WORDS_construction~24 144
999 WORDFREQ_18.24 144
999 WORDSALL_construction~24 144
999 COSIND_0.46 144
999 COSGEN_0.46 144
117 ESRank17 144
203 ESBackSacRefixation 144
999 WORDS_l'amélioration~27 203
999 WORDFREQ_2.23 203
999 WORDSALL_l'amélioration~27 203
999 COSIND_0.14 203
999 COSGEN_0.14 203
118 ESRank18 203
202 ESForwSacLong+3+18 203
999 WORDS_logements~29 257
999 WORDFREQ_2.57 257
999 WORDSALL_logements~29 257
999 COSIND_1.00 257
999 COSGEN_1.00 257
119 ESRank19 257
202 ESForwSacLong+2+5 257
999 WORDS_locatifs~30 122
999 WORDFREQ_N/A 122
999 WORDSALL_locatifs~30 122
999 COSIND_N/A 122
120 ESRank20 122
201 ESForwSacShort 122
200 ESRankN 122
199 ESRankNMinus1 257
198 ESRankNMinus2 203
197 ESRankNMinus3 144
196 ESRankNMinus4 167
195 ESRankNMinus5 197
194 ESRankNMinus6 239
193 ESRankNMinus7 211
192 ESRankNMinus8 197
191 ESRankNMinus9 204
190 ESRankNMinus10 135
