999 WORDS_cultiver~2 217
999 WORDFREQ_4.32 217
999 WORDSALL_à~1_cultiver~2 217
999 COSIND_-0.12 217
999 COSGEN_-0.12 217
101 ESRank1 217
999 WORDS_décorative~3 175
999 WORDFREQ_0.88 175
999 WORDSALL_décorative~3 175
999 COSIND_0.01 175
999 COSGEN_0.01 175
102 ESRank2 175
201 ESForwSacShort 175
999 WORDS_décorative~3 112
999 WORDFREQ_0.88 112
999 WORDSALL_décorative~3 112
999 COSIND_0.01 112
999 COSGEN_0.01 112
103 ESRank3 112
203 ESBackSacRefixation 112
999 WORDS_variée~4 156
999 WORDFREQ_0.74 156
999 WORDSALL_variée~4 156
999 COSIND_0.05 156
999 COSGEN_0.05 156
104 ESRank4 156
201 ESForwSacShort 156
999 WORDS_variée~4 145
999 WORDFREQ_0.74 145
999 WORDSALL_variée~4 145
999 COSIND_0.05 145
999 COSGEN_0.05 145
105 ESRank5 145
203 ESBackSacRefixation 145
999 WORDS_tellement~6 159
999 WORDFREQ_168.51 159
999 WORDSALL_tellement~6 159
999 COSIND_-0.05 159
999 COSGEN_-0.05 159
106 ESRank6 159
202 ESForwSacLong+2+4 159
999 WORDS_tellement~6 84
999 WORDFREQ_168.51 84
999 WORDSALL_tellement~6 84
999 COSIND_-0.05 84
999 COSGEN_-0.05 84
107 ESRank7 84
203 ESBackSacRefixation 84
999 WORDS_savoureuse~7 216
999 WORDFREQ_1.82 216
999 WORDSALL_à~1_cultiver~2_savoureuse~7 216
999 COSIND_-0.03 216
999 COSGEN_-0.03 216
108 ESRank8 216
201 ESForwSacShort 216
999 WORDS_incontournable~19 106
999 WORDFREQ_0.41 106
999 WORDSALL_quand~8_cueille~11_incontournable~19 106
999 COSIND_N/A 106
109 ESRank9 106
202 ESForwSacLong+12+52 106
999 WORDS_cueille~11 218
999 WORDFREQ_2.3 218
999 WORDSALL_la~10_cueille~11 218
999 COSIND_-0.11 218
999 COSGEN_-0.11 218
110 ESRank10 218
206 ESBackSacRegrLong-8-32 218
999 WORDS_même~13 140
999 WORDFREQ_55.74 140
999 WORDSALL_même~13 140
999 COSIND_N/A 140
111 ESRank11 140
202 ESForwSacLong+2+4 140
999 WORDS_pied~15 221
999 WORDFREQ_248.18 221
999 WORDSALL_tellement~6_savoureuse~7_pied~15 221
999 COSIND_-0.00 221
999 COSGEN_-0.00 221
112 ESRank12 221
202 ESForwSacLong+2+4 221
200 ESRankN 221
199 ESRankNMinus1 140
198 ESRankNMinus2 218
197 ESRankNMinus3 106
196 ESRankNMinus4 216
195 ESRankNMinus5 84
194 ESRankNMinus6 159
193 ESRankNMinus7 145
192 ESRankNMinus8 156
191 ESRankNMinus9 112
190 ESRankNMinus10 175
