# 129 Fixation 1 (279,288.5): La~0 formule~1
# 110 Fixation 2 (392.9,285.8): formule~1 1~2 a~3
# 142 Fixation 3 (462.4,288.3): a~3 réclamé~4
# 183 Fixation 4 (616,273.4): de~5 pilotes~7
# 153 Fixation 5 (496.8,393.2): discipline~17 reine~18
# 134 Fixation 6 (547.8,373): plus~11 rapides~12
# 145 Fixation 7 (575.8,360.5): plus~11 rapides~12
# 121 Fixation 8 (653.3,349.8): rapides~12 à~13
# 130 Fixation 9 (479.3,454): exige~22
# 120 Fixation 10 (497.1,476.6): exige~22
# 211 Fixation 11 (668.2,489.3): ses~25 conducteurs~26
# 203 Fixation 12 (379.6,537.6): rongent~28
# 159 Fixation 13 (504.9,540): leur~29 frein~30
# 248 Fixation 14 (356,539.5): qu'ils~27 rongent~28
# 158 Fixation 15 (467.3,328.8): les~10 plus~11
# 168 Fixation 16 (547.5,340): plus~11 rapides~12
# 148 Fixation 17 (631.6,348.8): rapides~12 à~13
# 147 Fixation 18 (308.3,399.4): moment~15
# 108 Fixation 19 (276.8,410.1): moment~15
# 122 Fixation 20 (338.7,291.7): formule~1
# 153 Fixation 21 (469,282.9): a~3 réclamé~4
# 122 Fixation 22 (585.5,284.2): de~5 pilotes~7
# 96 Fixation 23 (633.6,281.9): ses~6 pilotes~7
# 160 Fixation 24 (297.9,345.7): qu'ils~8
# 144 Fixation 25 (367.2,338.5): soient~9
# 214 Fixation 26 (536.2,447.9): parfois~23
# 137 Fixation 27 (524.5,469.9): parfois~23
# 159 Fixation 28 (436.6,470): exige~22
# 176 Fixation 29 (401.5,472): exige~22
# 195 Fixation 30 (396.2,411.6): la~16 discipline~17
# 171 Fixation 31 (583.6,420.9): reine~18
# 166 Fixation 32 (308,467.6): automobile~21
# 461 Fixation 33 (272,468.5): automobile~21
# 137 Fixation 34 (622.4,536.7):
# 130 Fixation 35 (673,468.7): ses~25 conducteurs~26
%%
# La~0 Fixations= "1/"
# formule~1 Fixations= "20/"
# 1~2 Fixations= "2/"
# a~3 Fixations= "21/"
# réclamé~4 Fixations= "21/"
# de~5 Fixations= "22/"
# ses~6 Fixations= "23/"
# pilotes~7 Fixations= "23/"
# qu'ils~8 Fixations= "24/"
# soient~9 Fixations= "25/"
# les~10 Fixations= "15/"
# plus~11 Fixations= "16/"
# rapides~12 Fixations= "17/"
# à~13 Fixations= "17/"
# tout~14 Fixations= ""
# moment~15 Fixations= "19/"
# la~16 Fixations= "30/"
# discipline~17 Fixations= "30/"
# reine~18 Fixations= "31/"
# du~19 Fixations= ""
# sport~20 Fixations= ""
# automobile~21 Fixations= "33/"
# exige~22 Fixations= "29/"
# parfois~23 Fixations= "27/"
# de~24 Fixations= ""
# ses~25 Fixations= "35/"
# conducteurs~26 Fixations= "35/"
# qu'ils~27 Fixations= "14/"
# rongent~28 Fixations= "14/"
# leur~29 Fixations= "13/"
# frein~30 Fixations= "13/"
%%
#  LA[1] FORMULE[20] 1[2] A[21] RéCLAMé[21] DE[22] SES[23] PILOTES[23] QU'ILS[24] SOIENT[25] LES[15] PLUS[16] RAPIDES[17] à[17] tout MOMENT[19] LA[30] DISCIPLINE[30] REINE[31] du sport AUTOMOBILE[33] EXIGE[29] PARFOIS[27] de SES[35] CONDUCTEURS[35] QU'ILS[14] RONGENT[14] LEUR[13] FREIN[13]
# s10 course_voiliers-m1 PercentageOfWordsProcessed= 0.870967741935484 PercentageOfWordsReallyProcessed= 0.870967741935484
