999 WORDS_31~2 96
999 WORDFREQ_N/A 96
999 WORDSALL_Entre~0_31~2 96
999 COSIND_N/A 96
101 ESRank1 96
999 WORDS_31~2 173
999 WORDFREQ_N/A 173
999 WORDSALL_le~1_31~2 173
999 COSIND_N/A 173
102 ESRank2 173
203 ESBackSacRefixation 173
999 WORDS_décembre~3 128
999 WORDFREQ_31.15 128
999 WORDSALL_31~2_décembre~3 128
999 COSIND_-0.04 128
999 COSGEN_-0.04 128
103 ESRank3 128
201 ESForwSacShort 128
999 WORDS_à~4 318
999 WORDFREQ_19209.05 318
999 WORDSALL_décembre~3_à~4 318
999 COSIND_N/A 318
104 ESRank4 318
201 ESForwSacShort 318
999 WORDS_clubs~15 226
999 WORDFREQ_2.84 226
999 WORDSALL_minuit~5_jusqu'à~7_clubs~15 226
999 COSIND_-0.04 226
999 COSGEN_-0.04 226
105 ESRank5 226
202 ESForwSacLong+11+50 226
999 WORDS_mois~11 198
999 WORDFREQ_304.86 198
999 WORDSALL_Entre~0_31~2_fin~9_mois~11 198
999 COSIND_-0.01 198
999 COSGEN_-0.01 198
106 ESRank6 198
206 ESBackSacRegrLong-4-16 198
999 WORDS_janvier~13 214
999 WORDFREQ_30.61 214
999 WORDSALL_31~2_décembre~3_mois~11_janvier~13 214
999 COSIND_0.00 214
999 COSGEN_0.00 214
107 ESRank7 214
202 ESForwSacLong+2+4 214
999 WORDS_clubs~15 285
999 WORDFREQ_2.84 285
999 WORDSALL_à~4_minuit~5_clubs~15 285
999 COSIND_-0.04 285
999 COSGEN_-0.04 285
108 ESRank8 285
202 ESForwSacLong+2+5 285
999 WORDS_football~17 270
999 WORDFREQ_6.28 270
999 WORDSALL_fin~9_football~17 270
999 COSIND_-0.02 270
999 COSGEN_-0.02 270
109 ESRank9 270
202 ESForwSacLong+2+4 270
999 WORDS_sont~18 133
999 WORDFREQ_386.35 133
999 WORDSALL_mois~11_sont~18 133
999 COSIND_0.03 133
999 COSGEN_0.03 133
110 ESRank10 133
201 ESForwSacShort 133
999 WORDS_autorisés~19 247
999 WORDFREQ_1.49 247
999 WORDSALL_de~12_janvier~13_autorisés~19 247
999 COSIND_0.01 247
999 COSGEN_0.01 247
111 ESRank11 247
201 ESForwSacShort 247
999 WORDS_renouveler~21 139
999 WORDFREQ_5.81 139
999 WORDSALL_les~14_clubs~15_à~20_renouveler~21 139
999 COSIND_0.03 139
999 COSGEN_0.03 139
112 ESRank12 139
202 ESForwSacLong+2+4 139
999 WORDS_effectif~23 160
999 WORDFREQ_2.23 160
999 WORDSALL_football~17_effectif~23 160
999 COSIND_0.04 160
999 COSGEN_0.04 160
113 ESRank13 160
202 ESForwSacLong+2+6 160
200 ESRankN 160
199 ESRankNMinus1 139
198 ESRankNMinus2 247
197 ESRankNMinus3 133
196 ESRankNMinus4 270
195 ESRankNMinus5 285
194 ESRankNMinus6 214
193 ESRankNMinus7 198
192 ESRankNMinus8 226
191 ESRankNMinus9 318
190 ESRankNMinus10 128
