999 WORDS_plainte~1 144
999 WORDFREQ_17.09 144
999 WORDSALL_La~0_plainte~1 144
999 COSIND_-0.04 144
999 COSGEN_-0.04 144
101 ESRank1 144
999 WORDS_plainte~1 156
999 WORDFREQ_17.09 156
999 WORDSALL_La~0_plainte~1 156
999 COSIND_-0.04 156
999 COSGEN_-0.04 156
102 ESRank2 156
203 ESBackSacRefixation 156
999 WORDS_avait~2 98
999 WORDFREQ_3116.42 98
999 WORDSALL_plainte~1_avait~2 98
999 COSIND_-0.02 98
999 COSGEN_-0.02 98
103 ESRank3 98
201 ESForwSacShort 98
999 WORDS_été~3 99
999 WORDFREQ_40.2 99
999 WORDSALL_avait~2_été~3 99
999 COSIND_-0.01 99
999 COSGEN_-0.01 99
104 ESRank4 99
201 ESForwSacShort 99
999 WORDS_été~3 133
999 WORDFREQ_40.2 133
999 WORDSALL_été~3 133
999 COSIND_-0.01 133
999 COSGEN_-0.01 133
105 ESRank5 133
203 ESBackSacRefixation 133
999 WORDS_déposée~4 140
999 WORDFREQ_3.58 140
999 WORDSALL_été~3_déposée~4 140
999 COSIND_-0.02 140
999 COSGEN_-0.02 140
106 ESRank6 140
201 ESForwSacShort 140
999 WORDS_déposée~4 95
999 WORDFREQ_3.58 95
999 WORDSALL_déposée~4 95
999 COSIND_-0.02 95
999 COSGEN_-0.02 95
107 ESRank7 95
203 ESBackSacRefixation 95
999 WORDS_l'entreprise~6 151
999 WORDFREQ_29.05 151
999 WORDSALL_La~0_plainte~1_l'entreprise~6 151
999 COSIND_-0.03 151
999 COSGEN_-0.03 151
108 ESRank8 151
202 ESForwSacLong+2+5 151
999 WORDS_l'entreprise~6 140
999 WORDFREQ_29.05 140
999 WORDSALL_plainte~1_l'entreprise~6 140
999 COSIND_-0.03 140
999 COSGEN_-0.03 140
109 ESRank9 140
203 ESBackSacRefixation 140
999 WORDS_portait~8 182
999 WORDFREQ_113.85 182
999 WORDSALL_avait~2_été~3_portait~8 182
999 COSIND_-0.07 182
999 COSGEN_-0.07 182
110 ESRank10 182
202 ESForwSacLong+2+4 182
999 WORDS_mobilier~11 132
999 WORDFREQ_5.27 132
999 WORDSALL_déposée~4_mobilier~11 132
999 COSIND_-0.13 132
999 COSGEN_-0.13 132
111 ESRank11 132
202 ESForwSacLong+3+8 132
999 WORDS_mobilier~11 188
999 WORDFREQ_5.27 188
999 WORDSALL_par~5_mobilier~11 188
999 COSIND_-0.13 188
999 COSGEN_-0.13 188
112 ESRank12 188
203 ESBackSacRefixation 188
999 WORDS_urbain~12 202
999 WORDFREQ_1.89 202
999 WORDSALL_l'entreprise~6_urbain~12 202
999 COSIND_-0.03 202
999 COSGEN_-0.03 202
113 ESRank13 202
201 ESForwSacShort 202
999 WORDS_américain~25 139
999 WORDFREQ_25.95 139
999 WORDSALL_location~17_américain~25 139
999 COSIND_0.08 139
999 COSGEN_0.08 139
114 ESRank14 139
202 ESForwSacLong+13+64 139
200 ESRankN 139
199 ESRankNMinus1 202
198 ESRankNMinus2 188
197 ESRankNMinus3 132
196 ESRankNMinus4 182
195 ESRankNMinus5 140
194 ESRankNMinus6 151
193 ESRankNMinus7 95
192 ESRankNMinus8 140
191 ESRankNMinus9 133
190 ESRankNMinus10 99
