999 WORDS_ 86
999 WORDFREQ_ 86
999 WORDSALL_ 86
101 ESRank1 86
999 WORDS_trafiquants~1 156
999 WORDFREQ_2.09 156
999 WORDSALL_trafiquants~1 156
999 COSIND_0.02 156
999 COSGEN_0.02 156
102 ESRank2 156
999 WORDS_trafiquants~1 186
999 WORDFREQ_2.09 186
999 WORDSALL_Des~0_trafiquants~1 186
999 COSIND_0.02 186
999 COSGEN_0.02 186
103 ESRank3 186
203 ESBackSacRefixation 186
999 WORDS_cocaïne~3 255
999 WORDFREQ_1.22 255
999 WORDSALL_de~2_cocaïne~3 255
999 COSIND_-0.01 255
999 COSGEN_-0.01 255
104 ESRank4 255
202 ESForwSacLong+2+4 255
999 WORDS_colombiens~4 170
999 WORDFREQ_0.07 170
999 WORDSALL_colombiens~4 170
999 COSIND_-0.02 170
999 COSGEN_-0.02 170
105 ESRank5 170
201 ESForwSacShort 170
999 WORDS_colombiens~4 114
999 WORDFREQ_0.07 114
999 WORDSALL_colombiens~4 114
999 COSIND_-0.02 114
999 COSGEN_-0.02 114
106 ESRank6 114
203 ESBackSacRefixation 114
999 WORDS_côte~15 164
999 WORDFREQ_90.74 164
999 WORDSALL_été~6_côte~15 164
999 COSIND_0.25 164
999 COSGEN_0.25 164
107 ESRank7 164
202 ESForwSacLong+11+54 164
999 WORDS_côte~15 197
999 WORDFREQ_90.74 197
999 WORDSALL_été~6_sabordés~7_côte~15 197
999 COSIND_0.25 197
999 COSGEN_0.25 197
108 ESRank8 197
203 ESBackSacRefixation 197
999 WORDS_sous-marin~10 195
999 WORDFREQ_2.7 195
999 WORDSALL_un~9_sous-marin~10 195
999 COSIND_N/A 195
109 ESRank9 195
206 ESBackSacRegrLong-5-16 195
999 WORDS_sous-marin~10 152
999 WORDFREQ_2.7 152
999 WORDSALL_sous-marin~10 152
999 COSIND_N/A 152
110 ESRank10 152
203 ESBackSacRefixation 152
999 WORDS_forces~23 216
999 WORDFREQ_126.35 216
999 WORDSALL_côte~15_Pacifique~16_forces~23 216
999 COSIND_0.01 216
999 COSGEN_0.01 216
111 ESRank11 216
202 ESForwSacLong+13+64 216
200 ESRankN 216
199 ESRankNMinus1 152
198 ESRankNMinus2 195
197 ESRankNMinus3 197
196 ESRankNMinus4 164
195 ESRankNMinus5 114
194 ESRankNMinus6 170
193 ESRankNMinus7 255
192 ESRankNMinus8 186
191 ESRankNMinus9 156
190 ESRankNMinus10 86
