# 136 Fixation 1 (292,284.6): La~0 neige~1
# 137 Fixation 2 (386.9,287.3): neige~1 fait~2
# 138 Fixation 3 (435.9,283.9): fait~2 défaut~3
# 223 Fixation 4 (593.9,283.2): dans~4 Hautes-Alpes~6
# 108 Fixation 5 (682.4,287.3): Hautes-Alpes~6
# 291 Fixation 6 (367.6,342.1): neige~1 fait~2 cents~8
%%
# La~0 Fixations= "1/"
# neige~1 Fixations= "6/"
# fait~2 Fixations= "6/"
# défaut~3 Fixations= "3/"
# dans~4 Fixations= "4/"
# les~5 Fixations= ""
# Hautes-Alpes~6 Fixations= "5/"
# Cinq~7 Fixations= ""
# cents~8 Fixations= "6/"
# travailleurs~9 Fixations= ""
# saisonniers~10 Fixations= ""
# privés~11 Fixations= ""
# d'emploi~12 Fixations= ""
# ont~13 Fixations= ""
# manifesté~14 Fixations= ""
# dans~15 Fixations= ""
# les~16 Fixations= ""
# rues~17 Fixations= ""
# de~18 Fixations= ""
# Gap~19 Fixations= ""
# pour~20 Fixations= ""
# exiger~21 Fixations= ""
# des~22 Fixations= ""
# exploitants~23 Fixations= ""
# de~24 Fixations= ""
# remontées~25 Fixations= ""
# mécaniques~26 Fixations= ""
# des~27 Fixations= ""
# indemnisations~28 Fixations= ""
%%
#  LA[1] NEIGE[6] FAIT[6] DéFAUT[3] DANS[4] les HAUTES-ALPES[5] Cinq CENTS[6] travailleurs saisonniers privés d'emploi ont manifesté dans les rues de Gap pour exiger des exploitants de remontées mécaniques des indemnisations
# s18 salon_aeronautique-a2 PercentageOfWordsProcessed= 0.241379310344828 PercentageOfWordsReallyProcessed= 0.777777777777778
