999 WORDS_L'espace~0 228
999 WORDFREQ_78.58 228
999 WORDSALL_L'espace~0 228
999 COSIND_0.33 228
999 COSGEN_0.33 228
101 ESRank1 228
999 WORDS_L'espace~0 117
999 WORDFREQ_78.58 117
999 WORDSALL_L'espace~0 117
999 COSIND_0.33 117
999 COSGEN_0.33 117
102 ESRank2 117
203 ESBackSacRefixation 117
999 WORDS_évoluent~3 173
999 WORDFREQ_0.81 173
999 WORDSALL_dans~1_évoluent~3 173
999 COSIND_0.04 173
999 COSGEN_0.04 173
103 ESRank3 173
202 ESForwSacLong+3+13 173
999 WORDS_L'espace~0 151
999 WORDFREQ_78.58 151
999 WORDSALL_L'espace~0 151
999 COSIND_0.33 151
999 COSGEN_0.33 151
104 ESRank4 151
206 ESBackSacRegrLong-3-13 151
999 WORDS_évoluent~3 262
999 WORDFREQ_0.81 262
999 WORDSALL_lequel~2_évoluent~3 262
999 COSIND_0.04 262
999 COSGEN_0.04 262
105 ESRank5 262
202 ESForwSacLong+3+13 262
999 WORDS_évoluent~3 237
999 WORDFREQ_0.81 237
999 WORDSALL_évoluent~3 237
999 COSIND_0.04 237
999 COSGEN_0.04 237
106 ESRank6 237
203 ESBackSacRefixation 237
999 WORDS_ 164
999 WORDFREQ_ 164
999 WORDSALL_ 164
107 ESRank7 164
999 WORDS_satellites~5 287
999 WORDFREQ_1.15 287
999 WORDSALL_satellites~5 287
999 COSIND_0.59 287
999 COSGEN_0.59 287
108 ESRank8 287
999 WORDS_satellites~5 154
999 WORDFREQ_1.15 154
999 WORDSALL_satellites~5 154
999 COSIND_0.59 154
999 COSGEN_0.59 154
109 ESRank9 154
203 ESBackSacRefixation 154
999 WORDS_autour~6 220
999 WORDFREQ_361.55 220
999 WORDSALL_autour~6 220
999 COSIND_0.09 220
999 COSGEN_0.09 220
110 ESRank10 220
201 ESForwSacShort 220
999 WORDS_satellites~5 459
999 WORDFREQ_1.15 459
999 WORDSALL_satellites~5 459
999 COSIND_0.59 459
999 COSGEN_0.59 459
111 ESRank11 459
205 ESBackSacRegrShort 459
999 WORDS_autour~6 362
999 WORDFREQ_361.55 362
999 WORDSALL_autour~6 362
999 COSIND_0.09 362
999 COSGEN_0.09 362
112 ESRank12 362
201 ESForwSacShort 362
999 WORDS_autour~6 191
999 WORDFREQ_361.55 191
999 WORDSALL_satellites~5_autour~6 191
999 COSIND_0.09 191
999 COSGEN_0.09 191
113 ESRank13 191
203 ESBackSacRefixation 191
999 WORDS_planète~9 200
999 WORDFREQ_19.86 200
999 WORDSALL_de~7_planète~9 200
999 COSIND_0.38 200
999 COSGEN_0.38 200
114 ESRank14 200
202 ESForwSacLong+3+10 200
999 WORDS_évoluent~3 168
999 WORDFREQ_0.81 168
999 WORDSALL_évoluent~3 168
999 COSIND_0.04 168
999 COSGEN_0.04 168
115 ESRank15 168
206 ESBackSacRegrLong-6-32 168
999 WORDS_jonché~11 286
999 WORDFREQ_0.07 286
999 WORDSALL_jonché~11 286
999 COSIND_0.16 286
999 COSGEN_0.16 286
116 ESRank16 286
202 ESForwSacLong+8+45 286
999 WORDS_jonché~11 274
999 WORDFREQ_0.07 274
999 WORDSALL_jonché~11 274
999 COSIND_0.16 274
999 COSGEN_0.16 274
117 ESRank17 274
203 ESBackSacRefixation 274
999 WORDS_milliers~13 303
999 WORDFREQ_40.07 303
999 WORDSALL_de~12_milliers~13 303
999 COSIND_0.01 303
999 COSGEN_0.01 303
118 ESRank18 303
202 ESForwSacLong+2+4 303
999 WORDS_débris~15 205
999 WORDFREQ_13.85 205
999 WORDSALL_de~14_débris~15 205
999 COSIND_0.42 205
999 COSGEN_0.42 205
119 ESRank19 205
202 ESForwSacLong+2+4 205
999 WORDS_planète~9 164
999 WORDFREQ_19.86 164
999 WORDSALL_planète~9 164
999 COSIND_0.38 164
999 COSGEN_0.38 164
120 ESRank20 164
206 ESBackSacRegrLong-6-28 164
999 WORDS_sortes~18 152
999 WORDFREQ_33.78 152
999 WORDSALL_sortes~18 152
999 COSIND_0.01 152
999 COSGEN_0.01 152
202 ESForwSacLong+9+46 152
999 WORDS_sortes~18 202
999 WORDFREQ_33.78 202
999 WORDSALL_sortes~18 202
999 COSIND_0.01 202
999 COSGEN_0.01 202
203 ESBackSacRefixation 202
999 WORDS_inquiètent~20 288
999 WORDFREQ_1.01 288
999 WORDSALL_qui~19_inquiètent~20 288
999 COSIND_0.06 288
999 COSGEN_0.06 288
202 ESForwSacLong+2+5 288
999 WORDS_professionnels~22 240
999 WORDFREQ_3.24 240
999 WORDSALL_les~21_professionnels~22 240
999 COSIND_-0.01 240
999 COSGEN_-0.01 240
202 ESForwSacLong+2+5 240
999 WORDS_inquiètent~20 325
999 WORDFREQ_1.01 325
999 WORDSALL_qui~19_inquiètent~20 325
999 COSIND_0.06 325
999 COSGEN_0.06 325
206 ESBackSacRegrLong-2-5 325
999 WORDS_sortes~18 156
999 WORDFREQ_33.78 156
999 WORDSALL_sortes~18 156
999 COSIND_0.01 156
999 COSGEN_0.01 156
206 ESBackSacRegrLong-2-5 156
999 WORDS_débris~15 527
999 WORDFREQ_13.85 527
999 WORDSALL_débris~15 527
999 COSIND_0.42 527
999 COSGEN_0.42 527
206 ESBackSacRegrLong-3-11 527
999 WORDS_professionnels~22 317
999 WORDFREQ_3.24 317
999 WORDSALL_les~21_professionnels~22 317
999 COSIND_-0.01 317
999 COSGEN_-0.01 317
202 ESForwSacLong+7+38 317
999 WORDS_autour~6 191
999 WORDFREQ_361.55 191
999 WORDSALL_autour~6 191
999 COSIND_0.09 191
999 COSGEN_0.09 191
206 ESBackSacRegrLong-16-91 191
200 ESRankN 191
199 ESRankNMinus1 317
198 ESRankNMinus2 527
197 ESRankNMinus3 156
196 ESRankNMinus4 325
195 ESRankNMinus5 240
194 ESRankNMinus6 288
193 ESRankNMinus7 202
192 ESRankNMinus8 152
191 ESRankNMinus9 164
190 ESRankNMinus10 205
