999 WORDS_l'aide~1 156
999 WORDFREQ_52.3 156
999 WORDSALL_Avec~0_l'aide~1 156
999 COSIND_0.07 156
999 COSGEN_0.07 156
101 ESRank1 156
999 WORDS_l'aide~1 146
999 WORDFREQ_52.3 146
999 WORDSALL_l'aide~1 146
999 COSIND_0.07 146
999 COSGEN_0.07 146
102 ESRank2 146
203 ESBackSacRefixation 146
999 WORDS_rabatteurs~4 169
999 WORDFREQ_0.95 169
999 WORDSALL_de~2_rabatteurs~4 169
999 COSIND_0.17 169
999 COSGEN_0.17 169
103 ESRank3 169
202 ESForwSacLong+3+10 169
999 WORDS_rabatteurs~4 136
999 WORDFREQ_0.95 136
999 WORDSALL_leurs~3_rabatteurs~4 136
999 COSIND_0.17 136
999 COSGEN_0.17 136
104 ESRank4 136
203 ESBackSacRefixation 136
999 WORDS_déguenillés~5 190
999 WORDFREQ_0.2 190
999 WORDSALL_déguenillés~5 190
999 COSIND_N/A 190
105 ESRank5 190
201 ESForwSacShort 190
999 WORDS_déguenillés~5 174
999 WORDFREQ_0.2 174
999 WORDSALL_déguenillés~5 174
999 COSIND_N/A 174
106 ESRank6 174
203 ESBackSacRefixation 174
999 WORDS_pesaient~7 281
999 WORDFREQ_3.99 281
999 WORDSALL_elles~6_pesaient~7 281
999 COSIND_0.06 281
999 COSGEN_0.06 281
107 ESRank7 281
202 ESForwSacLong+2+7 281
999 WORDS_l'offre~8 157
999 WORDFREQ_8.78 157
999 WORDSALL_pesaient~7_l'offre~8 157
999 COSIND_-0.00 157
999 COSGEN_-0.00 157
108 ESRank8 157
201 ESForwSacShort 157
999 WORDS_demande~11 206
999 WORDFREQ_35.27 206
999 WORDSALL_demande~11 206
999 COSIND_-0.02 206
999 COSGEN_-0.02 206
109 ESRank9 206
202 ESForwSacLong+3+7 206
999 WORDS_savaient~13 177
999 WORDFREQ_30.2 177
999 WORDSALL_Elles~12_savaient~13 177
999 COSIND_0.01 177
999 COSGEN_0.01 177
110 ESRank10 177
202 ESForwSacLong+2+7 177
999 WORDS_savaient~13 185
999 WORDFREQ_30.2 185
999 WORDSALL_Elles~12_savaient~13 185
999 COSIND_0.01 185
999 COSGEN_0.01 185
111 ESRank11 185
203 ESBackSacRefixation 185
999 WORDS_entreprises~20 402
999 WORDFREQ_9.26 402
999 WORDSALL_les~19_entreprises~20 402
999 COSIND_-0.03 402
999 COSGEN_-0.03 402
112 ESRank12 402
202 ESForwSacLong+7+37 402
999 WORDS_chercheraient~21 201
999 WORDFREQ_0.47 201
999 WORDSALL_entreprises~20_chercheraient~21 201
999 COSIND_-0.01 201
999 COSGEN_-0.01 201
113 ESRank13 201
201 ESForwSacShort 201
999 WORDS_monnaie~24 371
999 WORDFREQ_25.34 371
999 WORDSALL_de~22_monnaie~24 371
999 COSIND_0.43 371
999 COSGEN_0.43 371
114 ESRank14 371
202 ESForwSacLong+3+7 371
999 WORDS_locale~25 227
999 WORDFREQ_6.69 227
999 WORDSALL_monnaie~24_locale~25 227
999 COSIND_0.02 227
999 COSGEN_0.02 227
115 ESRank15 227
201 ESForwSacShort 227
999 WORDS_locale~25 116
999 WORDFREQ_6.69 116
999 WORDSALL_locale~25 116
999 COSIND_0.02 116
999 COSGEN_0.02 116
116 ESRank16 116
203 ESBackSacRefixation 116
999 WORDS_payer~27 179
999 WORDFREQ_58.31 179
999 WORDSALL_pour~26_payer~27 179
999 COSIND_0.18 179
999 COSGEN_0.18 179
117 ESRank17 179
202 ESForwSacLong+2+6 179
999 WORDS_salariés~29 201
999 WORDFREQ_0.2 201
999 WORDSALL_salariés~29 201
999 COSIND_0.05 201
999 COSGEN_0.05 201
118 ESRank18 201
202 ESForwSacLong+2+7 201
200 ESRankN 201
199 ESRankNMinus1 179
198 ESRankNMinus2 116
197 ESRankNMinus3 227
196 ESRankNMinus4 371
195 ESRankNMinus5 201
194 ESRankNMinus6 402
193 ESRankNMinus7 185
192 ESRankNMinus8 177
191 ESRankNMinus9 206
190 ESRankNMinus10 157
