999 WORDS_producteurs~1 111
999 WORDFREQ_2.03 111
999 WORDSALL_Les~0_producteurs~1 111
999 COSIND_0.32 111
999 COSGEN_0.32 111
101 ESRank1 111
999 WORDS_producteurs~1 138
999 WORDFREQ_2.03 138
999 WORDSALL_producteurs~1 138
999 COSIND_0.32 138
999 COSGEN_0.32 138
102 ESRank2 138
203 ESBackSacRefixation 138
999 WORDS_producteurs~1 97
999 WORDFREQ_2.03 97
999 WORDSALL_producteurs~1 97
999 COSIND_0.32 97
999 COSGEN_0.32 97
103 ESRank3 97
203 ESBackSacRefixation 97
999 WORDS_fruits~3 188
999 WORDFREQ_42.09 188
999 WORDSALL_de~2_fruits~3 188
999 COSIND_0.34 188
999 COSGEN_0.34 188
104 ESRank4 188
202 ESForwSacLong+2+4 188
999 WORDS_fruits~3 159
999 WORDFREQ_42.09 159
999 WORDSALL_de~2_fruits~3 159
999 COSIND_0.34 159
999 COSGEN_0.34 159
105 ESRank5 159
203 ESBackSacRefixation 159
999 WORDS_légumes~5 181
999 WORDFREQ_21.35 181
999 WORDSALL_et~4_légumes~5 181
999 COSIND_0.43 181
999 COSGEN_0.43 181
106 ESRank6 181
202 ESForwSacLong+2+4 181
999 WORDS_affiliés~7 157
999 WORDFREQ_0.07 157
999 WORDSALL_surtout~6_affiliés~7 157
999 COSIND_-0.05 157
999 COSGEN_-0.05 157
107 ESRank7 157
202 ESForwSacLong+2+9 157
999 WORDS_affiliés~7 371
999 WORDFREQ_0.07 371
999 WORDSALL_surtout~6_affiliés~7 371
999 COSIND_-0.05 371
999 COSGEN_-0.05 371
108 ESRank8 371
203 ESBackSacRefixation 371
999 WORDS_affiliés~7 153
999 WORDFREQ_0.07 153
999 WORDSALL_affiliés~7 153
999 COSIND_-0.05 153
999 COSGEN_-0.05 153
109 ESRank9 153
203 ESBackSacRefixation 153
999 WORDS_puissante~10 233
999 WORDFREQ_14.26 233
999 WORDSALL_la~9_puissante~10 233
999 COSIND_0.28 233
999 COSGEN_0.28 233
110 ESRank10 233
202 ESForwSacLong+3+7 233
999 WORDS_Fédération~11 153
999 WORDFREQ_2.23 153
999 WORDSALL_puissante~10_Fédération~11 153
999 COSIND_0.39 153
999 COSGEN_0.39 153
111 ESRank11 153
201 ESForwSacShort 153
999 WORDS_Nationale~12 154
999 WORDFREQ_48.18 154
999 WORDSALL_Nationale~12 154
999 COSIND_0.07 154
999 COSGEN_0.07 154
112 ESRank12 154
201 ESForwSacShort 154
999 WORDS_Nationale~12 85
999 WORDFREQ_48.18 85
999 WORDSALL_Nationale~12 85
999 COSIND_0.07 85
999 COSGEN_0.07 85
113 ESRank13 85
203 ESBackSacRefixation 85
999 WORDS_d'Exploitants~15 210
999 WORDFREQ_0.34 210
999 WORDSALL_d'Exploitants~15 210
999 COSIND_0.76 210
999 COSGEN_0.76 210
114 ESRank14 210
202 ESForwSacLong+3+15 210
999 WORDS_Syndicats~14 106
999 WORDFREQ_3.24 106
999 WORDSALL_Syndicats~14 106
999 COSIND_0.86 106
999 COSGEN_0.86 106
115 ESRank15 106
205 ESBackSacRegrShort 106
999 WORDS_ont~17 135
999 WORDFREQ_240.61 135
999 WORDSALL_Agricoles~16_ont~17 135
999 COSIND_0.04 135
999 COSGEN_0.04 135
116 ESRank16 135
202 ESForwSacLong+3+25 135
999 WORDS_ont~17 156
999 WORDFREQ_240.61 156
999 WORDSALL_ont~17 156
999 COSIND_0.04 156
999 COSGEN_0.04 156
117 ESRank17 156
203 ESBackSacRefixation 156
999 WORDS_grandes~19 177
999 WORDFREQ_126.49 177
999 WORDSALL_les~18_grandes~19 177
999 COSIND_0.00 177
999 COSGEN_0.00 177
118 ESRank18 177
202 ESForwSacLong+2+5 177
999 WORDS_surfaces~20 234
999 WORDFREQ_0.14 234
999 WORDSALL_surfaces~20 234
999 COSIND_N/A 234
119 ESRank19 234
201 ESForwSacShort 234
999 WORDS_ligne~23 151
999 WORDFREQ_101.01 151
999 WORDSALL_ligne~23 151
999 COSIND_0.05 151
999 COSGEN_0.05 151
120 ESRank20 151
202 ESForwSacLong+3+11 151
999 WORDS_ligne~23 146
999 WORDFREQ_101.01 146
999 WORDSALL_leur~22_ligne~23 146
999 COSIND_0.05 146
999 COSGEN_0.05 146
203 ESBackSacRefixation 146
999 WORDS_ligne~23 136
999 WORDFREQ_101.01 136
999 WORDSALL_leur~22_ligne~23 136
999 COSIND_0.05 136
999 COSGEN_0.05 136
203 ESBackSacRefixation 136
999 WORDS_Agricoles~16 235
999 WORDFREQ_3.04 235
999 WORDSALL_Agricoles~16 235
999 COSIND_0.70 235
999 COSGEN_0.70 235
206 ESBackSacRegrLong-7-36 235
999 WORDS_mire~25 103
999 WORDFREQ_2.03 103
999 WORDSALL_ligne~23_mire~25 103
999 COSIND_0.07 103
999 COSGEN_0.07 103
202 ESForwSacLong+9+45 103
200 ESRankN 103
199 ESRankNMinus1 235
198 ESRankNMinus2 136
197 ESRankNMinus3 146
196 ESRankNMinus4 151
195 ESRankNMinus5 234
194 ESRankNMinus6 177
193 ESRankNMinus7 156
192 ESRankNMinus8 135
191 ESRankNMinus9 106
190 ESRankNMinus10 210
