999 WORDS_chef~1 124
999 WORDFREQ_172.57 124
999 WORDSALL_Le~0_chef~1 124
999 COSIND_0.02 124
999 COSGEN_0.02 124
101 ESRank1 124
999 WORDS_gouvernement~3 192
999 WORDFREQ_119.73 192
999 WORDSALL_du~2_gouvernement~3 192
999 COSIND_-0.00 192
999 COSGEN_-0.00 192
102 ESRank2 192
202 ESForwSacLong+2+4 192
999 WORDS_accusé~5 161
999 WORDFREQ_1.01 161
999 WORDSALL_est~4_accusé~5 161
999 COSIND_-0.06 161
999 COSGEN_-0.06 161
103 ESRank3 161
202 ESForwSacLong+2+5 161
999 WORDS_accusé~5 155
999 WORDFREQ_1.01 155
999 WORDSALL_est~4_accusé~5 155
999 COSIND_-0.06 155
999 COSGEN_-0.06 155
104 ESRank4 155
203 ESBackSacRefixation 155
999 WORDS_relations~7 277
999 WORDFREQ_42.16 277
999 WORDSALL_relations~7 277
999 COSIND_0.15 277
999 COSGEN_0.15 277
105 ESRank5 277
202 ESForwSacLong+2+5 277
999 WORDS_tendues~8 203
999 WORDFREQ_3.45 203
999 WORDSALL_tendues~8 203
999 COSIND_0.01 203
999 COSGEN_0.01 203
106 ESRank6 203
201 ESForwSacShort 203
999 WORDS_États-Unis~11 162
999 WORDFREQ_N/A 162
999 WORDSALL_avec~9_États-Unis~11 162
999 COSIND_N/A 162
107 ESRank7 162
202 ESForwSacLong+3+10 162
999 WORDS_États-Unis~11 170
999 WORDFREQ_N/A 170
999 WORDSALL_avec~9_États-Unis~11 170
999 COSIND_N/A 170
108 ESRank8 170
203 ESBackSacRefixation 170
999 WORDS_États-Unis~11 114
999 WORDFREQ_N/A 114
999 WORDSALL_États-Unis~11 114
999 COSIND_N/A 114
109 ESRank9 114
203 ESBackSacRefixation 114
999 WORDS_États-Unis~11 138
999 WORDFREQ_N/A 138
999 WORDSALL_États-Unis~11 138
999 COSIND_N/A 138
110 ESRank10 138
203 ESBackSacRefixation 138
999 WORDS_l'isolement~13 165
999 WORDFREQ_7.91 165
999 WORDSALL_l'isolement~13 165
999 COSIND_-0.01 165
999 COSGEN_-0.01 165
111 ESRank11 165
202 ESForwSacLong+2+4 165
999 WORDS_l'isolement~13 204
999 WORDFREQ_7.91 204
999 WORDSALL_l'isolement~13 204
999 COSIND_-0.01 204
999 COSGEN_-0.01 204
112 ESRank12 204
203 ESBackSacRefixation 204
999 WORDS_d'Israël~14 385
999 WORDFREQ_N/A 385
999 WORDSALL_d'Israël~14 385
999 COSIND_N/A 385
113 ESRank13 385
201 ESForwSacShort 385
999 WORDS_d'Israël~14 101
999 WORDFREQ_N/A 101
999 WORDSALL_l'isolement~13_d'Israël~14 101
999 COSIND_N/A 101
114 ESRank14 101
203 ESBackSacRefixation 101
999 WORDS_monde~17 211
999 WORDFREQ_732.43 211
999 WORDSALL_dans~15_monde~17 211
999 COSIND_-0.01 211
999 COSGEN_-0.01 211
115 ESRank15 211
202 ESForwSacLong+3+9 211
999 WORDS_monde~17 160
999 WORDFREQ_732.43 160
999 WORDSALL_dans~15_monde~17 160
999 COSIND_-0.01 160
999 COSGEN_-0.01 160
116 ESRank16 160
203 ESBackSacRefixation 160
999 WORDS_monde~17 170
999 WORDFREQ_732.43 170
999 WORDSALL_monde~17 170
999 COSIND_-0.01 170
999 COSGEN_-0.01 170
117 ESRank17 170
203 ESBackSacRefixation 170
999 WORDS_montée~21 145
999 WORDFREQ_14.39 145
999 WORDSALL_en~20_montée~21 145
999 COSIND_0.04 145
999 COSGEN_0.04 145
118 ESRank18 145
202 ESForwSacLong+4+16 145
999 WORDS_montée~21 121
999 WORDFREQ_14.39 121
999 WORDSALL_chômage~19_montée~21 121
999 COSIND_0.04 121
999 COSGEN_0.04 121
119 ESRank19 121
203 ESBackSacRefixation 121
999 WORDS_chômage~19 180
999 WORDFREQ_5.41 180
999 WORDSALL_chômage~19 180
999 COSIND_-0.03 180
999 COSGEN_-0.03 180
120 ESRank20 180
206 ESBackSacRegrLong-2-4 180
999 WORDS_vertigineuse~22 164
999 WORDFREQ_4.86 164
999 WORDSALL_montée~21_vertigineuse~22 164
999 COSIND_-0.11 164
999 COSGEN_-0.11 164
202 ESForwSacLong+3+12 164
999 WORDS_vertigineuse~22 125
999 WORDFREQ_4.86 125
999 WORDSALL_vertigineuse~22 125
999 COSIND_-0.11 125
999 COSGEN_-0.11 125
203 ESBackSacRefixation 125
999 WORDS_et~23 216
999 WORDFREQ_20879.73 216
999 WORDSALL_et~23 216
999 COSIND_N/A 216
201 ESForwSacShort 216
999 WORDS_détérioration~26 115
999 WORDFREQ_0.54 115
999 WORDSALL_détérioration~26 115
999 COSIND_0.10 115
999 COSGEN_0.10 115
202 ESForwSacLong+3+7 115
999 WORDS_détérioration~26 172
999 WORDFREQ_0.54 172
999 WORDSALL_détérioration~26 172
999 COSIND_0.10 172
999 COSGEN_0.10 172
203 ESBackSacRefixation 172
999 WORDS_toutes~28 227
999 WORDFREQ_50.47 227
999 WORDSALL_de~27_toutes~28 227
999 COSIND_0.02 227
999 COSGEN_0.02 227
202 ESForwSacLong+2+4 227
999 WORDS_normes~30 203
999 WORDFREQ_2.64 203
999 WORDSALL_les~29_normes~30 203
999 COSIND_0.01 203
999 COSGEN_0.01 203
202 ESForwSacLong+2+5 203
200 ESRankN 203
199 ESRankNMinus1 227
198 ESRankNMinus2 172
197 ESRankNMinus3 115
196 ESRankNMinus4 216
195 ESRankNMinus5 125
194 ESRankNMinus6 164
193 ESRankNMinus7 180
192 ESRankNMinus8 121
191 ESRankNMinus9 145
190 ESRankNMinus10 170
