999 WORDS_incendié~8 210
999 WORDFREQ_0.47 210
999 WORDSALL_incendié~8 210
999 COSIND_0.01 210
999 COSGEN_0.01 210
101 ESRank1 210
999 WORDS_soixantaine~1 155
999 WORDFREQ_4.53 155
999 WORDSALL_Une~0_soixantaine~1 155
999 COSIND_0.03 155
999 COSGEN_0.03 155
102 ESRank2 155
206 ESBackSacRegrLong-7-31 155
999 WORDS_jeunes~3 136
999 WORDFREQ_30.14 136
999 WORDSALL_de~2_jeunes~3 136
999 COSIND_0.28 136
999 COSGEN_0.28 136
103 ESRank3 136
202 ESForwSacLong+2+4 136
999 WORDS_jeunes~3 137
999 WORDFREQ_30.14 137
999 WORDSALL_jeunes~3 137
999 COSIND_0.28 137
999 COSGEN_0.28 137
104 ESRank4 137
203 ESBackSacRefixation 137
999 WORDS_Courneuve~6 142
999 WORDFREQ_N/A 142
999 WORDSALL_de~4_Courneuve~6 142
999 COSIND_N/A 142
105 ESRank5 142
202 ESForwSacLong+3+7 142
999 WORDS_incendié~8 156
999 WORDFREQ_0.47 156
999 WORDSALL_ont~7_incendié~8 156
999 COSIND_0.01 156
999 COSGEN_0.01 156
106 ESRank6 156
202 ESForwSacLong+2+5 156
999 WORDS_incendié~8 124
999 WORDFREQ_0.47 124
999 WORDSALL_incendié~8 124
999 COSIND_0.01 124
999 COSGEN_0.01 124
107 ESRank7 124
203 ESBackSacRefixation 124
999 WORDS_voitures~10 200
999 WORDFREQ_61.96 200
999 WORDSALL_des~9_voitures~10 200
999 COSIND_0.11 200
999 COSGEN_0.11 200
108 ESRank8 200
202 ESForwSacLong+2+5 200
999 WORDS_brisé~11 193
999 WORDFREQ_6.35 193
999 WORDSALL_brisé~11 193
999 COSIND_0.04 193
999 COSGEN_0.04 193
109 ESRank9 193
201 ESForwSacShort 193
999 WORDS_vitrines~13 206
999 WORDFREQ_13.31 206
999 WORDSALL_vitrines~13 206
999 COSIND_0.07 206
999 COSGEN_0.07 206
110 ESRank10 206
202 ESForwSacLong+2+5 206
200 ESRankN 206
199 ESRankNMinus1 193
198 ESRankNMinus2 200
197 ESRankNMinus3 124
196 ESRankNMinus4 156
195 ESRankNMinus5 142
194 ESRankNMinus6 137
193 ESRankNMinus7 136
192 ESRankNMinus8 155
191 ESRankNMinus9 210
