999 WORDS_globalisation~1 123
999 WORDFREQ_0 123
999 WORDSALL_La~0_globalisation~1 123
999 COSIND_0.31 123
999 COSGEN_0.31 123
101 ESRank1 123
999 WORDS_globalisation~1 136
999 WORDFREQ_0 136
999 WORDSALL_globalisation~1 136
999 COSIND_0.31 136
999 COSGEN_0.31 136
102 ESRank2 136
203 ESBackSacRefixation 136
999 WORDS_l'économie~3 152
999 WORDFREQ_15.74 152
999 WORDSALL_de~2_l'économie~3 152
999 COSIND_0.88 152
999 COSGEN_0.88 152
103 ESRank3 152
202 ESForwSacLong+2+4 152
999 WORDS_l'économie~3 112
999 WORDFREQ_15.74 112
999 WORDSALL_l'économie~3 112
999 COSIND_0.88 112
999 COSGEN_0.88 112
104 ESRank4 112
203 ESBackSacRefixation 112
999 WORDS_loin~5 127
999 WORDFREQ_452.36 127
999 WORDSALL_est~4_loin~5 127
999 COSIND_0.07 127
999 COSGEN_0.07 127
105 ESRank5 127
202 ESForwSacLong+2+5 127
999 WORDS_achevée~7 187
999 WORDFREQ_2.36 187
999 WORDSALL_d'être~6_achevée~7 187
999 COSIND_0.06 187
999 COSGEN_0.06 187
106 ESRank6 187
202 ESForwSacLong+2+9 187
999 WORDS_et~8 134
999 WORDFREQ_20879.73 134
999 WORDSALL_et~8 134
999 COSIND_N/A 134
107 ESRank7 134
201 ESForwSacShort 134
999 WORDS_contexte~11 124
999 WORDFREQ_2.16 124
999 WORDSALL_dans~9_contexte~11 124
999 COSIND_0.06 124
999 COSGEN_0.06 124
108 ESRank8 124
202 ESForwSacLong+3+9 124
999 WORDS_contexte~11 167
999 WORDFREQ_2.16 167
999 WORDSALL_un~10_contexte~11 167
999 COSIND_0.06 167
999 COSGEN_0.06 167
109 ESRank9 167
203 ESBackSacRefixation 167
999 WORDS_fort~13 128
999 WORDFREQ_43.85 128
999 WORDSALL_contexte~11_fort~13 128
999 COSIND_0.12 128
999 COSGEN_0.12 128
110 ESRank10 128
202 ESForwSacLong+2+4 128
999 WORDS_chômage~14 177
999 WORDFREQ_5.41 177
999 WORDSALL_chômage~14 177
999 COSIND_0.21 177
999 COSGEN_0.21 177
111 ESRank11 177
201 ESForwSacShort 177
999 WORDS_probabilité~16 214
999 WORDFREQ_1.28 214
999 WORDSALL_probabilité~16 214
999 COSIND_-0.01 214
999 COSGEN_-0.01 214
112 ESRank12 214
202 ESForwSacLong+2+4 214
999 WORDS_s'imposent~18 188
999 WORDFREQ_4.12 188
999 WORDSALL_que~17_s'imposent~18 188
999 COSIND_0.05 188
999 COSGEN_0.05 188
113 ESRank13 188
202 ESForwSacLong+2+5 188
999 WORDS_chômage~14 192
999 WORDFREQ_5.41 192
999 WORDSALL_chômage~14 192
999 COSIND_0.21 192
999 COSGEN_0.21 192
114 ESRank14 192
206 ESBackSacRegrLong-4-21 192
999 WORDS_vieux~22 154
999 WORDFREQ_273.31 154
999 WORDSALL_vieux~22 154
999 COSIND_0.08 154
999 COSGEN_0.08 154
115 ESRank15 154
202 ESForwSacLong+8+47 154
999 WORDS_mécanismes~23 123
999 WORDFREQ_3.72 123
999 WORDSALL_mécanismes~23 123
999 COSIND_0.05 123
999 COSGEN_0.05 123
116 ESRank16 123
201 ESForwSacShort 123
200 ESRankN 123
199 ESRankNMinus1 154
198 ESRankNMinus2 192
197 ESRankNMinus3 188
196 ESRankNMinus4 214
195 ESRankNMinus5 177
194 ESRankNMinus6 128
193 ESRankNMinus7 167
192 ESRankNMinus8 124
191 ESRankNMinus9 134
190 ESRankNMinus10 187
