# 167 Fixation 1 (318.5,299): La~0 direction~1
# 138 Fixation 2 (288.1,289.6): La~0 direction~1
# 824 Fixation 3 (252,283.4): La~0 direction~1
# 227 Fixation 4 (349,282.3): direction~1
# 191 Fixation 5 (315.4,283.5): La~0 direction~1
# 159 Fixation 6 (446.5,265.3): de~2 l'entreprise~3
# 184 Fixation 7 (365.6,267.3): direction~1
# 206 Fixation 8 (341.8,274): direction~1
# 83 Fixation 9 (323.3,275.6): La~0 direction~1
# 349 Fixation 10 (410.6,280.6): direction~1
# 198 Fixation 11 (528.5,271.9): l'entreprise~3
# 432 Fixation 12 (614.3,269.4): l'entreprise~3 confirme~4
# 156 Fixation 13 (457.9,283.9): de~2 l'entreprise~3
# 137 Fixation 14 (390.8,292.6): direction~1
# 341 Fixation 15 (282.8,342.1): l'existence~5
# 365 Fixation 16 (413.6,343.6): du~6 document~7
# 311 Fixation 17 (546.8,341.5): document~7 incriminé~8
# 231 Fixation 18 (594,337.5): incriminé~8
# 198 Fixation 19 (575.1,335.7): incriminé~8
# 242 Fixation 20 (679.5,337): incriminé~8 jugeant~9
# 299 Fixation 21 (329.1,396): que~10 l'initiative~11
# 332 Fixation 22 (281.1,394.7): que~10 l'initiative~11
# 307 Fixation 23 (516.8,401.9): d'un~12 collaborateur~13
# 197 Fixation 24 (581.2,405.2): collaborateur~13
# 248 Fixation 25 (712.6,406.7): externe~14
# 303 Fixation 26 (333,472.4): processus~16
# 138 Fixation 27 (324.2,463.4): au~15 processus~16
# 324 Fixation 28 (471.6,464.2): de~17 recrutement~18
# 220 Fixation 29 (505.1,480.6): recrutement~18
# 97 Fixation 30 (562.3,478.7): recrutement~18
# 242 Fixation 31 (302.5,518.7): inadmissible~20
# 222 Fixation 32 (454.2,522.6): Elle~21 cautionne~23
# 273 Fixation 33 (535.2,528.3): ne~22 cautionne~23
# 298 Fixation 34 (652.7,527.3): cautionne~23 absolument~24
# 163 Fixation 35 (361,576.3): cette~26 action~27
# 232 Fixation 36 (317.2,588.1): pas~25 action~27
%%
# La~0 Fixations= "9/"
# direction~1 Fixations= "14/"
# de~2 Fixations= "13/"
# l'entreprise~3 Fixations= "13/"
# confirme~4 Fixations= "12/"
# l'existence~5 Fixations= "15/"
# du~6 Fixations= "16/"
# document~7 Fixations= "17/"
# incriminé~8 Fixations= "20/"
# jugeant~9 Fixations= "20/"
# que~10 Fixations= "22/"
# l'initiative~11 Fixations= "22/"
# d'un~12 Fixations= "23/"
# collaborateur~13 Fixations= "24/"
# externe~14 Fixations= "25/"
# au~15 Fixations= "27/"
# processus~16 Fixations= "27/"
# de~17 Fixations= "28/"
# recrutement~18 Fixations= "30/"
# est~19 Fixations= ""
# inadmissible~20 Fixations= "31/"
# Elle~21 Fixations= "32/"
# ne~22 Fixations= "33/"
# cautionne~23 Fixations= "34/"
# absolument~24 Fixations= "34/"
# pas~25 Fixations= "36/"
# cette~26 Fixations= "35/"
# action~27 Fixations= "36/"
%%
#  LA[9] DIRECTION[14] DE[13] L'ENTREPRISE[13] CONFIRME[12] L'EXISTENCE[15] DU[16] DOCUMENT[17] INCRIMINé[20] JUGEANT[20] QUE[22] L'INITIATIVE[22] D'UN[23] COLLABORATEUR[24] EXTERNE[25] AU[27] PROCESSUS[27] DE[28] RECRUTEMENT[30] est INADMISSIBLE[31] ELLE[32] NE[33] CAUTIONNE[34] ABSOLUMENT[34] PAS[36] CETTE[35] ACTION[36]
# s14 greve_cheminot-m1 PercentageOfWordsProcessed= 0.964285714285714 PercentageOfWordsReallyProcessed= 0.964285714285714
