999 WORDS_rythme~1 94
999 WORDFREQ_42.57 94
999 WORDSALL_Le~0_rythme~1 94
999 COSIND_-0.01 94
999 COSGEN_-0.01 94
101 ESRank1 94
999 WORDS_rythme~1 124
999 WORDFREQ_42.57 124
999 WORDSALL_Le~0_rythme~1 124
999 COSIND_-0.01 124
999 COSGEN_-0.01 124
102 ESRank2 124
203 ESBackSacRefixation 124
999 WORDS_rythme~1 118
999 WORDFREQ_42.57 118
999 WORDSALL_Le~0_rythme~1 118
999 COSIND_-0.01 118
999 COSGEN_-0.01 118
103 ESRank3 118
203 ESBackSacRefixation 118
999 WORDS_rythme~1 131
999 WORDFREQ_42.57 131
999 WORDSALL_rythme~1 131
999 COSIND_-0.01 131
999 COSGEN_-0.01 131
104 ESRank4 131
203 ESBackSacRefixation 131
999 WORDS_transformations~3 181
999 WORDFREQ_1.82 181
999 WORDSALL_des~2_transformations~3 181
999 COSIND_0.05 181
999 COSGEN_0.05 181
105 ESRank5 181
202 ESForwSacLong+2+5 181
999 WORDS_bureaux~5 119
999 WORDFREQ_20 119
999 WORDSALL_de~4_bureaux~5 119
999 COSIND_0.20 119
999 COSGEN_0.20 119
106 ESRank6 119
202 ESForwSacLong+2+4 119
999 WORDS_bureaux~5 153
999 WORDFREQ_20 153
999 WORDSALL_de~4_bureaux~5 153
999 COSIND_0.20 153
999 COSGEN_0.20 153
107 ESRank7 153
203 ESBackSacRefixation 153
999 WORDS_bureaux~5 101
999 WORDFREQ_20 101
999 WORDSALL_de~4_bureaux~5 101
999 COSIND_0.20 101
999 COSGEN_0.20 101
108 ESRank8 101
203 ESBackSacRefixation 101
999 WORDS_bureaux~5 92
999 WORDFREQ_20 92
999 WORDSALL_de~4_bureaux~5 92
999 COSIND_0.20 92
999 COSGEN_0.20 92
109 ESRank9 92
203 ESBackSacRefixation 92
999 WORDS_s'accélère~6 137
999 WORDFREQ_4.05 137
999 WORDSALL_s'accélère~6 137
999 COSIND_0.06 137
999 COSGEN_0.06 137
110 ESRank10 137
201 ESForwSacShort 137
999 WORDS_s'accélère~6 167
999 WORDFREQ_4.05 167
999 WORDSALL_s'accélère~6 167
999 COSIND_0.06 167
999 COSGEN_0.06 167
111 ESRank11 167
203 ESBackSacRefixation 167
999 WORDS_s'accélère~6 131
999 WORDFREQ_4.05 131
999 WORDSALL_s'accélère~6 131
999 COSIND_0.06 131
999 COSGEN_0.06 131
112 ESRank12 131
203 ESBackSacRefixation 131
999 WORDS_capitale~9 145
999 WORDFREQ_23.18 145
999 WORDSALL_dans~7_capitale~9 145
999 COSIND_0.07 145
999 COSGEN_0.07 145
113 ESRank13 145
202 ESForwSacLong+3+9 145
999 WORDS_capitale~9 144
999 WORDFREQ_23.18 144
999 WORDSALL_la~8_capitale~9 144
999 COSIND_0.07 144
999 COSGEN_0.07 144
114 ESRank14 144
203 ESBackSacRefixation 144
999 WORDS_réalité~11 257
999 WORDFREQ_75.95 257
999 WORDSALL_En~10_réalité~11 257
999 COSIND_0.05 257
999 COSGEN_0.05 257
115 ESRank15 257
202 ESForwSacLong+2+4 257
999 WORDS_réalité~11 88
999 WORDFREQ_75.95 88
999 WORDSALL_réalité~11 88
999 COSIND_0.05 88
999 COSGEN_0.05 88
116 ESRank16 88
203 ESBackSacRefixation 88
999 WORDS_moitié~13 129
999 WORDFREQ_76.96 129
999 WORDSALL_moitié~13 129
999 COSIND_0.04 129
999 COSGEN_0.04 129
117 ESRank17 129
202 ESForwSacLong+2+4 129
999 WORDS_moitié~13 148
999 WORDFREQ_76.96 148
999 WORDSALL_moitié~13 148
999 COSIND_0.04 148
999 COSGEN_0.04 148
118 ESRank18 148
203 ESBackSacRefixation 148
999 WORDS_deviennent~14 213
999 WORDFREQ_16.22 213
999 WORDSALL_deviennent~14 213
999 COSIND_-0.05 213
999 COSGEN_-0.05 213
119 ESRank19 213
201 ESForwSacShort 213
999 WORDS_deviennent~14 90
999 WORDFREQ_16.22 90
999 WORDSALL_deviennent~14 90
999 COSIND_-0.05 90
999 COSGEN_-0.05 90
120 ESRank20 90
203 ESBackSacRefixation 90
999 WORDS_appartements~16 105
999 WORDFREQ_13.24 105
999 WORDSALL_des~15_appartements~16 105
999 COSIND_0.44 105
999 COSGEN_0.44 105
202 ESForwSacLong+2+5 105
999 WORDS_appartements~16 247
999 WORDFREQ_13.24 247
999 WORDSALL_appartements~16 247
999 COSIND_0.44 247
999 COSGEN_0.44 247
203 ESBackSacRefixation 247
999 WORDS_intermédiaires~17 221
999 WORDFREQ_0.88 221
999 WORDSALL_intermédiaires~17 221
999 COSIND_0.08 221
999 COSGEN_0.08 221
201 ESForwSacShort 221
999 WORDS_intermédiaires~17 157
999 WORDFREQ_0.88 157
999 WORDSALL_intermédiaires~17 157
999 COSIND_0.08 157
999 COSGEN_0.08 157
203 ESBackSacRefixation 157
999 WORDS_niveau~19 100
999 WORDFREQ_30.74 100
999 WORDSALL_intermédiaires~17_niveau~19 100
999 COSIND_0.02 100
999 COSGEN_0.02 100
202 ESForwSacLong+2+6 100
999 WORDS_niveau~19 110
999 WORDFREQ_30.74 110
999 WORDSALL_d'un~18_niveau~19 110
999 COSIND_0.02 110
999 COSGEN_0.02 110
203 ESBackSacRefixation 110
999 WORDS_niveau~19 132
999 WORDFREQ_30.74 132
999 WORDSALL_niveau~19 132
999 COSIND_0.02 132
999 COSGEN_0.02 132
203 ESBackSacRefixation 132
999 WORDS_élevé~21 168
999 WORDFREQ_15.2 168
999 WORDSALL_plus~20_élevé~21 168
999 COSIND_0.21 168
999 COSGEN_0.21 168
202 ESForwSacLong+2+6 168
999 WORDS_élevé~21 134
999 WORDFREQ_15.2 134
999 WORDSALL_plus~20_élevé~21 134
999 COSIND_0.21 134
999 COSGEN_0.21 134
203 ESBackSacRefixation 134
999 WORDS_élevé~21 88
999 WORDFREQ_15.2 88
999 WORDSALL_élevé~21 88
999 COSIND_0.21 88
999 COSGEN_0.21 88
203 ESBackSacRefixation 88
999 WORDS_parc~25 174
999 WORDFREQ_38.72 174
999 WORDSALL_celui~23_parc~25 174
999 COSIND_0.33 174
999 COSGEN_0.33 174
202 ESForwSacLong+4+14 174
999 WORDS_parc~25 106
999 WORDFREQ_38.72 106
999 WORDSALL_celui~23_parc~25 106
999 COSIND_0.33 106
999 COSGEN_0.33 106
203 ESBackSacRefixation 106
999 WORDS_parc~25 95
999 WORDFREQ_38.72 95
999 WORDSALL_du~24_parc~25 95
999 COSIND_0.33 95
999 COSGEN_0.33 95
203 ESBackSacRefixation 95
999 WORDS_classique~26 150
999 WORDFREQ_15.81 150
999 WORDSALL_parc~25_classique~26 150
999 COSIND_-0.01 150
999 COSGEN_-0.01 150
201 ESForwSacShort 150
200 ESRankN 150
199 ESRankNMinus1 95
198 ESRankNMinus2 106
197 ESRankNMinus3 174
196 ESRankNMinus4 88
195 ESRankNMinus5 134
194 ESRankNMinus6 168
193 ESRankNMinus7 132
192 ESRankNMinus8 110
191 ESRankNMinus9 100
190 ESRankNMinus10 157
