999 WORDS_avoir~1 142
999 WORDFREQ_649.26 142
999 WORDSALL_Après~0_avoir~1 142
999 COSIND_0.02 142
999 COSGEN_0.02 142
101 ESRank1 142
999 WORDS_rappelé~2 156
999 WORDFREQ_11.49 156
999 WORDSALL_rappelé~2 156
999 COSIND_0.14 156
999 COSGEN_0.14 156
102 ESRank2 156
201 ESForwSacShort 156
999 WORDS_gouvernements~5 186
999 WORDFREQ_12.3 186
999 WORDSALL_les~4_gouvernements~5 186
999 COSIND_0.06 186
999 COSGEN_0.06 186
103 ESRank3 186
202 ESForwSacLong+3+9 186
999 WORDS_successifs~6 190
999 WORDFREQ_8.78 190
999 WORDSALL_successifs~6 190
999 COSIND_0.14 190
999 COSGEN_0.14 190
104 ESRank4 190
201 ESForwSacShort 190
999 WORDS_corps~9 150
999 WORDFREQ_480.34 150
999 WORDSALL_le~8_corps~9 150
999 COSIND_0.08 150
999 COSGEN_0.08 150
105 ESRank5 150
202 ESForwSacLong+3+7 150
999 WORDS_enseignant~10 191
999 WORDFREQ_0.54 191
999 WORDSALL_enseignant~10 191
999 COSIND_0.52 191
999 COSGEN_0.52 191
106 ESRank6 191
201 ESForwSacShort 191
999 WORDS_ont~11 116
999 WORDFREQ_553.31 116
999 WORDSALL_enseignant~10_ont~11 116
999 COSIND_0.02 116
999 COSGEN_0.02 116
107 ESRank7 116
201 ESForwSacShort 116
999 WORDS_répondre~13 160
999 WORDFREQ_98.58 160
999 WORDSALL_répondre~13 160
999 COSIND_-0.08 160
999 COSGEN_-0.08 160
108 ESRank8 160
202 ESForwSacLong+2+4 160
999 WORDS_démographique~16 143
999 WORDFREQ_0.2 143
999 WORDSALL_démographique~16 143
999 COSIND_0.16 143
999 COSGEN_0.16 143
109 ESRank9 143
202 ESForwSacLong+3+10 143
999 WORDS_ministre~18 211
999 WORDFREQ_61.01 211
999 WORDSALL_le~17_ministre~18 211
999 COSIND_0.08 211
999 COSGEN_0.08 211
110 ESRank10 211
202 ESForwSacLong+2+4 211
999 WORDS_l'effort~22 234
999 WORDFREQ_98.18 234
999 WORDSALL_que~21_l'effort~22 234
999 COSIND_0.16 234
999 COSGEN_0.16 234
111 ESRank11 234
202 ESForwSacLong+4+16 234
999 WORDS_l'effort~22 204
999 WORDFREQ_98.18 204
999 WORDSALL_l'effort~22 204
999 COSIND_0.16 204
999 COSGEN_0.16 204
112 ESRank12 204
203 ESBackSacRefixation 204
200 ESRankN 204
199 ESRankNMinus1 234
198 ESRankNMinus2 211
197 ESRankNMinus3 143
196 ESRankNMinus4 160
195 ESRankNMinus5 116
194 ESRankNMinus6 191
193 ESRankNMinus7 150
192 ESRankNMinus8 190
191 ESRankNMinus9 186
190 ESRankNMinus10 156
