999 WORDS_faut~1 122
999 WORDFREQ_653.92 122
999 WORDSALL_Il~0_faut~1 122
999 COSIND_-0.01 122
999 COSGEN_-0.01 122
101 ESRank1 122
999 WORDS_distinguer~2 154
999 WORDFREQ_24.12 154
999 WORDSALL_faut~1_distinguer~2 154
999 COSIND_0.01 154
999 COSGEN_0.01 154
102 ESRank2 154
201 ESForwSacShort 154
999 WORDS_culture~3 139
999 WORDFREQ_24.32 139
999 WORDSALL_distinguer~2_culture~3 139
999 COSIND_-0.01 139
999 COSGEN_-0.01 139
103 ESRank3 139
201 ESForwSacShort 139
999 WORDS_civilisation~5 271
999 WORDFREQ_16.62 271
999 WORDSALL_et~4_civilisation~5 271
999 COSIND_0.00 271
999 COSGEN_0.00 271
104 ESRank4 271
202 ESForwSacLong+2+4 271
999 WORDS_culture~7 169
999 WORDFREQ_24.32 169
999 WORDSALL_Il~0_faut~1_culture~7 169
999 COSIND_-0.01 169
999 COSGEN_-0.01 169
105 ESRank5 169
202 ESForwSacLong+2+4 169
999 WORDS_l'ensemble~9 119
999 WORDFREQ_61.42 119
999 WORDSALL_distinguer~2_l'ensemble~9 119
999 COSIND_0.05 119
999 COSGEN_0.05 119
106 ESRank6 119
202 ESForwSacLong+2+5 119
999 WORDS_l'ensemble~9 115
999 WORDFREQ_61.42 115
999 WORDSALL_culture~3_l'ensemble~9 115
999 COSIND_0.05 115
999 COSGEN_0.05 115
107 ESRank7 115
203 ESBackSacRefixation 115
999 WORDS_croyances~11 151
999 WORDFREQ_3.18 151
999 WORDSALL_et~4_civilisation~5_croyances~11 151
999 COSIND_-0.00 151
999 COSGEN_-0.00 151
108 ESRank8 151
202 ESForwSacLong+2+5 151
999 WORDS_valeurs~13 146
999 WORDFREQ_11.55 146
999 WORDSALL_La~6_culture~7_valeurs~13 146
999 COSIND_0.54 146
999 COSGEN_0.54 146
109 ESRank9 146
202 ESForwSacLong+2+5 146
999 WORDS_propres~14 235
999 WORDFREQ_57.7 235
999 WORDSALL_est~8_l'ensemble~9_propres~14 235
999 COSIND_-0.00 235
999 COSGEN_-0.00 235
110 ESRank10 235
201 ESForwSacShort 235
999 WORDS_civilisation~20 108
999 WORDFREQ_16.62 108
999 WORDSALL_civilisation~20 108
999 COSIND_0.00 108
999 COSGEN_0.00 108
111 ESRank11 108
202 ESForwSacLong+6+37 108
999 WORDS_civilisation~20 137
999 WORDFREQ_16.62 137
999 WORDSALL_civilisation~20 137
999 COSIND_0.00 137
999 COSGEN_0.00 137
112 ESRank12 137
203 ESBackSacRefixation 137
999 WORDS_autre~30 172
999 WORDFREQ_700.68 172
999 WORDSALL_c'est~21_à~28_autre~30 172
999 COSIND_0.02 172
999 COSGEN_0.02 172
113 ESRank13 172
202 ESForwSacLong+10+52 172
999 WORDS_communauté~27 118
999 WORDFREQ_10.95 118
999 WORDSALL_La~19_civilisation~20_communauté~27 118
999 COSIND_0.05 118
999 COSGEN_0.05 118
114 ESRank14 118
206 ESBackSacRegrLong-3-8 118
999 WORDS_autre~30 140
999 WORDFREQ_700.68 140
999 WORDSALL_à~28_autre~30 140
999 COSIND_0.02 140
999 COSGEN_0.02 140
115 ESRank15 140
202 ESForwSacLong+3+8 140
200 ESRankN 140
199 ESRankNMinus1 118
198 ESRankNMinus2 172
197 ESRankNMinus3 137
196 ESRankNMinus4 108
195 ESRankNMinus5 235
194 ESRankNMinus6 146
193 ESRankNMinus7 151
192 ESRankNMinus8 115
191 ESRankNMinus9 119
190 ESRankNMinus10 169
