# 144 Fixation 1 (337.9,275.9): bombardier~1
# 162 Fixation 2 (448.3,287.8): Spirit~2
# 306 Fixation 3 (598.6,278.1): que~3 visiteurs~5
# 207 Fixation 4 (334.6,355.5): salon~7 Bourget~9
%%
# Le~0 Fixations= ""
# bombardier~1 Fixations= "1/"
# Spirit~2 Fixations= "2/"
# que~3 Fixations= "3/"
# les~4 Fixations= ""
# visiteurs~5 Fixations= "3/"
# du~6 Fixations= ""
# salon~7 Fixations= "4/"
# du~8 Fixations= ""
# Bourget~9 Fixations= "4/"
# ont~10 Fixations= ""
# entraperçu~11 Fixations= ""
# en~12 Fixations= ""
# juin~13 Fixations= ""
# le~14 Fixations= ""
# temps~15 Fixations= ""
# d'un~16 Fixations= ""
# très~17 Fixations= ""
# bref~18 Fixations= ""
# passage~19 Fixations= ""
# au-dessus~20 Fixations= ""
# de~21 Fixations= ""
# leurs~22 Fixations= ""
# têtes~23 Fixations= ""
# est~24 Fixations= ""
# une~25 Fixations= ""
# drôle~26 Fixations= ""
# de~27 Fixations= ""
# machine~28 Fixations= ""
# volante~29 Fixations= ""
# pour~30 Fixations= ""
# les~31 Fixations= ""
# non~32 Fixations= ""
# initiés~33 Fixations= ""
%%
#  Le BOMBARDIER[1] SPIRIT[2] QUE[3] les VISITEURS[3] du SALON[4] du BOURGET[4] ont entraperçu en juin le temps d'un très bref passage au-dessus de leurs têtes est une drôle de machine volante pour les non initiés
# s07 allocation_familiale-a1 PercentageOfWordsProcessed= 0.176470588235294 PercentageOfWordsReallyProcessed= 0.6
