999 WORDS_pacte~1 216
999 WORDFREQ_11.49 216
999 WORDSALL_Le~0_pacte~1 216
999 COSIND_0.15 216
999 COSGEN_0.15 216
101 ESRank1 216
999 WORDS_stabilité~3 184
999 WORDFREQ_3.18 184
999 WORDSALL_stabilité~3 184
999 COSIND_0.35 184
999 COSGEN_0.35 184
102 ESRank2 184
202 ESForwSacLong+2+4 184
999 WORDS_croissance~6 246
999 WORDFREQ_3.92 246
999 WORDSALL_de~5_croissance~6 246
999 COSIND_0.79 246
999 COSGEN_0.79 246
103 ESRank3 246
202 ESForwSacLong+3+7 246
999 WORDS_limites~9 137
999 WORDFREQ_25.47 137
999 WORDSALL_limites~9 137
999 COSIND_-0.01 137
999 COSGEN_-0.01 137
104 ESRank4 137
202 ESForwSacLong+3+10 137
999 WORDS_limites~9 122
999 WORDFREQ_25.47 122
999 WORDSALL_des~8_limites~9 122
999 COSIND_-0.01 122
999 COSGEN_-0.01 122
105 ESRank5 122
203 ESBackSacRefixation 122
999 WORDS_l'utilisation~11 177
999 WORDFREQ_4.12 177
999 WORDSALL_l'utilisation~11 177
999 COSIND_-0.06 177
999 COSGEN_-0.06 177
106 ESRank6 177
202 ESForwSacLong+2+4 177
999 WORDS_budget~13 172
999 WORDFREQ_5.34 172
999 WORDSALL_du~12_budget~13 172
999 COSIND_0.18 172
999 COSGEN_0.18 172
107 ESRank7 172
202 ESForwSacLong+2+4 172
999 WORDS_économie~17 254
999 WORDFREQ_15.74 254
999 WORDSALL_une~16_économie~17 254
999 COSIND_0.88 254
999 COSGEN_0.88 254
108 ESRank8 254
202 ESForwSacLong+4+19 254
999 WORDS_économistes~19 189
999 WORDFREQ_0.14 189
999 WORDSALL_Les~18_économistes~19 189
999 COSIND_0.64 189
999 COSGEN_0.64 189
109 ESRank9 189
202 ESForwSacLong+2+5 189
999 WORDS_économistes~19 123
999 WORDFREQ_0.14 123
999 WORDSALL_économistes~19 123
999 COSIND_0.64 123
999 COSGEN_0.64 123
110 ESRank10 123
203 ESBackSacRefixation 123
999 WORDS_s'interrogent~20 233
999 WORDFREQ_1.42 233
999 WORDSALL_s'interrogent~20 233
999 COSIND_0.04 233
999 COSGEN_0.04 233
111 ESRank11 233
201 ESForwSacShort 233
999 WORDS_pérennité~23 154
999 WORDFREQ_0.74 154
999 WORDSALL_la~22_pérennité~23 154
999 COSIND_0.03 154
999 COSGEN_0.03 154
112 ESRank12 154
202 ESForwSacLong+3+8 154
999 WORDS_de~24 166
999 WORDFREQ_38928.92 166
999 WORDSALL_de~24 166
999 COSIND_N/A 166
113 ESRank13 166
201 ESForwSacShort 166
999 WORDS_croissance~26 202
999 WORDFREQ_3.92 202
999 WORDSALL_croissance~26 202
999 COSIND_0.79 202
999 COSGEN_0.79 202
114 ESRank14 202
202 ESForwSacLong+2+7 202
999 WORDS_étonnante~29 214
999 WORDFREQ_10.47 214
999 WORDSALL_qui~27_étonnante~29 214
999 COSIND_0.02 214
999 COSGEN_0.02 214
115 ESRank15 214
202 ESForwSacLong+3+9 214
999 WORDS_étonnante~29 176
999 WORDFREQ_10.47 176
999 WORDSALL_qui~27_étonnante~29 176
999 COSIND_0.02 176
999 COSGEN_0.02 176
116 ESRank16 176
203 ESBackSacRefixation 176
200 ESRankN 176
199 ESRankNMinus1 214
198 ESRankNMinus2 202
197 ESRankNMinus3 166
196 ESRankNMinus4 154
195 ESRankNMinus5 233
194 ESRankNMinus6 123
193 ESRankNMinus7 189
192 ESRankNMinus8 254
191 ESRankNMinus9 172
190 ESRankNMinus10 177
