999 WORDS_marges~1 109
999 WORDFREQ_2.23 109
999 WORDSALL_marges~1 109
999 COSIND_0.12 109
999 COSGEN_0.12 109
101 ESRank1 109
999 WORDS_croissance~3 182
999 WORDFREQ_3.92 182
999 WORDSALL_croissance~3 182
999 COSIND_0.79 182
999 COSGEN_0.79 182
102 ESRank2 182
202 ESForwSacLong+2+4 182
999 WORDS_pourraient~4 219
999 WORDFREQ_26.62 219
999 WORDSALL_pourraient~4 219
999 COSIND_0.03 219
999 COSGEN_0.03 219
103 ESRank3 219
201 ESForwSacShort 219
999 WORDS_croissance~3 179
999 WORDFREQ_3.92 179
999 WORDSALL_croissance~3 179
999 COSIND_0.79 179
999 COSGEN_0.79 179
104 ESRank4 179
205 ESBackSacRegrShort 179
999 WORDS_structurelles~10 195
999 WORDFREQ_N/A 195
999 WORDSALL_structurelles~10 195
999 COSIND_N/A 195
105 ESRank5 195
202 ESForwSacLong+7+48 195
999 WORDS_augmentées~6 205
999 WORDFREQ_0.07 205
999 WORDSALL_augmentées~6 205
999 COSIND_0.05 205
999 COSGEN_0.05 205
106 ESRank6 205
206 ESBackSacRegrLong-4-19 205
999 WORDS_travail~15 185
999 WORDFREQ_223.99 185
999 WORDSALL_du~14_travail~15 185
999 COSIND_0.02 185
999 COSGEN_0.02 185
107 ESRank7 185
202 ESForwSacLong+9+53 185
999 WORDS_biens~18 113
999 WORDFREQ_13.31 113
999 WORDSALL_des~17_biens~18 113
999 COSIND_0.01 113
999 COSGEN_0.01 113
108 ESRank8 113
202 ESForwSacLong+3+8 113
999 WORDS_marchés~13 201
999 WORDFREQ_5.07 201
999 WORDSALL_marchés~13 201
999 COSIND_0.05 201
999 COSGEN_0.05 201
109 ESRank9 201
206 ESBackSacRegrLong-5-19 201
999 WORDS_accélération~21 183
999 WORDFREQ_2.64 183
999 WORDSALL_une~20_accélération~21 183
999 COSIND_0.45 183
999 COSGEN_0.45 183
110 ESRank10 183
202 ESForwSacLong+8+41 183
999 WORDS_prix~28 127
999 WORDFREQ_107.5 127
999 WORDSALL_des~27_prix~28 127
999 COSIND_-0.03 127
999 COSGEN_-0.03 127
111 ESRank11 127
202 ESForwSacLong+7+36 127
200 ESRankN 127
199 ESRankNMinus1 183
198 ESRankNMinus2 201
197 ESRankNMinus3 113
196 ESRankNMinus4 185
195 ESRankNMinus5 205
194 ESRankNMinus6 195
193 ESRankNMinus7 179
192 ESRankNMinus8 219
191 ESRankNMinus9 182
190 ESRankNMinus10 109
