999 WORDS_cigarette~8 153
999 WORDFREQ_77.57 153
999 WORDSALL_Comment~0_cigarette~8 153
999 COSIND_0.09 153
999 COSGEN_0.09 153
101 ESRank1 153
999 WORDS_cigarette~8 170
999 WORDFREQ_77.57 170
999 WORDSALL_la~1_France~2_cigarette~8 170
999 COSIND_0.09 170
999 COSGEN_0.09 170
102 ESRank2 170
203 ESBackSacRefixation 170
999 WORDS_pourra-t-elle~3 257
999 WORDFREQ_N/A 257
999 WORDSALL_pourra-t-elle~3 257
999 COSIND_N/A 257
103 ESRank3 257
206 ESBackSacRegrLong-5-17 257
999 WORDS_pourra-t-elle~3 143
999 WORDFREQ_N/A 143
999 WORDSALL_pourra-t-elle~3 143
999 COSIND_N/A 143
104 ESRank4 143
203 ESBackSacRefixation 143
999 WORDS_lieux~14 413
999 WORDFREQ_54.12 413
999 WORDSALL_la~7_cigarette~8_lieux~14 413
999 COSIND_-0.01 413
999 COSGEN_-0.01 413
105 ESRank5 413
202 ESForwSacLong+11+60 413
999 WORDS_passer~5 306
999 WORDFREQ_288.78 306
999 WORDSALL_se~4_passer~5 306
999 COSIND_-0.02 306
999 COSGEN_-0.02 306
106 ESRank6 306
206 ESBackSacRegrLong-9-50 306
200 ESRankN 306
199 ESRankNMinus1 413
198 ESRankNMinus2 143
197 ESRankNMinus3 257
196 ESRankNMinus4 170
195 ESRankNMinus5 153
