# 140 Fixation 1 (301.7,300): Un~0 couple~1
# 157 Fixation 2 (468.2,285.4): quinquagénaires~3
# 184 Fixation 3 (672.8,286.5): mosellans~4
# 146 Fixation 4 (764.1,286.7): mosellans~4 sera~5
# 124 Fixation 5 (334.1,338.2): jugé~6 mardi~7
# 95 Fixation 6 (288.7,356.1): jugé~6
# 269 Fixation 7 (469.5,364.1): en~8 correctionnel~9
# 224 Fixation 8 (644.2,364.4): pour~10 détention~11
# 128 Fixation 9 (371.1,401.4): usage~13 personnel~14
# 137 Fixation 10 (288.9,405.7): et~12 usage~13
# 243 Fixation 11 (566.7,409.9): de~15 stupéfiants~16
# 117 Fixation 12 (694.8,417.2): Ils~17
# 225 Fixation 13 (336.8,471): arrosaient~18
# 191 Fixation 14 (485.9,467.1): leurs~19 pots~20
# 209 Fixation 15 (610.5,478.6): de~21 cannabis~22
# 96 Fixation 16 (712.7,480.1): sur~23
# 243 Fixation 17 (338.2,545): rebord~25
# 89 Fixation 18 (426.1,546): leur~27 fenêtre~28
%%
# Un~0 Fixations= "1/"
# couple~1 Fixations= "1/"
# de~2 Fixations= ""
# quinquagénaires~3 Fixations= "2/"
# mosellans~4 Fixations= "4/"
# sera~5 Fixations= "4/"
# jugé~6 Fixations= "6/"
# mardi~7 Fixations= "5/"
# en~8 Fixations= "7/"
# correctionnel~9 Fixations= "7/"
# pour~10 Fixations= "8/"
# détention~11 Fixations= "8/"
# et~12 Fixations= "10/"
# usage~13 Fixations= "10/"
# personnel~14 Fixations= "9/"
# de~15 Fixations= "11/"
# stupéfiants~16 Fixations= "11/"
# Ils~17 Fixations= "12/"
# arrosaient~18 Fixations= "13/"
# leurs~19 Fixations= "14/"
# pots~20 Fixations= "14/"
# de~21 Fixations= "15/"
# cannabis~22 Fixations= "15/"
# sur~23 Fixations= "16/"
# le~24 Fixations= ""
# rebord~25 Fixations= "17/"
# de~26 Fixations= ""
# leur~27 Fixations= "18/"
# fenêtre~28 Fixations= "18/"
%%
#  UN[1] COUPLE[1] de QUINQUAGéNAIRES[2] MOSELLANS[4] SERA[4] JUGé[6] MARDI[5] EN[7] CORRECTIONNEL[7] POUR[8] DéTENTION[8] ET[10] USAGE[10] PERSONNEL[9] DE[11] STUPéFIANTS[11] ILS[12] ARROSAIENT[13] LEURS[14] POTS[14] DE[15] CANNABIS[15] SUR[16] le REBORD[17] de LEUR[18] FENêTRE[18]
# s07 tribunal_international-m2 PercentageOfWordsProcessed= 0.896551724137931 PercentageOfWordsReallyProcessed= 0.896551724137931
