999 WORDS_révision~1 242
999 WORDFREQ_3.11 242
999 WORDSALL_La~0_révision~1 242
999 COSIND_-0.01 242
999 COSGEN_-0.01 242
101 ESRank1 242
999 WORDS_Commission~4 255
999 WORDFREQ_10.81 255
999 WORDSALL_par~2_Commission~4 255
999 COSIND_-0.01 255
999 COSGEN_-0.01 255
102 ESRank2 255
202 ESForwSacLong+3+8 255
999 WORDS_Commission~4 304
999 WORDFREQ_10.81 304
999 WORDSALL_la~3_Commission~4 304
999 COSIND_-0.01 304
999 COSGEN_-0.01 304
103 ESRank3 304
203 ESBackSacRefixation 304
999 WORDS_prévisions~6 274
999 WORDFREQ_3.45 274
999 WORDSALL_prévisions~6 274
999 COSIND_-0.04 274
999 COSGEN_-0.04 274
104 ESRank4 274
202 ESForwSacLong+2+5 274
999 WORDS_l'année~8 253
999 WORDFREQ_128.99 253
999 WORDSALL_pour~7_l'année~8 253
999 COSIND_0.00 253
999 COSGEN_0.00 253
105 ESRank5 253
202 ESForwSacLong+2+6 253
999 WORDS_confirme~9 297
999 WORDFREQ_3.92 297
999 WORDSALL_l'année~8_confirme~9 297
999 COSIND_-0.04 297
999 COSGEN_-0.04 297
106 ESRank6 297
201 ESForwSacShort 297
999 WORDS_l'année~8 150
999 WORDFREQ_128.99 150
999 WORDSALL_l'année~8 150
999 COSIND_0.00 150
999 COSGEN_0.00 150
107 ESRank7 150
205 ESBackSacRegrShort 150
999 WORDS_bien~16 262
999 WORDFREQ_2535.14 262
999 WORDSALL_y~14_a~15_bien~16 262
999 COSIND_-0.02 262
999 COSGEN_-0.02 262
108 ESRank8 262
202 ESForwSacLong+8+32 262
999 WORDS_problème~18 252
999 WORDFREQ_55.2 252
999 WORDSALL_un~17_problème~18 252
999 COSIND_0.02 252
999 COSGEN_0.02 252
109 ESRank9 252
202 ESForwSacLong+2+4 252
999 WORDS_problème~18 164
999 WORDFREQ_55.2 164
999 WORDSALL_problème~18 164
999 COSIND_0.02 164
999 COSGEN_0.02 164
110 ESRank10 164
203 ESBackSacRefixation 164
999 WORDS_année~20 252
999 WORDFREQ_128.99 252
999 WORDSALL_année~20 252
999 COSIND_0.00 252
999 COSGEN_0.00 252
111 ESRank11 252
202 ESForwSacLong+2+7 252
999 WORDS_année~20 195
999 WORDFREQ_128.99 195
999 WORDSALL_année~20 195
999 COSIND_0.00 195
999 COSGEN_0.00 195
112 ESRank12 195
203 ESBackSacRefixation 195
999 WORDS_croissance~22 265
999 WORDFREQ_3.92 265
999 WORDSALL_la~21_croissance~22 265
999 COSIND_-0.06 265
999 COSGEN_-0.06 265
113 ESRank13 265
202 ESForwSacLong+2+4 265
999 WORDS_zone~25 302
999 WORDFREQ_34.39 302
999 WORDSALL_de~23_zone~25 302
999 COSIND_-0.00 302
999 COSGEN_-0.00 302
114 ESRank14 302
202 ESForwSacLong+3+7 302
999 WORDS_zone~25 196
999 WORDFREQ_34.39 196
999 WORDSALL_la~24_zone~25 196
999 COSIND_-0.00 196
999 COSGEN_-0.00 196
115 ESRank15 196
203 ESBackSacRefixation 196
999 WORDS_être~29 218
999 WORDFREQ_505.61 218
999 WORDSALL_devrait~28_être~29 218
999 COSIND_0.06 218
999 COSGEN_0.06 218
116 ESRank16 218
202 ESForwSacLong+4+17 218
200 ESRankN 218
199 ESRankNMinus1 196
198 ESRankNMinus2 302
197 ESRankNMinus3 265
196 ESRankNMinus4 195
195 ESRankNMinus5 252
194 ESRankNMinus6 164
193 ESRankNMinus7 252
192 ESRankNMinus8 262
191 ESRankNMinus9 150
190 ESRankNMinus10 297
