# 135 Fixation 1 (255.2,289.3): Le~0 problème~1
# 88 Fixation 2 (310.5,288.5): Le~0 problème~1
# 176 Fixation 3 (445.5,286.7): que~2 devra~3
# 124 Fixation 4 (507.3,296): devra~3
# 158 Fixation 5 (555.5,292.4): devra~3 gérer~4
# 148 Fixation 6 (544.2,299): devra~3 gérer~4
# 256 Fixation 7 (676.3,300): le~5 gouvernement~6
# 154 Fixation 8 (267.3,338.5): est~7 canaliser~9
# 193 Fixation 9 (336.8,350.5): est~7 canaliser~9
# 152 Fixation 10 (386.6,347.3): canaliser~9
# 187 Fixation 11 (506.2,349.4): le~10 retour~11
# 186 Fixation 12 (573.3,354.1): retour~11
# 208 Fixation 13 (635.8,355.9): des~12 sinistrés~13
# 306 Fixation 14 (695.7,359.3): sinistrés~13
# 517 Fixation 15 (739.1,360.7): sinistrés~13
# 141 Fixation 16 (720.5,366): sinistrés~13
# 173 Fixation 17 (284.8,408.2): dans~14 familles~16
# 111 Fixation 18 (366.4,405.5): les~15 familles~16
# 119 Fixation 19 (451.2,413.2): familles~16
# 112 Fixation 20 (557.4,424.4): d'accueil~17
# 156 Fixation 21 (524.4,424.5): d'accueil~17
# 185 Fixation 22 (668.7,425): Le~18 préalable~19
# 120 Fixation 23 (709.1,430.9): préalable~19
# 196 Fixation 24 (294.1,474): est~20
%%
# Le~0 Fixations= "2/"
# problème~1 Fixations= "2/"
# que~2 Fixations= "3/"
# devra~3 Fixations= "6/"
# gérer~4 Fixations= "6/"
# le~5 Fixations= "7/"
# gouvernement~6 Fixations= "7/"
# est~7 Fixations= "9/"
# de~8 Fixations= ""
# canaliser~9 Fixations= "10/"
# le~10 Fixations= "11/"
# retour~11 Fixations= "12/"
# des~12 Fixations= "13/"
# sinistrés~13 Fixations= "16/"
# dans~14 Fixations= "17/"
# les~15 Fixations= "18/"
# familles~16 Fixations= "19/"
# d'accueil~17 Fixations= "21/"
# Le~18 Fixations= "22/"
# préalable~19 Fixations= "23/"
# est~20 Fixations= "24/"
# leur~21 Fixations= ""
# identification~22 Fixations= ""
# car~23 Fixations= ""
# ils~24 Fixations= ""
# n'ont~25 Fixations= ""
# plus~26 Fixations= ""
# de~27 Fixations= ""
# pièce~28 Fixations= ""
# d'identité~29 Fixations= ""
%%
#  LE[2] PROBLèME[2] QUE[3] DEVRA[6] GéRER[6] LE[7] GOUVERNEMENT[7] EST[9] de CANALISER[10] LE[11] RETOUR[12] DES[13] SINISTRéS[16] DANS[17] LES[18] FAMILLES[19] D'ACCUEIL[21] LE[22] PRéALABLE[23] EST[24] leur identification car ils n'ont plus de pièce d'identité
# s06 associations_humanitaires-m2 PercentageOfWordsProcessed= 0.666666666666667 PercentageOfWordsReallyProcessed= 0.952380952380952
