999 WORDS_réaction~1 154
999 WORDFREQ_20 154
999 WORDSALL_Cette~0_réaction~1 154
999 COSIND_-0.05 154
999 COSGEN_-0.05 154
101 ESRank1 154
999 WORDS_réaction~1 225
999 WORDFREQ_20 225
999 WORDSALL_réaction~1 225
999 COSIND_-0.05 225
999 COSGEN_-0.05 225
102 ESRank2 225
203 ESBackSacRefixation 225
999 WORDS_conduit~2 221
999 WORDFREQ_33.45 221
999 WORDSALL_conduit~2 221
999 COSIND_-0.07 221
999 COSGEN_-0.07 221
103 ESRank3 221
201 ESForwSacShort 221
999 WORDS_industriels~3 171
999 WORDFREQ_2.23 171
999 WORDSALL_industriels~3 171
999 COSIND_-0.00 171
999 COSGEN_-0.00 171
104 ESRank4 171
201 ESForwSacShort 171
999 WORDS_industriels~3 150
999 WORDFREQ_2.23 150
999 WORDSALL_industriels~3 150
999 COSIND_-0.00 150
999 COSGEN_-0.00 150
105 ESRank5 150
203 ESBackSacRefixation 150
999 WORDS_industriels~3 122
999 WORDFREQ_2.23 122
999 WORDSALL_industriels~3 122
999 COSIND_-0.00 122
999 COSGEN_-0.00 122
106 ESRank6 122
203 ESBackSacRefixation 122
999 WORDS_milieux~5 297
999 WORDFREQ_9.39 297
999 WORDSALL_milieux~5 297
999 COSIND_0.00 297
999 COSGEN_0.00 297
107 ESRank7 297
202 ESForwSacLong+2+4 297
999 WORDS_financiers~6 269
999 WORDFREQ_2.36 269
999 WORDSALL_financiers~6 269
999 COSIND_0.08 269
999 COSGEN_0.08 269
108 ESRank8 269
201 ESForwSacShort 269
999 WORDS_à~7 128
999 WORDFREQ_19209.05 128
999 WORDSALL_à~7 128
999 COSIND_N/A 128
109 ESRank9 128
201 ESForwSacShort 128
999 WORDS_prudence~9 186
999 WORDFREQ_19.32 186
999 WORDSALL_prudence~9 186
999 COSIND_0.16 186
999 COSGEN_0.16 186
110 ESRank10 186
202 ESForwSacLong+2+4 186
999 WORDS_D'autant~10 197
999 WORDFREQ_240.41 197
999 WORDSALL_D'autant~10 197
999 COSIND_N/A 197
111 ESRank11 197
201 ESForwSacShort 197
999 WORDS_champion~13 113
999 WORDFREQ_10.81 113
999 WORDSALL_que~11_champion~13 113
999 COSIND_-0.05 113
999 COSGEN_-0.05 113
112 ESRank12 113
202 ESForwSacLong+3+8 113
999 WORDS_champion~13 112
999 WORDFREQ_10.81 112
999 WORDSALL_que~11_champion~13 112
999 COSIND_-0.05 112
999 COSGEN_-0.05 112
113 ESRank13 112
203 ESBackSacRefixation 112
999 WORDS_champion~13 174
999 WORDFREQ_10.81 174
999 WORDSALL_champion~13 174
999 COSIND_-0.05 174
999 COSGEN_-0.05 174
114 ESRank14 174
203 ESBackSacRefixation 174
999 WORDS_OGM~15 144
999 WORDFREQ_N/A 144
999 WORDSALL_des~14_OGM~15 144
999 COSIND_N/A 144
115 ESRank15 144
202 ESForwSacLong+2+5 144
999 WORDS_vu~17 147
999 WORDFREQ_393.45 147
999 WORDSALL_OGM~15_a~16_vu~17 147
999 COSIND_-0.07 147
999 COSGEN_-0.07 147
116 ESRank16 147
202 ESForwSacLong+2+3 147
999 WORDS_vu~17 110
999 WORDFREQ_393.45 110
999 WORDSALL_a~16_vu~17 110
999 COSIND_-0.07 110
999 COSGEN_-0.07 110
117 ESRank17 110
203 ESBackSacRefixation 110
999 WORDS_chiffre~19 163
999 WORDFREQ_12.7 163
999 WORDSALL_son~18_chiffre~19 163
999 COSIND_0.15 163
999 COSGEN_0.15 163
118 ESRank18 163
202 ESForwSacLong+2+5 163
999 WORDS_d'affaire~20 176
999 WORDFREQ_150.54 176
999 WORDSALL_d'affaire~20 176
999 COSIND_0.06 176
999 COSGEN_0.06 176
119 ESRank19 176
201 ESForwSacShort 176
999 WORDS_d'affaire~20 105
999 WORDFREQ_150.54 105
999 WORDSALL_d'affaire~20 105
999 COSIND_0.06 105
999 COSGEN_0.06 105
120 ESRank20 105
203 ESBackSacRefixation 105
999 WORDS_baisser~21 235
999 WORDFREQ_12.7 235
999 WORDSALL_baisser~21 235
999 COSIND_0.24 235
999 COSGEN_0.24 235
201 ESForwSacShort 235
200 ESRankN 235
199 ESRankNMinus1 105
198 ESRankNMinus2 176
197 ESRankNMinus3 163
196 ESRankNMinus4 110
195 ESRankNMinus5 147
194 ESRankNMinus6 144
193 ESRankNMinus7 174
192 ESRankNMinus8 112
191 ESRankNMinus9 113
190 ESRankNMinus10 197
