# 184 Fixation 1 (285.8,271.2): L'entraîneur~0
# 174 Fixation 2 (316.4,273.9): L'entraîneur~0
# 114 Fixation 3 (337.2,276): L'entraîneur~0
# 209 Fixation 4 (449,278.6): dirige~1
# 439 Fixation 5 (432.2,276.9): dirige~1
# 270 Fixation 6 (534.7,281.2): l'équipe~2
# 222 Fixation 7 (642.1,291): féminine~3
# 205 Fixation 8 (277.8,337.9): L'entraîneur~0
# 168 Fixation 9 (313.9,345.9): L'entraîneur~0 cinq~5
# 236 Fixation 10 (442.9,343.9): dirige~1 cinq~5 ans~6
# 113 Fixation 11 (546.7,345.8): l'équipe~2 après~7
# 276 Fixation 12 (693.8,349.1): été~9 champion~10
# 162 Fixation 13 (308.9,427.6): du~11 monde~12
%%
# L'entraîneur~0 Fixations= "9/"
# dirige~1 Fixations= "10/"
# l'équipe~2 Fixations= "11/"
# féminine~3 Fixations= "7/"
# seulement~4 Fixations= ""
# cinq~5 Fixations= "10/"
# ans~6 Fixations= "10/"
# après~7 Fixations= "11/"
# avoir~8 Fixations= ""
# été~9 Fixations= "12/"
# champion~10 Fixations= "12/"
# du~11 Fixations= "13/"
# monde~12 Fixations= "13/"
# comme~13 Fixations= ""
# coach~14 Fixations= ""
# adjoint~15 Fixations= ""
# des~16 Fixations= ""
# hommes~17 Fixations= ""
# Il~18 Fixations= ""
# a~19 Fixations= ""
# ses~20 Fixations= ""
# petites~21 Fixations= ""
# habitudes~22 Fixations= ""
# Le~23 Fixations= ""
# rituel~24 Fixations= ""
# commence~25 Fixations= ""
# pendant~26 Fixations= ""
# l'hymne~27 Fixations= ""
# russe~28 Fixations= ""
%%
#  L'ENTRAîNEUR[9] DIRIGE[10] L'éQUIPE[11] FéMININE[7] seulement CINQ[10] ANS[10] APRèS[11] avoir éTé[12] CHAMPION[12] DU[13] MONDE[13] comme coach adjoint des hommes Il a ses petites habitudes Le rituel commence pendant l'hymne russe
# s13 conflit_irak-a2 PercentageOfWordsProcessed= 0.379310344827586 PercentageOfWordsReallyProcessed= 0.846153846153846
