# 96 Fixation 1 (296.8,267.9): Les~0 agences~1
# 129 Fixation 2 (345.3,266.9): agences~1
# 280 Fixation 3 (430.8,266.5): spatiales~2
# 278 Fixation 4 (557.4,278.1): françaises~3
# 266 Fixation 5 (571.6,276.7): françaises~3
# 157 Fixation 6 (288.1,364.5): japonaises~5
# 155 Fixation 7 (330.4,351.4): japonaises~5
# 184 Fixation 8 (485.8,343.4): spatiales~2 décidé~7
# 157 Fixation 9 (619.3,345.1): françaises~3 créer~9
# 126 Fixation 10 (696.2,351.5): des~10 groupes~11
# 187 Fixation 11 (340.1,409.3): japonaises~5 travail~13
# 120 Fixation 12 (310.6,415.9): de~12 travail~13
# 188 Fixation 13 (454.2,411.6): ont~6 décidé~7 suivi~16
# 140 Fixation 14 (564.1,410.2): de~8 créer~9
# 93 Fixation 15 (615.9,408.6): créer~9 risques~18
# 183 Fixation 16 (324.1,474): de~12 travail~13 naturels~19
# 175 Fixation 17 (285.9,472.2): de~12 travail~13 naturels~19
# 331 Fixation 18 (459.6,467.1): sur~14 suivi~16
# 162 Fixation 19 (419.4,470.7): sur~14 suivi~16
# 156 Fixation 20 (576.7,477.3): sera~22 chargé~23
# 186 Fixation 21 (311.9,519.6): naturels~19 réfléchir~25
# 92 Fixation 22 (274.4,524.5): naturels~19 réfléchir~25
# 171 Fixation 23 (466.3,529.5): L'un~20 sera~22 meilleure~28
# 105 Fixation 24 (512,530.3): d'eux~21 sera~22 meilleure~28
# 261 Fixation 25 (620.5,538.3): chargé~23 utilisation~29
# 282 Fixation 26 (293.4,582.5): réfléchir~25
# 174 Fixation 27 (390.3,586.6): à~26 spatiales~32
# 148 Fixation 28 (368.5,336.2): agences~1 japonaises~5 ont~6
# 96 Fixation 29 (351.4,559.9): réfléchir~25 à~26
# 142 Fixation 30 (300.2,573.6): réfléchir~25
%%
# Les~0 Fixations= "1/"
# agences~1 Fixations= "28/"
# spatiales~2 Fixations= "8/"
# françaises~3 Fixations= "9/"
# et~4 Fixations= ""
# japonaises~5 Fixations= "28/"
# ont~6 Fixations= "28/"
# décidé~7 Fixations= "13/"
# de~8 Fixations= "14/"
# créer~9 Fixations= "15/"
# des~10 Fixations= "10/"
# groupes~11 Fixations= "10/"
# de~12 Fixations= "17/"
# travail~13 Fixations= "17/"
# sur~14 Fixations= "19/"
# le~15 Fixations= ""
# suivi~16 Fixations= "19/"
# des~17 Fixations= ""
# risques~18 Fixations= "15/"
# naturels~19 Fixations= "22/"
# L'un~20 Fixations= "23/"
# d'eux~21 Fixations= "24/"
# sera~22 Fixations= "24/"
# chargé~23 Fixations= "25/"
# de~24 Fixations= ""
# réfléchir~25 Fixations= "30/"
# à~26 Fixations= "29/"
# une~27 Fixations= ""
# meilleure~28 Fixations= "24/"
# utilisation~29 Fixations= "25/"
# des~30 Fixations= ""
# données~31 Fixations= ""
# spatiales~32 Fixations= "27/"
%%
#  LES[1] AGENCES[28] SPATIALES[8] FRANçAISES[9] et JAPONAISES[28] ONT[28] DéCIDé[13] DE[14] CRéER[15] DES[10] GROUPES[10] DE[17] TRAVAIL[17] SUR[19] le SUIVI[19] des RISQUES[15] NATURELS[22] L'UN[23] D'EUX[24] SERA[24] CHARGé[25] de RéFLéCHIR[30] à[29] une MEILLEURE[24] UTILISATION[25] des données SPATIALES[27]
# s01 chasse_oiseaux-a1 PercentageOfWordsProcessed= 0.787878787878788 PercentageOfWordsReallyProcessed= 0.787878787878788
