# 136 Fixation 1 (235.5,296): Une~0 inquiétude~1
# 161 Fixation 2 (293.4,300.5): Une~0 inquiétude~1
# 213 Fixation 3 (325.3,293.5): Une~0 inquiétude~1
# 163 Fixation 4 (361.2,289.9): inquiétude~1
# 282 Fixation 5 (474.5,291): particulière~2
# 250 Fixation 6 (640.3,286.6): pointe~3
# 316 Fixation 7 (704,296.9): pointe~3 à~5
# 91 Fixation 8 (751,301): quant~4 à~5
# 203 Fixation 9 (287.1,354): la~6 responsabilité~7 d'établissement~11
# 173 Fixation 10 (317.4,346.1): Une~0 inquiétude~1 responsabilité~7
# 234 Fixation 11 (542,345.1): particulière~2 pénale~8
# 262 Fixation 12 (629.9,349.7): des~9 chefs~10
# 268 Fixation 13 (511.2,348.5): particulière~2 pénale~8
# 166 Fixation 14 (491.7,346.7): particulière~2 pénale~8
# 257 Fixation 15 (560.9,349.3): pénale~8
# 170 Fixation 16 (270.7,402.4): la~6 responsabilité~7 d'établissement~11
# 210 Fixation 17 (310,407.4): la~6 responsabilité~7 d'établissement~11
# 202 Fixation 18 (470.6,406.7): pénale~8 mise~12
# 300 Fixation 19 (589.7,410.7): pénale~8 chefs~10 jeu~14
# 164 Fixation 20 (290.4,485.4): d'accidents~16
# 174 Fixation 21 (316.9,477.2): d'accidents~16
# 228 Fixation 22 (443.7,474.5): mise~12 survenus~17
# 170 Fixation 23 (600.4,470.9): en~13 jeu~14 cause~19
%%
# Une~0 Fixations= "10/"
# inquiétude~1 Fixations= "10/"
# particulière~2 Fixations= "14/"
# pointe~3 Fixations= "7/"
# quant~4 Fixations= "8/"
# à~5 Fixations= "8/"
# la~6 Fixations= "17/"
# responsabilité~7 Fixations= "17/"
# pénale~8 Fixations= "19/"
# des~9 Fixations= "12/"
# chefs~10 Fixations= "19/"
# d'établissement~11 Fixations= "17/"
# mise~12 Fixations= "22/"
# en~13 Fixations= "23/"
# jeu~14 Fixations= "23/"
# lors~15 Fixations= ""
# d'accidents~16 Fixations= "21/"
# survenus~17 Fixations= "22/"
# à~18 Fixations= ""
# cause~19 Fixations= "23/"
# d'équipements~20 Fixations= ""
# défectueux~21 Fixations= ""
# alors~22 Fixations= ""
# que~23 Fixations= ""
# l'entretien~24 Fixations= ""
# en~25 Fixations= ""
# incombe~26 Fixations= ""
# aux~27 Fixations= ""
# collectivités~28 Fixations= ""
# locales~29 Fixations= ""
%%
#  UNE[10] INQUIéTUDE[10] PARTICULIèRE[14] POINTE[7] QUANT[8] à[8] LA[17] RESPONSABILITé[17] PéNALE[19] DES[12] CHEFS[19] D'éTABLISSEMENT[17] MISE[22] EN[23] JEU[23] lors D'ACCIDENTS[21] SURVENUS[22] à CAUSE[23] d'équipements défectueux alors que l'entretien en incombe aux collectivités locales
# s13 plantation_fleurs-a1 PercentageOfWordsProcessed= 0.6 PercentageOfWordsReallyProcessed= 0.9
