999 WORDS_modistes~2 117
999 WORDFREQ_0.41 117
999 WORDSALL_C'est~0_modistes~2 117
999 COSIND_0.04 117
999 COSGEN_0.04 117
101 ESRank1 117
999 WORDS_modistes~2 129
999 WORDFREQ_0.41 129
999 WORDSALL_C'est~0_modistes~2 129
999 COSIND_0.04 129
999 COSGEN_0.04 129
102 ESRank2 129
203 ESBackSacRefixation 129
999 WORDS_modistes~2 112
999 WORDFREQ_0.41 112
999 WORDSALL_modistes~2 112
999 COSIND_0.04 112
999 COSGEN_0.04 112
103 ESRank3 112
203 ESBackSacRefixation 112
999 WORDS_parisiennes~3 156
999 WORDFREQ_2.3 156
999 WORDSALL_parisiennes~3 156
999 COSIND_0.08 156
999 COSGEN_0.08 156
104 ESRank4 156
201 ESForwSacShort 156
999 WORDS_parisiennes~3 126
999 WORDFREQ_2.3 126
999 WORDSALL_parisiennes~3 126
999 COSIND_0.08 126
999 COSGEN_0.08 126
105 ESRank5 126
203 ESBackSacRefixation 126
999 WORDS_printemps~6 124
999 WORDFREQ_60.88 124
999 WORDSALL_printemps~6 124
999 COSIND_0.46 124
999 COSGEN_0.46 124
106 ESRank6 124
202 ESForwSacLong+3+8 124
999 WORDS_printemps~6 123
999 WORDFREQ_60.88 123
999 WORDSALL_printemps~6 123
999 COSIND_0.46 123
999 COSGEN_0.46 123
107 ESRank7 123
203 ESBackSacRefixation 123
999 WORDS_premières~9 136
999 WORDFREQ_60.2 136
999 WORDSALL_premières~9 136
999 COSIND_0.02 136
999 COSGEN_0.02 136
108 ESRank8 136
202 ESForwSacLong+3+10 136
999 WORDS_confidences~10 195
999 WORDFREQ_14.39 195
999 WORDSALL_confidences~10 195
999 COSIND_0.02 195
999 COSGEN_0.02 195
109 ESRank9 195
201 ESForwSacShort 195
999 WORDS_rubans~20 146
999 WORDFREQ_7.97 146
999 WORDSALL_rubans~20 146
999 COSIND_0.47 146
999 COSGEN_0.47 146
110 ESRank10 146
202 ESForwSacLong+10+53 146
999 WORDS_petits~22 168
999 WORDFREQ_244.19 168
999 WORDSALL_ses~21_petits~22 168
999 COSIND_0.06 168
999 COSGEN_0.06 168
111 ESRank11 168
202 ESForwSacLong+2+5 168
999 WORDS_canotiers~23 156
999 WORDFREQ_0.68 156
999 WORDSALL_canotiers~23 156
999 COSIND_0.27 156
999 COSGEN_0.27 156
112 ESRank12 156
201 ESForwSacShort 156
999 WORDS_saurait~27 166
999 WORDFREQ_33.92 166
999 WORDSALL_car~24_saurait~27 166
999 COSIND_-0.03 166
999 COSGEN_-0.03 166
113 ESRank13 166
202 ESForwSacLong+4+11 166
999 WORDS_saurait~27 133
999 WORDFREQ_33.92 133
999 WORDSALL_ne~26_saurait~27 133
999 COSIND_-0.03 133
999 COSGEN_-0.03 133
114 ESRank14 133
203 ESBackSacRefixation 133
999 WORDS_printemps~31 123
999 WORDFREQ_60.88 123
999 WORDSALL_avoir~29_printemps~31 123
999 COSIND_0.46 123
999 COSGEN_0.46 123
115 ESRank15 123
202 ESForwSacLong+4+12 123
999 WORDS_printemps~31 159
999 WORDFREQ_60.88 159
999 WORDSALL_printemps~31 159
999 COSIND_0.46 159
999 COSGEN_0.46 159
116 ESRank16 159
203 ESBackSacRefixation 159
999 WORDS_canotier~33 174
999 WORDFREQ_2.36 174
999 WORDSALL_canotier~33 174
999 COSIND_0.27 174
999 COSGEN_0.27 174
117 ESRank17 174
202 ESForwSacLong+2+6 174
999 WORDS_offre~13 126
999 WORDFREQ_29.8 126
999 WORDSALL_offre~13 126
999 COSIND_0.03 126
999 COSGEN_0.03 126
118 ESRank18 126
206 ESBackSacRegrLong-20-111 126
999 WORDS_offre~13 99
999 WORDFREQ_29.8 99
999 WORDSALL_offre~13 99
999 COSIND_0.03 99
999 COSGEN_0.03 99
119 ESRank19 99
203 ESBackSacRefixation 99
999 WORDS_premiers~15 143
999 WORDFREQ_77.7 143
999 WORDSALL_ses~14_premiers~15 143
999 COSIND_0.02 143
999 COSGEN_0.02 143
120 ESRank20 143
202 ESForwSacLong+2+5 143
999 WORDS_bouquets~16 181
999 WORDFREQ_11.08 181
999 WORDSALL_bouquets~16 181
999 COSIND_0.16 181
999 COSGEN_0.16 181
201 ESForwSacShort 181
999 WORDS_bouquets~16 89
999 WORDFREQ_11.08 89
999 WORDSALL_bouquets~16 89
999 COSIND_0.16 89
999 COSGEN_0.16 89
203 ESBackSacRefixation 89
200 ESRankN 89
199 ESRankNMinus1 181
198 ESRankNMinus2 143
197 ESRankNMinus3 99
196 ESRankNMinus4 126
195 ESRankNMinus5 174
194 ESRankNMinus6 159
193 ESRankNMinus7 123
192 ESRankNMinus8 133
191 ESRankNMinus9 166
190 ESRankNMinus10 156
