999 WORDS_L'équipe~0 139
999 WORDFREQ_26.28 139
999 WORDSALL_L'équipe~0 139
999 COSIND_0.07 139
999 COSGEN_0.07 139
101 ESRank1 139
999 WORDS_cycliste~1 122
999 WORDFREQ_2.43 122
999 WORDSALL_cycliste~1 122
999 COSIND_0.57 122
999 COSGEN_0.57 122
102 ESRank2 122
201 ESForwSacShort 122
999 WORDS_cycliste~1 144
999 WORDFREQ_2.43 144
999 WORDSALL_cycliste~1 144
999 COSIND_0.57 144
999 COSGEN_0.57 144
103 ESRank3 144
203 ESBackSacRefixation 144
999 WORDS_retrouvé~3 297
999 WORDFREQ_55 297
999 WORDSALL_a~2_retrouvé~3 297
999 COSIND_0.05 297
999 COSGEN_0.05 297
104 ESRank4 297
202 ESForwSacLong+2+3 297
200 ESRankN 297
199 ESRankNMinus1 144
198 ESRankNMinus2 122
197 ESRankNMinus3 139
