# 168 Fixation 1 (264.5,288.5): Malgré~0
# 246 Fixation 2 (359.6,288.5): Malgré~0 accord~2
# 194 Fixation 3 (462,292.6): accord~2
# 185 Fixation 4 (504.2,283.5): de~3 principe~4
# 120 Fixation 5 (565.9,280.2): principe~4
# 181 Fixation 6 (637.7,299.9): principe~4
# 112 Fixation 7 (635.7,336.8): comprenant~10
# 84 Fixation 8 (581.3,337.9): comprenant~10
# 151 Fixation 9 (278.2,342.5): nécessité~7
# 201 Fixation 10 (266.3,355.2): nécessité~7
# 148 Fixation 11 (371.7,363.2): nécessité~7
# 82 Fixation 12 (399.7,358.5): d'une~8 réforme~9
# 191 Fixation 13 (444.7,352.3): d'une~8 réforme~9
# 212 Fixation 14 (597.6,349): comprenant~10
# 180 Fixation 15 (577.3,349.1): comprenant~10
# 203 Fixation 16 (392.5,414.8): individualisée~13
# 398 Fixation 17 (320.1,414.3): individualisée~13
%%
# Malgré~0 Fixations= "2/"
# un~1 Fixations= ""
# accord~2 Fixations= "3/"
# de~3 Fixations= "4/"
# principe~4 Fixations= "6/"
# sur~5 Fixations= ""
# la~6 Fixations= ""
# nécessité~7 Fixations= "11/"
# d'une~8 Fixations= "13/"
# réforme~9 Fixations= "13/"
# comprenant~10 Fixations= "15/"
# une~11 Fixations= ""
# aide~12 Fixations= ""
# individualisée~13 Fixations= "17/"
# aux~14 Fixations= ""
# élèves~15 Fixations= ""
# le~16 Fixations= ""
# syndicat~17 Fixations= ""
# des~18 Fixations= ""
# enseignants~19 Fixations= ""
# affirmait~20 Fixations= ""
# qu'il~21 Fixations= ""
# fallait~22 Fixations= ""
# abandonner~23 Fixations= ""
# ce~24 Fixations= ""
# projet~25 Fixations= ""
# et~26 Fixations= ""
# retravailler~27 Fixations= ""
# sur~28 Fixations= ""
# d'autres~29 Fixations= ""
# bases~30 Fixations= ""
%%
#  MALGRé[2] un ACCORD[3] DE[4] PRINCIPE[6] sur la NéCESSITé[11] D'UNE[13] RéFORME[13] COMPRENANT[15] une aide INDIVIDUALISéE[17] aux élèves le syndicat des enseignants affirmait qu'il fallait abandonner ce projet et retravailler sur d'autres bases
# s14 reforme_enseignement-f2 PercentageOfWordsProcessed= 0.290322580645161 PercentageOfWordsReallyProcessed= 0.642857142857143
