999 WORDS_vendredi~7 189
999 WORDFREQ_18.31 189
999 WORDSALL_dollar~6_vendredi~7 189
999 COSIND_0.04 189
999 COSGEN_0.04 189
101 ESRank1 189
999 WORDS_L'Euro~0 228
999 WORDFREQ_0 228
999 WORDSALL_L'Euro~0 228
999 COSIND_N/A 228
102 ESRank2 228
206 ESBackSacRegrLong-7-41 228
999 WORDS_L'Euro~0 199
999 WORDFREQ_0 199
999 WORDSALL_L'Euro~0 199
999 COSIND_N/A 199
103 ESRank3 199
203 ESBackSacRefixation 199
999 WORDS_poursuivait~1 278
999 WORDFREQ_15.41 278
999 WORDSALL_L'Euro~0_poursuivait~1 278
999 COSIND_0.03 278
999 COSGEN_0.03 278
104 ESRank4 278
201 ESForwSacShort 278
999 WORDS_poursuivait~1 246
999 WORDFREQ_15.41 246
999 WORDSALL_poursuivait~1 246
999 COSIND_0.03 246
999 COSGEN_0.03 246
105 ESRank5 246
203 ESBackSacRefixation 246
999 WORDS_poursuivait~1 206
999 WORDFREQ_15.41 206
999 WORDSALL_poursuivait~1 206
999 COSIND_0.03 206
999 COSGEN_0.03 206
106 ESRank6 206
203 ESBackSacRefixation 206
999 WORDS_remontée~3 242
999 WORDFREQ_1.49 242
999 WORDSALL_sa~2_remontée~3 242
999 COSIND_0.21 242
999 COSGEN_0.21 242
107 ESRank7 242
202 ESForwSacLong+2+4 242
999 WORDS_vendredi~7 117
999 WORDFREQ_18.31 117
999 WORDSALL_vendredi~7 117
999 COSIND_0.04 117
999 COSGEN_0.04 117
108 ESRank8 117
202 ESForwSacLong+4+16 117
999 WORDS_vendredi~7 349
999 WORDFREQ_18.31 349
999 WORDSALL_dollar~6_vendredi~7 349
999 COSIND_0.04 349
999 COSGEN_0.04 349
109 ESRank9 349
203 ESBackSacRefixation 349
999 WORDS_premiers~10 220
999 WORDFREQ_77.7 220
999 WORDSALL_dans~8_premiers~10 220
999 COSIND_0.01 220
999 COSGEN_0.01 220
110 ESRank10 220
202 ESForwSacLong+3+10 220
999 WORDS_premiers~10 220
999 WORDFREQ_77.7 220
999 WORDSALL_les~9_premiers~10 220
999 COSIND_0.01 220
999 COSGEN_0.01 220
111 ESRank11 220
203 ESBackSacRefixation 220
999 WORDS_échanges~11 180
999 WORDFREQ_8.45 180
999 WORDSALL_premiers~10_échanges~11 180
999 COSIND_0.09 180
999 COSGEN_0.09 180
112 ESRank12 180
201 ESForwSacShort 180
999 WORDS_atteignait~25 220
999 WORDFREQ_9.59 220
999 WORDSALL_atteignait~25 220
999 COSIND_0.12 220
999 COSGEN_0.12 220
113 ESRank13 220
202 ESForwSacLong+14+91 220
999 WORDS_sociale~23 324
999 WORDFREQ_24.8 324
999 WORDSALL_sociale~23 324
999 COSIND_0.04 324
999 COSGEN_0.04 324
114 ESRank14 324
206 ESBackSacRegrLong-2-4 324
999 WORDS_croissance~20 280
999 WORDFREQ_3.92 280
999 WORDSALL_croissance~20 280
999 COSIND_-0.06 280
999 COSGEN_-0.06 280
115 ESRank15 280
206 ESBackSacRegrLong-3-16 280
200 ESRankN 280
199 ESRankNMinus1 324
198 ESRankNMinus2 220
197 ESRankNMinus3 180
196 ESRankNMinus4 220
195 ESRankNMinus5 220
194 ESRankNMinus6 349
193 ESRankNMinus7 117
192 ESRankNMinus8 242
191 ESRankNMinus9 206
190 ESRankNMinus10 246
