999 WORDS_a~1 235
999 WORDFREQ_2926.69 235
999 WORDSALL_L'Irak~0_a~1 235
999 COSIND_N/A 235
101 ESRank1 235
999 WORDS_l'ONU~4 265
999 WORDFREQ_N/A 265
999 WORDSALL_à~3_l'ONU~4 265
999 COSIND_N/A 265
102 ESRank2 265
202 ESForwSacLong+3+13 265
999 WORDS_d'empêcher~5 198
999 WORDFREQ_70.2 198
999 WORDSALL_l'ONU~4_d'empêcher~5 198
999 COSIND_0.11 198
999 COSGEN_0.11 198
103 ESRank3 198
201 ESForwSacShort 198
999 WORDS_d'empêcher~5 129
999 WORDFREQ_70.2 129
999 WORDSALL_d'empêcher~5 129
999 COSIND_0.11 129
999 COSGEN_0.11 129
104 ESRank4 129
203 ESBackSacRefixation 129
999 WORDS_à~3 219
999 WORDFREQ_19209.05 219
999 WORDSALL_demandé~2_à~3 219
999 COSIND_N/A 219
105 ESRank5 219
206 ESBackSacRegrLong-2-7 219
999 WORDS_d'empêcher~5 121
999 WORDFREQ_70.2 121
999 WORDSALL_d'empêcher~5 121
999 COSIND_0.11 121
999 COSGEN_0.11 121
106 ESRank6 121
202 ESForwSacLong+2+7 121
999 WORDS_survols~7 158
999 WORDFREQ_0 158
999 WORDSALL_survols~7 158
999 COSIND_-0.04 158
999 COSGEN_-0.04 158
107 ESRank7 158
202 ESForwSacLong+2+5 158
999 WORDS_américains~8 103
999 WORDFREQ_18.78 103
999 WORDSALL_américains~8 103
999 COSIND_0.00 103
999 COSGEN_0.00 103
108 ESRank8 103
201 ESForwSacShort 103
999 WORDS_américains~8 115
999 WORDFREQ_18.78 115
999 WORDSALL_américains~8 115
999 COSIND_0.00 115
999 COSGEN_0.00 115
109 ESRank9 115
203 ESBackSacRefixation 115
999 WORDS_britanniques~10 325
999 WORDFREQ_20.74 325
999 WORDSALL_et~9_britanniques~10 325
999 COSIND_-0.08 325
999 COSGEN_-0.08 325
110 ESRank10 325
202 ESForwSacLong+2+4 325
999 WORDS_américains~8 106
999 WORDFREQ_18.78 106
999 WORDSALL_américains~8 106
999 COSIND_0.00 106
999 COSGEN_0.00 106
111 ESRank11 106
206 ESBackSacRegrLong-2-4 106
999 WORDS_britanniques~10 127
999 WORDFREQ_20.74 127
999 WORDSALL_britanniques~10 127
999 COSIND_-0.08 127
999 COSGEN_-0.08 127
112 ESRank12 127
202 ESForwSacLong+2+4 127
999 WORDS_à~14 170
999 WORDFREQ_19209.05 170
999 WORDSALL_permettre~13_à~14 170
999 COSIND_N/A 170
113 ESRank13 170
202 ESForwSacLong+4+17 170
999 WORDS_permettre~13 114
999 WORDFREQ_25.81 114
999 WORDSALL_permettre~13 114
999 COSIND_0.03 114
999 COSGEN_0.03 114
114 ESRank14 114
205 ESBackSacRegrShort 114
999 WORDS_avions~16 310
999 WORDFREQ_31.22 310
999 WORDSALL_ses~15_avions~16 310
999 COSIND_0.01 310
999 COSGEN_0.01 310
115 ESRank15 310
202 ESForwSacLong+3+8 310
999 WORDS_à~14 143
999 WORDFREQ_19209.05 143
999 WORDSALL_à~14 143
999 COSIND_N/A 143
116 ESRank16 143
206 ESBackSacRegrLong-2-5 143
999 WORDS_civils~17 137
999 WORDFREQ_5.41 137
999 WORDSALL_avions~16_civils~17 137
999 COSIND_0.24 137
999 COSGEN_0.24 137
117 ESRank17 137
202 ESForwSacLong+3+12 137
999 WORDS_à~14 214
999 WORDFREQ_19209.05 214
999 WORDSALL_permettre~13_à~14 214
999 COSIND_N/A 214
118 ESRank18 214
206 ESBackSacRegrLong-3-12 214
999 WORDS_transporter~19 121
999 WORDFREQ_10.34 121
999 WORDSALL_transporter~19 121
999 COSIND_0.02 121
999 COSGEN_0.02 121
119 ESRank19 121
202 ESForwSacLong+5+22 121
999 WORDS_scientifiques~21 248
999 WORDFREQ_0.74 248
999 WORDSALL_des~20_scientifiques~21 248
999 COSIND_-0.05 248
999 COSGEN_-0.05 248
120 ESRank20 248
202 ESForwSacLong+2+5 248
999 WORDS_étrangers~22 311
999 WORDFREQ_14.86 311
999 WORDSALL_scientifiques~21_étrangers~22 311
999 COSIND_-0.01 311
999 COSGEN_-0.01 311
201 ESForwSacShort 311
999 WORDS_scientifiques~21 126
999 WORDFREQ_0.74 126
999 WORDSALL_des~20_scientifiques~21 126
999 COSIND_-0.05 126
999 COSGEN_-0.05 126
205 ESBackSacRegrShort 126
999 WORDS_étrangers~22 112
999 WORDFREQ_14.86 112
999 WORDSALL_scientifiques~21_étrangers~22 112
999 COSIND_-0.01 112
999 COSGEN_-0.01 112
201 ESForwSacShort 112
999 WORDS_L'Irak~23 293
999 WORDFREQ_N/A 293
999 WORDSALL_L'Irak~23 293
999 COSIND_N/A 293
201 ESForwSacShort 293
999 WORDS_soumis~25 171
999 WORDFREQ_3.38 171
999 WORDSALL_est~24_soumis~25 171
999 COSIND_-0.02 171
999 COSGEN_-0.02 171
202 ESForwSacLong+2+5 171
999 WORDS_embargo~28 201
999 WORDFREQ_0.07 201
999 WORDSALL_à~26_embargo~28 201
999 COSIND_0.01 201
999 COSGEN_0.01 201
202 ESForwSacLong+3+7 201
999 WORDS_aérien~29 253
999 WORDFREQ_6.08 253
999 WORDSALL_embargo~28_aérien~29 253
999 COSIND_0.10 253
999 COSGEN_0.10 253
201 ESForwSacShort 253
999 WORDS_soumis~25 193
999 WORDFREQ_3.38 193
999 WORDSALL_L'Irak~23_soumis~25 193
999 COSIND_-0.02 193
999 COSGEN_-0.02 193
206 ESBackSacRegrLong-4-15 193
999 WORDS_1990~31 102
999 WORDFREQ_N/A 102
999 WORDSALL_depuis~30_1990~31 102
999 COSIND_N/A 102
202 ESForwSacLong+6+30 102
999 WORDS_1990~31 125
999 WORDFREQ_N/A 125
999 WORDSALL_depuis~30_1990~31 125
999 COSIND_N/A 125
203 ESBackSacRefixation 125
999 WORDS_à~26 202
999 WORDFREQ_19209.05 202
999 WORDSALL_soumis~25_à~26 202
999 COSIND_N/A 202
206 ESBackSacRegrLong-5-27 202
999 WORDS_soumis~25 198
999 WORDFREQ_3.38 198
999 WORDSALL_est~24_soumis~25 198
999 COSIND_-0.02 198
999 COSGEN_-0.02 198
205 ESBackSacRegrShort 198
999 WORDS_1990~31 140
999 WORDFREQ_N/A 140
999 WORDSALL_depuis~30_1990~31 140
999 COSIND_N/A 140
202 ESForwSacLong+6+30 140
200 ESRankN 140
199 ESRankNMinus1 198
198 ESRankNMinus2 202
197 ESRankNMinus3 125
196 ESRankNMinus4 102
195 ESRankNMinus5 193
194 ESRankNMinus6 253
193 ESRankNMinus7 201
192 ESRankNMinus8 171
191 ESRankNMinus9 293
190 ESRankNMinus10 112
