# 263 Fixation 1 (297,286.2): Le~0 malaise~1
# 354 Fixation 2 (430.2,283.3): des~2 personnels~3
# 196 Fixation 3 (382.6,287.1): malaise~1
# 429 Fixation 4 (597.2,213.3): porte~4
# 149 Fixation 5 (666.9,196.2):
# 185 Fixation 6 (695.7,192.7):
# 179 Fixation 7 (284.2,337.8): sur~6 réforme~8
# 152 Fixation 8 (372.3,325): une~7 réforme~8
# 188 Fixation 9 (509.2,336.3): de~9 statut~11
# 234 Fixation 10 (556.2,332.7): leur~10 statut~11
# 219 Fixation 11 (346.9,284.9): malaise~1
# 170 Fixation 12 (272.3,291.7): Le~0 malaise~1
# 145 Fixation 13 (730.8,313.7): également~5
# 146 Fixation 14 (677.1,309.5): porte~4 également~5
# 189 Fixation 15 (278.2,385.7): avertis~15
# 133 Fixation 16 (436.9,396.5): par~16 direction~18
# 212 Fixation 17 (676.2,365.3): Ils~12 ont~13
# 153 Fixation 18 (373.9,448.9): réforme~24
# 184 Fixation 19 (320.6,456.8): cette~23 réforme~24
# 193 Fixation 20 (427.8,459.1): réforme~24 juste~25
# 239 Fixation 21 (604.5,479.9): avant~26 réunion~28
# 259 Fixation 22 (322.7,520.2): comité~30
# 300 Fixation 23 (654,563.4): à~34 examen~36
%%
# Le~0 Fixations= "12/"
# malaise~1 Fixations= "12/"
# des~2 Fixations= "2/"
# personnels~3 Fixations= "2/"
# porte~4 Fixations= "14/"
# également~5 Fixations= "14/"
# sur~6 Fixations= "7/"
# une~7 Fixations= "8/"
# réforme~8 Fixations= "8/"
# de~9 Fixations= "9/"
# leur~10 Fixations= "10/"
# statut~11 Fixations= "10/"
# Ils~12 Fixations= "17/"
# ont~13 Fixations= "17/"
# été~14 Fixations= ""
# avertis~15 Fixations= "15/"
# par~16 Fixations= "16/"
# la~17 Fixations= ""
# direction~18 Fixations= "16/"
# de~19 Fixations= ""
# la~20 Fixations= ""
# teneur~21 Fixations= ""
# de~22 Fixations= ""
# cette~23 Fixations= "19/"
# réforme~24 Fixations= "20/"
# juste~25 Fixations= "20/"
# avant~26 Fixations= "21/"
# la~27 Fixations= ""
# réunion~28 Fixations= "21/"
# du~29 Fixations= ""
# comité~30 Fixations= "22/"
# qui~31 Fixations= ""
# devait~32 Fixations= ""
# procéder~33 Fixations= ""
# à~34 Fixations= "23/"
# son~35 Fixations= ""
# examen~36 Fixations= "23/"
%%
#  LE[12] MALAISE[12] DES[2] PERSONNELS[2] PORTE[14] éGALEMENT[14] SUR[7] UNE[8] RéFORME[8] DE[9] LEUR[10] STATUT[10] ILS[17] ONT[17] été AVERTIS[15] PAR[16] la DIRECTION[16] de la teneur de CETTE[19] RéFORME[20] JUSTE[20] AVANT[21] la RéUNION[21] du COMITé[22] qui devait procéder à[23] son EXAMEN[23]
# s20 greve_cheminot-m2 PercentageOfWordsProcessed= 0.675675675675676 PercentageOfWordsReallyProcessed= 0.675675675675676
