# 160 Fixation 1 (341.2,286): millier~1
# 407 Fixation 2 (433.8,287.5): d'agriculteurs~2
# 178 Fixation 3 (305.2,294.6): Un~0 millier~1
# 172 Fixation 4 (635,293): ont~3 paralysé~4
# 165 Fixation 5 (375.2,357.5): d'Auch~7
# 155 Fixation 6 (495.4,356.8): pour~8 exprimer~9
# 168 Fixation 7 (253.7,351.8): centre~6
# 115 Fixation 8 (476.1,459): l'appel~21
# 184 Fixation 9 (509.5,433): de~15 politique~17
# 205 Fixation 10 (423.8,470): à~20 l'appel~21
# 158 Fixation 11 (570.8,483.8): de~22 Fédération~24
# 153 Fixation 12 (369.7,523.2): Départementale~25
# 150 Fixation 13 (286.4,535.1): Départementale~25
# 149 Fixation 14 (503.8,532.7): des~26 Syndicats~27
# 89 Fixation 15 (651.4,542.4): d'Exploitants~28
%%
# Un~0 Fixations= "3/"
# millier~1 Fixations= "3/"
# d'agriculteurs~2 Fixations= "2/"
# ont~3 Fixations= "4/"
# paralysé~4 Fixations= "4/"
# le~5 Fixations= ""
# centre~6 Fixations= "7/"
# d'Auch~7 Fixations= "5/"
# pour~8 Fixations= "6/"
# exprimer~9 Fixations= "6/"
# leur~10 Fixations= ""
# inquiétude~11 Fixations= ""
# sur~12 Fixations= ""
# la~13 Fixations= ""
# réforme~14 Fixations= ""
# de~15 Fixations= "9/"
# la~16 Fixations= ""
# politique~17 Fixations= "9/"
# agricole~18 Fixations= ""
# commune~19 Fixations= ""
# à~20 Fixations= "10/"
# l'appel~21 Fixations= "10/"
# de~22 Fixations= "11/"
# la~23 Fixations= ""
# Fédération~24 Fixations= "11/"
# Départementale~25 Fixations= "13/"
# des~26 Fixations= "14/"
# Syndicats~27 Fixations= "14/"
# d'Exploitants~28 Fixations= "15/"
# Agricoles~29 Fixations= ""
%%
#  UN[3] MILLIER[3] D'AGRICULTEURS[2] ONT[4] PARALYSé[4] le CENTRE[7] D'AUCH[5] POUR[6] EXPRIMER[6] leur inquiétude sur la réforme DE[9] la POLITIQUE[9] agricole commune à[10] L'APPEL[10] DE[11] la FéDéRATION[11] DéPARTEMENTALE[13] DES[14] SYNDICATS[14] D'EXPLOITANTS[15] Agricoles
# s18 syndicat_agricole-f1 PercentageOfWordsProcessed= 0.633333333333333 PercentageOfWordsReallyProcessed= 0.655172413793103
