999 WORDS_Destiné~0 138
999 WORDFREQ_11.35 138
999 WORDSALL_Destiné~0 138
999 COSIND_0.08 138
999 COSGEN_0.08 138
101 ESRank1 138
999 WORDS_récompenser~2 163
999 WORDFREQ_2.77 163
999 WORDSALL_récompenser~2 163
999 COSIND_0.74 163
999 COSGEN_0.74 163
102 ESRank2 163
202 ESForwSacLong+2+4 163
999 WORDS_oeuvre~4 151
999 WORDFREQ_68.11 151
999 WORDSALL_oeuvre~4 151
999 COSIND_0.05 151
999 COSGEN_0.05 151
103 ESRank3 151
202 ESForwSacLong+2+5 151
999 WORDS_fiction~6 90
999 WORDFREQ_4.32 90
999 WORDSALL_de~5_fiction~6 90
999 COSIND_0.09 90
999 COSGEN_0.09 90
104 ESRank4 90
202 ESForwSacLong+2+4 90
999 WORDS_à~1 237
999 WORDFREQ_19209.05 237
999 WORDSALL_Destiné~0_à~1 237
999 COSIND_N/A 237
105 ESRank5 237
206 ESBackSacRegrLong-5-28 237
999 WORDS_écrite~10 232
999 WORDFREQ_2.64 232
999 WORDSALL_écrite~10 232
999 COSIND_0.09 232
999 COSGEN_0.09 232
106 ESRank6 232
202 ESForwSacLong+9+54 232
999 WORDS_prose~9 148
999 WORDFREQ_3.31 148
999 WORDSALL_prose~9 148
999 COSIND_0.19 148
999 COSGEN_0.19 148
107 ESRank7 148
205 ESBackSacRegrShort 148
999 WORDS_vingt-cinq~17 167
999 WORDFREQ_28.18 167
999 WORDSALL_de~16_vingt-cinq~17 167
999 COSIND_N/A 167
108 ESRank8 167
202 ESForwSacLong+8+35 167
999 WORDS_quinzième~20 202
999 WORDFREQ_2.03 202
999 WORDSALL_le~19_quinzième~20 202
999 COSIND_0.05 202
999 COSGEN_0.05 202
109 ESRank9 202
202 ESForwSacLong+3+8 202
999 WORDS_prix~21 96
999 WORDFREQ_107.5 96
999 WORDSALL_quinzième~20_prix~21 96
999 COSIND_0.98 96
999 COSGEN_0.98 96
110 ESRank10 96
201 ESForwSacShort 96
999 WORDS_vingt-cinq~17 225
999 WORDFREQ_28.18 225
999 WORDSALL_moins~15_vingt-cinq~17 225
999 COSIND_N/A 225
111 ESRank11 225
206 ESBackSacRegrLong-4-19 225
999 WORDS_décerné~27 164
999 WORDFREQ_0.61 164
999 WORDSALL_été~26_décerné~27 164
999 COSIND_0.88 164
999 COSGEN_0.88 164
112 ESRank12 164
202 ESForwSacLong+10+51 164
999 WORDS_Bernard~29 147
999 WORDFREQ_N/A 147
999 WORDSALL_à~28_Bernard~29 147
999 COSIND_N/A 147
113 ESRank13 147
202 ESForwSacLong+2+4 147
999 WORDS_Magnan~30 140
999 WORDFREQ_N/A 140
999 WORDSALL_Magnan~30 140
999 COSIND_N/A 140
114 ESRank14 140
201 ESForwSacShort 140
999 WORDS_Magnan~30 229
999 WORDFREQ_N/A 229
999 WORDSALL_Magnan~30 229
999 COSIND_N/A 229
115 ESRank15 229
203 ESBackSacRefixation 229
200 ESRankN 229
199 ESRankNMinus1 140
198 ESRankNMinus2 147
197 ESRankNMinus3 164
196 ESRankNMinus4 225
195 ESRankNMinus5 96
194 ESRankNMinus6 202
193 ESRankNMinus7 167
192 ESRankNMinus8 148
191 ESRankNMinus9 232
190 ESRankNMinus10 237
