999 WORDS_L'artillerie~0 105
999 WORDFREQ_17.36 105
999 WORDSALL_L'artillerie~0 105
999 COSIND_-0.03 105
999 COSGEN_-0.03 105
101 ESRank1 105
999 WORDS_L'artillerie~0 132
999 WORDFREQ_17.36 132
999 WORDSALL_L'artillerie~0 132
999 COSIND_-0.03 132
999 COSGEN_-0.03 132
102 ESRank2 132
203 ESBackSacRefixation 132
999 WORDS_L'artillerie~0 145
999 WORDFREQ_17.36 145
999 WORDSALL_L'artillerie~0 145
999 COSIND_-0.03 145
999 COSGEN_-0.03 145
103 ESRank3 145
203 ESBackSacRefixation 145
999 WORDS_L'artillerie~0 114
999 WORDFREQ_17.36 114
999 WORDSALL_L'artillerie~0 114
999 COSIND_-0.03 114
999 COSGEN_-0.03 114
104 ESRank4 114
203 ESBackSacRefixation 114
999 WORDS_israélienne~1 266
999 WORDFREQ_0.07 266
999 WORDSALL_israélienne~1 266
999 COSIND_0.11 266
999 COSGEN_0.11 266
105 ESRank5 266
201 ESForwSacShort 266
999 WORDS_a~2 153
999 WORDFREQ_2926.69 153
999 WORDSALL_a~2 153
999 COSIND_N/A 153
106 ESRank6 153
201 ESForwSacShort 153
999 WORDS_massivement~3 131
999 WORDFREQ_1.01 131
999 WORDSALL_a~2_massivement~3 131
999 COSIND_0.08 131
999 COSGEN_0.08 131
107 ESRank7 131
201 ESForwSacShort 131
999 WORDS_bombardé~4 239
999 WORDFREQ_1.42 239
999 WORDSALL_bombardé~4 239
999 COSIND_0.10 239
999 COSGEN_0.10 239
108 ESRank8 239
201 ESForwSacShort 239
999 WORDS_régions~6 184
999 WORDFREQ_14.26 184
999 WORDSALL_des~5_régions~6 184
999 COSIND_0.12 184
999 COSGEN_0.12 184
109 ESRank9 184
202 ESForwSacLong+2+5 184
999 WORDS_régions~6 118
999 WORDFREQ_14.26 118
999 WORDSALL_régions~6 118
999 COSIND_0.12 118
999 COSGEN_0.12 118
110 ESRank10 118
203 ESBackSacRefixation 118
999 WORDS_supposées~7 157
999 WORDFREQ_0.54 157
999 WORDSALL_supposées~7 157
999 COSIND_0.00 157
999 COSGEN_0.00 157
111 ESRank11 157
201 ESForwSacShort 157
999 WORDS_être~8 150
999 WORDFREQ_505.61 150
999 WORDSALL_supposées~7_être~8 150
999 COSIND_0.01 150
999 COSGEN_0.01 150
112 ESRank12 150
201 ESForwSacShort 150
999 WORDS_être~8 105
999 WORDFREQ_505.61 105
999 WORDSALL_être~8 105
999 COSIND_0.01 105
999 COSGEN_0.01 105
113 ESRank13 105
203 ESBackSacRefixation 105
999 WORDS_bastions~10 127
999 WORDFREQ_0.81 127
999 WORDSALL_bastions~10 127
999 COSIND_-0.02 127
999 COSGEN_-0.02 127
114 ESRank14 127
202 ESForwSacLong+2+5 127
999 WORDS_Hezbollah~12 254
999 WORDFREQ_N/A 254
999 WORDSALL_du~11_Hezbollah~12 254
999 COSIND_N/A 254
115 ESRank15 254
202 ESForwSacLong+2+4 254
999 WORDS_Liban~14 225
999 WORDFREQ_N/A 225
999 WORDSALL_au~13_Liban~14 225
999 COSIND_N/A 225
116 ESRank16 225
202 ESForwSacLong+2+4 225
999 WORDS_tirs~16 156
999 WORDFREQ_2.84 156
999 WORDSALL_Liban~14_tirs~16 156
999 COSIND_-0.09 156
999 COSGEN_-0.09 156
117 ESRank17 156
202 ESForwSacLong+2+5 156
999 WORDS_tirs~16 429
999 WORDFREQ_2.84 429
999 WORDSALL_Ces~15_tirs~16 429
999 COSIND_-0.09 429
999 COSGEN_-0.09 429
118 ESRank18 429
203 ESBackSacRefixation 429
999 WORDS_sont~17 121
999 WORDFREQ_713.18 121
999 WORDSALL_sont~17 121
999 COSIND_0.01 121
999 COSGEN_0.01 121
119 ESRank19 121
201 ESForwSacShort 121
999 WORDS_sont~17 151
999 WORDFREQ_713.18 151
999 WORDSALL_sont~17 151
999 COSIND_0.01 151
999 COSGEN_0.01 151
120 ESRank20 151
203 ESBackSacRefixation 151
999 WORDS_riposte~19 192
999 WORDFREQ_2.64 192
999 WORDSALL_une~18_riposte~19 192
999 COSIND_-0.02 192
999 COSGEN_-0.02 192
202 ESForwSacLong+2+5 192
999 WORDS_série~22 229
999 WORDFREQ_35.41 229
999 WORDSALL_une~21_série~22 229
999 COSIND_-0.01 229
999 COSGEN_-0.01 229
202 ESForwSacLong+3+8 229
999 WORDS_d'attaques~23 202
999 WORDFREQ_7.09 202
999 WORDSALL_d'attaques~23 202
999 COSIND_-0.02 202
999 COSGEN_-0.02 202
201 ESForwSacShort 202
999 WORDS_Liban~14 171
999 WORDFREQ_N/A 171
999 WORDSALL_au~13_Liban~14 171
999 COSIND_N/A 171
206 ESBackSacRegrLong-9-41 171
999 WORDS_Liban~14 82
999 WORDFREQ_N/A 82
999 WORDSALL_au~13_Liban~14 82
999 COSIND_N/A 82
203 ESBackSacRefixation 82
999 WORDS_meurtrières~24 154
999 WORDFREQ_1.89 154
999 WORDSALL_meurtrières~24 154
999 COSIND_0.03 154
999 COSGEN_0.03 154
202 ESForwSacLong+10+52 154
999 WORDS_milice~27 248
999 WORDFREQ_2.43 248
999 WORDSALL_la~26_milice~27 248
999 COSIND_-0.10 248
999 COSGEN_-0.10 248
202 ESForwSacLong+3+7 248
200 ESRankN 248
199 ESRankNMinus1 154
198 ESRankNMinus2 82
197 ESRankNMinus3 171
196 ESRankNMinus4 202
195 ESRankNMinus5 229
194 ESRankNMinus6 192
193 ESRankNMinus7 151
192 ESRankNMinus8 121
191 ESRankNMinus9 429
190 ESRankNMinus10 156
