999 WORDS_pollution~2 152
999 WORDFREQ_1.15 152
999 WORDSALL_la~1_pollution~2 152
999 COSIND_0.01 152
999 COSGEN_0.01 152
101 ESRank1 152
999 WORDS_pollution~2 110
999 WORDFREQ_1.15 110
999 WORDSALL_pollution~2 110
999 COSIND_0.01 110
999 COSGEN_0.01 110
102 ESRank2 110
203 ESBackSacRefixation 110
999 WORDS_pose~6 172
999 WORDFREQ_48.85 172
999 WORDSALL_surface~4_pose~6 172
999 COSIND_0.07 172
999 COSGEN_0.07 172
103 ESRank3 172
202 ESForwSacLong+4+15 172
999 WORDS_pose~6 218
999 WORDFREQ_48.85 218
999 WORDSALL_se~5_pose~6 218
999 COSIND_0.07 218
999 COSGEN_0.07 218
104 ESRank4 218
203 ESBackSacRefixation 218
999 WORDS_problème~9 199
999 WORDFREQ_55.2 199
999 WORDSALL_aussi~7_problème~9 199
999 COSIND_0.05 199
999 COSGEN_0.05 199
105 ESRank5 199
202 ESForwSacLong+3+10 199
999 WORDS_tonnes~11 128
999 WORDFREQ_11.55 128
999 WORDSALL_problème~9_tonnes~11 128
999 COSIND_0.15 128
999 COSGEN_0.15 128
106 ESRank6 128
202 ESForwSacLong+2+5 128
999 WORDS_pétrole~13 178
999 WORDFREQ_14.73 178
999 WORDSALL_tonnes~11_pétrole~13 178
999 COSIND_0.55 178
999 COSGEN_0.55 178
107 ESRank7 178
202 ESForwSacLong+2+4 178
999 WORDS_contenues~15 232
999 WORDFREQ_0.74 232
999 WORDSALL_encore~14_contenues~15 232
999 COSIND_0.02 232
999 COSGEN_0.02 232
108 ESRank8 232
202 ESForwSacLong+2+8 232
999 WORDS_soutes~18 155
999 WORDFREQ_1.22 155
999 WORDSALL_les~17_soutes~18 155
999 COSIND_0.04 155
999 COSGEN_0.04 155
109 ESRank9 155
202 ESForwSacLong+3+10 155
999 WORDS_navire~20 144
999 WORDFREQ_28.04 144
999 WORDSALL_du~19_navire~20 144
999 COSIND_0.05 144
999 COSGEN_0.05 144
110 ESRank10 144
202 ESForwSacLong+2+4 144
999 WORDS_sondages~22 250
999 WORDFREQ_1.42 250
999 WORDSALL_sondages~22 250
999 COSIND_-0.03 250
999 COSGEN_-0.03 250
111 ESRank11 250
202 ESForwSacLong+2+5 250
999 WORDS_effectués~23 150
999 WORDFREQ_0.61 150
999 WORDSALL_effectués~23 150
999 COSIND_-0.04 150
999 COSGEN_-0.04 150
112 ESRank12 150
201 ESForwSacShort 150
200 ESRankN 150
199 ESRankNMinus1 250
198 ESRankNMinus2 144
197 ESRankNMinus3 155
196 ESRankNMinus4 232
195 ESRankNMinus5 178
194 ESRankNMinus6 128
193 ESRankNMinus7 199
192 ESRankNMinus8 218
191 ESRankNMinus9 172
190 ESRankNMinus10 110
