999 WORDS_gouvernements~1 115
999 WORDFREQ_12.3 115
999 WORDSALL_Nos~0_gouvernements~1 115
999 COSIND_0.03 115
999 COSGEN_0.03 115
101 ESRank1 115
999 WORDS_gouvernements~1 152
999 WORDFREQ_12.3 152
999 WORDSALL_Nos~0_gouvernements~1 152
999 COSIND_0.03 152
999 COSGEN_0.03 152
102 ESRank2 152
203 ESBackSacRefixation 152
999 WORDS_coopéreront~2 213
999 WORDFREQ_0 213
999 WORDSALL_coopéreront~2 213
999 COSIND_0.16 213
999 COSGEN_0.16 213
103 ESRank3 213
201 ESForwSacShort 213
999 WORDS_avec~3 166
999 WORDFREQ_4000.41 166
999 WORDSALL_avec~3 166
999 COSIND_N/A 166
104 ESRank4 166
201 ESForwSacShort 166
999 WORDS_Tribunal~5 189
999 WORDFREQ_15 189
999 WORDSALL_Tribunal~5 189
999 COSIND_0.81 189
999 COSGEN_0.81 189
105 ESRank5 189
202 ESForwSacLong+2+4 189
999 WORDS_Tribunal~5 187
999 WORDFREQ_15 187
999 WORDSALL_Tribunal~5 187
999 COSIND_0.81 187
999 COSGEN_0.81 187
106 ESRank6 187
203 ESBackSacRefixation 187
999 WORDS_pénal~6 144
999 WORDFREQ_2.91 144
999 WORDSALL_Tribunal~5_pénal~6 144
999 COSIND_0.53 144
999 COSGEN_0.53 144
107 ESRank7 144
201 ESForwSacShort 144
999 WORDS_international~7 197
999 WORDFREQ_9.12 197
999 WORDSALL_international~7 197
999 COSIND_0.87 197
999 COSGEN_0.87 197
108 ESRank8 197
201 ESForwSacShort 197
999 WORDS_l'ex-Yougoslavie~9 201
999 WORDFREQ_N/A 201
999 WORDSALL_l'ex-Yougoslavie~9 201
999 COSIND_N/A 201
109 ESRank9 201
202 ESForwSacLong+2+6 201
999 WORDS_l'aidant~11 165
999 WORDFREQ_11.49 165
999 WORDSALL_l'aidant~11 165
999 COSIND_0.10 165
999 COSGEN_0.10 165
110 ESRank10 165
202 ESForwSacLong+2+4 165
999 WORDS_enquêter~13 178
999 WORDFREQ_1.35 178
999 WORDSALL_à~12_enquêter~13 178
999 COSIND_0.20 178
999 COSGEN_0.20 178
111 ESRank11 178
202 ESForwSacLong+2+4 178
200 ESRankN 178
199 ESRankNMinus1 165
198 ESRankNMinus2 201
197 ESRankNMinus3 197
196 ESRankNMinus4 144
195 ESRankNMinus5 187
194 ESRankNMinus6 189
193 ESRankNMinus7 166
192 ESRankNMinus8 213
191 ESRankNMinus9 152
190 ESRankNMinus10 115
