999 WORDS_miraculé~1 132
999 WORDFREQ_0.41 132
999 WORDSALL_Un~0_miraculé~1 132
999 COSIND_0.11 132
999 COSGEN_0.11 132
101 ESRank1 132
999 WORDS_miraculé~1 151
999 WORDFREQ_0.41 151
999 WORDSALL_Un~0_miraculé~1 151
999 COSIND_0.11 151
999 COSGEN_0.11 151
102 ESRank2 151
203 ESBackSacRefixation 151
999 WORDS_miraculé~1 141
999 WORDFREQ_0.41 141
999 WORDSALL_Un~0_miraculé~1 141
999 COSIND_0.11 141
999 COSGEN_0.11 141
103 ESRank3 141
203 ESBackSacRefixation 141
999 WORDS_l'aviation~3 139
999 WORDFREQ_13.38 139
999 WORDSALL_de~2_l'aviation~3 139
999 COSIND_0.29 139
999 COSGEN_0.29 139
104 ESRank4 139
202 ESForwSacLong+2+4 139
999 WORDS_l'aviation~3 212
999 WORDFREQ_13.38 212
999 WORDSALL_de~2_l'aviation~3 212
999 COSIND_0.29 212
999 COSGEN_0.29 212
105 ESRank5 212
203 ESBackSacRefixation 212
999 WORDS_jeune~5 225
999 WORDFREQ_432.64 225
999 WORDSALL_un~4_jeune~5 225
999 COSIND_0.02 225
999 COSGEN_0.02 225
106 ESRank6 225
202 ESForwSacLong+2+4 225
999 WORDS_passager~6 203
999 WORDFREQ_3.24 203
999 WORDSALL_passager~6 203
999 COSIND_0.22 203
999 COSGEN_0.22 203
107 ESRank7 203
201 ESForwSacShort 203
999 WORDS_clandestin~7 123
999 WORDFREQ_5.07 123
999 WORDSALL_clandestin~7 123
999 COSIND_-0.05 123
999 COSGEN_-0.05 123
108 ESRank8 123
201 ESForwSacShort 123
999 WORDS_fait~9 201
999 WORDFREQ_1459.26 201
999 WORDSALL_a~8_fait~9 201
999 COSIND_0.03 201
999 COSGEN_0.03 201
109 ESRank9 201
202 ESForwSacLong+2+3 201
999 WORDS_trajet~11 137
999 WORDFREQ_14.66 137
999 WORDSALL_fait~9_trajet~11 137
999 COSIND_0.06 137
999 COSGEN_0.06 137
110 ESRank10 137
202 ESForwSacLong+2+4 137
999 WORDS_Dakar-Lyon~12 192
999 WORDFREQ_N/A 192
999 WORDSALL_Dakar-Lyon~12 192
999 COSIND_N/A 192
111 ESRank11 192
201 ESForwSacShort 192
999 WORDS_mardi~13 189
999 WORDFREQ_15.47 189
999 WORDSALL_mardi~13 189
999 COSIND_-0.06 189
999 COSGEN_-0.06 189
112 ESRank12 189
201 ESForwSacShort 189
999 WORDS_d'atterrissage~18 189
999 WORDFREQ_2.16 189
999 WORDSALL_d'atterrissage~18 189
999 COSIND_0.22 189
999 COSGEN_0.22 189
113 ESRank13 189
202 ESForwSacLong+5+23 189
999 WORDS_d'atterrissage~18 92
999 WORDFREQ_2.16 92
999 WORDSALL_d'atterrissage~18 92
999 COSIND_0.22 92
999 COSGEN_0.22 92
114 ESRank14 92
203 ESBackSacRefixation 92
999 WORDS_Airbus~20 154
999 WORDFREQ_0 154
999 WORDSALL_d'un~19_Airbus~20 154
999 COSIND_N/A 154
115 ESRank15 154
202 ESForwSacLong+2+6 154
200 ESRankN 154
199 ESRankNMinus1 92
198 ESRankNMinus2 189
197 ESRankNMinus3 189
196 ESRankNMinus4 192
195 ESRankNMinus5 137
194 ESRankNMinus6 201
193 ESRankNMinus7 123
192 ESRankNMinus8 203
191 ESRankNMinus9 225
190 ESRankNMinus10 212
