999 WORDS_combats~1 121
999 WORDFREQ_20.2 121
999 WORDSALL_Ces~0_combats~1 121
999 COSIND_-0.07 121
999 COSGEN_-0.07 121
101 ESRank1 121
999 WORDS_combats~1 126
999 WORDFREQ_20.2 126
999 WORDSALL_combats~1 126
999 COSIND_-0.07 126
999 COSGEN_-0.07 126
102 ESRank2 126
203 ESBackSacRefixation 126
999 WORDS_remettent~4 134
999 WORDFREQ_2.91 134
999 WORDSALL_qui~2_remettent~4 134
999 COSIND_-0.03 134
999 COSGEN_-0.03 134
103 ESRank3 134
202 ESForwSacLong+3+8 134
999 WORDS_remettent~4 160
999 WORDFREQ_2.91 160
999 WORDSALL_remettent~4 160
999 COSIND_-0.03 160
999 COSGEN_-0.03 160
104 ESRank4 160
203 ESBackSacRefixation 160
999 WORDS_cause~7 157
999 WORDFREQ_188.04 157
999 WORDSALL_pas~5_cause~7 157
999 COSIND_-0.04 157
999 COSGEN_-0.04 157
105 ESRank5 157
202 ESForwSacLong+3+8 157
999 WORDS_suprématie~9 131
999 WORDFREQ_1.08 131
999 WORDSALL_la~8_suprématie~9 131
999 COSIND_0.02 131
999 COSGEN_0.02 131
106 ESRank6 131
202 ESForwSacLong+2+4 131
999 WORDS_talibans~11 113
999 WORDFREQ_0 113
999 WORDSALL_des~10_talibans~11 113
999 COSIND_N/A 113
107 ESRank7 113
202 ESForwSacLong+2+5 113
999 WORDS_talibans~11 187
999 WORDFREQ_0 187
999 WORDSALL_des~10_talibans~11 187
999 COSIND_N/A 187
108 ESRank8 187
203 ESBackSacRefixation 187
999 WORDS_l'Afghanistan~13 124
999 WORDFREQ_N/A 124
999 WORDSALL_l'Afghanistan~13 124
999 COSIND_N/A 124
109 ESRank9 124
202 ESForwSacLong+2+5 124
999 WORDS_l'Afghanistan~13 164
999 WORDFREQ_N/A 164
999 WORDSALL_l'Afghanistan~13 164
999 COSIND_N/A 164
110 ESRank10 164
203 ESBackSacRefixation 164
999 WORDS_prouvent~14 175
999 WORDFREQ_1.35 175
999 WORDSALL_prouvent~14 175
999 COSIND_0.02 175
999 COSGEN_0.02 175
111 ESRank11 175
201 ESForwSacShort 175
999 WORDS_l'état-major~16 148
999 WORDFREQ_18.31 148
999 WORDSALL_que~15_l'état-major~16 148
999 COSIND_N/A 148
112 ESRank12 148
202 ESForwSacLong+2+5 148
999 WORDS_l'état-major~16 127
999 WORDFREQ_18.31 127
999 WORDSALL_l'état-major~16 127
999 COSIND_N/A 127
113 ESRank13 127
203 ESBackSacRefixation 127
999 WORDS_peut~19 138
999 WORDFREQ_508.99 138
999 WORDSALL_et~18_peut~19 138
999 COSIND_0.03 138
999 COSGEN_0.03 138
114 ESRank14 138
202 ESForwSacLong+3+9 138
999 WORDS_maintenir~20 195
999 WORDFREQ_21.76 195
999 WORDSALL_maintenir~20 195
999 COSIND_-0.03 195
999 COSGEN_-0.03 195
115 ESRank15 195
201 ESForwSacShort 195
999 WORDS_adversaires~25 185
999 WORDFREQ_9.19 185
999 WORDSALL_adversaires~25 185
999 COSIND_0.04 185
999 COSGEN_0.04 185
116 ESRank16 185
202 ESForwSacLong+5+21 185
999 WORDS_pression~22 165
999 WORDFREQ_19.05 165
999 WORDSALL_pression~22 165
999 COSIND_0.00 165
999 COSGEN_0.00 165
117 ESRank17 165
206 ESBackSacRegrLong-3-9 165
999 WORDS_pression~22 161
999 WORDFREQ_19.05 161
999 WORDSALL_la~21_pression~22 161
999 COSIND_0.00 161
999 COSGEN_0.00 161
118 ESRank18 161
203 ESBackSacRefixation 161
200 ESRankN 161
199 ESRankNMinus1 165
198 ESRankNMinus2 185
197 ESRankNMinus3 195
196 ESRankNMinus4 138
195 ESRankNMinus5 127
194 ESRankNMinus6 148
193 ESRankNMinus7 175
192 ESRankNMinus8 164
191 ESRankNMinus9 124
190 ESRankNMinus10 187
