# 163 Fixation 1 (323.3,329): Le~0 candidat~1 soutien~6
# 267 Fixation 2 (309.5,284.2): Le~0 candidat~1
# 359 Fixation 3 (443,278): conservateur~2
# 326 Fixation 4 (608.5,264.6): a~3 bénéficié~4
# 303 Fixation 5 (627.5,333.9): a~3 bénéficié~4 d'évangélistes~10
# 214 Fixation 6 (531.6,424.1): conservateurs~14
# 174 Fixation 7 (512.8,478): critiqué~20
# 306 Fixation 8 (365.6,403.2): soutien~6 fort~8 religieux~13
# 165 Fixation 9 (343.7,457.3): de~12 religieux~13 État~18
# 131 Fixation 10 (460.9,582.6): représentativité~25 à~26
%%
# Le~0 Fixations= "2/"
# candidat~1 Fixations= "2/"
# conservateur~2 Fixations= "3/"
# a~3 Fixations= "5/"
# bénéficié~4 Fixations= "5/"
# du~5 Fixations= ""
# soutien~6 Fixations= "8/"
# du~7 Fixations= ""
# fort~8 Fixations= "8/"
# contingent~9 Fixations= ""
# d'évangélistes~10 Fixations= "5/"
# et~11 Fixations= ""
# de~12 Fixations= "9/"
# religieux~13 Fixations= "9/"
# conservateurs~14 Fixations= "6/"
# qui~15 Fixations= ""
# habitent~16 Fixations= ""
# cet~17 Fixations= ""
# État~18 Fixations= "9/"
# souvent~19 Fixations= ""
# critiqué~20 Fixations= "7/"
# pour~21 Fixations= ""
# son~22 Fixations= ""
# manque~23 Fixations= ""
# de~24 Fixations= ""
# représentativité~25 Fixations= "10/"
# à~26 Fixations= "10/"
# l'échelon~27 Fixations= ""
# national~28 Fixations= ""
%%
#  LE[2] CANDIDAT[2] CONSERVATEUR[3] A[5] BéNéFICIé[5] du SOUTIEN[8] du FORT[8] contingent D'éVANGéLISTES[5] et DE[9] RELIGIEUX[9] CONSERVATEURS[6] qui habitent cet ÉTAT[9] souvent CRITIQUé[7] pour son manque de REPRéSENTATIVITé[10] à[10] l'échelon national
# s14 victoire_footballeurs-a2 PercentageOfWordsProcessed= 0.517241379310345 PercentageOfWordsReallyProcessed= 0.555555555555556
