# 145 Fixation 1 (271,279.8): L'allocation~0
# 92 Fixation 2 (345.6,275.7): L'allocation~0
# 168 Fixation 3 (477.6,274.8): de~1 rentrée~2
# 113 Fixation 4 (528.2,275.8): rentrée~2
# 154 Fixation 5 (584.7,281.2): scolaire~3
# 218 Fixation 6 (688,281.2): scolaire~3 concerne~4
# 161 Fixation 7 (261.2,335.5): 350~5
# 271 Fixation 8 (240.9,330.4): 350~5
# 174 Fixation 9 (365.9,334): 000~6 familles~7
# 146 Fixation 10 (425.4,405.6): Cette~13 prestation~14
%%
# L'allocation~0 Fixations= "2/"
# de~1 Fixations= "3/"
# rentrée~2 Fixations= "4/"
# scolaire~3 Fixations= "6/"
# concerne~4 Fixations= "6/"
# 350~5 Fixations= "8/"
# 000~6 Fixations= "9/"
# familles~7 Fixations= "9/"
# modestes~8 Fixations= ""
# ayant~9 Fixations= ""
# un~10 Fixations= ""
# enfant~11 Fixations= ""
# scolarisé~12 Fixations= ""
# Cette~13 Fixations= "10/"
# prestation~14 Fixations= "10/"
# pourrait~15 Fixations= ""
# être~16 Fixations= ""
# prochainement~17 Fixations= ""
# étendue~18 Fixations= ""
%%
#  L'ALLOCATION[2] DE[3] RENTRéE[4] SCOLAIRE[6] CONCERNE[6] 350[8] 000[9] FAMILLES[9] modestes ayant un enfant scolarisé CETTE[10] PRESTATION[10] pourrait être prochainement étendue
# s06 allocation_familiale-f2 PercentageOfWordsProcessed= 0.526315789473684 PercentageOfWordsReallyProcessed= 0.666666666666667
