# 137 Fixation 1 (254.7,269.3): Après~0
# 187 Fixation 2 (462.9,319.6): et~7 corps~9
# 84 Fixation 3 (477.3,334.4): le~8 corps~9
# 137 Fixation 4 (574.6,344.6): enseignant~10
# 243 Fixation 5 (652.9,277): gouvernements~5
# 136 Fixation 6 (311.5,331.5): successifs~6
# 153 Fixation 7 (263,344.4): successifs~6
# 123 Fixation 8 (592.4,367.3): enseignant~10
# 142 Fixation 9 (675.9,361.9): enseignant~10 ont~11
# 194 Fixation 10 (356.3,408.9): répondre~13 défi~15
# 101 Fixation 11 (262.7,422.8): répondre~13
# 169 Fixation 12 (533.2,404.9): démographique~16
# 163 Fixation 13 (686.8,415.1): le~17 ministre~18
# 126 Fixation 14 (350.4,466): rappelé~20
# 149 Fixation 15 (268.3,496.6): a~19
# 216 Fixation 16 (575.5,461.4): devait~23
# 142 Fixation 17 (639.5,475.2): devait~23 à~24
# 204 Fixation 18 (296.7,554.1): garantir~26
# 152 Fixation 19 (433.2,544.9): la~27 qualité~28
%%
# Après~0 Fixations= "1/"
# avoir~1 Fixations= ""
# rappelé~2 Fixations= ""
# que~3 Fixations= ""
# les~4 Fixations= ""
# gouvernements~5 Fixations= "5/"
# successifs~6 Fixations= "7/"
# et~7 Fixations= "2/"
# le~8 Fixations= "3/"
# corps~9 Fixations= "3/"
# enseignant~10 Fixations= "9/"
# ont~11 Fixations= "9/"
# su~12 Fixations= ""
# répondre~13 Fixations= "11/"
# au~14 Fixations= ""
# défi~15 Fixations= "10/"
# démographique~16 Fixations= "12/"
# le~17 Fixations= "13/"
# ministre~18 Fixations= "13/"
# a~19 Fixations= "15/"
# rappelé~20 Fixations= "14/"
# que~21 Fixations= ""
# l'effort~22 Fixations= ""
# devait~23 Fixations= "17/"
# à~24 Fixations= "17/"
# présent~25 Fixations= ""
# garantir~26 Fixations= "18/"
# la~27 Fixations= "19/"
# qualité~28 Fixations= "19/"
# pour~29 Fixations= ""
# tous~30 Fixations= ""
%%
#  APRèS[1] avoir rappelé que les GOUVERNEMENTS[5] SUCCESSIFS[7] ET[2] LE[3] CORPS[3] ENSEIGNANT[9] ONT[9] su RéPONDRE[11] au DéFI[10] DéMOGRAPHIQUE[12] LE[13] MINISTRE[13] A[15] RAPPELé[14] que l'effort DEVAIT[17] à[17] présent GARANTIR[18] LA[19] QUALITé[19] pour tous
# s21 reforme_enseignement-m2 PercentageOfWordsProcessed= 0.645161290322581 PercentageOfWordsReallyProcessed= 0.689655172413793
