999 WORDS_revenu~1 300
999 WORDFREQ_2.23 300
999 WORDSALL_Le~0_revenu~1 300
999 COSIND_0.33 300
999 COSGEN_0.33 300
101 ESRank1 300
999 WORDS_moyen~2 179
999 WORDFREQ_28.24 179
999 WORDSALL_revenu~1_moyen~2 179
999 COSIND_0.01 179
999 COSGEN_0.01 179
102 ESRank2 179
201 ESForwSacShort 179
999 WORDS_moyen~2 170
999 WORDFREQ_28.24 170
999 WORDSALL_moyen~2 170
999 COSIND_0.01 170
999 COSGEN_0.01 170
103 ESRank3 170
203 ESBackSacRefixation 170
999 WORDS_moyen~2 459
999 WORDFREQ_28.24 459
999 WORDSALL_revenu~1_moyen~2 459
999 COSIND_0.01 459
999 COSGEN_0.01 459
104 ESRank4 459
203 ESBackSacRefixation 459
999 WORDS_revenu~1 315
999 WORDFREQ_2.23 315
999 WORDSALL_Le~0_revenu~1 315
999 COSIND_0.33 315
999 COSGEN_0.33 315
105 ESRank5 315
205 ESBackSacRegrShort 315
999 WORDS_moyen~2 239
999 WORDFREQ_28.24 239
999 WORDSALL_revenu~1_moyen~2 239
999 COSIND_0.01 239
999 COSGEN_0.01 239
106 ESRank6 239
201 ESForwSacShort 239
999 WORDS_moyen~2 351
999 WORDFREQ_28.24 351
999 WORDSALL_moyen~2 351
999 COSIND_0.01 351
999 COSGEN_0.01 351
107 ESRank7 351
203 ESBackSacRefixation 351
999 WORDS_imposable~3 323
999 WORDFREQ_0.07 323
999 WORDSALL_imposable~3 323
999 COSIND_0.34 323
999 COSGEN_0.34 323
108 ESRank8 323
201 ESForwSacShort 323
999 WORDS_foyer~5 161
999 WORDFREQ_25.81 161
999 WORDSALL_foyer~5 161
999 COSIND_0.27 161
999 COSGEN_0.27 161
109 ESRank9 161
202 ESForwSacLong+2+5 161
999 WORDS_imposable~3 113
999 WORDFREQ_0.07 113
999 WORDSALL_imposable~3 113
999 COSIND_0.34 113
999 COSGEN_0.34 113
110 ESRank10 113
206 ESBackSacRegrLong-2-5 113
999 WORDS_plus~9 205
999 WORDFREQ_5014.53 205
999 WORDSALL_est~7_plus~9 205
999 COSIND_0.03 205
999 COSGEN_0.03 205
111 ESRank11 205
202 ESForwSacLong+6+25 205
999 WORDS_plus~9 230
999 WORDFREQ_5014.53 230
999 WORDSALL_est~7_plus~9 230
999 COSIND_0.03 230
999 COSGEN_0.03 230
112 ESRank12 230
203 ESBackSacRefixation 230
999 WORDS_plus~9 276
999 WORDFREQ_5014.53 276
999 WORDSALL_le~8_plus~9 276
999 COSIND_0.03 276
999 COSGEN_0.03 276
113 ESRank13 276
203 ESBackSacRefixation 276
999 WORDS_Riches-pauvres~15 434
999 WORDFREQ_N/A 434
999 WORDSALL_Riches-pauvres~15 434
999 COSIND_N/A 434
114 ESRank14 434
202 ESForwSacLong+6+41 434
999 WORDS_Riches-pauvres~15 212
999 WORDFREQ_N/A 212
999 WORDSALL_Riches-pauvres~15 212
999 COSIND_N/A 212
115 ESRank15 212
203 ESBackSacRefixation 212
999 WORDS_Riches-pauvres~15 161
999 WORDFREQ_N/A 161
999 WORDSALL_Riches-pauvres~15 161
999 COSIND_N/A 161
116 ESRank16 161
203 ESBackSacRefixation 161
999 WORDS_n'échappe~17 201
999 WORDFREQ_18.65 201
999 WORDSALL_n'échappe~17 201
999 COSIND_-0.02 201
999 COSGEN_-0.02 201
117 ESRank17 201
202 ESForwSacLong+2+4 201
999 WORDS_embrase~24 247
999 WORDFREQ_1.01 247
999 WORDSALL_qui~23_embrase~24 247
999 COSIND_0.07 247
999 COSGEN_0.07 247
118 ESRank18 247
202 ESForwSacLong+7+37 247
200 ESRankN 247
199 ESRankNMinus1 201
198 ESRankNMinus2 161
197 ESRankNMinus3 212
196 ESRankNMinus4 434
195 ESRankNMinus5 276
194 ESRankNMinus6 230
193 ESRankNMinus7 205
192 ESRankNMinus8 113
191 ESRankNMinus9 161
190 ESRankNMinus10 323
