999 WORDS_soutien~6 88
999 WORDFREQ_8.92 88
999 WORDSALL_Le~0_candidat~1_soutien~6 88
999 COSIND_0.08 88
999 COSGEN_0.08 88
101 ESRank1 88
999 WORDS_candidat~1 107
999 WORDFREQ_2.84 107
999 WORDSALL_Le~0_candidat~1 107
999 COSIND_0.04 107
999 COSGEN_0.04 107
102 ESRank2 107
206 ESBackSacRegrLong-5-32 107
999 WORDS_conservateur~2 208
999 WORDFREQ_2.36 208
999 WORDSALL_conservateur~2 208
999 COSIND_0.15 208
999 COSGEN_0.15 208
103 ESRank3 208
201 ESForwSacShort 208
999 WORDS_bénéficié~4 209
999 WORDFREQ_1.49 209
999 WORDSALL_a~3_bénéficié~4 209
999 COSIND_0.05 209
999 COSGEN_0.05 209
104 ESRank4 209
202 ESForwSacLong+2+3 209
999 WORDS_soutien~6 181
999 WORDFREQ_8.92 181
999 WORDSALL_Le~0_candidat~1_soutien~6 181
999 COSIND_0.08 181
999 COSGEN_0.08 181
105 ESRank5 181
202 ESForwSacLong+2+4 181
999 WORDS_fort~8 100
999 WORDFREQ_43.85 100
999 WORDSALL_du~7_fort~8 100
999 COSIND_-0.00 100
999 COSGEN_-0.00 100
106 ESRank6 100
202 ESForwSacLong+2+4 100
999 WORDS_contingent~9 248
999 WORDFREQ_1.69 248
999 WORDSALL_contingent~9 248
999 COSIND_-0.03 248
999 COSGEN_-0.03 248
107 ESRank7 248
201 ESForwSacShort 248
999 WORDS_conservateurs~14 160
999 WORDFREQ_0.81 160
999 WORDSALL_fort~8_contingent~9_conservateurs~14 160
999 COSIND_0.15 160
999 COSGEN_0.15 160
108 ESRank8 160
202 ESForwSacLong+5+34 160
999 WORDS_religieux~13 89
999 WORDFREQ_6.49 89
999 WORDSALL_religieux~13 89
999 COSIND_-0.01 89
999 COSGEN_-0.01 89
109 ESRank9 89
205 ESBackSacRegrShort 89
999 WORDS_religieux~13 163
999 WORDFREQ_6.49 163
999 WORDSALL_religieux~13 163
999 COSIND_-0.01 163
999 COSGEN_-0.01 163
110 ESRank10 163
203 ESBackSacRefixation 163
999 WORDS_religieux~13 117
999 WORDFREQ_6.49 117
999 WORDSALL_soutien~6_religieux~13 117
999 COSIND_-0.01 117
999 COSGEN_-0.01 117
111 ESRank11 117
203 ESBackSacRefixation 117
999 WORDS_État~18 152
999 WORDFREQ_192.03 152
999 WORDSALL_de~12_religieux~13_État~18 152
999 COSIND_N/A 152
112 ESRank12 152
202 ESForwSacLong+5+32 152
999 WORDS_religieux~13 122
999 WORDFREQ_6.49 122
999 WORDSALL_religieux~13 122
999 COSIND_-0.01 122
999 COSGEN_-0.01 122
113 ESRank13 122
206 ESBackSacRegrLong-5-32 122
200 ESRankN 122
199 ESRankNMinus1 152
198 ESRankNMinus2 117
197 ESRankNMinus3 163
196 ESRankNMinus4 89
195 ESRankNMinus5 160
194 ESRankNMinus6 248
193 ESRankNMinus7 100
192 ESRankNMinus8 181
191 ESRankNMinus9 209
190 ESRankNMinus10 208
