# 159 Fixation 1 (441.6,301.2): connaissance~2
# 167 Fixation 2 (580.3,304.2): du~3 fonctionnement~4
# 133 Fixation 3 (642.9,289.6): fonctionnement~4
# 90 Fixation 4 (743.5,289.9): fonctionnement~4
# 209 Fixation 5 (325.3,337): l'ordinateur~6
# 173 Fixation 6 (475.5,347.5): et~7 d'Internet~8
# 94 Fixation 7 (537.7,350.3): d'Internet~8
# 167 Fixation 8 (643.3,363.9): est~9 importante~10
# 191 Fixation 9 (341.6,391.6): systèmes~12
# 161 Fixation 10 (485.8,402.3): de~13 formation~14
# 214 Fixation 11 (630.2,420.6): à~15 distance~16
# 132 Fixation 12 (453.2,447.7): pour~21 adultes~22
# 144 Fixation 13 (532.2,462.8): adultes~22
# 239 Fixation 14 (641.2,474.7): en~23 formation~24
%%
# Une~0 Fixations= ""
# bonne~1 Fixations= ""
# connaissance~2 Fixations= "1/"
# du~3 Fixations= "2/"
# fonctionnement~4 Fixations= "4/"
# de~5 Fixations= ""
# l'ordinateur~6 Fixations= "5/"
# et~7 Fixations= "6/"
# d'Internet~8 Fixations= "7/"
# est~9 Fixations= "8/"
# importante~10 Fixations= "8/"
# Des~11 Fixations= ""
# systèmes~12 Fixations= "9/"
# de~13 Fixations= "10/"
# formation~14 Fixations= "10/"
# à~15 Fixations= "11/"
# distance~16 Fixations= "11/"
# et~17 Fixations= ""
# de~18 Fixations= ""
# la~19 Fixations= ""
# pédagogie~20 Fixations= ""
# pour~21 Fixations= "12/"
# adultes~22 Fixations= "13/"
# en~23 Fixations= "14/"
# formation~24 Fixations= "14/"
# continue~25 Fixations= ""
# vont~26 Fixations= ""
# être~27 Fixations= ""
# mis~28 Fixations= ""
# en~29 Fixations= ""
# place~30 Fixations= ""
%%
#  Une bonne CONNAISSANCE[1] DU[2] FONCTIONNEMENT[4] de L'ORDINATEUR[5] ET[6] D'INTERNET[7] EST[8] IMPORTANTE[8] Des SYSTèMES[9] DE[10] FORMATION[10] à[11] DISTANCE[11] et de la pédagogie POUR[12] ADULTES[13] EN[14] FORMATION[14] continue vont être mis en place
# s08 formation_informatique-f2 PercentageOfWordsProcessed= 0.548387096774194 PercentageOfWordsReallyProcessed= 0.68
