# 175 Fixation 1 (316.8,279.4): Cette~0 annonce~1
# 159 Fixation 2 (507.2,269): qui~2 avait~3
# 147 Fixation 3 (589.9,267.7): avait~3 déjà~4
# 187 Fixation 4 (307.2,338.4): pronostiquée~6
# 145 Fixation 5 (481.7,337.5): par~7 certains~8
# 204 Fixation 6 (604.6,334.1): analystes~9
# 147 Fixation 7 (689.4,332.4): analystes~9
# 217 Fixation 8 (335.6,400.5): semaine~11 dernière~12
# 164 Fixation 9 (547,414.5): a~13 été~14
# 188 Fixation 10 (354.9,484.7): accueillie~16
# 179 Fixation 11 (500.7,485): Cette~17 diminution~18
# 141 Fixation 12 (671,480): ne~19 fait~20
# 171 Fixation 13 (333.8,542.2): poursuivre~22
# 180 Fixation 14 (467.9,535.7): une~23 tendance~24
# 163 Fixation 15 (616,542): à~25 baisse~27
# 121 Fixation 16 (279,580.2): titre~29
%%
# Cette~0 Fixations= "1/"
# annonce~1 Fixations= "1/"
# qui~2 Fixations= "2/"
# avait~3 Fixations= "3/"
# déjà~4 Fixations= "3/"
# été~5 Fixations= ""
# pronostiquée~6 Fixations= "4/"
# par~7 Fixations= "5/"
# certains~8 Fixations= "5/"
# analystes~9 Fixations= "7/"
# la~10 Fixations= ""
# semaine~11 Fixations= "8/"
# dernière~12 Fixations= "8/"
# a~13 Fixations= "9/"
# été~14 Fixations= "9/"
# fraîchement~15 Fixations= ""
# accueillie~16 Fixations= "10/"
# Cette~17 Fixations= "11/"
# diminution~18 Fixations= "11/"
# ne~19 Fixations= "12/"
# fait~20 Fixations= "12/"
# que~21 Fixations= ""
# poursuivre~22 Fixations= "13/"
# une~23 Fixations= "14/"
# tendance~24 Fixations= "14/"
# à~25 Fixations= "15/"
# la~26 Fixations= ""
# baisse~27 Fixations= "15/"
# du~28 Fixations= ""
# titre~29 Fixations= "16/"
%%
#  CETTE[1] ANNONCE[1] QUI[2] AVAIT[3] DéJà[3] été PRONOSTIQUéE[4] PAR[5] CERTAINS[5] ANALYSTES[7] la SEMAINE[8] DERNIèRE[8] A[9] éTé[9] fraîchement ACCUEILLIE[10] CETTE[11] DIMINUTION[11] NE[12] FAIT[12] que POURSUIVRE[13] UNE[14] TENDANCE[14] à[15] la BAISSE[15] du TITRE[16]
# s19 hausse_bourse-m1 PercentageOfWordsProcessed= 0.8 PercentageOfWordsReallyProcessed= 0.8
