999 WORDS_a~2 165
999 WORDFREQ_1669.39 165
999 WORDSALL_Il~0_a~2 165
999 COSIND_N/A 165
101 ESRank1 165
999 WORDS_a~2 136
999 WORDFREQ_1669.39 136
999 WORDSALL_a~2 136
999 COSIND_N/A 136
102 ESRank2 136
203 ESBackSacRefixation 136
999 WORDS_multitude~4 284
999 WORDFREQ_9.66 284
999 WORDSALL_une~3_multitude~4 284
999 COSIND_0.16 284
999 COSGEN_0.16 284
103 ESRank3 284
202 ESForwSacLong+2+5 284
999 WORDS_multitude~4 238
999 WORDFREQ_9.66 238
999 WORDSALL_multitude~4 238
999 COSIND_0.16 238
999 COSGEN_0.16 238
104 ESRank4 238
203 ESBackSacRefixation 238
999 WORDS_variantes~6 214
999 WORDFREQ_2.43 214
999 WORDSALL_de~5_variantes~6 214
999 COSIND_-0.01 214
999 COSGEN_-0.01 214
105 ESRank5 214
202 ESForwSacLong+2+4 214
999 WORDS_variantes~6 250
999 WORDFREQ_2.43 250
999 WORDSALL_de~5_variantes~6 250
999 COSIND_-0.01 250
999 COSGEN_-0.01 250
106 ESRank6 250
203 ESBackSacRefixation 250
999 WORDS_variantes~6 182
999 WORDFREQ_2.43 182
999 WORDSALL_variantes~6 182
999 COSIND_-0.01 182
999 COSGEN_-0.01 182
107 ESRank7 182
203 ESBackSacRefixation 182
999 WORDS_vont~8 104
999 WORDFREQ_116.62 104
999 WORDSALL_qui~7_vont~8 104
999 COSIND_0.04 104
999 COSGEN_0.04 104
108 ESRank8 104
202 ESForwSacLong+2+5 104
999 WORDS_l'impossibilité~10 178
999 WORDFREQ_7.16 178
999 WORDSALL_de~9_l'impossibilité~10 178
999 COSIND_0.01 178
999 COSGEN_0.01 178
109 ESRank9 178
202 ESForwSacLong+2+4 178
999 WORDS_l'impossibilité~10 183
999 WORDFREQ_7.16 183
999 WORDSALL_de~9_l'impossibilité~10 183
999 COSIND_0.01 183
999 COSGEN_0.01 183
110 ESRank10 183
203 ESBackSacRefixation 183
999 WORDS_l'impossibilité~10 142
999 WORDFREQ_7.16 142
999 WORDSALL_l'impossibilité~10 142
999 COSIND_0.01 142
999 COSGEN_0.01 142
111 ESRank11 142
203 ESBackSacRefixation 142
999 WORDS_sonde~13 203
999 WORDFREQ_0.81 203
999 WORDSALL_pour~11_sonde~13 203
999 COSIND_0.74 203
999 COSGEN_0.74 203
112 ESRank12 203
202 ESForwSacLong+3+9 203
999 WORDS_sonde~13 234
999 WORDFREQ_0.81 234
999 WORDSALL_la~12_sonde~13 234
999 COSIND_0.74 234
999 COSGEN_0.74 234
113 ESRank13 234
203 ESBackSacRefixation 234
999 WORDS_pointer~15 271
999 WORDFREQ_5.14 271
999 WORDSALL_de~14_pointer~15 271
999 COSIND_0.06 271
999 COSGEN_0.06 271
114 ESRank14 271
202 ESForwSacLong+2+4 271
999 WORDS_antenne~17 390
999 WORDFREQ_3.65 390
999 WORDSALL_son~16_antenne~17 390
999 COSIND_0.14 390
999 COSGEN_0.14 390
115 ESRank15 390
202 ESForwSacLong+2+5 390
999 WORDS_antenne~17 171
999 WORDFREQ_3.65 171
999 WORDSALL_son~16_antenne~17 171
999 COSIND_0.14 171
999 COSGEN_0.14 171
116 ESRank16 171
203 ESBackSacRefixation 171
999 WORDS_à~20 288
999 WORDFREQ_19209.05 288
999 WORDSALL_vers~18_à~20 288
999 COSIND_N/A 288
117 ESRank17 288
202 ESForwSacLong+3+11 288
999 WORDS_à~20 189
999 WORDFREQ_19209.05 189
999 WORDSALL_vers~18_à~20 189
999 COSIND_N/A 189
118 ESRank18 189
203 ESBackSacRefixation 189
999 WORDS_basculement~22 296
999 WORDFREQ_0.14 296
999 WORDSALL_un~21_basculement~22 296
999 COSIND_0.05 296
999 COSGEN_0.05 296
119 ESRank19 296
202 ESForwSacLong+2+4 296
200 ESRankN 296
199 ESRankNMinus1 189
198 ESRankNMinus2 288
197 ESRankNMinus3 171
196 ESRankNMinus4 390
195 ESRankNMinus5 271
194 ESRankNMinus6 234
193 ESRankNMinus7 203
192 ESRankNMinus8 142
191 ESRankNMinus9 183
190 ESRankNMinus10 178
