# 181 Fixation 1 (297,278.9): Des~0 livres~1
# 194 Fixation 2 (420.2,287.3): de~2 mémoires~3
# 146 Fixation 3 (515.7,288.7): mémoires~3
# 279 Fixation 4 (572,293.1): d'anciens~4
# 276 Fixation 5 (686.6,295.8): d'anciens~4 déportés~5
# 157 Fixation 6 (335.2,337.2): Des~0 livres~1 paraît~8
# 172 Fixation 7 (298.4,332.7): Des~0 livres~1 paraît~8
# 281 Fixation 8 (470.7,336.6): de~2 mémoires~3 régulièrement~9
# 295 Fixation 9 (632.4,351.5): De~10 qualité~11
# 139 Fixation 10 (340,387.2): en~7 paraît~8
# 165 Fixation 11 (297.7,400.9): il~6 paraît~8 inégale~12
# 265 Fixation 12 (415.1,404.3): paraît~8 régulièrement~9 d'intérêt~14
# 293 Fixation 13 (530.5,408): régulièrement~9 inégal~15
# 205 Fixation 14 (668.1,417.7): mais~16 ressenti~25
# 152 Fixation 15 (520.6,482): histoire~22
# 189 Fixation 16 (425.1,473.5): et~13 d'intérêt~14 même~21
%%
# Des~0 Fixations= "7/"
# livres~1 Fixations= "7/"
# de~2 Fixations= "8/"
# mémoires~3 Fixations= "8/"
# d'anciens~4 Fixations= "5/"
# déportés~5 Fixations= "5/"
# il~6 Fixations= "11/"
# en~7 Fixations= "10/"
# paraît~8 Fixations= "12/"
# régulièrement~9 Fixations= "13/"
# De~10 Fixations= "9/"
# qualité~11 Fixations= "9/"
# inégale~12 Fixations= "11/"
# et~13 Fixations= "16/"
# d'intérêt~14 Fixations= "16/"
# inégal~15 Fixations= "13/"
# mais~16 Fixations= "14/"
# ce~17 Fixations= ""
# n'est~18 Fixations= ""
# jamais~19 Fixations= ""
# la~20 Fixations= ""
# même~21 Fixations= "16/"
# histoire~22 Fixations= "15/"
# car~23 Fixations= ""
# le~24 Fixations= ""
# ressenti~25 Fixations= "14/"
# est~26 Fixations= ""
# à~27 Fixations= ""
# chaque~28 Fixations= ""
# fois~29 Fixations= ""
# unique~30 Fixations= ""
%%
#  DES[7] LIVRES[7] DE[8] MéMOIRES[8] D'ANCIENS[5] DéPORTéS[5] IL[11] EN[10] PARAîT[12] RéGULIèREMENT[13] DE[9] QUALITé[9] INéGALE[11] ET[16] D'INTéRêT[16] INéGAL[13] MAIS[14] ce n'est jamais la MêME[16] HISTOIRE[15] car le RESSENTI[14] est à chaque fois unique
# s05 victoire_footballeurs-a1 PercentageOfWordsProcessed= 0.645161290322581 PercentageOfWordsReallyProcessed= 0.769230769230769
