999 WORDS_football~1 202
999 WORDFREQ_6.28 202
999 WORDSALL_Le~0_football~1 202
999 COSIND_0.00 202
999 COSGEN_0.00 202
101 ESRank1 202
999 WORDS_sport~4 168
999 WORDFREQ_15.54 168
999 WORDSALL_est~2_sport~4 168
999 COSIND_0.03 168
999 COSGEN_0.03 168
102 ESRank2 168
202 ESForwSacLong+3+8 168
999 WORDS_collectif~5 215
999 WORDFREQ_4.73 215
999 WORDSALL_sport~4_collectif~5 215
999 COSIND_-0.06 215
999 COSGEN_-0.06 215
103 ESRank3 215
201 ESForwSacShort 215
200 ESRankN 215
199 ESRankNMinus1 168
198 ESRankNMinus2 202
