# 148 Fixation 1 (284.1,280.2): L'économie~0
# 203 Fixation 2 (439.1,282.7): algérienne~1
# 179 Fixation 3 (544.4,283.3): dépend~2
# 190 Fixation 4 (688.4,270.3): de~3 l'évolution~4
# 182 Fixation 5 (322.1,337.2): des~5 cours~6
# 185 Fixation 6 (449,343.9): du~7 pétrole~8
# 145 Fixation 7 (565.8,354.5): brut~9
# 97 Fixation 8 (636,367.6): Après~10
# 171 Fixation 9 (377,394.2): à~13
%%
# L'économie~0 Fixations= "1/"
# algérienne~1 Fixations= "2/"
# dépend~2 Fixations= "3/"
# de~3 Fixations= "4/"
# l'évolution~4 Fixations= "4/"
# des~5 Fixations= "5/"
# cours~6 Fixations= "5/"
# du~7 Fixations= "6/"
# pétrole~8 Fixations= "6/"
# brut~9 Fixations= "7/"
# Après~10 Fixations= "8/"
# être~11 Fixations= ""
# tombés~12 Fixations= ""
# à~13 Fixations= "9/"
# des~14 Fixations= ""
# niveaux~15 Fixations= ""
# jamais~16 Fixations= ""
# observés~17 Fixations= ""
# l'annonce~18 Fixations= ""
# par~19 Fixations= ""
# les~20 Fixations= ""
# pays~21 Fixations= ""
# producteurs~22 Fixations= ""
# d'une~23 Fixations= ""
# réduction~24 Fixations= ""
# de~25 Fixations= ""
# la~26 Fixations= ""
# production~27 Fixations= ""
# a~28 Fixations= ""
# redressé~29 Fixations= ""
# les~30 Fixations= ""
# prix~31 Fixations= ""
%%
#  L'éCONOMIE[1] ALGéRIENNE[2] DéPEND[3] DE[4] L'éVOLUTION[4] DES[5] COURS[5] DU[6] PéTROLE[6] BRUT[7] APRèS[8] être tombés à[9] des niveaux jamais observés l'annonce par les pays producteurs d'une réduction de la production a redressé les prix
# s17 prix_petrole-f1 PercentageOfWordsProcessed= 0.375 PercentageOfWordsReallyProcessed= 0.857142857142857
