999 WORDS_limogeage~2 132
999 WORDFREQ_0.07 132
999 WORDSALL_Depuis~0_limogeage~2 132
999 COSIND_0.22 132
999 COSGEN_0.22 132
101 ESRank1 132
999 WORDS_limogeage~2 142
999 WORDFREQ_0.07 142
999 WORDSALL_limogeage~2 142
999 COSIND_0.22 142
999 COSGEN_0.22 142
102 ESRank2 142
203 ESBackSacRefixation 142
999 WORDS_surprise~3 243
999 WORDFREQ_6.89 243
999 WORDSALL_surprise~3 243
999 COSIND_0.10 243
999 COSGEN_0.10 243
103 ESRank3 243
201 ESForwSacShort 243
999 WORDS_après~10 159
999 WORDFREQ_821.55 159
999 WORDSALL_russe~9_après~10 159
999 COSIND_0.02 159
999 COSGEN_0.02 159
104 ESRank4 159
202 ESForwSacLong+7+43 159
999 WORDS_cinq~11 154
999 WORDFREQ_220.61 154
999 WORDSALL_après~10_cinq~11 154
999 COSIND_0.01 154
999 COSGEN_0.01 154
105 ESRank5 154
201 ESForwSacShort 154
999 WORDS_président~16 284
999 WORDFREQ_76.22 284
999 WORDSALL_le~15_président~16 284
999 COSIND_-0.00 284
999 COSGEN_-0.00 284
106 ESRank6 284
202 ESForwSacLong+5+22 284
999 WORDS_stabilité~14 201
999 WORDFREQ_3.18 201
999 WORDSALL_de~13_stabilité~14 201
999 COSIND_0.00 201
999 COSGEN_0.00 201
107 ESRank7 201
206 ESBackSacRegrLong-2-4 201
999 WORDS_succès~19 188
999 WORDFREQ_53.72 188
999 WORDSALL_succès~19 188
999 COSIND_-0.04 188
999 COSGEN_-0.04 188
108 ESRank8 188
202 ESForwSacLong+5+26 188
999 WORDS_maîtriser~21 143
999 WORDFREQ_8.24 143
999 WORDSALL_de~20_maîtriser~21 143
999 COSIND_0.10 143
999 COSGEN_0.10 143
109 ESRank9 143
202 ESForwSacLong+2+4 143
999 WORDS_succession~23 212
999 WORDFREQ_11.01 212
999 WORDSALL_succession~23 212
999 COSIND_-0.03 212
999 COSGEN_-0.03 212
110 ESRank10 212
202 ESForwSacLong+2+4 212
999 WORDS_sont~26 140
999 WORDFREQ_713.18 140
999 WORDSALL_prétendants~25_sont~26 140
999 COSIND_0.02 140
999 COSGEN_0.02 140
111 ESRank11 140
202 ESForwSacLong+3+18 140
999 WORDS_prétendants~25 184
999 WORDFREQ_1.15 184
999 WORDSALL_prétendants~25 184
999 COSIND_0.04 184
999 COSGEN_0.04 184
112 ESRank12 184
205 ESBackSacRegrShort 184
999 WORDS_sont~26 215
999 WORDFREQ_713.18 215
999 WORDSALL_sont~26 215
999 COSIND_0.02 215
999 COSGEN_0.02 215
113 ESRank13 215
201 ESForwSacShort 215
999 WORDS_limogeage~2 225
999 WORDFREQ_0.07 225
999 WORDSALL_Depuis~0_limogeage~2 225
999 COSIND_0.22 225
999 COSGEN_0.22 225
114 ESRank14 225
206 ESBackSacRegrLong-24-160 225
999 WORDS_limogeage~2 171
999 WORDFREQ_0.07 171
999 WORDSALL_Depuis~0_limogeage~2 171
999 COSIND_0.22 171
999 COSGEN_0.22 171
115 ESRank15 171
203 ESBackSacRefixation 171
999 WORDS_limogeage~2 208
999 WORDFREQ_0.07 208
999 WORDSALL_le~1_limogeage~2 208
999 COSIND_0.22 208
999 COSGEN_0.22 208
116 ESRank16 208
203 ESBackSacRefixation 208
999 WORDS_surprise~3 169
999 WORDFREQ_6.89 169
999 WORDSALL_surprise~3 169
999 COSIND_0.10 169
999 COSGEN_0.10 169
117 ESRank17 169
201 ESForwSacShort 169
999 WORDS_précédent~5 203
999 WORDFREQ_6.15 203
999 WORDSALL_du~4_précédent~5 203
999 COSIND_-0.00 203
999 COSGEN_-0.00 203
118 ESRank18 203
202 ESForwSacLong+2+4 203
999 WORDS_chef~6 239
999 WORDFREQ_172.57 239
999 WORDSALL_chef~6 239
999 COSIND_1.00 239
999 COSGEN_1.00 239
119 ESRank19 239
201 ESForwSacShort 239
999 WORDS_gouvernement~8 121
999 WORDFREQ_119.73 121
999 WORDSALL_gouvernement~8 121
999 COSIND_0.05 121
999 COSGEN_0.05 121
120 ESRank20 121
202 ESForwSacLong+2+4 121
999 WORDS_russe~9 253
999 WORDFREQ_35.34 253
999 WORDSALL_russe~9 253
999 COSIND_0.01 253
999 COSGEN_0.01 253
201 ESForwSacShort 253
999 WORDS_après~10 151
999 WORDFREQ_821.55 151
999 WORDSALL_après~10 151
999 COSIND_0.02 151
999 COSGEN_0.02 151
201 ESForwSacShort 151
999 WORDS_cinq~11 133
999 WORDFREQ_220.61 133
999 WORDSALL_après~10_cinq~11 133
999 COSIND_0.01 133
999 COSGEN_0.01 133
201 ESForwSacShort 133
999 WORDS_stabilité~14 125
999 WORDFREQ_3.18 125
999 WORDSALL_stabilité~14 125
999 COSIND_0.00 125
999 COSGEN_0.00 125
202 ESForwSacLong+3+8 125
999 WORDS_stabilité~14 148
999 WORDFREQ_3.18 148
999 WORDSALL_de~13_stabilité~14 148
999 COSIND_0.00 148
999 COSGEN_0.00 148
203 ESBackSacRefixation 148
200 ESRankN 148
199 ESRankNMinus1 125
198 ESRankNMinus2 133
197 ESRankNMinus3 151
196 ESRankNMinus4 253
195 ESRankNMinus5 121
194 ESRankNMinus6 239
193 ESRankNMinus7 203
192 ESRankNMinus8 169
191 ESRankNMinus9 208
190 ESRankNMinus10 171
