999 WORDS_l'affluence~5 126
999 WORDFREQ_2.64 126
999 WORDSALL_Depuis~0_l'interdiction~1_l'affluence~5 126
999 COSIND_0.03 126
999 COSGEN_0.03 126
101 ESRank1 126
999 WORDS_l'interdiction~1 180
999 WORDFREQ_5.95 180
999 WORDSALL_l'interdiction~1 180
999 COSIND_0.02 180
999 COSGEN_0.02 180
102 ESRank2 180
206 ESBackSacRegrLong-4-16 180
999 WORDS_fumer~3 170
999 WORDFREQ_20.88 170
999 WORDSALL_de~2_fumer~3 170
999 COSIND_-0.09 170
999 COSGEN_-0.09 170
103 ESRank3 170
202 ESForwSacLong+2+4 170
999 WORDS_côté~9 98
999 WORDFREQ_497.43 98
999 WORDSALL_fumer~3_côté~9 98
999 COSIND_0.02 98
999 COSGEN_0.02 98
104 ESRank4 98
202 ESForwSacLong+6+38 98
999 WORDS_l'affluence~5 173
999 WORDFREQ_2.64 173
999 WORDSALL_l'affluence~5 173
999 COSIND_0.03 173
999 COSGEN_0.03 173
105 ESRank5 173
206 ESBackSacRegrLong-4-20 173
999 WORDS_dimanche~7 216
999 WORDFREQ_87.84 216
999 WORDSALL_l'interdiction~1_dimanche~7 216
999 COSIND_0.01 216
999 COSGEN_0.01 216
106 ESRank6 216
202 ESForwSacLong+2+6 216
999 WORDS_côté~9 255
999 WORDFREQ_497.43 255
999 WORDSALL_D'un~8_côté~9 255
999 COSIND_0.02 255
999 COSGEN_0.02 255
107 ESRank7 255
202 ESForwSacLong+2+6 255
999 WORDS_acheter~15 225
999 WORDFREQ_57.09 225
999 WORDSALL_d'un~6_dimanche~7_acheter~15 225
999 COSIND_-0.06 225
999 COSGEN_-0.06 225
108 ESRank8 225
202 ESForwSacLong+6+23 225
200 ESRankN 225
199 ESRankNMinus1 255
198 ESRankNMinus2 216
197 ESRankNMinus3 173
196 ESRankNMinus4 98
195 ESRankNMinus5 170
194 ESRankNMinus6 180
193 ESRankNMinus7 126
