# 150 Fixation 1 (253.6,292.2): Aujourd'hui~0
# 165 Fixation 2 (459.9,291.2): les~1 grands~2
# 104 Fixation 3 (503.1,293.1): les~1 grands~2
# 184 Fixation 4 (583.5,287.9): grands~2 noms~3
# 132 Fixation 5 (632,286.4): noms~3 présents~9
# 192 Fixation 6 (261,353.5): pâtisserie~6
# 128 Fixation 7 (387.4,345.2): Aujourd'hui~0 pâtisserie~6 française~7
# 182 Fixation 8 (442.6,346.7): les~1 grands~2 française~7
# 115 Fixation 9 (554.6,356.2): sont~8
# 154 Fixation 10 (643.5,360.8): présents~9
# 209 Fixation 11 (747.4,366): au~10 Japon~11
# 127 Fixation 12 (292.7,403.4): pâtisserie~6 associés~12
# 116 Fixation 13 (248.8,410): pâtisserie~6 associés~12
# 151 Fixation 14 (402.3,404.4): française~7 à~13
# 226 Fixation 15 (463.1,411.2): française~7 nippons~15
# 160 Fixation 16 (580.9,414.8): Il~16 a~18
# 133 Fixation 17 (686.2,420.9): a~18 outre~20
# 184 Fixation 18 (255.6,456.1): associés~12 pléthore~21
# 160 Fixation 19 (347.1,465.6): associés~12 à~13
# 219 Fixation 20 (415.9,468.6): à~13 nippons~15 d'excellents~22
# 167 Fixation 21 (261.4,461.6): associés~12 pléthore~21
# 222 Fixation 22 (422.8,458.3): à~13 nippons~15 d'excellents~22
# 142 Fixation 23 (526.2,470): nippons~15 petits~23
# 137 Fixation 24 (576.7,470.6): Il~16 a~18 petits~23
# 220 Fixation 25 (664.9,471.4): y~17 a~18 outre~20 pâtissiers~24
# 163 Fixation 26 (581.6,466.9): Il~16 a~18 petits~23
# 137 Fixation 27 (317.6,533.6): pléthore~21 japonais~25
%%
# Aujourd'hui~0 Fixations= "7/"
# les~1 Fixations= "8/"
# grands~2 Fixations= "8/"
# noms~3 Fixations= "5/"
# de~4 Fixations= ""
# la~5 Fixations= ""
# pâtisserie~6 Fixations= "13/"
# française~7 Fixations= "15/"
# sont~8 Fixations= "9/"
# présents~9 Fixations= "10/"
# au~10 Fixations= "11/"
# Japon~11 Fixations= "11/"
# associés~12 Fixations= "21/"
# à~13 Fixations= "22/"
# des~14 Fixations= ""
# nippons~15 Fixations= "23/"
# Il~16 Fixations= "26/"
# y~17 Fixations= "25/"
# a~18 Fixations= "26/"
# en~19 Fixations= ""
# outre~20 Fixations= "25/"
# pléthore~21 Fixations= "27/"
# d'excellents~22 Fixations= "22/"
# petits~23 Fixations= "26/"
# pâtissiers~24 Fixations= "25/"
# japonais~25 Fixations= "27/"
# de~26 Fixations= ""
# quartiers~27 Fixations= ""
%%
#  AUJOURD'HUI[7] LES[8] GRANDS[8] NOMS[5] de la PâTISSERIE[13] FRANçAISE[15] SONT[9] PRéSENTS[10] AU[11] JAPON[11] ASSOCIéS[21] à[22] des NIPPONS[23] IL[26] Y[25] A[26] en OUTRE[25] PLéTHORE[27] D'EXCELLENTS[22] PETITS[26] PâTISSIERS[25] JAPONAIS[27] de quartiers
# s06 decollage_fusee-a1 PercentageOfWordsProcessed= 0.785714285714286 PercentageOfWordsReallyProcessed= 0.846153846153846
