999 WORDS_L'espace~0 117
999 WORDFREQ_78.58 117
999 WORDSALL_L'espace~0 117
999 COSIND_0.33 117
999 COSGEN_0.33 117
101 ESRank1 117
999 WORDS_évoluent~3 177
999 WORDFREQ_0.81 177
999 WORDSALL_dans~1_évoluent~3 177
999 COSIND_0.04 177
999 COSGEN_0.04 177
102 ESRank2 177
202 ESForwSacLong+3+13 177
999 WORDS_évoluent~3 156
999 WORDFREQ_0.81 156
999 WORDSALL_évoluent~3 156
999 COSIND_0.04 156
999 COSGEN_0.04 156
103 ESRank3 156
203 ESBackSacRefixation 156
999 WORDS_satellites~5 224
999 WORDFREQ_1.15 224
999 WORDSALL_satellites~5 224
999 COSIND_0.59 224
999 COSGEN_0.59 224
104 ESRank4 224
202 ESForwSacLong+2+5 224
999 WORDS_autour~6 155
999 WORDFREQ_361.55 155
999 WORDSALL_autour~6 155
999 COSIND_0.09 155
999 COSGEN_0.09 155
105 ESRank5 155
201 ESForwSacShort 155
999 WORDS_planète~9 153
999 WORDFREQ_19.86 153
999 WORDSALL_de~7_planète~9 153
999 COSIND_0.38 153
999 COSGEN_0.38 153
106 ESRank6 153
202 ESForwSacLong+3+10 153
999 WORDS_planète~9 141
999 WORDFREQ_19.86 141
999 WORDSALL_planète~9 141
999 COSIND_0.38 141
999 COSGEN_0.38 141
107 ESRank7 141
203 ESBackSacRefixation 141
999 WORDS_jonché~11 174
999 WORDFREQ_0.07 174
999 WORDSALL_jonché~11 174
999 COSIND_0.16 174
999 COSGEN_0.16 174
108 ESRank8 174
202 ESForwSacLong+2+5 174
999 WORDS_milliers~13 183
999 WORDFREQ_40.07 183
999 WORDSALL_milliers~13 183
999 COSIND_0.01 183
999 COSGEN_0.01 183
109 ESRank9 183
202 ESForwSacLong+2+4 183
999 WORDS_débris~15 179
999 WORDFREQ_13.85 179
999 WORDSALL_débris~15 179
999 COSIND_0.42 179
999 COSGEN_0.42 179
110 ESRank10 179
202 ESForwSacLong+2+4 179
999 WORDS_toutes~17 90
999 WORDFREQ_50.47 90
999 WORDSALL_de~16_toutes~17 90
999 COSIND_-0.05 90
999 COSGEN_-0.05 90
111 ESRank11 90
202 ESForwSacLong+2+4 90
999 WORDS_milliers~13 199
999 WORDFREQ_40.07 199
999 WORDSALL_jonché~11_milliers~13 199
999 COSIND_0.01 199
999 COSGEN_0.01 199
112 ESRank12 199
206 ESBackSacRegrLong-4-15 199
999 WORDS_inquiètent~20 103
999 WORDFREQ_1.01 103
999 WORDSALL_inquiètent~20 103
999 COSIND_0.06 103
999 COSGEN_0.06 103
113 ESRank13 103
202 ESForwSacLong+7+33 103
999 WORDS_sortes~18 135
999 WORDFREQ_33.78 135
999 WORDSALL_sortes~18 135
999 COSIND_0.01 135
999 COSGEN_0.01 135
114 ESRank14 135
206 ESBackSacRegrLong-2-5 135
999 WORDS_inquiètent~20 164
999 WORDFREQ_1.01 164
999 WORDSALL_inquiètent~20 164
999 COSIND_0.06 164
999 COSGEN_0.06 164
115 ESRank15 164
202 ESForwSacLong+2+5 164
200 ESRankN 164
199 ESRankNMinus1 135
198 ESRankNMinus2 103
197 ESRankNMinus3 199
196 ESRankNMinus4 90
195 ESRankNMinus5 179
194 ESRankNMinus6 183
193 ESRankNMinus7 174
192 ESRankNMinus8 141
191 ESRankNMinus9 153
190 ESRankNMinus10 155
