# 254 Fixation 1 (304.6,281.6): Laure~0
# 191 Fixation 2 (479.2,280.7): a~2 remporté~3
# 156 Fixation 3 (472,336.1): a~2 remporté~3 200~8 m~9
%%
# Laure~0 Fixations= "1/"
# Manaudou~1 Fixations= ""
# a~2 Fixations= "3/"
# remporté~3 Fixations= "3/"
# la~4 Fixations= ""
# médaille~5 Fixations= ""
# d'argent~6 Fixations= ""
# sur~7 Fixations= ""
# 200~8 Fixations= "3/"
# m~9 Fixations= "3/"
# nage~10 Fixations= ""
# libre~11 Fixations= ""
# aux~12 Fixations= ""
# championnats~13 Fixations= ""
# d'Europe~14 Fixations= ""
# de~15 Fixations= ""
# natation~16 Fixations= ""
# en~17 Fixations= ""
# petit~18 Fixations= ""
# bassin~19 Fixations= ""
# Le~20 Fixations= ""
# titre~21 Fixations= ""
# est~22 Fixations= ""
# cependant~23 Fixations= ""
# revenu~24 Fixations= ""
# à~25 Fixations= ""
# la~26 Fixations= ""
# suédoise~27 Fixations= ""
%%
#  LAURE[1] Manaudou A[3] REMPORTé[3] la médaille d'argent sur 200[3] M[3] nage libre aux championnats d'Europe de natation en petit bassin Le titre est cependant revenu à la suédoise
# s21 observation_planetes-a2 PercentageOfWordsProcessed= 0.178571428571429 PercentageOfWordsReallyProcessed= 0.5
