# 133 Fixation 1 (301.2,289.4): Le~0 rythme~1
# 139 Fixation 2 (399.6,284.7): des~2 transformations~3
# 134 Fixation 3 (448.8,282.8): des~2 transformations~3
# 120 Fixation 4 (569,277.8): transformations~3
# 229 Fixation 5 (656.3,275.7): de~4 bureaux~5
# 188 Fixation 6 (551.2,428): des~15 appartements~16
# 192 Fixation 7 (593.2,417.8): appartements~16
# 207 Fixation 8 (511.8,420.1): des~15 appartements~16
# 119 Fixation 9 (582.6,473.5): niveau~19 plus~20
# 176 Fixation 10 (674.2,479.8): plus~20 élevé~21
# 164 Fixation 11 (368.4,514.1): du~24 parc~25
# 177 Fixation 12 (471.9,526.8): classique~26
# 233 Fixation 13 (422.5,379.2): dans~7 capitale~9
# 175 Fixation 14 (369.6,394.6): deviennent~14
# 207 Fixation 15 (555,406): des~15 appartements~16
# 178 Fixation 16 (679.5,345.4): En~10 réalité~11
# 164 Fixation 17 (635.5,345.5): En~10 réalité~11
%%
# Le~0 Fixations= "1/"
# rythme~1 Fixations= "1/"
# des~2 Fixations= "3/"
# transformations~3 Fixations= "4/"
# de~4 Fixations= "5/"
# bureaux~5 Fixations= "5/"
# s'accélère~6 Fixations= ""
# dans~7 Fixations= "13/"
# la~8 Fixations= ""
# capitale~9 Fixations= "13/"
# En~10 Fixations= "17/"
# réalité~11 Fixations= "17/"
# la~12 Fixations= ""
# moitié~13 Fixations= ""
# deviennent~14 Fixations= "14/"
# des~15 Fixations= "15/"
# appartements~16 Fixations= "15/"
# intermédiaires~17 Fixations= ""
# d'un~18 Fixations= ""
# niveau~19 Fixations= "9/"
# plus~20 Fixations= "10/"
# élevé~21 Fixations= "10/"
# que~22 Fixations= ""
# celui~23 Fixations= ""
# du~24 Fixations= "11/"
# parc~25 Fixations= "11/"
# classique~26 Fixations= "12/"
%%
#  LE[1] RYTHME[1] DES[3] TRANSFORMATIONS[4] DE[5] BUREAUX[5] s'accélère DANS[13] la CAPITALE[13] EN[17] RéALITé[17] la moitié DEVIENNENT[14] DES[15] APPARTEMENTS[15] intermédiaires d'un NIVEAU[9] PLUS[10] éLEVé[10] que celui DU[11] PARC[11] CLASSIQUE[12]
# s10 rehabilitation_logement-m2 PercentageOfWordsProcessed= 0.703703703703704 PercentageOfWordsReallyProcessed= 0.703703703703704
