999 WORDS_L'exploit~0 179
999 WORDFREQ_5.2 179
999 WORDSALL_L'exploit~0 179
999 COSIND_0.01 179
999 COSGEN_0.01 179
101 ESRank1 179
999 WORDS_Louis~2 179
999 WORDFREQ_5.07 179
999 WORDSALL_de~1_Louis~2 179
999 COSIND_0.08 179
999 COSGEN_0.08 179
102 ESRank2 179
202 ESForwSacLong+2+4 179
999 WORDS_Blériot~3 199
999 WORDFREQ_N/A 199
999 WORDSALL_Louis~2_Blériot~3 199
999 COSIND_N/A 199
103 ESRank3 199
201 ESForwSacShort 199
999 WORDS_premier~5 155
999 WORDFREQ_237.91 155
999 WORDSALL_premier~5 155
999 COSIND_-0.00 155
999 COSGEN_-0.00 155
104 ESRank4 155
202 ESForwSacLong+2+4 155
999 WORDS_ 172
999 WORDFREQ_ 172
999 WORDSALL_ 172
105 ESRank5 172
999 WORDS_aviateur~6 309
999 WORDFREQ_4.05 309
999 WORDSALL_aviateur~6 309
999 COSIND_0.25 309
999 COSGEN_0.25 309
106 ESRank6 309
999 WORDS_Louis~2 346
999 WORDFREQ_5.07 346
999 WORDSALL_L'exploit~0_Louis~2 346
999 COSIND_0.08 346
999 COSGEN_0.08 346
107 ESRank7 346
206 ESBackSacRegrLong-4-21 346
999 WORDS_Louis~2 249
999 WORDFREQ_5.07 249
999 WORDSALL_de~1_Louis~2 249
999 COSIND_0.08 249
999 COSGEN_0.08 249
108 ESRank8 249
203 ESBackSacRefixation 249
999 WORDS_premier~5 210
999 WORDFREQ_237.91 210
999 WORDSALL_le~4_premier~5 210
999 COSIND_-0.00 210
999 COSGEN_-0.00 210
109 ESRank9 210
202 ESForwSacLong+3+13 210
999 WORDS_1909~15 134
999 WORDFREQ_N/A 134
999 WORDSALL_avion~13_1909~15 134
999 COSIND_N/A 134
110 ESRank10 134
202 ESForwSacLong+10+51 134
999 WORDS_a~16 94
999 WORDFREQ_2926.69 94
999 WORDSALL_1909~15_a~16 94
999 COSIND_N/A 94
111 ESRank11 94
201 ESForwSacShort 94
999 WORDS_reproduit~18 238
999 WORDFREQ_3.11 238
999 WORDSALL_été~17_reproduit~18 238
999 COSIND_0.09 238
999 COSGEN_0.09 238
112 ESRank12 238
202 ESForwSacLong+2+7 238
999 WORDS_dimanche~19 282
999 WORDFREQ_87.84 282
999 WORDSALL_dimanche~19 282
999 COSIND_0.03 282
999 COSGEN_0.03 282
113 ESRank13 282
201 ESForwSacShort 282
999 WORDS_juillet~21 240
999 WORDFREQ_47.57 240
999 WORDSALL_juillet~21 240
999 COSIND_-0.03 240
999 COSGEN_-0.03 240
114 ESRank14 240
202 ESForwSacLong+2+4 240
999 WORDS_ans~23 223
999 WORDFREQ_609.05 223
999 WORDSALL_90~22_ans~23 223
999 COSIND_-0.06 223
999 COSGEN_-0.06 223
115 ESRank15 223
202 ESForwSacLong+2+4 223
999 WORDS_juillet~21 230
999 WORDFREQ_47.57 230
999 WORDSALL_juillet~21 230
999 COSIND_-0.03 230
999 COSGEN_-0.03 230
116 ESRank16 230
206 ESBackSacRegrLong-2-4 230
999 WORDS_juillet~21 142
999 WORDFREQ_47.57 142
999 WORDSALL_juillet~21 142
999 COSIND_-0.03 142
999 COSGEN_-0.03 142
117 ESRank17 142
203 ESBackSacRefixation 142
999 WORDS_90~22 145
999 WORDFREQ_N/A 145
999 WORDSALL_90~22 145
999 COSIND_N/A 145
118 ESRank18 145
201 ESForwSacShort 145
999 WORDS_jour~24 182
999 WORDFREQ_826.35 182
999 WORDSALL_ans~23_jour~24 182
999 COSIND_-0.03 182
999 COSGEN_-0.03 182
119 ESRank19 182
202 ESForwSacLong+2+5 182
999 WORDS_aprés~27 217
999 WORDFREQ_N/A 217
999 WORDSALL_jour~26_aprés~27 217
999 COSIND_N/A 217
120 ESRank20 217
202 ESForwSacLong+3+11 217
999 WORDS_ligne~32 216
999 WORDFREQ_101.01 216
999 WORDSALL_pilote~30_ligne~32 216
999 COSIND_-0.06 216
999 COSGEN_-0.06 216
202 ESForwSacLong+5+18 216
999 WORDS_pilote~30 217
999 WORDFREQ_5.61 217
999 WORDSALL_un~29_pilote~30 217
999 COSIND_0.27 217
999 COSGEN_0.27 217
206 ESBackSacRegrLong-2-4 217
200 ESRankN 217
199 ESRankNMinus1 216
198 ESRankNMinus2 217
197 ESRankNMinus3 182
196 ESRankNMinus4 145
195 ESRankNMinus5 142
194 ESRankNMinus6 230
193 ESRankNMinus7 223
192 ESRankNMinus8 240
191 ESRankNMinus9 282
190 ESRankNMinus10 238
