# 225 Fixation 1 (309.5,325.2): Les~0 laboratoires~1 premier~6
# 140 Fixation 2 (407.8,297.9): laboratoires~1 dur~8
# 223 Fixation 3 (518.3,275.1): ont~2
# 91 Fixation 4 (474.3,291.1): ont~2
# 166 Fixation 5 (636,231): réalisé~4
# 273 Fixation 6 (290.1,383.7): premier~6 menacée~13
# 347 Fixation 7 (424.3,462.1): Les~14 médicaments~15 nombreux~20
%%
# Les~0 Fixations= "1/"
# laboratoires~1 Fixations= "2/"
# ont~2 Fixations= "4/"
# ainsi~3 Fixations= ""
# réalisé~4 Fixations= "5/"
# qu'au~5 Fixations= ""
# premier~6 Fixations= "6/"
# coup~7 Fixations= ""
# dur~8 Fixations= "2/"
# leur~9 Fixations= ""
# existence~10 Fixations= ""
# même~11 Fixations= ""
# était~12 Fixations= ""
# menacée~13 Fixations= "6/"
# Les~14 Fixations= "7/"
# médicaments~15 Fixations= "7/"
# nouveaux~16 Fixations= ""
# n'étaient~17 Fixations= ""
# plus~18 Fixations= ""
# assez~19 Fixations= ""
# nombreux~20 Fixations= "7/"
# pour~21 Fixations= ""
# compenser~22 Fixations= ""
# la~23 Fixations= ""
# chute~24 Fixations= ""
# de~25 Fixations= ""
# leurs~26 Fixations= ""
# brevets~27 Fixations= ""
# dans~28 Fixations= ""
# le~29 Fixations= ""
# domaine~30 Fixations= ""
# public~31 Fixations= ""
%%
#  LES[1] LABORATOIRES[2] ONT[4] ainsi RéALISé[5] qu'au PREMIER[6] coup DUR[2] leur existence même était MENACéE[6] LES[7] MéDICAMENTS[7] nouveaux n'étaient plus assez NOMBREUX[7] pour compenser la chute de leurs brevets dans le domaine public
# s20 conflit_israelo_palestinien-a2 PercentageOfWordsProcessed= 0.3125 PercentageOfWordsReallyProcessed= 0.476190476190476
