# 129 Fixation 1 (282.4,272.6): Des~0 trafiquants~1
# 131 Fixation 2 (338.7,274.6): trafiquants~1
# 191 Fixation 3 (506.2,287.9): de~2 cocaïne~3
# 108 Fixation 4 (539.7,291.7): cocaïne~3
# 346 Fixation 5 (625.8,298.5): colombiens~4
%%
# Des~0 Fixations= "1/"
# trafiquants~1 Fixations= "2/"
# de~2 Fixations= "3/"
# cocaïne~3 Fixations= "4/"
# colombiens~4 Fixations= "5/"
# ont~5 Fixations= ""
# été~6 Fixations= ""
# sabordés~7 Fixations= ""
# par~8 Fixations= ""
# un~9 Fixations= ""
# sous-marin~10 Fixations= ""
# au~11 Fixations= ""
# large~12 Fixations= ""
# de~13 Fixations= ""
# la~14 Fixations= ""
# côte~15 Fixations= ""
# Pacifique~16 Fixations= ""
# C'est~17 Fixations= ""
# la~18 Fixations= ""
# deuxième~19 Fixations= ""
# fois~20 Fixations= ""
# que~21 Fixations= ""
# les~22 Fixations= ""
# forces~23 Fixations= ""
# colombiennes~24 Fixations= ""
# arrêtent~25 Fixations= ""
# un~26 Fixations= ""
# engin~27 Fixations= ""
# afin~28 Fixations= ""
# d'en~29 Fixations= ""
# détruire~30 Fixations= ""
# la~31 Fixations= ""
# cargaison~32 Fixations= ""
# illicite~33 Fixations= ""
%%
#  DES[1] TRAFIQUANTS[2] DE[3] COCAïNE[4] COLOMBIENS[5] ont été sabordés par un sous-marin au large de la côte Pacifique C'est la deuxième fois que les forces colombiennes arrêtent un engin afin d'en détruire la cargaison illicite
# s05 tourisme_montagne-a1 PercentageOfWordsProcessed= 0.147058823529412 PercentageOfWordsReallyProcessed= 1
