999 WORDS_l'interdiction~1 160
999 WORDFREQ_5.95 160
999 WORDSALL_l'interdiction~1 160
999 COSIND_0.02 160
999 COSGEN_0.02 160
101 ESRank1 160
999 WORDS_fumer~3 264
999 WORDFREQ_20.88 264
999 WORDSALL_de~2_fumer~3 264
999 COSIND_-0.09 264
999 COSGEN_-0.09 264
102 ESRank2 264
202 ESForwSacLong+2+4 264
999 WORDS_l'interdiction~1 210
999 WORDFREQ_5.95 210
999 WORDSALL_l'interdiction~1 210
999 COSIND_0.02 210
999 COSGEN_0.02 210
103 ESRank3 210
206 ESBackSacRegrLong-2-4 210
999 WORDS_l'affluence~5 154
999 WORDFREQ_2.64 154
999 WORDSALL_Depuis~0_l'interdiction~1_l'affluence~5 154
999 COSIND_0.03 154
999 COSGEN_0.03 154
104 ESRank4 154
202 ESForwSacLong+4+16 154
999 WORDS_dimanche~7 279
999 WORDFREQ_87.84 279
999 WORDSALL_l'interdiction~1_fumer~3_dimanche~7 279
999 COSIND_0.01 279
999 COSGEN_0.01 279
105 ESRank5 279
202 ESForwSacLong+2+6 279
200 ESRankN 279
199 ESRankNMinus1 154
198 ESRankNMinus2 210
197 ESRankNMinus3 264
196 ESRankNMinus4 160
