# 165 Fixation 1 (327.8,280): Des~0 trafiquants~1
# 173 Fixation 2 (436.1,281.1): trafiquants~1
# 186 Fixation 3 (527.7,277.8): de~2 cocaïne~3
# 264 Fixation 4 (522.3,286.8): de~2 cocaïne~3
# 162 Fixation 5 (647.4,296.3): colombiens~4
# 126 Fixation 6 (703.4,300.6): colombiens~4 ont~5 large~12
# 146 Fixation 7 (267,350.7): été~6
# 208 Fixation 8 (348,340.4): trafiquants~1 sabordés~7
# 362 Fixation 9 (370.4,342.4): trafiquants~1 sabordés~7
%%
# Des~0 Fixations= "1/"
# trafiquants~1 Fixations= "9/"
# de~2 Fixations= "4/"
# cocaïne~3 Fixations= "4/"
# colombiens~4 Fixations= "6/"
# ont~5 Fixations= "6/"
# été~6 Fixations= "7/"
# sabordés~7 Fixations= "9/"
# par~8 Fixations= ""
# un~9 Fixations= ""
# sous-marin~10 Fixations= ""
# au~11 Fixations= ""
# large~12 Fixations= "6/"
# de~13 Fixations= ""
# la~14 Fixations= ""
# côte~15 Fixations= ""
# Pacifique~16 Fixations= ""
# C'est~17 Fixations= ""
# la~18 Fixations= ""
# deuxième~19 Fixations= ""
# fois~20 Fixations= ""
# que~21 Fixations= ""
# les~22 Fixations= ""
# forces~23 Fixations= ""
# colombiennes~24 Fixations= ""
# arrêtent~25 Fixations= ""
# un~26 Fixations= ""
# engin~27 Fixations= ""
# afin~28 Fixations= ""
# d'en~29 Fixations= ""
# détruire~30 Fixations= ""
# la~31 Fixations= ""
# cargaison~32 Fixations= ""
# illicite~33 Fixations= ""
%%
#  DES[1] TRAFIQUANTS[9] DE[4] COCAïNE[4] COLOMBIENS[6] ONT[6] éTé[7] SABORDéS[9] par un sous-marin au LARGE[6] de la côte Pacifique C'est la deuxième fois que les forces colombiennes arrêtent un engin afin d'en détruire la cargaison illicite
# s06 tourisme_montagne-a1 PercentageOfWordsProcessed= 0.264705882352941 PercentageOfWordsReallyProcessed= 0.692307692307692
