999 WORDS_L'étude~0 107
999 WORDFREQ_19.66 107
999 WORDSALL_L'étude~0 107
999 COSIND_0.08 107
999 COSGEN_0.08 107
101 ESRank1 107
999 WORDS_dynamique~3 140
999 WORDFREQ_0.61 140
999 WORDSALL_de~1_dynamique~3 140
999 COSIND_0.05 140
999 COSGEN_0.05 140
102 ESRank2 140
202 ESForwSacLong+3+7 140
999 WORDS_dynamique~3 151
999 WORDFREQ_0.61 151
999 WORDSALL_la~2_dynamique~3 151
999 COSIND_0.05 151
999 COSGEN_0.05 151
103 ESRank3 151
203 ESBackSacRefixation 151
999 WORDS_anneaux~5 214
999 WORDFREQ_7.97 214
999 WORDSALL_des~4_anneaux~5 214
999 COSIND_0.47 214
999 COSGEN_0.47 214
104 ESRank4 214
202 ESForwSacLong+2+5 214
999 WORDS_anneaux~5 88
999 WORDFREQ_7.97 88
999 WORDSALL_des~4_anneaux~5 88
999 COSIND_0.47 88
999 COSGEN_0.47 88
105 ESRank5 88
203 ESBackSacRefixation 88
999 WORDS_entourent~7 430
999 WORDFREQ_7.91 430
999 WORDSALL_entourent~7 430
999 COSIND_0.19 430
999 COSGEN_0.19 430
106 ESRank6 430
202 ESForwSacLong+2+5 430
999 WORDS_toutes~8 177
999 WORDFREQ_24.19 177
999 WORDSALL_toutes~8 177
999 COSIND_0.05 177
999 COSGEN_0.05 177
107 ESRank7 177
201 ESForwSacShort 177
999 WORDS_planètes~10 126
999 WORDFREQ_3.04 126
999 WORDSALL_planètes~10 126
999 COSIND_0.97 126
999 COSGEN_0.97 126
108 ESRank8 126
202 ESForwSacLong+2+5 126
999 WORDS_géantes~11 145
999 WORDFREQ_2.97 145
999 WORDSALL_géantes~11 145
999 COSIND_0.20 145
999 COSGEN_0.20 145
109 ESRank9 145
201 ESForwSacShort 145
999 WORDS_autour~14 170
999 WORDFREQ_361.55 170
999 WORDSALL_autour~14 170
999 COSIND_0.30 170
999 COSGEN_0.30 170
110 ESRank10 170
202 ESForwSacLong+3+11 170
999 WORDS_aide~17 168
999 WORDFREQ_18.38 168
999 WORDSALL_Soleil~16_aide~17 168
999 COSIND_0.01 168
999 COSGEN_0.01 168
111 ESRank11 168
202 ESForwSacLong+3+11 168
999 WORDS_astronomes~19 218
999 WORDFREQ_0.88 218
999 WORDSALL_les~18_astronomes~19 218
999 COSIND_0.85 218
999 COSGEN_0.85 218
112 ESRank12 218
202 ESForwSacLong+2+5 218
999 WORDS_comprendre~21 186
999 WORDFREQ_148.51 186
999 WORDSALL_comprendre~21 186
999 COSIND_0.08 186
999 COSGEN_0.08 186
113 ESRank13 186
202 ESForwSacLong+2+4 186
999 WORDS_processus~23 222
999 WORDFREQ_5.47 222
999 WORDSALL_processus~23 222
999 COSIND_0.04 222
999 COSGEN_0.04 222
114 ESRank14 222
202 ESForwSacLong+2+4 222
200 ESRankN 222
199 ESRankNMinus1 186
198 ESRankNMinus2 218
197 ESRankNMinus3 168
196 ESRankNMinus4 170
195 ESRankNMinus5 145
194 ESRankNMinus6 126
193 ESRankNMinus7 177
192 ESRankNMinus8 430
191 ESRankNMinus9 88
190 ESRankNMinus10 214
