# 127 Fixation 1 (287.4,276.7): Une~0 équipe~1
# 165 Fixation 2 (455.4,291.3): d'un~2 laboratoire~3
# 184 Fixation 3 (647.6,292.4): japonais~4
# 117 Fixation 4 (729.6,294.2): japonais~4 a~5
# 190 Fixation 5 (302.7,355): au~7 point~8
# 117 Fixation 6 (416.4,326.7): un~9 logiciel~10
# 155 Fixation 7 (568.2,363.3): de~11 traitement~12
# 105 Fixation 8 (724.6,359.1): d'images~13
# 198 Fixation 9 (340.1,416.5): capable~14
# 149 Fixation 10 (281.2,401.4): capable~14
# 223 Fixation 11 (532.3,411.9): la~17 présence~18
# 219 Fixation 12 (698.2,408.1): de~19 mines~20
# 117 Fixation 13 (336.8,428): capable~14
# 205 Fixation 14 (263.2,435.1): capable~14
# 150 Fixation 15 (426.1,414.9): de~15 deviner~16
# 208 Fixation 16 (588.6,426.1): présence~18
# 103 Fixation 17 (692.5,448): aériennes~25
# 214 Fixation 18 (303.2,502): partir~22
%%
# Une~0 Fixations= "1/"
# équipe~1 Fixations= "1/"
# d'un~2 Fixations= "2/"
# laboratoire~3 Fixations= "2/"
# japonais~4 Fixations= "4/"
# a~5 Fixations= "4/"
# mis~6 Fixations= ""
# au~7 Fixations= "5/"
# point~8 Fixations= "5/"
# un~9 Fixations= "6/"
# logiciel~10 Fixations= "6/"
# de~11 Fixations= "7/"
# traitement~12 Fixations= "7/"
# d'images~13 Fixations= "8/"
# capable~14 Fixations= "14/"
# de~15 Fixations= "15/"
# deviner~16 Fixations= "15/"
# la~17 Fixations= "11/"
# présence~18 Fixations= "16/"
# de~19 Fixations= "12/"
# mines~20 Fixations= "12/"
# à~21 Fixations= ""
# partir~22 Fixations= "18/"
# de~23 Fixations= ""
# photographies~24 Fixations= ""
# aériennes~25 Fixations= "17/"
# et~26 Fixations= ""
# d'un~27 Fixations= ""
# dispositif~28 Fixations= ""
# de~29 Fixations= ""
# filtrage~30 Fixations= ""
%%
#  UNE[1] éQUIPE[1] D'UN[2] LABORATOIRE[2] JAPONAIS[4] A[4] mis AU[5] POINT[5] UN[6] LOGICIEL[6] DE[7] TRAITEMENT[7] D'IMAGES[8] CAPABLE[14] DE[15] DEVINER[15] LA[11] PRéSENCE[16] DE[12] MINES[12] à PARTIR[18] de photographies AéRIENNES[17] et d'un dispositif de filtrage
# s07 observation_planetes-m2 PercentageOfWordsProcessed= 0.709677419354839 PercentageOfWordsReallyProcessed= 0.846153846153846
