# 233 Fixation 1 (314.6,297.7): Il~0 faut~1
# 126 Fixation 2 (285.3,298.1): Il~0 faut~1
# 274 Fixation 3 (372.6,293.6): faut~1 profiter~2
# 239 Fixation 4 (498.1,283.3): de~3 crise~5
# 236 Fixation 5 (584.5,272.1): la~4 crise~5
# 134 Fixation 6 (560.4,282.7): la~4 crise~5
# 440 Fixation 7 (403.7,358.2): le~9 gouvernement~10
# 193 Fixation 8 (425,434.9): certaines~16 unités~17
# 201 Fixation 9 (457.9,488.3): juge~21 nécessaire~22
# 245 Fixation 10 (544.3,412.1): gouvernement~10 militaires~18
# 373 Fixation 11 (666.2,323.1): générale~6 fatigue~14
# 210 Fixation 12 (288,452.7): de~15 certaines~16 guérillero~20
# 275 Fixation 13 (297.9,469.5): de~15 certaines~16 guérillero~20
%%
# Il~0 Fixations= "2/"
# faut~1 Fixations= "3/"
# profiter~2 Fixations= "3/"
# de~3 Fixations= "4/"
# la~4 Fixations= "6/"
# crise~5 Fixations= "6/"
# générale~6 Fixations= "11/"
# que~7 Fixations= ""
# traverse~8 Fixations= ""
# le~9 Fixations= "7/"
# gouvernement~10 Fixations= "10/"
# et~11 Fixations= ""
# de~12 Fixations= ""
# la~13 Fixations= ""
# fatigue~14 Fixations= "11/"
# de~15 Fixations= "13/"
# certaines~16 Fixations= "13/"
# unités~17 Fixations= "8/"
# militaires~18 Fixations= "10/"
# Le~19 Fixations= ""
# guérillero~20 Fixations= "13/"
# juge~21 Fixations= "9/"
# nécessaire~22 Fixations= "9/"
# de~23 Fixations= ""
# mener~24 Fixations= ""
# des~25 Fixations= ""
# actions~26 Fixations= ""
# armées~27 Fixations= ""
# sur~28 Fixations= ""
# les~29 Fixations= ""
# routes~30 Fixations= ""
%%
#  IL[2] FAUT[3] PROFITER[3] DE[4] LA[6] CRISE[6] GéNéRALE[11] que traverse LE[7] GOUVERNEMENT[10] et de la FATIGUE[11] DE[13] CERTAINES[13] UNITéS[8] MILITAIRES[10] Le GUéRILLERO[13] JUGE[9] NéCESSAIRE[9] de mener des actions armées sur les routes
# s14 tourisme_montagne-a2 PercentageOfWordsProcessed= 0.548387096774194 PercentageOfWordsReallyProcessed= 0.739130434782609
