# 308 Fixation 1 (298.4,282.9): Qui~0 sont~1
# 95 Fixation 2 (287.6,281.4): Qui~0 sont~1
# 275 Fixation 3 (409,279): ces~2 étudiants~3
# 155 Fixation 4 (364.3,288.5): sont~1
# 455 Fixation 5 (555.9,284.1): étudiants~3 n'ont~5
# 220 Fixation 6 (635.7,278.8): n'ont~5
# 259 Fixation 7 (691,281.4): n'ont~5
# 122 Fixation 8 (367.2,348.7): sont~1 s'offrir~10
# 242 Fixation 9 (273.9,356.1): moyens~8
# 253 Fixation 10 (380,352.3): de~9 s'offrir~10
# 312 Fixation 11 (501.2,354.2): s'offrir~10 repas~12
# 200 Fixation 12 (585,365.9): repas~12 à~13
# 303 Fixation 13 (560.8,424): étudiants~18
# 156 Fixation 14 (634.9,430.8): étudiants~18 étrangers~19
# 260 Fixation 15 (582.3,451.8): étudiants~18 d'études~25
%%
# Qui~0 Fixations= "2/"
# sont~1 Fixations= "8/"
# ces~2 Fixations= "3/"
# étudiants~3 Fixations= "5/"
# qui~4 Fixations= ""
# n'ont~5 Fixations= "7/"
# pas~6 Fixations= ""
# les~7 Fixations= ""
# moyens~8 Fixations= "9/"
# de~9 Fixations= "10/"
# s'offrir~10 Fixations= "11/"
# un~11 Fixations= ""
# repas~12 Fixations= "12/"
# à~13 Fixations= "12/"
# 3~14 Fixations= ""
# euros~15 Fixations= ""
# Principalement~16 Fixations= ""
# des~17 Fixations= ""
# étudiants~18 Fixations= "15/"
# étrangers~19 Fixations= "14/"
# qui~20 Fixations= ""
# n'ont~21 Fixations= ""
# pas~22 Fixations= ""
# de~23 Fixations= ""
# bourses~24 Fixations= ""
# d'études~25 Fixations= "15/"
# résume~26 Fixations= ""
# l'assistante~27 Fixations= ""
# sociale~28 Fixations= ""
# du~29 Fixations= ""
# Crous~30 Fixations= ""
%%
#  QUI[2] SONT[8] CES[3] éTUDIANTS[5] qui N'ONT[7] pas les MOYENS[9] DE[10] S'OFFRIR[11] un REPAS[12] à[12] 3 euros Principalement des éTUDIANTS[15] éTRANGERS[14] qui n'ont pas de bourses D'éTUDES[15] résume l'assistante sociale du Crous
# s14 salon_aeronautique-a1 PercentageOfWordsProcessed= 0.419354838709677 PercentageOfWordsReallyProcessed= 0.5
