# 115 Fixation 1 (274.6,278): Cette~0 annonce~1
# 139 Fixation 2 (387.8,283.6): annonce~1
# 178 Fixation 3 (474.1,280): qui~2 avait~3
# 182 Fixation 4 (567.9,280.8): avait~3 déjà~4
# 205 Fixation 5 (299.8,349.8): pronostiquée~6
# 185 Fixation 6 (479.6,351.7): par~7 certains~8
# 201 Fixation 7 (613.2,349.4): analystes~9
# 176 Fixation 8 (341,405): semaine~11 dernière~12
# 146 Fixation 9 (266.6,404): semaine~11
# 182 Fixation 10 (520.6,401.2): a~13 été~14
# 98 Fixation 11 (558.8,407): été~14
# 171 Fixation 12 (285.1,480.1): accueillie~16
# 163 Fixation 13 (451.8,461.9): Cette~17 diminution~18
# 140 Fixation 14 (501.3,465.8): Cette~17 diminution~18
# 205 Fixation 15 (649.7,474.3): ne~19 fait~20
# 120 Fixation 16 (289.7,536.4): poursuivre~22
# 300 Fixation 17 (447.3,530.3): une~23 tendance~24
# 179 Fixation 18 (594.9,519.8): à~25
# 181 Fixation 19 (259.9,589.3): titre~29
# 157 Fixation 20 (628.6,526.2): à~25 baisse~27
%%
# Cette~0 Fixations= "1/"
# annonce~1 Fixations= "2/"
# qui~2 Fixations= "3/"
# avait~3 Fixations= "4/"
# déjà~4 Fixations= "4/"
# été~5 Fixations= ""
# pronostiquée~6 Fixations= "5/"
# par~7 Fixations= "6/"
# certains~8 Fixations= "6/"
# analystes~9 Fixations= "7/"
# la~10 Fixations= ""
# semaine~11 Fixations= "9/"
# dernière~12 Fixations= "8/"
# a~13 Fixations= "10/"
# été~14 Fixations= "11/"
# fraîchement~15 Fixations= ""
# accueillie~16 Fixations= "12/"
# Cette~17 Fixations= "14/"
# diminution~18 Fixations= "14/"
# ne~19 Fixations= "15/"
# fait~20 Fixations= "15/"
# que~21 Fixations= ""
# poursuivre~22 Fixations= "16/"
# une~23 Fixations= "17/"
# tendance~24 Fixations= "17/"
# à~25 Fixations= "20/"
# la~26 Fixations= ""
# baisse~27 Fixations= "20/"
# du~28 Fixations= ""
# titre~29 Fixations= "19/"
%%
#  CETTE[1] ANNONCE[2] QUI[3] AVAIT[4] DéJà[4] été PRONOSTIQUéE[5] PAR[6] CERTAINS[6] ANALYSTES[7] la SEMAINE[9] DERNIèRE[8] A[10] éTé[11] fraîchement ACCUEILLIE[12] CETTE[14] DIMINUTION[14] NE[15] FAIT[15] que POURSUIVRE[16] UNE[17] TENDANCE[17] à[20] la BAISSE[20] du TITRE[19]
# s18 hausse_bourse-m1 PercentageOfWordsProcessed= 0.8 PercentageOfWordsReallyProcessed= 0.8
