999 WORDS_France~2 138
999 WORDFREQ_N/A 138
999 WORDSALL_la~1_France~2 138
999 COSIND_N/A 138
101 ESRank1 138
999 WORDS_France~2 146
999 WORDFREQ_N/A 146
999 WORDSALL_France~2 146
999 COSIND_N/A 146
102 ESRank2 146
203 ESBackSacRefixation 146
999 WORDS_pourra-t-elle~3 164
999 WORDFREQ_N/A 164
999 WORDSALL_pourra-t-elle~3 164
999 COSIND_N/A 164
103 ESRank3 164
201 ESForwSacShort 164
999 WORDS_passer~5 154
999 WORDFREQ_288.78 154
999 WORDSALL_se~4_passer~5 154
999 COSIND_-0.02 154
999 COSGEN_-0.02 154
104 ESRank4 154
202 ESForwSacLong+2+4 154
999 WORDS_cigarette~8 254
999 WORDFREQ_77.57 254
999 WORDSALL_Comment~0_France~2_cigarette~8 254
999 COSIND_0.09 254
999 COSGEN_0.09 254
105 ESRank5 254
202 ESForwSacLong+3+7 254
999 WORDS_L'interdiction~9 179
999 WORDFREQ_5.95 179
999 WORDSALL_pourra-t-elle~3_L'interdiction~9 179
999 COSIND_-0.04 179
999 COSGEN_-0.04 179
106 ESRank6 179
201 ESForwSacShort 179
999 WORDS_fumer~11 102
999 WORDFREQ_20.88 102
999 WORDSALL_de~10_fumer~11 102
999 COSIND_-0.01 102
999 COSGEN_-0.01 102
107 ESRank7 102
202 ESForwSacLong+2+4 102
200 ESRankN 102
199 ESRankNMinus1 179
198 ESRankNMinus2 254
197 ESRankNMinus3 154
196 ESRankNMinus4 164
195 ESRankNMinus5 146
194 ESRankNMinus6 138
