# 169 Fixation 1 (268,327.9): l'Australie~7
# 201 Fixation 2 (389.4,325.4): l'Australie~7 finale~9
# 133 Fixation 3 (536.2,299.3): de~3 football~4
# 119 Fixation 4 (631,216.4): football~4 a~5
# 223 Fixation 5 (705.9,206.9): a~5 vaincu~6
# 317 Fixation 6 (279.4,383.7): L'entraineur~15
# 142 Fixation 7 (372.7,344.7): l'Australie~7
%%
# L'équipe~0 Fixations= ""
# de~1 Fixations= ""
# France~2 Fixations= ""
# de~3 Fixations= "3/"
# football~4 Fixations= "4/"
# a~5 Fixations= "5/"
# vaincu~6 Fixations= "5/"
# l'Australie~7 Fixations= "7/"
# en~8 Fixations= ""
# finale~9 Fixations= "2/"
# de~10 Fixations= ""
# la~11 Fixations= ""
# Coupe~12 Fixations= ""
# du~13 Fixations= ""
# Monde~14 Fixations= ""
# L'entraineur~15 Fixations= "6/"
# est~16 Fixations= ""
# très~17 Fixations= ""
# satisfait~18 Fixations= ""
# de~19 Fixations= ""
# son~20 Fixations= ""
# équipe~21 Fixations= ""
# et~22 Fixations= ""
# envisage~23 Fixations= ""
# les~24 Fixations= ""
# rencontres~25 Fixations= ""
# futures~26 Fixations= ""
# avec~27 Fixations= ""
# enthousiasme~28 Fixations= ""
# et~29 Fixations= ""
# sérénité~30 Fixations= ""
%%
#  L'équipe de France DE[3] FOOTBALL[4] A[5] VAINCU[5] L'AUSTRALIE[7] en FINALE[2] de la Coupe du Monde L'ENTRAINEUR[6] est très satisfait de son équipe et envisage les rencontres futures avec enthousiasme et sérénité
# s20 victoire_footballeurs-f2 PercentageOfWordsProcessed= 0.225806451612903 PercentageOfWordsReallyProcessed= 0.4375
