# 150 Fixation 1 (219.1,284.8): Un~0 décret~1
# 119 Fixation 2 (268.9,286): Un~0 décret~1
# 211 Fixation 3 (303.5,283.6): Un~0 décret~1
# 182 Fixation 4 (421.7,269.1): a~2 été~3
# 125 Fixation 5 (471.2,265.4): été~3 émis~4
# 268 Fixation 6 (590.8,202.1):
# 153 Fixation 7 (636.3,194.6):
# 183 Fixation 8 (755.7,180):
# 231 Fixation 9 (306.9,337.7): la~10 construction~11
# 143 Fixation 10 (403.1,340.2): construction~11
# 199 Fixation 11 (566.4,334.8): de~13 l'habitation~14
# 123 Fixation 12 (628.4,335.1): l'habitation~14
# 239 Fixation 13 (755.8,268.7): le~7 code~8
# 164 Fixation 14 (363.7,393.7): relatif~17
# 214 Fixation 15 (537.1,352.6): de~13 l'habitation~14
# 298 Fixation 16 (611.7,341): l'habitation~14
# 235 Fixation 17 (588.5,353.7): l'habitation~14
# 172 Fixation 18 (755.9,289.2): le~7 code~8
# 284 Fixation 19 (323.8,416.4): relatif~17
%%
# Un~0 Fixations= "3/"
# décret~1 Fixations= "3/"
# a~2 Fixations= "4/"
# été~3 Fixations= "5/"
# émis~4 Fixations= "5/"
# qui~5 Fixations= ""
# modifie~6 Fixations= ""
# le~7 Fixations= "18/"
# code~8 Fixations= "18/"
# de~9 Fixations= ""
# la~10 Fixations= "9/"
# construction~11 Fixations= "10/"
# et~12 Fixations= ""
# de~13 Fixations= "15/"
# l'habitation~14 Fixations= "17/"
# Il~15 Fixations= ""
# est~16 Fixations= ""
# relatif~17 Fixations= "19/"
# aux~18 Fixations= ""
# subventions~19 Fixations= ""
# et~20 Fixations= ""
# prêts~21 Fixations= ""
# pour~22 Fixations= ""
# la~23 Fixations= ""
# construction~24 Fixations= ""
# l'acquisition~25 Fixations= ""
# et~26 Fixations= ""
# l'amélioration~27 Fixations= ""
# des~28 Fixations= ""
# logements~29 Fixations= ""
# locatifs~30 Fixations= ""
# aidés~31 Fixations= ""
%%
#  UN[3] DéCRET[3] A[4] éTé[5] éMIS[5] qui modifie LE[18] CODE[18] de LA[9] CONSTRUCTION[10] et DE[15] L'HABITATION[17] Il est RELATIF[19] aux subventions et prêts pour la construction l'acquisition et l'amélioration des logements locatifs aidés
# s20 rehabilitation_logement-f2 PercentageOfWordsProcessed= 0.375 PercentageOfWordsReallyProcessed= 0.666666666666667
