999 WORDS_Facile~0 115
999 WORDFREQ_88.65 115
999 WORDSALL_Facile~0 115
999 COSIND_0.04 115
999 COSGEN_0.04 115
101 ESRank1 115
999 WORDS_cultiver~2 164
999 WORDFREQ_4.32 164
999 WORDSALL_à~1_cultiver~2 164
999 COSIND_-0.12 164
999 COSGEN_-0.12 164
102 ESRank2 164
202 ESForwSacLong+2+4 164
999 WORDS_décorative~3 139
999 WORDFREQ_0.88 139
999 WORDSALL_décorative~3 139
999 COSIND_0.01 139
999 COSGEN_0.01 139
103 ESRank3 139
201 ESForwSacShort 139
999 WORDS_décorative~3 123
999 WORDFREQ_0.88 123
999 WORDSALL_décorative~3 123
999 COSIND_0.01 123
999 COSGEN_0.01 123
104 ESRank4 123
203 ESBackSacRefixation 123
999 WORDS_variée~4 325
999 WORDFREQ_0.74 325
999 WORDSALL_variée~4 325
999 COSIND_0.05 325
999 COSGEN_0.05 325
105 ESRank5 325
201 ESForwSacShort 325
999 WORDS_décorative~3 138
999 WORDFREQ_0.88 138
999 WORDSALL_décorative~3 138
999 COSIND_0.01 138
999 COSGEN_0.01 138
106 ESRank6 138
205 ESBackSacRegrShort 138
999 WORDS_décorative~3 146
999 WORDFREQ_0.88 146
999 WORDSALL_décorative~3 146
999 COSIND_0.01 146
999 COSGEN_0.01 146
107 ESRank7 146
203 ESBackSacRefixation 146
999 WORDS_variée~4 208
999 WORDFREQ_0.74 208
999 WORDSALL_variée~4 208
999 COSIND_0.05 208
999 COSGEN_0.05 208
108 ESRank8 208
201 ESForwSacShort 208
999 WORDS_tellement~6 168
999 WORDFREQ_168.51 168
999 WORDSALL_Facile~0_à~1_tellement~6 168
999 COSIND_-0.05 168
999 COSGEN_-0.05 168
109 ESRank9 168
202 ESForwSacLong+2+4 168
999 WORDS_savoureuse~7 146
999 WORDFREQ_1.82 146
999 WORDSALL_cultiver~2_savoureuse~7 146
999 COSIND_-0.03 146
999 COSGEN_-0.03 146
110 ESRank10 146
201 ESForwSacShort 146
999 WORDS_décorative~3 118
999 WORDFREQ_0.88 118
999 WORDSALL_décorative~3 118
999 COSIND_0.01 118
999 COSGEN_0.01 118
111 ESRank11 118
206 ESBackSacRegrLong-4-22 118
999 WORDS_cueille~11 169
999 WORDFREQ_2.3 169
999 WORDSALL_variée~4_cueille~11 169
999 COSIND_-0.11 169
999 COSGEN_-0.11 169
112 ESRank12 169
202 ESForwSacLong+8+45 169
999 WORDS_pied~15 110
999 WORDFREQ_248.18 110
999 WORDSALL_tellement~6_pied~15 110
999 COSIND_-0.00 110
999 COSGEN_-0.00 110
113 ESRank13 110
202 ESForwSacLong+4+13 110
999 WORDS_même~13 144
999 WORDFREQ_55.74 144
999 WORDSALL_tellement~6_même~13 144
999 COSIND_N/A 144
114 ESRank14 144
206 ESBackSacRegrLong-2-4 144
999 WORDS_tomate~17 186
999 WORDFREQ_5.74 186
999 WORDSALL_tomate~17 186
999 COSIND_-0.04 186
999 COSGEN_-0.04 186
115 ESRank15 186
202 ESForwSacLong+4+12 186
999 WORDS_riche~31 224
999 WORDFREQ_42.57 224
999 WORDSALL_d'Amérique~23_riche~31 224
999 COSIND_-0.07 224
999 COSGEN_-0.07 224
116 ESRank16 224
202 ESForwSacLong+14+85 224
999 WORDS_d'Amérique~23 220
999 WORDFREQ_1.08 220
999 WORDSALL_d'Amérique~23 220
999 COSIND_N/A 220
117 ESRank17 220
206 ESBackSacRegrLong-8-37 220
999 WORDS_centrale~24 151
999 WORDFREQ_15.34 151
999 WORDSALL_centrale~24 151
999 COSIND_-0.05 151
999 COSGEN_-0.05 151
118 ESRank18 151
201 ESForwSacShort 151
999 WORDS_d'Amérique~23 135
999 WORDFREQ_1.08 135
999 WORDSALL_la~16_tomate~17_d'Amérique~23 135
999 COSIND_N/A 135
119 ESRank19 135
205 ESBackSacRegrShort 135
999 WORDS_Venue~22 293
999 WORDFREQ_11.69 293
999 WORDSALL_pied~15_Venue~22 293
999 COSIND_-0.01 293
999 COSGEN_-0.01 293
120 ESRank20 293
205 ESBackSacRegrShort 293
999 WORDS_sol~30 131
999 WORDFREQ_148.31 131
999 WORDSALL_Venue~22_d'Amérique~23_sol~30 131
999 COSIND_-0.01 131
999 COSGEN_-0.01 131
202 ESForwSacLong+8+45 131
999 WORDS_riche~31 121
999 WORDFREQ_42.57 121
999 WORDSALL_d'Amérique~23_centrale~24_riche~31 121
999 COSIND_-0.07 121
999 COSGEN_-0.07 121
201 ESForwSacShort 121
999 WORDS_soleil~37 173
999 WORDFREQ_328.78 173
999 WORDSALL_lui~27_fournir~28_soleil~37 173
999 COSIND_0.07 173
999 COSGEN_0.07 173
202 ESForwSacLong+6+22 173
200 ESRankN 173
199 ESRankNMinus1 121
198 ESRankNMinus2 131
197 ESRankNMinus3 293
196 ESRankNMinus4 135
195 ESRankNMinus5 151
194 ESRankNMinus6 220
193 ESRankNMinus7 224
192 ESRankNMinus8 186
191 ESRankNMinus9 144
190 ESRankNMinus10 110
