999 WORDS_confiance~6 160
999 WORDFREQ_91.76 160
999 WORDSALL_Cette~0_saison~1_confiance~6 160
999 COSIND_-0.01 160
999 COSGEN_-0.01 160
101 ESRank1 160
999 WORDS_saison~1 114
999 WORDFREQ_35.54 114
999 WORDSALL_Cette~0_saison~1 114
999 COSIND_-0.00 114
999 COSGEN_-0.00 114
102 ESRank2 114
206 ESBackSacRegrLong-5-22 114
999 WORDS_Tony~2 126
999 WORDFREQ_N/A 126
999 WORDSALL_saison~1_Tony~2 126
999 COSIND_N/A 126
103 ESRank3 126
201 ESForwSacShort 126
999 WORDS_Parker~3 207
999 WORDFREQ_N/A 207
999 WORDSALL_Tony~2_Parker~3 207
999 COSIND_N/A 207
104 ESRank4 207
201 ESForwSacShort 207
999 WORDS_n'a~4 121
999 WORDFREQ_1669.39 121
999 WORDSALL_n'a~4 121
999 COSIND_N/A 121
105 ESRank5 121
201 ESForwSacShort 121
999 WORDS_matches~17 146
999 WORDFREQ_1.42 146
999 WORDSALL_le~8_terrain~9_matches~17 146
999 COSIND_N/A 146
106 ESRank6 146
202 ESForwSacLong+13+64 146
999 WORDS_matches~17 117
999 WORDFREQ_1.42 117
999 WORDSALL_matches~17 117
999 COSIND_N/A 117
107 ESRank7 117
203 ESBackSacRefixation 117
999 WORDS_comprend~20 102
999 WORDFREQ_31.82 102
999 WORDSALL_où~18_comprend~20 102
999 COSIND_-0.05 102
999 COSGEN_-0.05 102
108 ESRank8 102
202 ESForwSacLong+3+8 102
999 WORDS_dominer~26 146
999 WORDFREQ_10.34 146
999 WORDSALL_totalement~25_dominer~26 146
999 COSIND_0.09 146
999 COSGEN_0.09 146
109 ESRank9 146
202 ESForwSacLong+6+30 146
200 ESRankN 146
199 ESRankNMinus1 102
198 ESRankNMinus2 117
197 ESRankNMinus3 146
196 ESRankNMinus4 121
195 ESRankNMinus5 207
194 ESRankNMinus6 126
193 ESRankNMinus7 114
192 ESRankNMinus8 160
