999 WORDS_vague~2 125
999 WORDFREQ_38.18 125
999 WORDSALL_Lorsque~0_vague~2 125
999 COSIND_0.03 125
999 COSGEN_0.03 125
101 ESRank1 125
999 WORDS_vague~2 178
999 WORDFREQ_38.18 178
999 WORDSALL_la~1_vague~2 178
999 COSIND_0.03 178
999 COSGEN_0.03 178
102 ESRank2 178
203 ESBackSacRefixation 178
999 WORDS_réfugiés~4 214
999 WORDFREQ_8.18 214
999 WORDSALL_des~3_réfugiés~4 214
999 COSIND_0.06 214
999 COSGEN_0.06 214
103 ESRank3 214
202 ESForwSacLong+2+5 214
999 WORDS_réfugiés~4 133
999 WORDFREQ_8.18 133
999 WORDSALL_des~3_réfugiés~4 133
999 COSIND_0.06 133
999 COSGEN_0.06 133
104 ESRank4 133
203 ESBackSacRefixation 133
999 WORDS_déferlait~5 149
999 WORDFREQ_2.36 149
999 WORDSALL_réfugiés~4_déferlait~5 149
999 COSIND_0.01 149
999 COSGEN_0.01 149
105 ESRank5 149
201 ESForwSacShort 149
999 WORDS_déferlait~5 151
999 WORDFREQ_2.36 151
999 WORDSALL_réfugiés~4_déferlait~5 151
999 COSIND_0.01 151
999 COSGEN_0.01 151
106 ESRank6 151
203 ESBackSacRefixation 151
999 WORDS_déferlait~5 176
999 WORDFREQ_2.36 176
999 WORDSALL_déferlait~5 176
999 COSIND_0.01 176
999 COSGEN_0.01 176
107 ESRank7 176
203 ESBackSacRefixation 176
999 WORDS_déferlait~5 168
999 WORDFREQ_2.36 168
999 WORDSALL_déferlait~5 168
999 COSIND_0.01 168
999 COSGEN_0.01 168
108 ESRank8 168
203 ESBackSacRefixation 168
999 WORDS_déferlait~5 102
999 WORDFREQ_2.36 102
999 WORDSALL_déferlait~5 102
999 COSIND_0.01 102
999 COSGEN_0.01 102
109 ESRank9 102
203 ESBackSacRefixation 102
999 WORDS_camp~8 197
999 WORDFREQ_75.61 197
999 WORDSALL_le~7_camp~8 197
999 COSIND_0.20 197
999 COSGEN_0.20 197
110 ESRank10 197
202 ESForwSacLong+3+8 197
999 WORDS_improvisé~9 231
999 WORDFREQ_2.5 231
999 WORDSALL_improvisé~9 231
999 COSIND_0.09 231
999 COSGEN_0.09 231
111 ESRank11 231
201 ESForwSacShort 231
999 WORDS_microbus~11 224
999 WORDFREQ_0 224
999 WORDSALL_les~10_microbus~11 224
999 COSIND_N/A 224
112 ESRank12 224
202 ESForwSacLong+2+5 224
999 WORDS_microbus~11 112
999 WORDFREQ_0 112
999 WORDSALL_les~10_microbus~11 112
999 COSIND_N/A 112
113 ESRank13 112
203 ESBackSacRefixation 112
999 WORDS_microbus~11 173
999 WORDFREQ_0 173
999 WORDSALL_microbus~11 173
999 COSIND_N/A 173
114 ESRank14 173
203 ESBackSacRefixation 173
999 WORDS_tracteurs~14 160
999 WORDFREQ_1.55 160
999 WORDSALL_tracteurs~14 160
999 COSIND_0.08 160
999 COSGEN_0.08 160
115 ESRank15 160
202 ESForwSacLong+3+8 160
999 WORDS_tracteurs~14 194
999 WORDFREQ_1.55 194
999 WORDSALL_tracteurs~14 194
999 COSIND_0.08 194
999 COSGEN_0.08 194
116 ESRank16 194
203 ESBackSacRefixation 194
999 WORDS_mobilisés~15 151
999 WORDFREQ_2.23 151
999 WORDSALL_mobilisés~15 151
999 COSIND_0.17 151
999 COSGEN_0.17 151
117 ESRank17 151
201 ESForwSacShort 151
999 WORDS_mobilisés~15 171
999 WORDFREQ_2.23 171
999 WORDSALL_mobilisés~15 171
999 COSIND_0.17 171
999 COSGEN_0.17 171
118 ESRank18 171
203 ESBackSacRefixation 171
999 WORDS_l'organisation~17 254
999 WORDFREQ_34.32 254
999 WORDSALL_l'organisation~17 254
999 COSIND_0.01 254
999 COSGEN_0.01 254
119 ESRank19 254
202 ESForwSacLong+2+5 254
999 WORDS_Hilal~20 186
999 WORDFREQ_N/A 186
999 WORDSALL_El~19_Hilal~20 186
999 COSIND_N/A 186
120 ESRank20 186
202 ESForwSacLong+3+18 186
999 WORDS_macédonienne~18 115
999 WORDFREQ_0 115
999 WORDSALL_macédonienne~18 115
999 COSIND_0.16 115
999 COSGEN_0.16 115
206 ESBackSacRegrLong-2-4 115
999 WORDS_macédonienne~18 291
999 WORDFREQ_0 291
999 WORDSALL_macédonienne~18 291
999 COSIND_0.16 291
999 COSGEN_0.16 291
203 ESBackSacRefixation 291
999 WORDS_Hilal~20 167
999 WORDFREQ_N/A 167
999 WORDSALL_El~19_Hilal~20 167
999 COSIND_N/A 167
202 ESForwSacLong+2+4 167
999 WORDS_Hilal~20 81
999 WORDFREQ_N/A 81
999 WORDSALL_El~19_Hilal~20 81
999 COSIND_N/A 81
203 ESBackSacRefixation 81
999 WORDS_assuraient~21 265
999 WORDFREQ_3.38 265
999 WORDSALL_assuraient~21 265
999 COSIND_-0.05 265
999 COSGEN_-0.05 265
201 ESForwSacShort 265
999 WORDS_assuraient~21 159
999 WORDFREQ_3.38 159
999 WORDSALL_assuraient~21 159
999 COSIND_-0.05 159
999 COSGEN_-0.05 159
203 ESBackSacRefixation 159
999 WORDS_assuraient~21 249
999 WORDFREQ_3.38 249
999 WORDSALL_assuraient~21 249
999 COSIND_-0.05 249
999 COSGEN_-0.05 249
203 ESBackSacRefixation 249
999 WORDS_assuraient~21 108
999 WORDFREQ_3.38 108
999 WORDSALL_assuraient~21 108
999 COSIND_-0.05 108
999 COSGEN_-0.05 108
203 ESBackSacRefixation 108
999 WORDS_mini-pont~23 196
999 WORDFREQ_N/A 196
999 WORDSALL_mini-pont~23 196
999 COSIND_N/A 196
202 ESForwSacLong+2+4 196
999 WORDS_humanitaire~24 210
999 WORDFREQ_1.22 210
999 WORDSALL_humanitaire~24 210
999 COSIND_0.52 210
999 COSGEN_0.52 210
201 ESForwSacShort 210
999 WORDS_permettait~26 149
999 WORDFREQ_26.22 149
999 WORDSALL_qui~25_permettait~26 149
999 COSIND_-0.02 149
999 COSGEN_-0.02 149
202 ESForwSacLong+2+5 149
999 WORDS_permettait~26 169
999 WORDFREQ_26.22 169
999 WORDSALL_qui~25_permettait~26 169
999 COSIND_-0.02 169
999 COSGEN_-0.02 169
203 ESBackSacRefixation 169
999 WORDS_d'éviter~27 129
999 WORDFREQ_60.07 129
999 WORDSALL_d'éviter~27 129
999 COSIND_0.03 129
999 COSGEN_0.03 129
201 ESForwSacShort 129
200 ESRankN 129
199 ESRankNMinus1 169
198 ESRankNMinus2 149
197 ESRankNMinus3 210
196 ESRankNMinus4 196
195 ESRankNMinus5 108
194 ESRankNMinus6 249
193 ESRankNMinus7 159
192 ESRankNMinus8 265
191 ESRankNMinus9 81
190 ESRankNMinus10 167
