999 WORDS_l'entreprise~3 107
999 WORDFREQ_29.05 107
999 WORDSALL_de~2_l'entreprise~3 107
999 COSIND_-0.07 107
999 COSGEN_-0.07 107
101 ESRank1 107
999 WORDS_confirme~4 130
999 WORDFREQ_3.92 130
999 WORDSALL_l'entreprise~3_confirme~4 130
999 COSIND_-0.03 130
999 COSGEN_-0.03 130
102 ESRank2 130
201 ESForwSacShort 130
999 WORDS_l'existence~5 165
999 WORDFREQ_93.85 165
999 WORDSALL_l'existence~5 165
999 COSIND_-0.04 165
999 COSGEN_-0.04 165
103 ESRank3 165
201 ESForwSacShort 165
999 WORDS_document~7 150
999 WORDFREQ_6.69 150
999 WORDSALL_du~6_document~7 150
999 COSIND_-0.04 150
999 COSGEN_-0.04 150
104 ESRank4 150
202 ESForwSacLong+2+4 150
999 WORDS_incriminé~8 204
999 WORDFREQ_0.07 204
999 WORDSALL_incriminé~8 204
999 COSIND_-0.00 204
999 COSGEN_-0.00 204
105 ESRank5 204
201 ESForwSacShort 204
999 WORDS_jugeant~9 110
999 WORDFREQ_3.72 110
999 WORDSALL_jugeant~9 110
999 COSIND_0.00 110
999 COSGEN_0.00 110
106 ESRank6 110
201 ESForwSacShort 110
999 WORDS_l'initiative~11 163
999 WORDFREQ_14.46 163
999 WORDSALL_que~10_l'initiative~11 163
999 COSIND_0.12 163
999 COSGEN_0.12 163
107 ESRank7 163
202 ESForwSacLong+2+5 163
999 WORDS_l'initiative~11 136
999 WORDFREQ_14.46 136
999 WORDSALL_l'initiative~11 136
999 COSIND_0.12 136
999 COSGEN_0.12 136
108 ESRank8 136
203 ESBackSacRefixation 136
999 WORDS_collaborateur~13 224
999 WORDFREQ_3.78 224
999 WORDSALL_collaborateur~13 224
999 COSIND_-0.02 224
999 COSGEN_-0.02 224
109 ESRank9 224
202 ESForwSacLong+2+6 224
999 WORDS_externe~14 108
999 WORDFREQ_0.54 108
999 WORDSALL_externe~14 108
999 COSIND_0.05 108
999 COSGEN_0.05 108
110 ESRank10 108
201 ESForwSacShort 108
999 WORDS_processus~16 188
999 WORDFREQ_5.47 188
999 WORDSALL_au~15_processus~16 188
999 COSIND_0.00 188
999 COSGEN_0.00 188
111 ESRank11 188
202 ESForwSacLong+2+4 188
999 WORDS_recrutement~18 225
999 WORDFREQ_3.51 225
999 WORDSALL_de~17_recrutement~18 225
999 COSIND_0.01 225
999 COSGEN_0.01 225
112 ESRank12 225
202 ESForwSacLong+2+4 225
999 WORDS_inadmissible~20 221
999 WORDFREQ_2.64 221
999 WORDSALL_inadmissible~20 221
999 COSIND_0.19 221
999 COSGEN_0.19 221
113 ESRank13 221
202 ESForwSacLong+2+5 221
999 WORDS_cautionne~23 193
999 WORDFREQ_0 193
999 WORDSALL_Elle~21_cautionne~23 193
999 COSIND_0.08 193
999 COSGEN_0.08 193
114 ESRank14 193
202 ESForwSacLong+3+9 193
999 WORDS_cautionne~23 148
999 WORDFREQ_0 148
999 WORDSALL_cautionne~23 148
999 COSIND_0.08 148
999 COSGEN_0.08 148
115 ESRank15 148
203 ESBackSacRefixation 148
999 WORDS_action~27 159
999 WORDFREQ_72.91 159
999 WORDSALL_pas~25_action~27 159
999 COSIND_0.02 159
999 COSGEN_0.02 159
116 ESRank16 159
202 ESForwSacLong+4+22 159
200 ESRankN 159
199 ESRankNMinus1 148
198 ESRankNMinus2 193
197 ESRankNMinus3 221
196 ESRankNMinus4 225
195 ESRankNMinus5 188
194 ESRankNMinus6 108
193 ESRankNMinus7 224
192 ESRankNMinus8 136
191 ESRankNMinus9 163
190 ESRankNMinus10 110
