999 WORDS_annonce~1 182
999 WORDFREQ_13.18 182
999 WORDSALL_annonce~1 182
999 COSIND_0.25 182
999 COSGEN_0.25 182
101 ESRank1 182
999 WORDS_avait~3 187
999 WORDFREQ_3116.42 187
999 WORDSALL_qui~2_avait~3 187
999 COSIND_0.08 187
999 COSGEN_0.08 187
102 ESRank2 187
202 ESForwSacLong+2+5 187
999 WORDS_déjà~4 104
999 WORDFREQ_702.23 104
999 WORDSALL_avait~3_déjà~4 104
999 COSIND_N/A 104
103 ESRank3 104
201 ESForwSacShort 104
999 WORDS_pronostiquée~6 226
999 WORDFREQ_N/A 226
999 WORDSALL_pronostiquée~6 226
999 COSIND_N/A 226
104 ESRank4 226
202 ESForwSacLong+2+7 226
999 WORDS_certains~8 186
999 WORDFREQ_32.64 186
999 WORDSALL_certains~8 186
999 COSIND_-0.05 186
999 COSGEN_-0.05 186
105 ESRank5 186
202 ESForwSacLong+2+5 186
999 WORDS_analystes~9 129
999 WORDFREQ_0.2 129
999 WORDSALL_analystes~9 129
999 COSIND_0.50 129
999 COSGEN_0.50 129
106 ESRank6 129
201 ESForwSacShort 129
999 WORDS_dernière~12 260
999 WORDFREQ_145.27 260
999 WORDSALL_semaine~11_dernière~12 260
999 COSIND_-0.10 260
999 COSGEN_-0.10 260
107 ESRank7 260
202 ESForwSacLong+3+12 260
999 WORDS_diminution~18 197
999 WORDFREQ_1.01 197
999 WORDSALL_Cette~17_diminution~18 197
999 COSIND_0.12 197
999 COSGEN_0.12 197
108 ESRank8 197
202 ESForwSacLong+6+39 197
999 WORDS_fait~20 160
999 WORDFREQ_1459.26 160
999 WORDSALL_ne~19_fait~20 160
999 COSIND_0.02 160
999 COSGEN_0.02 160
109 ESRank9 160
202 ESForwSacLong+2+4 160
999 WORDS_poursuivre~22 284
999 WORDFREQ_22.23 284
999 WORDSALL_poursuivre~22 284
999 COSIND_0.11 284
999 COSGEN_0.11 284
110 ESRank10 284
202 ESForwSacLong+2+5 284
999 WORDS_tendance~24 153
999 WORDFREQ_14.26 153
999 WORDSALL_une~23_tendance~24 153
999 COSIND_0.24 153
999 COSGEN_0.24 153
111 ESRank11 153
202 ESForwSacLong+2+5 153
999 WORDS_baisse~27 96
999 WORDFREQ_3.38 96
999 WORDSALL_la~26_baisse~27 96
999 COSIND_0.44 96
999 COSGEN_0.44 96
112 ESRank12 96
202 ESForwSacLong+3+7 96
999 WORDS_été~14 320
999 WORDFREQ_818.99 320
999 WORDSALL_a~13_été~14 320
999 COSIND_0.01 320
999 COSGEN_0.01 320
113 ESRank13 320
206 ESBackSacRegrLong-13-84 320
999 WORDS_fraîchement~15 113
999 WORDFREQ_8.31 113
999 WORDSALL_été~14_fraîchement~15 113
999 COSIND_0.06 113
999 COSGEN_0.06 113
114 ESRank14 113
201 ESForwSacShort 113
999 WORDS_semaine~11 293
999 WORDFREQ_111.89 293
999 WORDSALL_semaine~11 293
999 COSIND_0.07 293
999 COSGEN_0.07 293
115 ESRank15 293
206 ESBackSacRegrLong-4-19 293
200 ESRankN 293
199 ESRankNMinus1 113
198 ESRankNMinus2 320
197 ESRankNMinus3 96
196 ESRankNMinus4 153
195 ESRankNMinus5 284
194 ESRankNMinus6 160
193 ESRankNMinus7 197
192 ESRankNMinus8 260
191 ESRankNMinus9 129
190 ESRankNMinus10 186
