999 WORDS_pleut~1 141
999 WORDFREQ_10.41 141
999 WORDSALL_Il~0_pleut~1 141
999 COSIND_0.23 141
999 COSGEN_0.23 141
101 ESRank1 141
999 WORDS_Haute-Saône~4 144
999 WORDFREQ_N/A 144
999 WORDSALL_la~3_Haute-Saône~4 144
999 COSIND_N/A 144
102 ESRank2 144
202 ESForwSacLong+3+8 144
999 WORDS_Haute-Saône~4 113
999 WORDFREQ_N/A 113
999 WORDSALL_Haute-Saône~4 113
999 COSIND_N/A 113
103 ESRank3 113
203 ESBackSacRefixation 113
999 WORDS_fait~6 198
999 WORDFREQ_1459.26 198
999 WORDSALL_il~5_fait~6 198
999 COSIND_-0.02 198
999 COSGEN_-0.02 198
104 ESRank4 198
202 ESForwSacLong+2+4 198
999 WORDS_froid~7 94
999 WORDFREQ_94.86 94
999 WORDSALL_fait~6_froid~7 94
999 COSIND_0.51 94
999 COSGEN_0.51 94
105 ESRank5 94
201 ESForwSacShort 94
999 WORDS_A~13 154
999 WORDFREQ_58.65 154
999 WORDSALL_courts~12_A~13 154
999 COSIND_N/A 154
106 ESRank6 154
202 ESForwSacLong+6+30 154
999 WORDS_A~13 103
999 WORDFREQ_58.65 103
999 WORDSALL_courts~12_A~13 103
999 COSIND_N/A 103
107 ESRank7 103
203 ESBackSacRefixation 103
999 WORDS_héroïques~17 192
999 WORDFREQ_3.72 192
999 WORDSALL_héroïques~17 192
999 COSIND_0.01 192
999 COSGEN_0.01 192
108 ESRank8 192
202 ESForwSacLong+4+26 192
999 WORDS_arbustes~19 185
999 WORDFREQ_5.41 185
999 WORDSALL_les~18_arbustes~19 185
999 COSIND_0.83 185
999 COSGEN_0.83 185
109 ESRank9 185
202 ESForwSacLong+2+5 185
999 WORDS_forsythias~16 125
999 WORDFREQ_0.07 125
999 WORDSALL_quelques~15_forsythias~16 125
999 COSIND_0.57 125
999 COSGEN_0.57 125
110 ESRank10 125
206 ESBackSacRegrLong-3-17 125
999 WORDS_forsythias~16 203
999 WORDFREQ_0.07 203
999 WORDSALL_quelques~15_forsythias~16 203
999 COSIND_0.57 203
999 COSGEN_0.57 203
111 ESRank11 203
203 ESBackSacRefixation 203
999 WORDS_héroïques~17 176
999 WORDFREQ_3.72 176
999 WORDSALL_forsythias~16_héroïques~17 176
999 COSIND_0.01 176
999 COSGEN_0.01 176
112 ESRank12 176
201 ESForwSacShort 176
999 WORDS_rase~24 158
999 WORDFREQ_2.64 158
999 WORDSALL_rase~24 158
999 COSIND_0.45 158
999 COSGEN_0.45 158
113 ESRank13 158
202 ESForwSacLong+7+36 158
999 WORDS_murs~26 227
999 WORDFREQ_145.2 227
999 WORDSALL_les~25_murs~26 227
999 COSIND_0.28 227
999 COSGEN_0.28 227
114 ESRank14 227
202 ESForwSacLong+2+5 227
999 WORDS_jours~9 184
999 WORDFREQ_515.41 184
999 WORDSALL_jours~9 184
999 COSIND_0.01 184
999 COSGEN_0.01 184
115 ESRank15 184
206 ESBackSacRegrLong-17-103 184
999 WORDS_jours~9 142
999 WORDFREQ_515.41 142
999 WORDSALL_les~8_jours~9 142
999 COSIND_0.01 142
999 COSGEN_0.01 142
116 ESRank16 142
203 ESBackSacRefixation 142
999 WORDS_jours~9 150
999 WORDFREQ_515.41 150
999 WORDSALL_les~8_jours~9 150
999 COSIND_0.01 150
999 COSGEN_0.01 150
117 ESRank17 150
203 ESBackSacRefixation 150
999 WORDS_sont~10 168
999 WORDFREQ_713.18 168
999 WORDSALL_sont~10 168
999 COSIND_0.10 168
999 COSGEN_0.10 168
118 ESRank18 168
201 ESForwSacShort 168
999 WORDS_courts~12 164
999 WORDFREQ_16.22 164
999 WORDSALL_encore~11_courts~12 164
999 COSIND_0.01 164
999 COSGEN_0.01 164
119 ESRank19 164
202 ESForwSacLong+2+8 164
999 WORDS_A~13 107
999 WORDFREQ_58.65 107
999 WORDSALL_courts~12_A~13 107
999 COSIND_N/A 107
120 ESRank20 107
201 ESForwSacShort 107
999 WORDS_forsythias~16 132
999 WORDFREQ_0.07 132
999 WORDSALL_quelques~15_forsythias~16 132
999 COSIND_0.57 132
999 COSGEN_0.57 132
202 ESForwSacLong+3+15 132
999 WORDS_forsythias~16 144
999 WORDFREQ_0.07 144
999 WORDSALL_quelques~15_forsythias~16 144
999 COSIND_0.57 144
999 COSGEN_0.57 144
203 ESBackSacRefixation 144
999 WORDS_forsythias~16 147
999 WORDFREQ_0.07 147
999 WORDSALL_forsythias~16 147
999 COSIND_0.57 147
999 COSGEN_0.57 147
203 ESBackSacRefixation 147
200 ESRankN 147
199 ESRankNMinus1 144
198 ESRankNMinus2 132
197 ESRankNMinus3 107
196 ESRankNMinus4 164
195 ESRankNMinus5 168
194 ESRankNMinus6 150
193 ESRankNMinus7 142
192 ESRankNMinus8 184
191 ESRankNMinus9 227
190 ESRankNMinus10 158
