999 WORDS_syndicats~1 227
999 WORDFREQ_3.24 227
999 WORDSALL_Les~0_syndicats~1 227
999 COSIND_0.86 227
999 COSGEN_0.86 227
101 ESRank1 227
999 WORDS_avaient~3 212
999 WORDFREQ_524.26 212
999 WORDSALL_qui~2_avaient~3 212
999 COSIND_0.04 212
999 COSGEN_0.04 212
102 ESRank2 212
202 ESForwSacLong+2+5 212
999 WORDS_lancé~4 162
999 WORDFREQ_24.66 162
999 WORDSALL_avaient~3_lancé~4 162
999 COSIND_0.11 162
999 COSGEN_0.11 162
103 ESRank3 162
201 ESForwSacShort 162
999 WORDS_l'ordre~5 137
999 WORDFREQ_179.26 137
999 WORDSALL_lancé~4_l'ordre~5 137
999 COSIND_0.06 137
999 COSGEN_0.06 137
104 ESRank4 137
201 ESForwSacShort 137
999 WORDS_réclamaient~8 240
999 WORDFREQ_4.05 240
999 WORDSALL_réclamaient~8 240
999 COSIND_0.33 240
999 COSGEN_0.33 240
105 ESRank5 240
202 ESForwSacLong+3+11 240
999 WORDS_l'aménagement~12 255
999 WORDFREQ_1.82 255
999 WORDSALL_l'aménagement~12 255
999 COSIND_0.12 255
999 COSGEN_0.12 255
106 ESRank6 255
202 ESForwSacLong+4+22 255
999 WORDS_l'embauche~19 171
999 WORDFREQ_2.97 171
999 WORDSALL_l'embauche~19 171
999 COSIND_0.20 171
999 COSGEN_0.20 171
107 ESRank7 171
202 ESForwSacLong+7+31 171
999 WORDS_trente~21 181
999 WORDFREQ_79.12 181
999 WORDSALL_de~20_trente~21 181
999 COSIND_0.09 181
999 COSGEN_0.09 181
108 ESRank8 181
202 ESForwSacLong+2+4 181
999 WORDS_personnes~22 97
999 WORDFREQ_63.85 97
999 WORDSALL_trente~21_personnes~22 97
999 COSIND_-0.01 97
999 COSGEN_-0.01 97
109 ESRank9 97
201 ESForwSacShort 97
999 WORDS_supplémentaires~23 215
999 WORDFREQ_5.47 215
999 WORDSALL_supplémentaires~23 215
999 COSIND_0.11 215
999 COSGEN_0.11 215
110 ESRank10 215
201 ESForwSacShort 215
999 WORDS_travail~16 196
999 WORDFREQ_223.99 196
999 WORDSALL_de~15_travail~16 196
999 COSIND_0.02 196
999 COSGEN_0.02 196
111 ESRank11 196
206 ESBackSacRegrLong-7-42 196
999 WORDS_amélioration~10 249
999 WORDFREQ_2.23 249
999 WORDSALL_une~9_amélioration~10 249
999 COSIND_-0.02 249
999 COSGEN_-0.02 249
112 ESRank12 249
206 ESBackSacRegrLong-6-31 249
999 WORDS_réclamaient~8 163
999 WORDFREQ_4.05 163
999 WORDSALL_réclamaient~8 163
999 COSIND_0.33 163
999 COSGEN_0.33 163
113 ESRank13 163
206 ESBackSacRegrLong-2-5 163
999 WORDS_l'aménagement~12 229
999 WORDFREQ_1.82 229
999 WORDSALL_l'aménagement~12 229
999 COSIND_0.12 229
999 COSGEN_0.12 229
114 ESRank14 229
202 ESForwSacLong+4+22 229
999 WORDS_temps~14 141
999 WORDFREQ_1289.39 141
999 WORDSALL_du~13_temps~14 141
999 COSIND_-0.01 141
999 COSGEN_-0.01 141
115 ESRank15 141
202 ESForwSacLong+2+4 141
999 WORDS_travail~16 116
999 WORDFREQ_223.99 116
999 WORDSALL_de~15_travail~16 116
999 COSIND_0.02 116
999 COSGEN_0.02 116
116 ESRank16 116
202 ESForwSacLong+2+4 116
200 ESRankN 116
199 ESRankNMinus1 141
198 ESRankNMinus2 229
197 ESRankNMinus3 163
196 ESRankNMinus4 249
195 ESRankNMinus5 196
194 ESRankNMinus6 215
193 ESRankNMinus7 97
192 ESRankNMinus8 181
191 ESRankNMinus9 171
190 ESRankNMinus10 255
