# 118 Fixation 1 (248.7,288.4): Le~0 navigateur~1
# 247 Fixation 2 (292.3,279.5): Le~0 navigateur~1
# 128 Fixation 3 (325.6,279.6): Le~0 navigateur~1
# 361 Fixation 4 (451.2,283.6): solitaire~2
# 233 Fixation 5 (576.2,282.3): voulait~3
# 284 Fixation 6 (667.4,287.5): voulait~3 gagner~4
# 86 Fixation 7 (734,292.3): gagner~4
# 311 Fixation 8 (276.3,346.4): l'honneur~6
# 119 Fixation 9 (322,334.4): l'honneur~6
%%
# Le~0 Fixations= "3/"
# navigateur~1 Fixations= "3/"
# solitaire~2 Fixations= "4/"
# voulait~3 Fixations= "6/"
# gagner~4 Fixations= "7/"
# pour~5 Fixations= ""
# l'honneur~6 Fixations= "9/"
# Un~7 Fixations= ""
# choix~8 Fixations= ""
# météo~9 Fixations= ""
# décevant~10 Fixations= ""
# et~11 Fixations= ""
# une~12 Fixations= ""
# grosse~13 Fixations= ""
# avarie~14 Fixations= ""
# dans~15 Fixations= ""
# le~16 Fixations= ""
# Pacifique~17 Fixations= ""
# ont~18 Fixations= ""
# eu~19 Fixations= ""
# raison~20 Fixations= ""
# de~21 Fixations= ""
# ses~22 Fixations= ""
# chances~23 Fixations= ""
# Il~24 Fixations= ""
# a~25 Fixations= ""
# vécu~26 Fixations= ""
# un~27 Fixations= ""
# drôle~28 Fixations= ""
# de~29 Fixations= ""
# tour~30 Fixations= ""
# du~31 Fixations= ""
# monde~32 Fixations= ""
%%
#  LE[3] NAVIGATEUR[3] SOLITAIRE[4] VOULAIT[6] GAGNER[7] pour L'HONNEUR[9] Un choix météo décevant et une grosse avarie dans le Pacifique ont eu raison de ses chances Il a vécu un drôle de tour du monde
# s13 course_voiliers-f2 PercentageOfWordsProcessed= 0.181818181818182 PercentageOfWordsReallyProcessed= 0.857142857142857
