# 202 Fixation 1 (296.3,301.5): Le~0 football~1
# 168 Fixation 2 (484.3,267.7): est~2 sport~4
# 215 Fixation 3 (580.1,235.9): sport~4 collectif~5
%%
# Le~0 Fixations= "1/"
# football~1 Fixations= "1/"
# est~2 Fixations= "2/"
# un~3 Fixations= ""
# sport~4 Fixations= "3/"
# collectif~5 Fixations= "3/"
# qui~6 Fixations= ""
# oppose~7 Fixations= ""
# deux~8 Fixations= ""
# équipes~9 Fixations= ""
# de~10 Fixations= ""
# onze~11 Fixations= ""
# joueurs~12 Fixations= ""
# dans~13 Fixations= ""
# un~14 Fixations= ""
# stade~15 Fixations= ""
# dont~16 Fixations= ""
# le~17 Fixations= ""
# but~18 Fixations= ""
# est~19 Fixations= ""
# de~20 Fixations= ""
# mettre~21 Fixations= ""
# un~22 Fixations= ""
# ballon~23 Fixations= ""
# sphérique~24 Fixations= ""
# dans~25 Fixations= ""
# le~26 Fixations= ""
# but~27 Fixations= ""
# adverse~28 Fixations= ""
# Le~29 Fixations= ""
# football~30 Fixations= ""
# est~31 Fixations= ""
# sans~32 Fixations= ""
# doute~33 Fixations= ""
# le~34 Fixations= ""
# sport~35 Fixations= ""
# le~36 Fixations= ""
# plus~37 Fixations= ""
# médiatisé~38 Fixations= ""
# dans~39 Fixations= ""
# le~40 Fixations= ""
# monde~41 Fixations= ""
%%
#  LE[1] FOOTBALL[1] EST[2] un SPORT[3] COLLECTIF[3] qui oppose deux équipes de onze joueurs dans un stade dont le but est de mettre un ballon sphérique dans le but adverse Le football est sans doute le sport le plus médiatisé dans le monde
# s20 faiblesse_dollar-a1 PercentageOfWordsProcessed= 0.119047619047619 PercentageOfWordsReallyProcessed= 0.833333333333333
