# 225 Fixation 1 (272.3,280.3): Le~0 candidat~1
# 146 Fixation 2 (373.3,269.9): candidat~1
# 157 Fixation 3 (438.5,270.2): conservateur~2
# 235 Fixation 4 (625.5,198.8): a~3 bénéficié~4
# 154 Fixation 5 (285.8,341.8): Le~0 candidat~1 soutien~6
# 176 Fixation 6 (255.6,354.8): soutien~6
# 178 Fixation 7 (395.9,343.9): candidat~1 conservateur~2 fort~8
# 283 Fixation 8 (483.4,344.6): conservateur~2 fort~8 contingent~9
# 198 Fixation 9 (647.7,304.6): bénéficié~4
# 389 Fixation 10 (358.1,392.7): soutien~6 fort~8 religieux~13
%%
# Le~0 Fixations= "5/"
# candidat~1 Fixations= "7/"
# conservateur~2 Fixations= "8/"
# a~3 Fixations= "4/"
# bénéficié~4 Fixations= "9/"
# du~5 Fixations= ""
# soutien~6 Fixations= "10/"
# du~7 Fixations= ""
# fort~8 Fixations= "10/"
# contingent~9 Fixations= "8/"
# d'évangélistes~10 Fixations= ""
# et~11 Fixations= ""
# de~12 Fixations= ""
# religieux~13 Fixations= "10/"
# conservateurs~14 Fixations= ""
# qui~15 Fixations= ""
# habitent~16 Fixations= ""
# cet~17 Fixations= ""
# État~18 Fixations= ""
# souvent~19 Fixations= ""
# critiqué~20 Fixations= ""
# pour~21 Fixations= ""
# son~22 Fixations= ""
# manque~23 Fixations= ""
# de~24 Fixations= ""
# représentativité~25 Fixations= ""
# à~26 Fixations= ""
# l'échelon~27 Fixations= ""
# national~28 Fixations= ""
%%
#  LE[5] CANDIDAT[7] CONSERVATEUR[8] A[4] BéNéFICIé[9] du SOUTIEN[10] du FORT[10] CONTINGENT[8] d'évangélistes et de RELIGIEUX[10] conservateurs qui habitent cet État souvent critiqué pour son manque de représentativité à l'échelon national
# s20 victoire_footballeurs-a2 PercentageOfWordsProcessed= 0.310344827586207 PercentageOfWordsReallyProcessed= 0.642857142857143
