# 159 Fixation 1 (289.8,288.5): Une~0 bonne~1
# 186 Fixation 2 (437.1,282.2): connaissance~2
# 225 Fixation 3 (621.2,280.9): du~3 fonctionnement~4
# 143 Fixation 4 (358.2,319.8): l'ordinateur~6
# 140 Fixation 5 (275,321.9): l'ordinateur~6
# 152 Fixation 6 (490,334.5): et~7 d'Internet~8
# 270 Fixation 7 (652.9,364.4): est~9 importante~10
# 126 Fixation 8 (377.3,397.7): systèmes~12
# 197 Fixation 9 (284.3,401): Des~11 systèmes~12
# 167 Fixation 10 (486,411.4): de~13 formation~14
# 150 Fixation 11 (661.5,412.8): distance~16
# 183 Fixation 12 (385.7,470.6): pédagogie~20
# 164 Fixation 13 (519.1,441.2): formation~14
# 175 Fixation 14 (633.6,468.7): en~23 formation~24
# 153 Fixation 15 (352.5,527.8): continue~25 vont~26
# 146 Fixation 16 (278.3,524.2): continue~25
# 170 Fixation 17 (495.7,525.3): être~27 mis~28
# 111 Fixation 18 (589.8,519.9): en~29 place~30
%%
# Une~0 Fixations= "1/"
# bonne~1 Fixations= "1/"
# connaissance~2 Fixations= "2/"
# du~3 Fixations= "3/"
# fonctionnement~4 Fixations= "3/"
# de~5 Fixations= ""
# l'ordinateur~6 Fixations= "5/"
# et~7 Fixations= "6/"
# d'Internet~8 Fixations= "6/"
# est~9 Fixations= "7/"
# importante~10 Fixations= "7/"
# Des~11 Fixations= "9/"
# systèmes~12 Fixations= "9/"
# de~13 Fixations= "10/"
# formation~14 Fixations= "13/"
# à~15 Fixations= ""
# distance~16 Fixations= "11/"
# et~17 Fixations= ""
# de~18 Fixations= ""
# la~19 Fixations= ""
# pédagogie~20 Fixations= "12/"
# pour~21 Fixations= ""
# adultes~22 Fixations= ""
# en~23 Fixations= "14/"
# formation~24 Fixations= "14/"
# continue~25 Fixations= "16/"
# vont~26 Fixations= "15/"
# être~27 Fixations= "17/"
# mis~28 Fixations= "17/"
# en~29 Fixations= "18/"
# place~30 Fixations= "18/"
%%
#  UNE[1] BONNE[1] CONNAISSANCE[2] DU[3] FONCTIONNEMENT[3] de L'ORDINATEUR[5] ET[6] D'INTERNET[6] EST[7] IMPORTANTE[7] DES[9] SYSTèMES[9] DE[10] FORMATION[13] à DISTANCE[11] et de la PéDAGOGIE[12] pour adultes EN[14] FORMATION[14] CONTINUE[16] VONT[15] êTRE[17] MIS[17] EN[18] PLACE[18]
# s21 formation_informatique-f2 PercentageOfWordsProcessed= 0.774193548387097 PercentageOfWordsReallyProcessed= 0.774193548387097
