999 WORDS_globalisation~1 438
999 WORDFREQ_0 438
999 WORDSALL_La~0_globalisation~1 438
999 COSIND_0.31 438
999 COSGEN_0.31 438
101 ESRank1 438
999 WORDS_l'économie~3 366
999 WORDFREQ_15.74 366
999 WORDSALL_de~2_l'économie~3 366
999 COSIND_0.88 366
999 COSGEN_0.88 366
102 ESRank2 366
202 ESForwSacLong+2+4 366
999 WORDS_globalisation~1 242
999 WORDFREQ_0 242
999 WORDSALL_globalisation~1 242
999 COSIND_0.31 242
999 COSGEN_0.31 242
103 ESRank3 242
206 ESBackSacRegrLong-2-4 242
999 WORDS_l'économie~3 222
999 WORDFREQ_15.74 222
999 WORDSALL_de~2_l'économie~3 222
999 COSIND_0.88 222
999 COSGEN_0.88 222
104 ESRank4 222
202 ESForwSacLong+2+4 222
999 WORDS_loin~5 256
999 WORDFREQ_452.36 256
999 WORDSALL_est~4_loin~5 256
999 COSIND_0.07 256
999 COSGEN_0.07 256
105 ESRank5 256
202 ESForwSacLong+2+5 256
999 WORDS_d'être~6 368
999 WORDFREQ_505.61 368
999 WORDSALL_d'être~6 368
999 COSIND_-0.01 368
999 COSGEN_-0.01 368
106 ESRank6 368
201 ESForwSacShort 368
999 WORDS_achevée~7 241
999 WORDFREQ_2.36 241
999 WORDSALL_d'être~6_achevée~7 241
999 COSIND_0.06 241
999 COSGEN_0.06 241
107 ESRank7 241
201 ESForwSacShort 241
999 WORDS_achevée~7 228
999 WORDFREQ_2.36 228
999 WORDSALL_achevée~7 228
999 COSIND_0.06 228
999 COSGEN_0.06 228
108 ESRank8 228
203 ESBackSacRefixation 228
999 WORDS_contexte~11 253
999 WORDFREQ_2.16 253
999 WORDSALL_dans~9_contexte~11 253
999 COSIND_0.06 253
999 COSGEN_0.06 253
109 ESRank9 253
202 ESForwSacLong+4+12 253
999 WORDS_contexte~11 195
999 WORDFREQ_2.16 195
999 WORDSALL_un~10_contexte~11 195
999 COSIND_0.06 195
999 COSGEN_0.06 195
110 ESRank10 195
203 ESBackSacRefixation 195
999 WORDS_fort~13 159
999 WORDFREQ_43.85 159
999 WORDSALL_contexte~11_fort~13 159
999 COSIND_0.12 159
999 COSGEN_0.12 159
111 ESRank11 159
202 ESForwSacLong+2+4 159
999 WORDS_vieux~22 286
999 WORDFREQ_273.31 286
999 WORDSALL_les~21_vieux~22 286
999 COSIND_0.08 286
999 COSGEN_0.08 286
112 ESRank12 286
202 ESForwSacLong+9+56 286
200 ESRankN 286
199 ESRankNMinus1 159
198 ESRankNMinus2 195
197 ESRankNMinus3 253
196 ESRankNMinus4 228
195 ESRankNMinus5 241
194 ESRankNMinus6 368
193 ESRankNMinus7 256
192 ESRankNMinus8 222
191 ESRankNMinus9 242
190 ESRankNMinus10 366
