# 146 Fixation 1 (267.7,331.1): déguenillés~5
# 110 Fixation 2 (340.6,333.2): déguenillés~5
# 151 Fixation 3 (467.4,336.2): elles~6 pesaient~7
# 144 Fixation 4 (542.4,340.4): pesaient~7
# 126 Fixation 5 (324.6,342.2): déguenillés~5
# 181 Fixation 6 (259.3,337): déguenillés~5
# 159 Fixation 7 (545.2,358.1): pesaient~7
# 155 Fixation 8 (653.1,368.4): l'offre~8
# 207 Fixation 9 (296.7,386.8): demande~11
# 179 Fixation 10 (397.5,399.9): Elles~12 savaient~13
# 151 Fixation 11 (630.3,414.2): précisément~14
# 106 Fixation 12 (706.9,424.9): précisément~14
# 220 Fixation 13 (281.7,464.3): jour~16
# 223 Fixation 14 (489.2,462): les~19 entreprises~20
# 209 Fixation 15 (681.5,465.1): chercheraient~21
# 225 Fixation 16 (296.2,547.6): de~22 monnaie~24
# 212 Fixation 17 (440.6,539.9): monnaie~24 locale~25
# 150 Fixation 18 (584.4,533.3): pour~26 payer~27
# 201 Fixation 19 (281.1,616.9): salariés~29
# 129 Fixation 20 (254.1,633.1): salariés~29
%%
# Avec~0 Fixations= ""
# l'aide~1 Fixations= ""
# de~2 Fixations= ""
# leurs~3 Fixations= ""
# rabatteurs~4 Fixations= ""
# déguenillés~5 Fixations= "6/"
# elles~6 Fixations= "3/"
# pesaient~7 Fixations= "7/"
# l'offre~8 Fixations= "8/"
# et~9 Fixations= ""
# la~10 Fixations= ""
# demande~11 Fixations= "9/"
# Elles~12 Fixations= "10/"
# savaient~13 Fixations= "10/"
# précisément~14 Fixations= "12/"
# quel~15 Fixations= ""
# jour~16 Fixations= "13/"
# du~17 Fixations= ""
# mois~18 Fixations= ""
# les~19 Fixations= "14/"
# entreprises~20 Fixations= "14/"
# chercheraient~21 Fixations= "15/"
# de~22 Fixations= "16/"
# la~23 Fixations= ""
# monnaie~24 Fixations= "17/"
# locale~25 Fixations= "17/"
# pour~26 Fixations= "18/"
# payer~27 Fixations= "18/"
# leurs~28 Fixations= ""
# salariés~29 Fixations= "20/"
%%
#  Avec l'aide de leurs rabatteurs DéGUENILLéS[6] ELLES[3] PESAIENT[7] L'OFFRE[8] et la DEMANDE[9] ELLES[10] SAVAIENT[10] PRéCISéMENT[12] quel JOUR[13] du mois LES[14] ENTREPRISES[14] CHERCHERAIENT[15] DE[16] la MONNAIE[17] LOCALE[17] POUR[18] PAYER[18] leurs SALARIéS[20]
# s21 faiblesse_dollar-m1 PercentageOfWordsProcessed= 0.6 PercentageOfWordsReallyProcessed= 0.6
