999 WORDS_pollution~2 146
999 WORDFREQ_1.15 146
999 WORDSALL_Outre~0_pollution~2 146
999 COSIND_0.01 146
999 COSGEN_0.01 146
101 ESRank1 146
999 WORDS_pollution~2 121
999 WORDFREQ_1.15 121
999 WORDSALL_pollution~2 121
999 COSIND_0.01 121
999 COSGEN_0.01 121
102 ESRank2 121
203 ESBackSacRefixation 121
999 WORDS_surface~4 204
999 WORDFREQ_51.49 204
999 WORDSALL_de~3_surface~4 204
999 COSIND_0.13 204
999 COSGEN_0.13 204
103 ESRank3 204
202 ESForwSacLong+2+4 204
999 WORDS_surface~4 109
999 WORDFREQ_51.49 109
999 WORDSALL_surface~4 109
999 COSIND_0.13 109
999 COSGEN_0.13 109
104 ESRank4 109
203 ESBackSacRefixation 109
999 WORDS_pose~6 148
999 WORDFREQ_48.85 148
999 WORDSALL_se~5_pose~6 148
999 COSIND_0.07 148
999 COSGEN_0.07 148
105 ESRank5 148
202 ESForwSacLong+2+4 148
999 WORDS_problème~9 273
999 WORDFREQ_55.2 273
999 WORDSALL_aussi~7_problème~9 273
999 COSIND_0.05 273
999 COSGEN_0.05 273
106 ESRank6 273
202 ESForwSacLong+3+10 273
999 WORDS_problème~9 163
999 WORDFREQ_55.2 163
999 WORDSALL_le~8_problème~9 163
999 COSIND_0.05 163
999 COSGEN_0.05 163
107 ESRank7 163
203 ESBackSacRefixation 163
999 WORDS_tonnes~11 94
999 WORDFREQ_11.55 94
999 WORDSALL_des~10_tonnes~11 94
999 COSIND_0.15 94
999 COSGEN_0.15 94
108 ESRank8 94
202 ESForwSacLong+2+5 94
999 WORDS_tonnes~11 113
999 WORDFREQ_11.55 113
999 WORDSALL_tonnes~11 113
999 COSIND_0.15 113
999 COSGEN_0.15 113
109 ESRank9 113
203 ESBackSacRefixation 113
999 WORDS_pétrole~13 163
999 WORDFREQ_14.73 163
999 WORDSALL_tonnes~11_pétrole~13 163
999 COSIND_0.55 163
999 COSGEN_0.55 163
110 ESRank10 163
202 ESForwSacLong+2+4 163
999 WORDS_contenues~15 154
999 WORDFREQ_0.74 154
999 WORDSALL_encore~14_contenues~15 154
999 COSIND_0.02 154
999 COSGEN_0.02 154
111 ESRank11 154
202 ESForwSacLong+2+8 154
999 WORDS_contenues~15 89
999 WORDFREQ_0.74 89
999 WORDSALL_encore~14_contenues~15 89
999 COSIND_0.02 89
999 COSGEN_0.02 89
112 ESRank12 89
203 ESBackSacRefixation 89
999 WORDS_contenues~15 161
999 WORDFREQ_0.74 161
999 WORDSALL_encore~14_contenues~15 161
999 COSIND_0.02 161
999 COSGEN_0.02 161
113 ESRank13 161
203 ESBackSacRefixation 161
999 WORDS_contenues~15 268
999 WORDFREQ_0.74 268
999 WORDSALL_contenues~15 268
999 COSIND_0.02 268
999 COSGEN_0.02 268
114 ESRank14 268
203 ESBackSacRefixation 268
999 WORDS_soutes~18 128
999 WORDFREQ_1.22 128
999 WORDSALL_dans~16_soutes~18 128
999 COSIND_0.04 128
999 COSGEN_0.04 128
115 ESRank15 128
202 ESForwSacLong+3+10 128
999 WORDS_soutes~18 97
999 WORDFREQ_1.22 97
999 WORDSALL_dans~16_soutes~18 97
999 COSIND_0.04 97
999 COSGEN_0.04 97
116 ESRank16 97
203 ESBackSacRefixation 97
999 WORDS_soutes~18 120
999 WORDFREQ_1.22 120
999 WORDSALL_les~17_soutes~18 120
999 COSIND_0.04 120
999 COSGEN_0.04 120
117 ESRank17 120
203 ESBackSacRefixation 120
999 WORDS_navire~20 198
999 WORDFREQ_28.04 198
999 WORDSALL_du~19_navire~20 198
999 COSIND_0.05 198
999 COSGEN_0.05 198
118 ESRank18 198
202 ESForwSacLong+2+4 198
999 WORDS_sondages~22 208
999 WORDFREQ_1.42 208
999 WORDSALL_Les~21_sondages~22 208
999 COSIND_-0.03 208
999 COSGEN_-0.03 208
119 ESRank19 208
202 ESForwSacLong+2+5 208
999 WORDS_sondages~22 162
999 WORDFREQ_1.42 162
999 WORDSALL_sondages~22 162
999 COSIND_-0.03 162
999 COSGEN_-0.03 162
120 ESRank20 162
203 ESBackSacRefixation 162
999 WORDS_effectués~23 213
999 WORDFREQ_0.61 213
999 WORDSALL_effectués~23 213
999 COSIND_-0.04 213
999 COSGEN_-0.04 213
201 ESForwSacShort 213
999 WORDS_indiquent~24 198
999 WORDFREQ_1.22 198
999 WORDSALL_indiquent~24 198
999 COSIND_0.03 198
999 COSGEN_0.03 198
201 ESForwSacShort 198
999 WORDS_que~25 131
999 WORDFREQ_2975.34 131
999 WORDSALL_que~25 131
999 COSIND_N/A 131
201 ESForwSacShort 131
999 WORDS_morceaux~27 136
999 WORDFREQ_41.49 136
999 WORDSALL_morceaux~27 136
999 COSIND_-0.08 136
999 COSGEN_-0.08 136
202 ESForwSacLong+2+5 136
999 WORDS_sont~30 135
999 WORDFREQ_713.18 135
999 WORDSALL_bateau~29_sont~30 135
999 COSIND_0.03 135
999 COSGEN_0.03 135
202 ESForwSacLong+3+11 135
999 WORDS_sont~30 93
999 WORDFREQ_713.18 93
999 WORDSALL_sont~30 93
999 COSIND_0.03 93
999 COSGEN_0.03 93
203 ESBackSacRefixation 93
200 ESRankN 93
199 ESRankNMinus1 135
198 ESRankNMinus2 136
197 ESRankNMinus3 131
196 ESRankNMinus4 198
195 ESRankNMinus5 213
194 ESRankNMinus6 162
193 ESRankNMinus7 208
192 ESRankNMinus8 198
191 ESRankNMinus9 120
190 ESRankNMinus10 97
