# 342 Fixation 1 (296.9,279.1): Le~0 chanteur~1
# 185 Fixation 2 (443.3,243.6): Yannick~2
# 147 Fixation 3 (534.1,230.5): Noah~3
# 175 Fixation 4 (626.9,203.5): ici~4 concert~6
# 368 Fixation 5 (733.4,174.8): concert~6
# 179 Fixation 6 (773.3,162.7):
# 189 Fixation 7 (816.2,170.3): a~7
# 169 Fixation 8 (302.1,324.8): Le~0 chanteur~1 repris~8
# 191 Fixation 9 (275.4,344.5): Le~0 chanteur~1 repris~8
# 177 Fixation 10 (405.9,339): chanteur~1 Yannick~2 place~10
# 241 Fixation 11 (530,326): Noah~3 tete~13
# 225 Fixation 12 (667.3,282.9): ici~4 concert~6
# 308 Fixation 13 (302,417.9): personnalités~17
# 224 Fixation 14 (477.9,419.7): préférées~18
# 184 Fixation 15 (477.4,405.2): place~10 à~11 préférées~18
# 476 Fixation 16 (620.7,355.4): du~14 classement~15
# 144 Fixation 17 (452.2,436.9): préférées~18
# 212 Fixation 18 (371.6,467.8): personnalités~17 Zinédine~23
# 267 Fixation 19 (293.9,475.6): personnalités~17 devance~22
# 156 Fixation 20 (461.2,485.7): Zinédine~23 Zidane~24
%%
# Le~0 Fixations= "9/"
# chanteur~1 Fixations= "10/"
# Yannick~2 Fixations= "10/"
# Noah~3 Fixations= "11/"
# ici~4 Fixations= "12/"
# en~5 Fixations= ""
# concert~6 Fixations= "12/"
# a~7 Fixations= "7/"
# repris~8 Fixations= "9/"
# sa~9 Fixations= ""
# place~10 Fixations= "15/"
# à~11 Fixations= "15/"
# la~12 Fixations= ""
# tete~13 Fixations= "11/"
# du~14 Fixations= "16/"
# classement~15 Fixations= "16/"
# des~16 Fixations= ""
# personnalités~17 Fixations= "19/"
# préférées~18 Fixations= "17/"
# des~19 Fixations= ""
# Français~20 Fixations= ""
# et~21 Fixations= ""
# devance~22 Fixations= "19/"
# Zinédine~23 Fixations= "20/"
# Zidane~24 Fixations= "20/"
%%
#  LE[9] CHANTEUR[10] YANNICK[10] NOAH[11] ICI[12] en CONCERT[12] A[7] REPRIS[9] sa PLACE[15] à[15] la TETE[11] DU[16] CLASSEMENT[16] des PERSONNALITéS[19] PRéFéRéES[17] des Français et DEVANCE[19] ZINéDINE[20] ZIDANE[20]
# s20 reforme_justice-a2 PercentageOfWordsProcessed= 0.72 PercentageOfWordsReallyProcessed= 0.72
