999 WORDS_habitants~1 130
999 WORDFREQ_25 130
999 WORDSALL_Les~0_habitants~1 130
999 COSIND_-0.06 130
999 COSGEN_-0.06 130
101 ESRank1 130
999 WORDS_habitants~1 140
999 WORDFREQ_25 140
999 WORDSALL_Les~0_habitants~1 140
999 COSIND_-0.06 140
999 COSGEN_-0.06 140
102 ESRank2 140
203 ESBackSacRefixation 140
999 WORDS_habitants~1 105
999 WORDFREQ_25 105
999 WORDSALL_habitants~1 105
999 COSIND_-0.06 105
999 COSGEN_-0.06 105
103 ESRank3 105
203 ESBackSacRefixation 105
999 WORDS_Tirana~3 184
999 WORDFREQ_N/A 184
999 WORDSALL_de~2_Tirana~3 184
999 COSIND_N/A 184
104 ESRank4 184
202 ESForwSacLong+2+4 184
999 WORDS_Tirana~3 192
999 WORDFREQ_N/A 192
999 WORDSALL_Tirana~3 192
999 COSIND_N/A 192
105 ESRank5 192
203 ESBackSacRefixation 192
999 WORDS_Tirana~3 190
999 WORDFREQ_N/A 190
999 WORDSALL_de~2_Tirana~3 190
999 COSIND_N/A 190
106 ESRank6 190
203 ESBackSacRefixation 190
999 WORDS_compatissent~4 212
999 WORDFREQ_0.14 212
999 WORDSALL_compatissent~4 212
999 COSIND_0.04 212
999 COSGEN_0.04 212
107 ESRank7 212
201 ESForwSacShort 212
999 WORDS_compatissent~4 160
999 WORDFREQ_0.14 160
999 WORDSALL_compatissent~4 160
999 COSIND_0.04 160
999 COSGEN_0.04 160
108 ESRank8 160
203 ESBackSacRefixation 160
999 WORDS_compatissent~4 276
999 WORDFREQ_0.14 276
999 WORDSALL_compatissent~4 276
999 COSIND_0.04 276
999 COSGEN_0.04 276
109 ESRank9 276
203 ESBackSacRefixation 276
999 WORDS_malheurs~6 95
999 WORDFREQ_19.8 95
999 WORDSALL_malheurs~6 95
999 COSIND_0.06 95
999 COSGEN_0.06 95
110 ESRank10 95
202 ESForwSacLong+2+5 95
999 WORDS_malheurs~6 135
999 WORDFREQ_19.8 135
999 WORDSALL_malheurs~6 135
999 COSIND_0.06 135
999 COSGEN_0.06 135
111 ESRank11 135
203 ESBackSacRefixation 135
999 WORDS_frères~9 181
999 WORDFREQ_73.99 181
999 WORDSALL_de~7_frères~9 181
999 COSIND_0.05 181
999 COSGEN_0.05 181
112 ESRank12 181
202 ESForwSacLong+3+10 181
999 WORDS_frères~9 153
999 WORDFREQ_73.99 153
999 WORDSALL_leurs~8_frères~9 153
999 COSIND_0.05 153
999 COSGEN_0.05 153
113 ESRank13 153
203 ESBackSacRefixation 153
999 WORDS_kosovars~10 163
999 WORDFREQ_N/A 163
999 WORDSALL_kosovars~10 163
999 COSIND_N/A 163
114 ESRank14 163
201 ESForwSacShort 163
999 WORDS_kosovars~10 164
999 WORDFREQ_N/A 164
999 WORDSALL_frères~9_kosovars~10 164
999 COSIND_N/A 164
115 ESRank15 164
203 ESBackSacRefixation 164
999 WORDS_kosovars~10 212
999 WORDFREQ_N/A 212
999 WORDSALL_kosovars~10 212
999 COSIND_N/A 212
116 ESRank16 212
203 ESBackSacRefixation 212
999 WORDS_déclarent~13 181
999 WORDFREQ_1.08 181
999 WORDSALL_déclarent~13 181
999 COSIND_-0.03 181
999 COSGEN_-0.03 181
117 ESRank17 181
202 ESForwSacLong+3+8 181
999 WORDS_déclarent~13 132
999 WORDFREQ_1.08 132
999 WORDSALL_déclarent~13 132
999 COSIND_-0.03 132
999 COSGEN_-0.03 132
118 ESRank18 132
203 ESBackSacRefixation 132
999 WORDS_ulcérés~14 239
999 WORDFREQ_0.07 239
999 WORDSALL_ulcérés~14 239
999 COSIND_0.14 239
999 COSGEN_0.14 239
119 ESRank19 239
201 ESForwSacShort 239
999 WORDS_l'enchaînement~16 201
999 WORDFREQ_3.72 201
999 WORDSALL_par~15_l'enchaînement~16 201
999 COSIND_-0.02 201
999 COSGEN_-0.02 201
120 ESRank20 201
202 ESForwSacLong+2+5 201
999 WORDS_l'enchaînement~16 185
999 WORDFREQ_3.72 185
999 WORDSALL_l'enchaînement~16 185
999 COSIND_-0.02 185
999 COSGEN_-0.02 185
203 ESBackSacRefixation 185
999 WORDS_déclarent~13 128
999 WORDFREQ_1.08 128
999 WORDSALL_déclarent~13 128
999 COSIND_-0.03 128
999 COSGEN_-0.03 128
206 ESBackSacRegrLong-3-15 128
999 WORDS_d'événements~17 219
999 WORDFREQ_58.24 219
999 WORDSALL_d'événements~17 219
999 COSIND_0.01 219
999 COSGEN_0.01 219
202 ESForwSacLong+4+31 219
999 WORDS_qu'ils~18 211
999 WORDFREQ_N/A 211
999 WORDSALL_qu'ils~18 211
999 COSIND_N/A 211
201 ESForwSacShort 211
999 WORDS_ressentent~19 414
999 WORDFREQ_1.28 414
999 WORDSALL_ressentent~19 414
999 COSIND_0.02 414
999 COSGEN_0.02 414
201 ESForwSacShort 414
999 WORDS_ressentent~19 191
999 WORDFREQ_1.28 191
999 WORDSALL_ressentent~19 191
999 COSIND_0.02 191
999 COSGEN_0.02 191
203 ESBackSacRefixation 191
999 WORDS_comme~20 143
999 WORDFREQ_3429.32 143
999 WORDSALL_comme~20 143
999 COSIND_N/A 143
201 ESForwSacShort 143
999 WORDS_profonde~22 148
999 WORDFREQ_37.97 148
999 WORDSALL_profonde~22 148
999 COSIND_-0.06 148
999 COSGEN_-0.06 148
202 ESForwSacLong+2+5 148
999 WORDS_profonde~22 255
999 WORDFREQ_37.97 255
999 WORDSALL_profonde~22 255
999 COSIND_-0.06 255
999 COSGEN_-0.06 255
203 ESBackSacRefixation 255
999 WORDS_injustice~23 258
999 WORDFREQ_11.49 258
999 WORDSALL_profonde~22_injustice~23 258
999 COSIND_0.05 258
999 COSGEN_0.05 258
201 ESForwSacShort 258
999 WORDS_injustice~23 167
999 WORDFREQ_11.49 167
999 WORDSALL_injustice~23 167
999 COSIND_0.05 167
999 COSGEN_0.05 167
203 ESBackSacRefixation 167
999 WORDS_injustice~23 134
999 WORDFREQ_11.49 134
999 WORDSALL_injustice~23 134
999 COSIND_0.05 134
999 COSGEN_0.05 134
203 ESBackSacRefixation 134
999 WORDS_reprochent~25 233
999 WORDFREQ_0.54 233
999 WORDSALL_et~24_reprochent~25 233
999 COSIND_-0.04 233
999 COSGEN_-0.04 233
202 ESForwSacLong+2+4 233
999 WORDS_à~26 134
999 WORDFREQ_19209.05 134
999 WORDSALL_reprochent~25_à~26 134
999 COSIND_N/A 134
201 ESForwSacShort 134
999 WORDS_l'UCK~27 279
999 WORDFREQ_N/A 279
999 WORDSALL_à~26_l'UCK~27 279
999 COSIND_N/A 279
201 ESForwSacShort 279
999 WORDS_d'avoir~28 105
999 WORDFREQ_177.3 105
999 WORDSALL_d'avoir~28 105
999 COSIND_0.03 105
999 COSGEN_0.03 105
201 ESForwSacShort 105
999 WORDS_d'avoir~28 132
999 WORDFREQ_177.3 132
999 WORDSALL_d'avoir~28 132
999 COSIND_0.03 132
999 COSGEN_0.03 132
203 ESBackSacRefixation 132
999 WORDS_lancé~29 189
999 WORDFREQ_24.66 189
999 WORDSALL_d'avoir~28_lancé~29 189
999 COSIND_0.05 189
999 COSGEN_0.05 189
201 ESForwSacShort 189
999 WORDS_opérations~31 208
999 WORDFREQ_28.78 208
999 WORDSALL_des~30_opérations~31 208
999 COSIND_0.06 208
999 COSGEN_0.06 208
202 ESForwSacLong+2+5 208
999 WORDS_opérations~31 130
999 WORDFREQ_28.78 130
999 WORDSALL_opérations~31 130
999 COSIND_0.06 130
999 COSGEN_0.06 130
203 ESBackSacRefixation 130
999 WORDS_armées~32 438
999 WORDFREQ_2.97 438
999 WORDSALL_armées~32 438
999 COSIND_0.02 438
999 COSGEN_0.02 438
201 ESForwSacShort 438
200 ESRankN 438
199 ESRankNMinus1 130
198 ESRankNMinus2 208
197 ESRankNMinus3 189
196 ESRankNMinus4 132
195 ESRankNMinus5 105
194 ESRankNMinus6 279
193 ESRankNMinus7 134
192 ESRankNMinus8 233
191 ESRankNMinus9 134
190 ESRankNMinus10 167
