# 132 Fixation 1 (243.9,262.8): Il~0 aura~1
# 120 Fixation 2 (348.9,269.5): aura~1 suffi~2
# 170 Fixation 3 (491.4,266.8): que~3 soleil~5
# 173 Fixation 4 (594.8,274.4): soleil~5 montre~6
# 163 Fixation 5 (704.6,275.8): montre~6 bout~8
# 226 Fixation 6 (298.4,333.5): de~9 nez~11
# 158 Fixation 7 (434.9,331.4): pour~12
# 147 Fixation 8 (546.3,329): les~14 jardineries~15
# 140 Fixation 9 (686.4,331.8): jardineries~15 soient~16
# 185 Fixation 10 (299.8,359.8): de~9 nez~11
# 147 Fixation 11 (412.6,354.9): nez~11
# 166 Fixation 12 (524.5,367.6): que~13 jardineries~15
%%
# Il~0 Fixations= "1/"
# aura~1 Fixations= "2/"
# suffi~2 Fixations= "2/"
# que~3 Fixations= "3/"
# le~4 Fixations= ""
# soleil~5 Fixations= "4/"
# montre~6 Fixations= "5/"
# le~7 Fixations= ""
# bout~8 Fixations= "5/"
# de~9 Fixations= "10/"
# son~10 Fixations= ""
# nez~11 Fixations= "11/"
# pour~12 Fixations= "7/"
# que~13 Fixations= "12/"
# les~14 Fixations= "8/"
# jardineries~15 Fixations= "12/"
# soient~16 Fixations= "9/"
# prises~17 Fixations= ""
# d'assaut~18 Fixations= ""
# On~19 Fixations= ""
# dépense~20 Fixations= ""
# de~21 Fixations= ""
# plus~22 Fixations= ""
# en~23 Fixations= ""
# plus~24 Fixations= ""
# pour~25 Fixations= ""
# la~26 Fixations= ""
# plantation~27 Fixations= ""
# de~28 Fixations= ""
# fleurs~29 Fixations= ""
# dans~30 Fixations= ""
# son~31 Fixations= ""
# jardin~32 Fixations= ""
%%
#  IL[1] AURA[2] SUFFI[2] QUE[3] le SOLEIL[4] MONTRE[5] le BOUT[5] DE[10] son NEZ[11] POUR[7] QUE[12] LES[8] JARDINERIES[12] SOIENT[9] prises d'assaut On dépense de plus en plus pour la plantation de fleurs dans son jardin
# s07 plantation_fleurs-f1 PercentageOfWordsProcessed= 0.424242424242424 PercentageOfWordsReallyProcessed= 0.823529411764706
