# 136 Fixation 1 (331.2,276.2): Dans~0 clairières~2
# 155 Fixation 2 (497.1,280.5): clairières~2
# 149 Fixation 3 (570.3,288.4): les~3 Indiennes~4
# 294 Fixation 4 (306.8,337): Dans~0 clairières~2 récoltent~5
# 147 Fixation 5 (285,326.9): Dans~0 clairières~2 récoltent~5
# 154 Fixation 6 (445.7,328.4): clairières~2 manioc~7
%%
# Dans~0 Fixations= "5/"
# les~1 Fixations= ""
# clairières~2 Fixations= "6/"
# les~3 Fixations= "3/"
# Indiennes~4 Fixations= "3/"
# récoltent~5 Fixations= "5/"
# du~6 Fixations= ""
# manioc~7 Fixations= "6/"
# du~8 Fixations= ""
# maïs~9 Fixations= ""
# des~10 Fixations= ""
# bananes~11 Fixations= ""
# des~12 Fixations= ""
# coeurs~13 Fixations= ""
# de~14 Fixations= ""
# palmier~15 Fixations= ""
# Leurs~16 Fixations= ""
# paniers~17 Fixations= ""
# sont~18 Fixations= ""
# portés~19 Fixations= ""
# sur~20 Fixations= ""
# le~21 Fixations= ""
# dos~22 Fixations= ""
# et~23 Fixations= ""
# équilibrés~24 Fixations= ""
# par~25 Fixations= ""
# une~26 Fixations= ""
# lanière~27 Fixations= ""
# passée~28 Fixations= ""
# sur~29 Fixations= ""
# le~30 Fixations= ""
# front~31 Fixations= ""
%%
#  DANS[5] les CLAIRIèRES[6] LES[3] INDIENNES[3] RéCOLTENT[5] du MANIOC[6] du maïs des bananes des coeurs de palmier Leurs paniers sont portés sur le dos et équilibrés par une lanière passée sur le front
# s07 croissance_economie-a1 PercentageOfWordsProcessed= 0.1875 PercentageOfWordsReallyProcessed= 0.75
