999 WORDS_Moscou~1 107
999 WORDFREQ_N/A 107
999 WORDSALL_Moscou~1 107
999 COSIND_N/A 107
101 ESRank1 107
999 WORDS_Moscou~1 126
999 WORDFREQ_N/A 126
999 WORDSALL_A~0_Moscou~1 126
999 COSIND_N/A 126
102 ESRank2 126
203 ESBackSacRefixation 126
999 WORDS_communiqués~3 167
999 WORDFREQ_1.96 167
999 WORDSALL_les~2_communiqués~3 167
999 COSIND_-0.03 167
999 COSGEN_-0.03 167
103 ESRank3 167
202 ESForwSacLong+2+5 167
999 WORDS_communiqués~3 130
999 WORDFREQ_1.96 130
999 WORDSALL_communiqués~3 130
999 COSIND_-0.03 130
999 COSGEN_-0.03 130
104 ESRank4 130
203 ESBackSacRefixation 130
999 WORDS_triomphants~4 199
999 WORDFREQ_1.42 199
999 WORDSALL_triomphants~4 199
999 COSIND_0.08 199
999 COSGEN_0.08 199
105 ESRank5 199
201 ESForwSacShort 199
999 WORDS_triomphants~4 117
999 WORDFREQ_1.42 117
999 WORDSALL_triomphants~4 117
999 COSIND_0.08 117
999 COSGEN_0.08 117
106 ESRank6 117
203 ESBackSacRefixation 117
999 WORDS_succèdent~6 228
999 WORDFREQ_5.07 228
999 WORDSALL_succèdent~6 228
999 COSIND_0.06 228
999 COSGEN_0.06 228
107 ESRank7 228
202 ESForwSacLong+2+4 228
999 WORDS_succèdent~6 172
999 WORDFREQ_5.07 172
999 WORDSALL_succèdent~6 172
999 COSIND_0.06 172
999 COSGEN_0.06 172
108 ESRank8 172
203 ESBackSacRefixation 172
999 WORDS_triomphants~4 88
999 WORDFREQ_1.42 88
999 WORDSALL_triomphants~4 88
999 COSIND_0.08 88
999 COSGEN_0.08 88
109 ESRank9 88
206 ESBackSacRegrLong-2-4 88
999 WORDS_triomphants~4 176
999 WORDFREQ_1.42 176
999 WORDSALL_triomphants~4 176
999 COSIND_0.08 176
999 COSGEN_0.08 176
110 ESRank10 176
203 ESBackSacRefixation 176
999 WORDS_communiqués~3 108
999 WORDFREQ_1.96 108
999 WORDSALL_les~2_communiqués~3 108
999 COSIND_-0.03 108
999 COSGEN_-0.03 108
111 ESRank11 108
205 ESBackSacRegrShort 108
999 WORDS_Daghestan~9 82
999 WORDFREQ_N/A 82
999 WORDSALL_le~8_Daghestan~9 82
999 COSIND_N/A 82
112 ESRank12 82
202 ESForwSacLong+6+35 82
999 WORDS_Daghestan~9 96
999 WORDFREQ_N/A 96
999 WORDSALL_Daghestan~9 96
999 COSIND_N/A 96
113 ESRank13 96
203 ESBackSacRefixation 96
999 WORDS_Daghestan~9 210
999 WORDFREQ_N/A 210
999 WORDSALL_Daghestan~9 210
999 COSIND_N/A 210
114 ESRank14 210
203 ESBackSacRefixation 210
999 WORDS_Daghestan~9 143
999 WORDFREQ_N/A 143
999 WORDSALL_le~8_Daghestan~9 143
999 COSIND_N/A 143
115 ESRank15 143
203 ESBackSacRefixation 143
999 WORDS_rebelles~11 214
999 WORDFREQ_4.26 214
999 WORDSALL_les~10_rebelles~11 214
999 COSIND_0.20 214
999 COSGEN_0.20 214
116 ESRank16 214
202 ESForwSacLong+2+5 214
999 WORDS_rebelles~11 95
999 WORDFREQ_4.26 95
999 WORDSALL_les~10_rebelles~11 95
999 COSIND_0.20 95
999 COSGEN_0.20 95
117 ESRank17 95
203 ESBackSacRefixation 95
999 WORDS_complètement~13 176
999 WORDFREQ_81.49 176
999 WORDSALL_complètement~13 176
999 COSIND_0.02 176
999 COSGEN_0.02 176
118 ESRank18 176
202 ESForwSacLong+2+6 176
999 WORDS_sont~12 142
999 WORDFREQ_713.18 142
999 WORDSALL_sont~12 142
999 COSIND_0.02 142
999 COSGEN_0.02 142
119 ESRank19 142
205 ESBackSacRegrShort 142
999 WORDS_encerclés~14 276
999 WORDFREQ_0.68 276
999 WORDSALL_encerclés~14 276
999 COSIND_-0.00 276
999 COSGEN_-0.00 276
120 ESRank20 276
202 ESForwSacLong+2+15 276
999 WORDS_chef~16 95
999 WORDFREQ_172.57 95
999 WORDSALL_encerclés~14_chef~16 95
999 COSIND_1.00 95
999 COSGEN_1.00 95
202 ESForwSacLong+2+6 95
999 WORDS_chef~16 103
999 WORDFREQ_172.57 103
999 WORDSALL_leur~15_chef~16 103
999 COSIND_1.00 103
999 COSGEN_1.00 103
203 ESBackSacRefixation 103
999 WORDS_militaire~17 211
999 WORDFREQ_69.19 211
999 WORDSALL_militaire~17 211
999 COSIND_-0.03 211
999 COSGEN_-0.03 211
201 ESForwSacShort 211
999 WORDS_blessé~19 250
999 WORDFREQ_9.19 250
999 WORDSALL_est~18_blessé~19 250
999 COSIND_-0.00 250
999 COSGEN_-0.00 250
202 ESForwSacLong+2+5 250
999 WORDS_islamistes~21 356
999 WORDFREQ_0.14 356
999 WORDSALL_les~20_islamistes~21 356
999 COSIND_N/A 356
202 ESForwSacLong+2+5 356
999 WORDS_lourdes~25 270
999 WORDFREQ_23.18 270
999 WORDSALL_subi~23_lourdes~25 270
999 COSIND_0.03 270
999 COSGEN_0.03 270
202 ESForwSacLong+4+13 270
999 WORDS_subi~23 97
999 WORDFREQ_10.81 97
999 WORDSALL_subi~23 97
999 COSIND_-0.01 97
999 COSGEN_-0.01 97
206 ESBackSacRegrLong-2-4 97
999 WORDS_ont~22 160
999 WORDFREQ_553.31 160
999 WORDSALL_islamistes~21_ont~22 160
999 COSIND_0.00 160
999 COSGEN_0.00 160
205 ESBackSacRegrShort 160
999 WORDS_lourdes~25 169
999 WORDFREQ_23.18 169
999 WORDSALL_lourdes~25 169
999 COSIND_0.03 169
999 COSGEN_0.03 169
202 ESForwSacLong+3+9 169
999 WORDS_Moscou~1 183
999 WORDFREQ_N/A 183
999 WORDSALL_Moscou~1 183
999 COSIND_N/A 183
206 ESBackSacRegrLong-24-164 183
999 WORDS_Moscou~1 143
999 WORDFREQ_N/A 143
999 WORDSALL_A~0_Moscou~1 143
999 COSIND_N/A 143
203 ESBackSacRefixation 143
999 WORDS_communiqués~3 218
999 WORDFREQ_1.96 218
999 WORDSALL_les~2_communiqués~3 218
999 COSIND_-0.03 218
999 COSGEN_-0.03 218
202 ESForwSacLong+2+5 218
999 WORDS_triomphants~4 208
999 WORDFREQ_1.42 208
999 WORDSALL_triomphants~4 208
999 COSIND_0.08 208
999 COSGEN_0.08 208
201 ESForwSacShort 208
200 ESRankN 208
199 ESRankNMinus1 218
198 ESRankNMinus2 143
197 ESRankNMinus3 183
196 ESRankNMinus4 169
195 ESRankNMinus5 160
194 ESRankNMinus6 97
193 ESRankNMinus7 270
192 ESRankNMinus8 356
191 ESRankNMinus9 250
190 ESRankNMinus10 211
