999 WORDS_grève~1 211
999 WORDFREQ_22.36 211
999 WORDSALL_Cette~0_grève~1 211
999 COSIND_1.00 211
999 COSGEN_1.00 211
101 ESRank1 211
999 WORDS_grève~1 202
999 WORDFREQ_22.36 202
999 WORDSALL_Cette~0_grève~1 202
999 COSIND_1.00 202
999 COSGEN_1.00 202
102 ESRank2 202
203 ESBackSacRefixation 202
999 WORDS_et~2 415
999 WORDFREQ_20879.73 415
999 WORDSALL_et~2 415
999 COSIND_N/A 415
103 ESRank3 415
201 ESForwSacShort 415
999 WORDS_manifestation~4 115
999 WORDFREQ_9.8 115
999 WORDSALL_et~2_manifestation~4 115
999 COSIND_0.24 115
999 COSGEN_0.24 115
104 ESRank4 115
202 ESForwSacLong+2+7 115
999 WORDS_manifestation~4 302
999 WORDFREQ_9.8 302
999 WORDSALL_cette~3_manifestation~4 302
999 COSIND_0.24 302
999 COSGEN_0.24 302
105 ESRank5 302
203 ESBackSacRefixation 302
999 WORDS_manifestation~4 88
999 WORDFREQ_9.8 88
999 WORDSALL_cette~3_manifestation~4 88
999 COSIND_0.24 88
999 COSGEN_0.24 88
106 ESRank6 88
203 ESBackSacRefixation 88
999 WORDS_affichaient~5 228
999 WORDFREQ_1.35 228
999 WORDSALL_affichaient~5 228
999 COSIND_0.07 228
999 COSGEN_0.07 228
107 ESRank7 228
201 ESForwSacShort 228
999 WORDS_affichaient~5 108
999 WORDFREQ_1.35 108
999 WORDSALL_affichaient~5 108
999 COSIND_0.07 108
999 COSGEN_0.07 108
108 ESRank8 108
203 ESBackSacRefixation 108
999 WORDS_positions~7 265
999 WORDFREQ_9.53 265
999 WORDSALL_des~6_positions~7 265
999 COSIND_-0.03 265
999 COSGEN_-0.03 265
109 ESRank9 265
202 ESForwSacLong+2+5 265
999 WORDS_objectifs~10 199
999 WORDFREQ_3.24 199
999 WORDSALL_et~8_objectifs~10 199
999 COSIND_-0.07 199
999 COSGEN_-0.07 199
110 ESRank10 199
202 ESForwSacLong+3+8 199
999 WORDS_objectifs~10 279
999 WORDFREQ_3.24 279
999 WORDSALL_des~9_objectifs~10 279
999 COSIND_-0.07 279
999 COSGEN_-0.07 279
111 ESRank11 279
203 ESBackSacRefixation 279
999 WORDS_contradictoires~11 252
999 WORDFREQ_6.62 252
999 WORDSALL_contradictoires~11 252
999 COSIND_-0.04 252
999 COSGEN_-0.04 252
112 ESRank12 252
201 ESForwSacShort 252
999 WORDS_contradictoires~11 190
999 WORDFREQ_6.62 190
999 WORDSALL_contradictoires~11 190
999 COSIND_-0.04 190
999 COSGEN_-0.04 190
113 ESRank13 190
203 ESBackSacRefixation 190
999 WORDS_direction~13 307
999 WORDFREQ_103.04 307
999 WORDSALL_La~12_direction~13 307
999 COSIND_0.55 307
999 COSGEN_0.55 307
114 ESRank14 307
202 ESForwSacLong+2+4 307
999 WORDS_direction~13 130
999 WORDFREQ_103.04 130
999 WORDSALL_direction~13 130
999 COSIND_0.55 130
999 COSGEN_0.55 130
115 ESRank15 130
203 ESBackSacRefixation 130
999 WORDS_croyait~14 279
999 WORDFREQ_73.24 279
999 WORDSALL_croyait~14 279
999 COSIND_0.01 279
999 COSGEN_0.01 279
116 ESRank16 279
201 ESForwSacShort 279
999 WORDS_croyait~14 121
999 WORDFREQ_73.24 121
999 WORDSALL_croyait~14 121
999 COSIND_0.01 121
999 COSGEN_0.01 121
117 ESRank17 121
203 ESBackSacRefixation 121
999 WORDS_mouvement~17 173
999 WORDFREQ_134.8 173
999 WORDSALL_le~16_mouvement~17 173
999 COSIND_0.38 173
999 COSGEN_0.38 173
118 ESRank18 173
202 ESForwSacLong+3+8 173
999 WORDS_mouvement~17 161
999 WORDFREQ_134.8 161
999 WORDSALL_le~16_mouvement~17 161
999 COSIND_0.38 161
999 COSGEN_0.38 161
119 ESRank19 161
203 ESBackSacRefixation 161
999 WORDS_pourrir~19 185
999 WORDFREQ_5.95 185
999 WORDSALL_allait~18_pourrir~19 185
999 COSIND_-0.00 185
999 COSGEN_-0.00 185
120 ESRank20 185
202 ESForwSacLong+2+8 185
999 WORDS_pourrir~19 118
999 WORDFREQ_5.95 118
999 WORDSALL_allait~18_pourrir~19 118
999 COSIND_-0.00 118
999 COSGEN_-0.00 118
203 ESBackSacRefixation 118
999 WORDS_a~21 239
999 WORDFREQ_1669.39 239
999 WORDSALL_Elle~20_a~21 239
999 COSIND_N/A 239
202 ESForwSacLong+2+6 239
999 WORDS_tort~23 128
999 WORDFREQ_51.55 128
999 WORDSALL_a~21_eu~22_tort~23 128
999 COSIND_-0.06 128
999 COSGEN_-0.06 128
202 ESForwSacLong+2+4 128
999 WORDS_spéculer~25 172
999 WORDFREQ_0.47 172
999 WORDSALL_de~24_spéculer~25 172
999 COSIND_-0.03 172
999 COSGEN_-0.03 172
202 ESForwSacLong+2+4 172
999 WORDS_spéculer~25 160
999 WORDFREQ_0.47 160
999 WORDSALL_de~24_spéculer~25 160
999 COSIND_-0.03 160
999 COSGEN_-0.03 160
203 ESBackSacRefixation 160
999 WORDS_recul~28 149
999 WORDFREQ_14.73 149
999 WORDSALL_sur~26_recul~28 149
999 COSIND_-0.04 149
999 COSGEN_-0.04 149
202 ESForwSacLong+3+8 149
200 ESRankN 149
199 ESRankNMinus1 160
198 ESRankNMinus2 172
197 ESRankNMinus3 128
196 ESRankNMinus4 239
195 ESRankNMinus5 118
194 ESRankNMinus6 185
193 ESRankNMinus7 161
192 ESRankNMinus8 173
191 ESRankNMinus9 121
190 ESRankNMinus10 279
