999 WORDS_collectivités~1 278
999 WORDFREQ_0.34 278
999 WORDSALL_collectivités~1 278
999 COSIND_0.01 278
999 COSGEN_0.01 278
101 ESRank1 278
999 WORDS_locales~2 289
999 WORDFREQ_4.8 289
999 WORDSALL_locales~2 289
999 COSIND_0.02 289
999 COSGEN_0.02 289
102 ESRank2 289
201 ESForwSacShort 289
999 WORDS_collectivités~1 294
999 WORDFREQ_0.34 294
999 WORDSALL_collectivités~1 294
999 COSIND_0.01 294
999 COSGEN_0.01 294
103 ESRank3 294
205 ESBackSacRegrShort 294
999 WORDS_locales~2 165
999 WORDFREQ_4.8 165
999 WORDSALL_locales~2 165
999 COSIND_0.02 165
999 COSGEN_0.02 165
104 ESRank4 165
201 ESForwSacShort 165
999 WORDS_encouragées~4 250
999 WORDFREQ_0.2 250
999 WORDSALL_sont~3_encouragées~4 250
999 COSIND_0.07 250
999 COSGEN_0.07 250
105 ESRank5 250
202 ESForwSacLong+2+6 250
999 WORDS_encouragées~4 156
999 WORDFREQ_0.2 156
999 WORDSALL_sont~3_encouragées~4 156
999 COSIND_0.07 156
999 COSGEN_0.07 156
106 ESRank6 156
203 ESBackSacRefixation 156
999 WORDS_coordonner~6 177
999 WORDFREQ_1.22 177
999 WORDSALL_coordonner~6 177
999 COSIND_0.41 177
999 COSGEN_0.41 177
107 ESRank7 177
202 ESForwSacLong+2+4 177
999 WORDS_coordonner~6 172
999 WORDFREQ_1.22 172
999 WORDSALL_à~5_coordonner~6 172
999 COSIND_0.41 172
999 COSGEN_0.41 172
108 ESRank8 172
203 ESBackSacRefixation 172
999 WORDS_action~8 301
999 WORDFREQ_72.91 301
999 WORDSALL_leur~7_action~8 301
999 COSIND_0.14 301
999 COSGEN_0.14 301
109 ESRank9 301
202 ESForwSacLong+2+6 301
999 WORDS_faveur~10 134
999 WORDFREQ_27.64 134
999 WORDSALL_en~9_faveur~10 134
999 COSIND_0.07 134
999 COSGEN_0.07 134
110 ESRank10 134
202 ESForwSacLong+2+4 134
999 WORDS_réfugiés~12 375
999 WORDFREQ_8.18 375
999 WORDSALL_réfugiés~12 375
999 COSIND_0.12 375
999 COSGEN_0.12 375
111 ESRank11 375
202 ESForwSacLong+2+5 375
999 WORDS_envisagent~14 325
999 WORDFREQ_0.41 325
999 WORDSALL_Elles~13_envisagent~14 325
999 COSIND_0.06 325
999 COSGEN_0.06 325
112 ESRank12 325
202 ESForwSacLong+2+7 325
999 WORDS_envisagent~14 150
999 WORDFREQ_0.41 150
999 WORDSALL_envisagent~14 150
999 COSIND_0.06 150
999 COSGEN_0.06 150
113 ESRank13 150
203 ESBackSacRefixation 150
999 WORDS_monter~16 158
999 WORDFREQ_96.89 158
999 WORDSALL_de~15_monter~16 158
999 COSIND_0.06 158
999 COSGEN_0.06 158
114 ESRank14 158
202 ESForwSacLong+2+4 158
999 WORDS_plate-forme~18 252
999 WORDFREQ_8.45 252
999 WORDSALL_plate-forme~18 252
999 COSIND_N/A 252
115 ESRank15 252
202 ESForwSacLong+2+5 252
999 WORDS_assurer~20 237
999 WORDFREQ_38.85 237
999 WORDSALL_pour~19_assurer~20 237
999 COSIND_0.08 237
999 COSGEN_0.08 237
116 ESRank16 237
202 ESForwSacLong+2+6 237
999 WORDS_monter~16 171
999 WORDFREQ_96.89 171
999 WORDSALL_monter~16 171
999 COSIND_0.06 171
999 COSGEN_0.06 171
117 ESRank17 171
206 ESBackSacRegrLong-4-22 171
999 WORDS_assurer~20 186
999 WORDFREQ_38.85 186
999 WORDSALL_pour~19_assurer~20 186
999 COSIND_0.08 186
999 COSGEN_0.08 186
118 ESRank18 186
202 ESForwSacLong+4+22 186
999 WORDS_traçabilité~22 226
999 WORDFREQ_0 226
999 WORDSALL_la~21_traçabilité~22 226
999 COSIND_N/A 226
119 ESRank19 226
202 ESForwSacLong+2+4 226
999 WORDS_traçabilité~22 179
999 WORDFREQ_0 179
999 WORDSALL_traçabilité~22 179
999 COSIND_N/A 179
120 ESRank20 179
203 ESBackSacRefixation 179
999 WORDS_l'acheminement~24 278
999 WORDFREQ_0.47 278
999 WORDSALL_l'acheminement~24 278
999 COSIND_0.49 278
999 COSGEN_0.49 278
202 ESForwSacLong+2+4 278
999 WORDS_colis~26 242
999 WORDFREQ_10.54 242
999 WORDSALL_colis~26 242
999 COSIND_0.39 242
999 COSGEN_0.39 242
202 ESForwSacLong+2+5 242
999 WORDS_colis~26 224
999 WORDFREQ_10.54 224
999 WORDSALL_des~25_colis~26 224
999 COSIND_0.39 224
999 COSGEN_0.39 224
203 ESBackSacRefixation 224
999 WORDS_humanitaires~27 178
999 WORDFREQ_0.34 178
999 WORDSALL_colis~26_humanitaires~27 178
999 COSIND_1.00 178
999 COSGEN_1.00 178
201 ESForwSacShort 178
999 WORDS_l'acheminement~24 226
999 WORDFREQ_0.47 226
999 WORDSALL_l'acheminement~24 226
999 COSIND_0.49 226
999 COSGEN_0.49 226
206 ESBackSacRegrLong-3-11 226
999 WORDS_traçabilité~22 196
999 WORDFREQ_0 196
999 WORDSALL_traçabilité~22 196
999 COSIND_N/A 196
206 ESBackSacRegrLong-2-4 196
999 WORDS_colis~26 165
999 WORDFREQ_10.54 165
999 WORDSALL_des~25_colis~26 165
999 COSIND_0.39 165
999 COSGEN_0.39 165
202 ESForwSacLong+4+23 165
200 ESRankN 165
199 ESRankNMinus1 196
198 ESRankNMinus2 226
197 ESRankNMinus3 178
196 ESRankNMinus4 224
195 ESRankNMinus5 242
194 ESRankNMinus6 278
193 ESRankNMinus7 179
192 ESRankNMinus8 226
191 ESRankNMinus9 186
190 ESRankNMinus10 171
