# 133 Fixation 1 (264.7,270.4): Les~0 grands~1
# 289 Fixation 2 (430.3,268): constructeurs~2
# 206 Fixation 3 (578.5,255.5): automobiles~3
# 83 Fixation 4 (623,264.6): automobiles~3
# 157 Fixation 5 (332,333.2): Les~0 grands~1 cherchent~4 à~5
# 240 Fixation 6 (298.7,341.9): Les~0 grands~1 cherchent~4
# 247 Fixation 7 (411.5,341.6): grands~1 constructeurs~2 à~5 rajeunir~6
# 204 Fixation 8 (554.9,348.2): constructeurs~2 automobiles~3 effectifs~8 salariés~13
# 187 Fixation 9 (614.2,353.4): leurs~7 effectifs~8
# 138 Fixation 10 (711.3,352.8): effectifs~8 l'automobile~15
# 215 Fixation 11 (298.2,404.8): cherchent~4 moyenne~10
# 139 Fixation 12 (378.9,415.1): d'âge~11
# 226 Fixation 13 (478,421.7): des~12 salariés~13
# 144 Fixation 14 (436.8,420.9): d'âge~11 ans~19
# 217 Fixation 15 (655.2,416.4): de~14 l'automobile~15
# 262 Fixation 16 (612.5,420): salariés~13 l'automobile~15
# 273 Fixation 17 (311.2,469.8): moyenne~10 trente~18
# 142 Fixation 18 (283.5,473): moyenne~10
# 181 Fixation 19 (460.7,476): des~12 salariés~13 ans~19
# 147 Fixation 20 (516.8,481.4): ans~19 Japon~21
# 132 Fixation 21 (601.2,474.3): salariés~13 Japon~21
# 112 Fixation 22 (693.4,478.7): alors~22 qu'elle~23
# 158 Fixation 23 (337.7,530.4): de~17 trente~18
# 144 Fixation 24 (280.6,530.3): est~16 trente~18 atteint~24
# 258 Fixation 25 (436.9,536.3): trente~18 ans~19 quarante-cinq~25
# 208 Fixation 26 (409.1,540.4): trente~18 ans~19 quarante-cinq~25
# 163 Fixation 27 (544.5,542.5): ans~26
# 128 Fixation 28 (617.1,547.2): ans~26 Renault~28
# 90 Fixation 29 (658.4,543.3): chez~27 Renault~28
%%
# Les~0 Fixations= "6/"
# grands~1 Fixations= "7/"
# constructeurs~2 Fixations= "8/"
# automobiles~3 Fixations= "8/"
# cherchent~4 Fixations= "11/"
# à~5 Fixations= "7/"
# rajeunir~6 Fixations= "7/"
# leurs~7 Fixations= "9/"
# effectifs~8 Fixations= "10/"
# La~9 Fixations= ""
# moyenne~10 Fixations= "18/"
# d'âge~11 Fixations= "14/"
# des~12 Fixations= "19/"
# salariés~13 Fixations= "21/"
# de~14 Fixations= "15/"
# l'automobile~15 Fixations= "16/"
# est~16 Fixations= "24/"
# de~17 Fixations= "23/"
# trente~18 Fixations= "26/"
# ans~19 Fixations= "26/"
# au~20 Fixations= ""
# Japon~21 Fixations= "21/"
# alors~22 Fixations= "22/"
# qu'elle~23 Fixations= "22/"
# atteint~24 Fixations= "24/"
# quarante-cinq~25 Fixations= "26/"
# ans~26 Fixations= "28/"
# chez~27 Fixations= "29/"
# Renault~28 Fixations= "29/"
%%
#  LES[6] GRANDS[7] CONSTRUCTEURS[8] AUTOMOBILES[8] CHERCHENT[11] à[7] RAJEUNIR[7] LEURS[9] EFFECTIFS[10] La MOYENNE[18] D'âGE[14] DES[19] SALARIéS[21] DE[15] L'AUTOMOBILE[16] EST[24] DE[23] TRENTE[26] ANS[26] au JAPON[21] ALORS[22] QU'ELLE[22] ATTEINT[24] QUARANTE-CINQ[26] ANS[28] CHEZ[29] RENAULT[29]
# s17 delinquance_juvenile-a2 PercentageOfWordsProcessed= 0.931034482758621 PercentageOfWordsReallyProcessed= 0.931034482758621
