999 WORDS_plupart~1 184
999 WORDFREQ_0.07 184
999 WORDSALL_La~0_plupart~1 184
999 COSIND_0.11 184
999 COSGEN_0.11 184
101 ESRank1 184
999 WORDS_plupart~1 153
999 WORDFREQ_0.07 153
999 WORDSALL_La~0_plupart~1 153
999 COSIND_0.11 153
999 COSGEN_0.11 153
102 ESRank2 153
203 ESBackSacRefixation 153
999 WORDS_des~2 170
999 WORDFREQ_10624.93 170
999 WORDSALL_des~2 170
999 COSIND_N/A 170
103 ESRank3 170
201 ESForwSacShort 170
999 WORDS_animateurs-modérateurs~3 240
999 WORDFREQ_N/A 240
999 WORDSALL_animateurs-modérateurs~3 240
999 COSIND_N/A 240
104 ESRank4 240
201 ESForwSacShort 240
999 WORDS_formation~6 262
999 WORDFREQ_9.32 262
999 WORDSALL_formation~6 262
999 COSIND_0.93 262
999 COSGEN_0.93 262
105 ESRank5 262
202 ESForwSacLong+3+9 262
999 WORDS_journaliste~8 200
999 WORDFREQ_15.95 200
999 WORDSALL_journaliste~8 200
999 COSIND_0.03 200
999 COSGEN_0.03 200
106 ESRank6 200
202 ESForwSacLong+2+4 200
999 WORDS_n'existe~10 168
999 WORDFREQ_57.97 168
999 WORDSALL_Il~9_n'existe~10 168
999 COSIND_-0.02 168
999 COSGEN_-0.02 168
107 ESRank7 168
202 ESForwSacLong+2+4 168
999 WORDS_spécifique~14 285
999 WORDFREQ_1.42 285
999 WORDSALL_spécifique~14 285
999 COSIND_0.30 285
999 COSGEN_0.30 285
108 ESRank8 285
202 ESForwSacLong+4+18 285
999 WORDS_journalisme~19 264
999 WORDFREQ_3.51 264
999 WORDSALL_journalisme~19 264
999 COSIND_0.13 264
999 COSGEN_0.13 264
109 ESRank9 264
202 ESForwSacLong+5+21 264
999 WORDS_communication~22 188
999 WORDFREQ_17.23 188
999 WORDSALL_de~21_communication~22 188
999 COSIND_0.16 188
999 COSGEN_0.16 188
110 ESRank10 188
202 ESForwSacLong+3+7 188
999 WORDS_donnent~24 152
999 WORDFREQ_26.28 152
999 WORDSALL_donnent~24 152
999 COSIND_0.04 152
999 COSGEN_0.04 152
111 ESRank11 152
202 ESForwSacLong+2+5 152
999 WORDS_donnent~24 144
999 WORDFREQ_26.28 144
999 WORDSALL_qui~23_donnent~24 144
999 COSIND_0.04 144
999 COSGEN_0.04 144
112 ESRank12 144
203 ESBackSacRefixation 144
999 WORDS_communication~22 164
999 WORDFREQ_17.23 164
999 WORDSALL_ou~20_communication~22 164
999 COSIND_0.16 164
999 COSGEN_0.16 164
113 ESRank13 164
206 ESBackSacRegrLong-2-5 164
200 ESRankN 164
199 ESRankNMinus1 144
198 ESRankNMinus2 152
197 ESRankNMinus3 188
196 ESRankNMinus4 264
195 ESRankNMinus5 285
194 ESRankNMinus6 168
193 ESRankNMinus7 200
192 ESRankNMinus8 262
191 ESRankNMinus9 240
190 ESRankNMinus10 170
