999 WORDS_via~1 83
999 WORDFREQ_5.41 83
999 WORDSALL_Les~0_via~1 83
999 COSIND_0.18 83
999 COSGEN_0.18 83
101 ESRank1 83
999 WORDS_via~1 144
999 WORDFREQ_5.41 144
999 WORDSALL_Les~0_via~1 144
999 COSIND_0.18 144
999 COSGEN_0.18 144
102 ESRank2 144
203 ESBackSacRefixation 144
999 WORDS_ferrata~2 163
999 WORDFREQ_N/A 163
999 WORDSALL_via~1_ferrata~2 163
999 COSIND_N/A 163
103 ESRank3 163
201 ESForwSacShort 163
999 WORDS_ferrata~2 257
999 WORDFREQ_N/A 257
999 WORDSALL_ferrata~2 257
999 COSIND_N/A 257
104 ESRank4 257
203 ESBackSacRefixation 257
999 WORDS_sports~5 135
999 WORDFREQ_5.27 135
999 WORDSALL_ferrata~2_sports~5 135
999 COSIND_0.24 135
999 COSGEN_0.24 135
105 ESRank5 135
202 ESForwSacLong+3+8 135
999 WORDS_sports~5 197
999 WORDFREQ_5.27 197
999 WORDSALL_les~4_sports~5 197
999 COSIND_0.24 197
999 COSGEN_0.24 197
106 ESRank6 197
203 ESBackSacRefixation 197
999 WORDS_d'eau~6 276
999 WORDFREQ_417.84 276
999 WORDSALL_d'eau~6 276
999 COSIND_0.20 276
999 COSGEN_0.20 276
107 ESRank7 276
201 ESForwSacShort 276
999 WORDS_vive~7 97
999 WORDFREQ_30.61 97
999 WORDSALL_d'eau~6_vive~7 97
999 COSIND_0.08 97
999 COSGEN_0.08 97
108 ESRank8 97
201 ESForwSacShort 97
999 WORDS_connaissent~8 132
999 WORDFREQ_16.89 132
999 WORDSALL_connaissent~8 132
999 COSIND_0.10 132
999 COSGEN_0.10 132
109 ESRank9 132
201 ESForwSacShort 132
999 WORDS_connaissent~8 166
999 WORDFREQ_16.89 166
999 WORDSALL_connaissent~8 166
999 COSIND_0.10 166
999 COSGEN_0.10 166
110 ESRank10 166
203 ESBackSacRefixation 166
999 WORDS_succès~10 258
999 WORDFREQ_53.72 258
999 WORDSALL_un~9_succès~10 258
999 COSIND_-0.00 258
999 COSGEN_-0.00 258
111 ESRank11 258
202 ESForwSacLong+2+4 258
999 WORDS_constant~11 221
999 WORDFREQ_6.55 221
999 WORDSALL_constant~11 221
999 COSIND_0.02 221
999 COSGEN_0.02 221
112 ESRank12 221
201 ESForwSacShort 221
999 WORDS_constant~11 139
999 WORDFREQ_6.55 139
999 WORDSALL_constant~11 139
999 COSIND_0.02 139
999 COSGEN_0.02 139
113 ESRank13 139
203 ESBackSacRefixation 139
999 WORDS_Les~12 121
999 WORDFREQ_14662.3 121
999 WORDSALL_Les~12 121
999 COSIND_N/A 121
114 ESRank14 121
201 ESForwSacShort 121
999 WORDS_candidats~13 159
999 WORDFREQ_3.99 159
999 WORDSALL_candidats~13 159
999 COSIND_-0.01 159
999 COSGEN_-0.01 159
115 ESRank15 159
201 ESForwSacShort 159
999 WORDS_candidats~13 91
999 WORDFREQ_3.99 91
999 WORDSALL_candidats~13 91
999 COSIND_-0.01 91
999 COSGEN_-0.01 91
116 ESRank16 91
203 ESBackSacRefixation 91
999 WORDS_vertige~15 339
999 WORDFREQ_24.26 339
999 WORDSALL_au~14_vertige~15 339
999 COSIND_0.10 339
999 COSGEN_0.10 339
117 ESRank17 339
202 ESForwSacLong+2+4 339
999 WORDS_comptent~17 162
999 WORDFREQ_6.69 162
999 WORDSALL_se~16_comptent~17 162
999 COSIND_0.08 162
999 COSGEN_0.08 162
118 ESRank18 162
202 ESForwSacLong+2+4 162
999 WORDS_comptent~17 154
999 WORDFREQ_6.69 154
999 WORDSALL_comptent~17 154
999 COSIND_0.08 154
999 COSGEN_0.08 154
119 ESRank19 154
203 ESBackSacRefixation 154
999 WORDS_milliers~19 310
999 WORDFREQ_40.07 310
999 WORDSALL_milliers~19 310
999 COSIND_0.06 310
999 COSGEN_0.06 310
120 ESRank20 310
202 ESForwSacLong+2+5 310
999 WORDS_cinquantaine~22 180
999 WORDFREQ_9.86 180
999 WORDSALL_cinquantaine~22 180
999 COSIND_0.24 180
999 COSGEN_0.24 180
202 ESForwSacLong+3+8 180
200 ESRankN 180
199 ESRankNMinus1 310
198 ESRankNMinus2 154
197 ESRankNMinus3 162
196 ESRankNMinus4 339
195 ESRankNMinus5 91
194 ESRankNMinus6 159
193 ESRankNMinus7 121
192 ESRankNMinus8 139
191 ESRankNMinus9 221
190 ESRankNMinus10 258
