999 WORDS_Coincée~6 84
999 WORDFREQ_0.68 84
999 WORDSALL_La~0_Patagonie~1_Coincée~6 84
999 COSIND_0.01 84
999 COSGEN_0.01 84
101 ESRank1 84
999 WORDS_Patagonie~1 156
999 WORDFREQ_N/A 156
999 WORDSALL_La~0_Patagonie~1 156
999 COSIND_N/A 156
102 ESRank2 156
206 ESBackSacRegrLong-5-26 156
999 WORDS_Patagonie~1 105
999 WORDFREQ_N/A 105
999 WORDSALL_Patagonie~1 105
999 COSIND_N/A 105
103 ESRank3 105
203 ESBackSacRefixation 105
999 WORDS_chilienne~2 255
999 WORDFREQ_0.68 255
999 WORDSALL_chilienne~2 255
999 COSIND_N/A 255
104 ESRank4 255
201 ESForwSacShort 255
999 WORDS_mal~4 96
999 WORDFREQ_11.22 96
999 WORDSALL_est~3_mal~4 96
999 COSIND_0.04 96
999 COSGEN_0.04 96
105 ESRank5 96
202 ESForwSacLong+2+5 96
999 WORDS_Coincée~6 202
999 WORDFREQ_0.68 202
999 WORDSALL_La~0_Patagonie~1_Coincée~6 202
999 COSIND_0.01 202
999 COSGEN_0.01 202
106 ESRank6 202
202 ESForwSacLong+2+8 202
999 WORDS_Coincée~6 140
999 WORDFREQ_0.68 140
999 WORDSALL_Patagonie~1_Coincée~6 140
999 COSIND_0.01 140
999 COSGEN_0.01 140
107 ESRank7 140
203 ESBackSacRefixation 140
999 WORDS_cordillère~9 125
999 WORDFREQ_0.14 125
999 WORDSALL_chilienne~2_cordillère~9 125
999 COSIND_0.03 125
999 COSGEN_0.03 125
108 ESRank8 125
202 ESForwSacLong+3+10 125
999 WORDS_cordillère~9 155
999 WORDFREQ_0.14 155
999 WORDSALL_chilienne~2_cordillère~9 155
999 COSIND_0.03 155
999 COSGEN_0.03 155
109 ESRank9 155
203 ESBackSacRefixation 155
999 WORDS_Andes~11 203
999 WORDFREQ_N/A 203
999 WORDSALL_des~10_Andes~11 203
999 COSIND_N/A 203
110 ESRank10 203
202 ESForwSacLong+2+5 203
999 WORDS_l'océan~13 155
999 WORDFREQ_24.93 155
999 WORDSALL_Coincée~6_l'océan~13 155
999 COSIND_-0.04 155
999 COSGEN_-0.04 155
111 ESRank11 155
202 ESForwSacLong+2+4 155
999 WORDS_Pacifique~14 270
999 WORDFREQ_3.11 270
999 WORDSALL_entre~7_cordillère~9_Pacifique~14 270
999 COSIND_-0.08 270
999 COSGEN_-0.08 270
112 ESRank12 270
201 ESForwSacShort 270
999 WORDS_séduit~16 148
999 WORDFREQ_5.95 148
999 WORDSALL_cordillère~9_séduit~16 148
999 COSIND_0.00 148
999 COSGEN_0.00 148
113 ESRank13 148
202 ESForwSacLong+2+6 148
999 WORDS_séduit~16 113
999 WORDFREQ_5.95 113
999 WORDSALL_séduit~16 113
999 COSIND_0.00 113
999 COSGEN_0.00 113
114 ESRank14 113
203 ESBackSacRefixation 113
999 WORDS_amateurs~18 145
999 WORDFREQ_8.99 145
999 WORDSALL_les~17_amateurs~18 145
999 COSIND_0.01 145
999 COSGEN_0.01 145
115 ESRank15 145
202 ESForwSacLong+2+5 145
999 WORDS_grands~20 142
999 WORDFREQ_201.55 142
999 WORDSALL_l'océan~13_Pacifique~14_grands~20 142
999 COSIND_0.02 142
999 COSGEN_0.02 142
116 ESRank16 142
202 ESForwSacLong+2+4 142
999 WORDS_grands~20 165
999 WORDFREQ_201.55 165
999 WORDSALL_l'océan~13_grands~20 165
999 COSIND_0.02 165
999 COSGEN_0.02 165
117 ESRank17 165
203 ESBackSacRefixation 165
200 ESRankN 165
199 ESRankNMinus1 142
198 ESRankNMinus2 145
197 ESRankNMinus3 113
196 ESRankNMinus4 148
195 ESRankNMinus5 270
194 ESRankNMinus6 155
193 ESRankNMinus7 203
192 ESRankNMinus8 155
191 ESRankNMinus9 125
190 ESRankNMinus10 140
