999 WORDS_petit~1 189
999 WORDFREQ_653.78 189
999 WORDSALL_Un~0_petit~1 189
999 COSIND_0.01 189
999 COSGEN_0.01 189
101 ESRank1 189
999 WORDS_bimoteur~2 549
999 WORDFREQ_0.27 549
999 WORDSALL_petit~1_bimoteur~2 549
999 COSIND_0.37 549
999 COSGEN_0.37 549
102 ESRank2 549
201 ESForwSacShort 549
999 WORDS_bimoteur~2 256
999 WORDFREQ_0.27 256
999 WORDSALL_bimoteur~2 256
999 COSIND_0.37 256
999 COSGEN_0.37 256
103 ESRank3 256
203 ESBackSacRefixation 256
999 WORDS_effectuait~4 205
999 WORDFREQ_1.35 205
999 WORDSALL_qui~3_effectuait~4 205
999 COSIND_0.19 205
999 COSGEN_0.19 205
104 ESRank4 205
202 ESForwSacLong+2+5 205
999 WORDS_effectuait~4 177
999 WORDFREQ_1.35 177
999 WORDSALL_qui~3_effectuait~4 177
999 COSIND_0.19 177
999 COSGEN_0.19 177
105 ESRank5 177
203 ESBackSacRefixation 177
999 WORDS_effectuait~4 248
999 WORDFREQ_1.35 248
999 WORDSALL_effectuait~4 248
999 COSIND_0.19 248
999 COSGEN_0.19 248
106 ESRank6 248
203 ESBackSacRefixation 248
999 WORDS_liaison~6 477
999 WORDFREQ_26.69 477
999 WORDSALL_la~5_liaison~6 477
999 COSIND_0.26 477
999 COSGEN_0.26 477
107 ESRank7 477
202 ESForwSacLong+2+4 477
999 WORDS_Boston-Chicago~7 309
999 WORDFREQ_N/A 309
999 WORDSALL_Boston-Chicago~7 309
999 COSIND_N/A 309
108 ESRank8 309
201 ESForwSacShort 309
999 WORDS_Boston-Chicago~7 336
999 WORDFREQ_N/A 336
999 WORDSALL_Boston-Chicago~7 336
999 COSIND_N/A 336
109 ESRank9 336
203 ESBackSacRefixation 336
999 WORDS_atteri~9 276
999 WORDFREQ_N/A 276
999 WORDSALL_a~8_atteri~9 276
999 COSIND_N/A 276
110 ESRank10 276
202 ESForwSacLong+2+3 276
999 WORDS_urgence~11 279
999 WORDFREQ_21.35 279
999 WORDSALL_en~10_urgence~11 279
999 COSIND_0.02 279
999 COSGEN_0.02 279
111 ESRank11 279
202 ESForwSacLong+2+4 279
999 WORDS_urgence~11 129
999 WORDFREQ_21.35 129
999 WORDSALL_en~10_urgence~11 129
999 COSIND_0.02 129
999 COSGEN_0.02 129
112 ESRank12 129
203 ESBackSacRefixation 129
999 WORDS_à~12 205
999 WORDFREQ_19209.05 205
999 WORDSALL_urgence~11_à~12 205
999 COSIND_N/A 205
113 ESRank13 205
201 ESForwSacShort 205
999 WORDS_Pittsburgh~13 141
999 WORDFREQ_N/A 141
999 WORDSALL_Pittsburgh~13 141
999 COSIND_N/A 141
114 ESRank14 141
201 ESForwSacShort 141
999 WORDS_Pittsburgh~13 158
999 WORDFREQ_N/A 158
999 WORDSALL_Pittsburgh~13 158
999 COSIND_N/A 158
115 ESRank15 158
203 ESBackSacRefixation 158
999 WORDS_Pittsburgh~13 300
999 WORDFREQ_N/A 300
999 WORDSALL_Pittsburgh~13 300
999 COSIND_N/A 300
116 ESRank16 300
203 ESBackSacRefixation 300
999 WORDS_hier~14 239
999 WORDFREQ_92.64 239
999 WORDSALL_Pittsburgh~13_hier~14 239
999 COSIND_0.05 239
999 COSGEN_0.05 239
117 ESRank17 239
201 ESForwSacShort 239
999 WORDS_raison~16 200
999 WORDFREQ_247.5 200
999 WORDSALL_en~15_raison~16 200
999 COSIND_0.09 200
999 COSGEN_0.09 200
118 ESRank18 200
202 ESForwSacLong+2+4 200
999 WORDS_défaut~18 192
999 WORDFREQ_27.7 192
999 WORDSALL_d'un~17_défaut~18 192
999 COSIND_0.10 192
999 COSGEN_0.10 192
119 ESRank19 192
202 ESForwSacLong+2+6 192
999 WORDS_défaut~18 87
999 WORDFREQ_27.7 87
999 WORDSALL_défaut~18 87
999 COSIND_0.10 87
999 COSGEN_0.10 87
120 ESRank20 87
203 ESBackSacRefixation 87
200 ESRankN 87
199 ESRankNMinus1 192
198 ESRankNMinus2 200
197 ESRankNMinus3 239
196 ESRankNMinus4 300
195 ESRankNMinus5 158
194 ESRankNMinus6 141
193 ESRankNMinus7 205
192 ESRankNMinus8 129
191 ESRankNMinus9 279
190 ESRankNMinus10 276
