999 WORDS_L'allocation~0 191
999 WORDFREQ_0.41 191
999 WORDSALL_L'allocation~0 191
999 COSIND_1.00 191
999 COSGEN_1.00 191
101 ESRank1 191
999 WORDS_rentrée~2 137
999 WORDFREQ_14.19 137
999 WORDSALL_de~1_rentrée~2 137
999 COSIND_0.08 137
999 COSGEN_0.08 137
102 ESRank2 137
202 ESForwSacLong+2+4 137
999 WORDS_scolaire~3 178
999 WORDFREQ_9.66 178
999 WORDSALL_scolaire~3 178
999 COSIND_0.01 178
999 COSGEN_0.01 178
103 ESRank3 178
201 ESForwSacShort 178
999 WORDS_000~6 201
999 WORDFREQ_N/A 201
999 WORDSALL_350~5_000~6 201
999 COSIND_N/A 201
104 ESRank4 201
202 ESForwSacLong+3+14 201
999 WORDS_familles~7 177
999 WORDFREQ_32.7 177
999 WORDSALL_familles~7 177
999 COSIND_0.38 177
999 COSGEN_0.38 177
105 ESRank5 177
201 ESForwSacShort 177
999 WORDS_rentrée~2 279
999 WORDFREQ_14.19 279
999 WORDSALL_de~1_rentrée~2 279
999 COSIND_0.08 279
999 COSGEN_0.08 279
106 ESRank6 279
206 ESBackSacRegrLong-5-27 279
999 WORDS_L'allocation~0 175
999 WORDFREQ_0.41 175
999 WORDSALL_L'allocation~0 175
999 COSIND_1.00 175
999 COSGEN_1.00 175
107 ESRank7 175
206 ESBackSacRegrLong-2-4 175
999 WORDS_modestes~8 253
999 WORDFREQ_8.31 253
999 WORDSALL_familles~7_modestes~8 253
999 COSIND_0.28 253
999 COSGEN_0.28 253
108 ESRank8 253
202 ESForwSacLong+8+48 253
999 WORDS_ayant~9 217
999 WORDFREQ_3.85 217
999 WORDSALL_modestes~8_ayant~9 217
999 COSIND_0.09 217
999 COSGEN_0.09 217
109 ESRank9 217
201 ESForwSacShort 217
999 WORDS_pourrait~15 198
999 WORDFREQ_159.32 198
999 WORDSALL_pourrait~15 198
999 COSIND_-0.00 198
999 COSGEN_-0.00 198
110 ESRank10 198
202 ESForwSacLong+6+39 198
999 WORDS_étendue~18 125
999 WORDFREQ_10.95 125
999 WORDSALL_étendue~18 125
999 COSIND_0.14 125
999 COSGEN_0.14 125
111 ESRank11 125
202 ESForwSacLong+3+21 125
200 ESRankN 125
199 ESRankNMinus1 198
198 ESRankNMinus2 217
197 ESRankNMinus3 253
196 ESRankNMinus4 175
195 ESRankNMinus5 279
194 ESRankNMinus6 177
193 ESRankNMinus7 201
192 ESRankNMinus8 178
191 ESRankNMinus9 137
190 ESRankNMinus10 191
