999 WORDS_galeries~1 131
999 WORDFREQ_10.95 131
999 WORDSALL_Les~0_galeries~1 131
999 COSIND_0.82 131
999 COSGEN_0.82 131
101 ESRank1 131
999 WORDS_d'anatomie~2 116
999 WORDFREQ_4.66 116
999 WORDSALL_galeries~1_d'anatomie~2 116
999 COSIND_0.06 116
999 COSGEN_0.06 116
102 ESRank2 116
201 ESForwSacShort 116
999 WORDS_d'anatomie~2 159
999 WORDFREQ_4.66 159
999 WORDSALL_d'anatomie~2 159
999 COSIND_0.06 159
999 COSGEN_0.06 159
103 ESRank3 159
203 ESBackSacRefixation 159
999 WORDS_comparée~3 198
999 WORDFREQ_0.07 198
999 WORDSALL_comparée~3 198
999 COSIND_0.01 198
999 COSGEN_0.01 198
104 ESRank4 198
201 ESForwSacShort 198
999 WORDS_comparée~3 105
999 WORDFREQ_0.07 105
999 WORDSALL_comparée~3 105
999 COSIND_0.01 105
999 COSGEN_0.01 105
105 ESRank5 105
203 ESBackSacRefixation 105
999 WORDS_paléontologie~6 202
999 WORDFREQ_0.14 202
999 WORDSALL_paléontologie~6 202
999 COSIND_0.10 202
999 COSGEN_0.10 202
106 ESRank6 202
202 ESForwSacLong+3+7 202
999 WORDS_musée~8 128
999 WORDFREQ_21.55 128
999 WORDSALL_du~7_musée~8 128
999 COSIND_0.86 128
999 COSGEN_0.86 128
107 ESRank7 128
202 ESForwSacLong+2+4 128
999 WORDS_national~9 160
999 WORDFREQ_42.7 160
999 WORDSALL_national~9 160
999 COSIND_-0.01 160
999 COSGEN_-0.01 160
108 ESRank8 160
201 ESForwSacShort 160
999 WORDS_d'histoire~10 133
999 WORDFREQ_292.23 133
999 WORDSALL_d'histoire~10 133
999 COSIND_0.02 133
999 COSGEN_0.02 133
109 ESRank9 133
201 ESForwSacShort 133
999 WORDS_nouveau~14 162
999 WORDFREQ_190.47 162
999 WORDSALL_nouveau~14 162
999 COSIND_0.03 162
999 COSGEN_0.03 162
110 ESRank10 162
202 ESForwSacLong+4+19 162
999 WORDS_décembre~21 113
999 WORDFREQ_31.15 113
999 WORDSALL_décembre~21 113
999 COSIND_0.03 113
999 COSGEN_0.03 113
111 ESRank11 113
202 ESForwSacLong+7+33 113
999 WORDS_après~22 180
999 WORDFREQ_821.55 180
999 WORDSALL_après~22 180
999 COSIND_-0.01 180
999 COSGEN_-0.01 180
112 ESRank12 180
201 ESForwSacShort 180
999 WORDS_travaux~26 148
999 WORDFREQ_39.46 148
999 WORDSALL_mois~24_travaux~26 148
999 COSIND_-0.01 148
999 COSGEN_-0.01 148
113 ESRank13 148
202 ESForwSacLong+4+15 148
999 WORDS_travaux~26 181
999 WORDFREQ_39.46 181
999 WORDSALL_de~25_travaux~26 181
999 COSIND_-0.01 181
999 COSGEN_-0.01 181
114 ESRank14 181
203 ESBackSacRefixation 181
999 WORDS_nouveau~14 119
999 WORDFREQ_190.47 119
999 WORDSALL_sont~12_nouveau~14 119
999 COSIND_0.03 119
999 COSGEN_0.03 119
115 ESRank15 119
206 ESBackSacRegrLong-12-64 119
999 WORDS_nouveau~14 122
999 WORDFREQ_190.47 122
999 WORDSALL_nouveau~14 122
999 COSIND_0.03 122
999 COSGEN_0.03 122
116 ESRank16 122
203 ESBackSacRefixation 122
200 ESRankN 122
199 ESRankNMinus1 119
198 ESRankNMinus2 181
197 ESRankNMinus3 148
196 ESRankNMinus4 180
195 ESRankNMinus5 113
194 ESRankNMinus6 162
193 ESRankNMinus7 133
192 ESRankNMinus8 160
191 ESRankNMinus9 128
190 ESRankNMinus10 202
