999 WORDS_Bien~0 94
999 WORDFREQ_36.55 94
999 WORDSALL_Bien~0 94
999 COSIND_0.02 94
999 COSGEN_0.02 94
101 ESRank1 94
999 WORDS_connaissance~4 114
999 WORDFREQ_55.81 114
999 WORDSALL_que~2_connaissance~4 114
999 COSIND_0.12 114
999 COSGEN_0.12 114
102 ESRank2 114
202 ESForwSacLong+4+13 114
999 WORDS_connaissance~4 107
999 WORDFREQ_55.81 107
999 WORDSALL_connaissance~4 107
999 COSIND_0.12 107
999 COSGEN_0.12 107
103 ESRank3 107
203 ESBackSacRefixation 107
999 WORDS_langue~6 139
999 WORDFREQ_103.78 139
999 WORDSALL_d'une~5_langue~6 139
999 COSIND_0.05 139
999 COSGEN_0.05 139
104 ESRank4 139
202 ESForwSacLong+2+7 139
999 WORDS_langue~6 84
999 WORDFREQ_103.78 84
999 WORDSALL_d'une~5_langue~6 84
999 COSIND_0.05 84
999 COSGEN_0.05 84
105 ESRank5 84
203 ESBackSacRefixation 84
999 WORDS_morte~7 154
999 WORDFREQ_28.18 154
999 WORDSALL_morte~7 154
999 COSIND_-0.01 154
999 COSGEN_-0.01 154
106 ESRank6 154
201 ESForwSacShort 154
999 WORDS_l'apprentissage~8 200
999 WORDFREQ_10.14 200
999 WORDSALL_l'apprentissage~8 200
999 COSIND_0.47 200
999 COSGEN_0.47 200
107 ESRank7 200
201 ESForwSacShort 200
999 WORDS_latin~10 140
999 WORDFREQ_14.93 140
999 WORDSALL_du~9_latin~10 140
999 COSIND_0.06 140
999 COSGEN_0.06 140
108 ESRank8 140
202 ESForwSacLong+2+4 140
999 WORDS_latin~10 161
999 WORDFREQ_14.93 161
999 WORDSALL_du~9_latin~10 161
999 COSIND_0.06 161
999 COSGEN_0.06 161
109 ESRank9 161
203 ESBackSacRefixation 161
999 WORDS_dès~11 144
999 WORDFREQ_275.07 144
999 WORDSALL_latin~10_dès~11 144
999 COSIND_0.02 144
999 COSGEN_0.02 144
110 ESRank10 144
201 ESForwSacShort 144
999 WORDS_collège~13 176
999 WORDFREQ_25 176
999 WORDSALL_collège~13 176
999 COSIND_0.01 176
999 COSGEN_0.01 176
111 ESRank11 176
202 ESForwSacLong+2+4 176
999 WORDS_collège~13 94
999 WORDFREQ_25 94
999 WORDSALL_collège~13 94
999 COSIND_0.01 94
999 COSGEN_0.01 94
112 ESRank12 94
203 ESBackSacRefixation 94
999 WORDS_exercice~16 193
999 WORDFREQ_17.5 193
999 WORDSALL_est~14_exercice~16 193
999 COSIND_0.06 193
999 COSGEN_0.06 193
113 ESRank13 193
202 ESForwSacLong+3+8 193
999 WORDS_d'affirmation~20 147
999 WORDFREQ_4.66 147
999 WORDSALL_d'affirmation~20 147
999 COSIND_-0.07 147
999 COSGEN_-0.07 147
114 ESRank14 147
202 ESForwSacLong+4+20 147
999 WORDS_d'affirmation~20 133
999 WORDFREQ_4.66 133
999 WORDSALL_d'affirmation~20 133
999 COSIND_-0.07 133
999 COSGEN_-0.07 133
115 ESRank15 133
203 ESBackSacRefixation 133
200 ESRankN 133
199 ESRankNMinus1 147
198 ESRankNMinus2 193
197 ESRankNMinus3 94
196 ESRankNMinus4 176
195 ESRankNMinus5 144
194 ESRankNMinus6 161
193 ESRankNMinus7 140
192 ESRankNMinus8 200
191 ESRankNMinus9 154
190 ESRankNMinus10 84
