# 169 Fixation 1 (310.7,266.5): La~0 science~1
# 278 Fixation 2 (423.2,273.6): n'apporte~2
# 221 Fixation 3 (578.6,277.9): pas~3
# 207 Fixation 4 (301.6,350.2): bienfaits~6
# 200 Fixation 5 (445.4,349.3): mais~7 a~8
# 89 Fixation 6 (484.6,353.4): mais~7 a~8 apporté~9
# 144 Fixation 7 (372.9,405.8): bienfaits~6 a~8 destruction~13 massive~14
# 156 Fixation 8 (300.8,405.7): bienfaits~6 destruction~13
# 143 Fixation 9 (611.5,450.2): des~16 possibilités~17 technique~22
# 174 Fixation 10 (574.5,475.7): et~15 possibilités~17 technique~22
# 155 Fixation 11 (312.2,540.5): manipulation~19 l'économie~24
# 222 Fixation 12 (437.3,544.6): concourent~25
%%
# La~0 Fixations= "1/"
# science~1 Fixations= "1/"
# n'apporte~2 Fixations= "2/"
# pas~3 Fixations= "3/"
# seulement~4 Fixations= ""
# des~5 Fixations= ""
# bienfaits~6 Fixations= "8/"
# mais~7 Fixations= "6/"
# a~8 Fixations= "7/"
# apporté~9 Fixations= "6/"
# des~10 Fixations= ""
# armes~11 Fixations= ""
# de~12 Fixations= ""
# destruction~13 Fixations= "8/"
# massive~14 Fixations= "7/"
# et~15 Fixations= "10/"
# des~16 Fixations= "9/"
# possibilités~17 Fixations= "10/"
# de~18 Fixations= ""
# manipulation~19 Fixations= "11/"
# biologique~20 Fixations= ""
# La~21 Fixations= ""
# technique~22 Fixations= "10/"
# et~23 Fixations= ""
# l'économie~24 Fixations= "11/"
# concourent~25 Fixations= "12/"
# à~26 Fixations= ""
# la~27 Fixations= ""
# dégradation~28 Fixations= ""
# de~29 Fixations= ""
# la~30 Fixations= ""
# biosphère~31 Fixations= ""
%%
#  LA[1] SCIENCE[1] N'APPORTE[2] PAS[3] seulement des BIENFAITS[8] MAIS[6] A[7] APPORTé[6] des armes de DESTRUCTION[8] MASSIVE[7] ET[10] DES[9] POSSIBILITéS[10] de MANIPULATION[11] biologique La TECHNIQUE[10] et L'éCONOMIE[11] CONCOURENT[12] à la dégradation de la biosphère
# s18 reforme_justice-a1 PercentageOfWordsProcessed= 0.53125 PercentageOfWordsReallyProcessed= 0.653846153846154
