# 124 Fixation 1 (228.7,285.5): Les~0 pluies~1
# 129 Fixation 2 (302.1,293): Les~0 pluies~1
# 159 Fixation 3 (399.3,294.6): pluies~1 intenses~2
# 141 Fixation 4 (586.5,293.9): ont~3 duré~4
# 162 Fixation 5 (635.9,295.2): duré~4 plusieurs~5
# 184 Fixation 6 (332.2,335.7): heures~6 causant~7
# 151 Fixation 7 (393.6,345.4): causant~7
# 188 Fixation 8 (504.9,351.4): l'interruption~8
# 94 Fixation 9 (595.3,363): l'interruption~8
# 111 Fixation 10 (656.3,358.3): de~9
# 227 Fixation 11 (323.2,400): circulation~11
# 203 Fixation 12 (463.5,408.4): et~12 isolant~13
# 213 Fixation 13 (590.6,416.4): un~14 certain~15
# 143 Fixation 14 (700.1,427.2): certain~15 nombre~16
# 158 Fixation 15 (339.9,439.9): circulation~11
# 179 Fixation 16 (316.9,443): circulation~11
# 166 Fixation 17 (418.4,452.3): Le~19 bureau~20
# 161 Fixation 18 (530.7,460.6): prévoit~21
# 156 Fixation 19 (646.8,474.4): une~22 augmentation~23
# 188 Fixation 20 (342.9,503): régions~18
# 142 Fixation 21 (416,504.6): Le~19 bureau~20
# 249 Fixation 22 (549.2,521.6): climatiques~27
# 136 Fixation 23 (690.1,526): au~28 niveau~29
# 179 Fixation 24 (322,580.9): de~30 planète~32
%%
# Les~0 Fixations= "2/"
# pluies~1 Fixations= "3/"
# intenses~2 Fixations= "3/"
# ont~3 Fixations= "4/"
# duré~4 Fixations= "5/"
# plusieurs~5 Fixations= "5/"
# heures~6 Fixations= "6/"
# causant~7 Fixations= "7/"
# l'interruption~8 Fixations= "9/"
# de~9 Fixations= "10/"
# la~10 Fixations= ""
# circulation~11 Fixations= "16/"
# et~12 Fixations= "12/"
# isolant~13 Fixations= "12/"
# un~14 Fixations= "13/"
# certain~15 Fixations= "14/"
# nombre~16 Fixations= "14/"
# de~17 Fixations= ""
# régions~18 Fixations= "20/"
# Le~19 Fixations= "21/"
# bureau~20 Fixations= "21/"
# prévoit~21 Fixations= "18/"
# une~22 Fixations= "19/"
# augmentation~23 Fixations= "19/"
# de~24 Fixations= ""
# ces~25 Fixations= ""
# dérèglements~26 Fixations= ""
# climatiques~27 Fixations= "22/"
# au~28 Fixations= "23/"
# niveau~29 Fixations= "23/"
# de~30 Fixations= "24/"
# la~31 Fixations= ""
# planète~32 Fixations= "24/"
%%
#  LES[2] PLUIES[3] INTENSES[3] ONT[4] DURé[5] PLUSIEURS[5] HEURES[6] CAUSANT[7] L'INTERRUPTION[9] DE[10] la CIRCULATION[16] ET[12] ISOLANT[12] UN[13] CERTAIN[14] NOMBRE[14] de RéGIONS[20] LE[21] BUREAU[21] PRéVOIT[18] UNE[19] AUGMENTATION[19] de ces dérèglements CLIMATIQUES[22] AU[23] NIVEAU[23] DE[24] la PLANèTE[24]
# s08 rechauffement_climatique-m1 PercentageOfWordsProcessed= 0.818181818181818 PercentageOfWordsReallyProcessed= 0.818181818181818
