999 WORDS_sont~1 90
999 WORDFREQ_713.18 90
999 WORDSALL_Qui~0_sont~1 90
999 COSIND_0.05 90
999 COSGEN_0.05 90
101 ESRank1 90
999 WORDS_sont~1 92
999 WORDFREQ_713.18 92
999 WORDSALL_sont~1 92
999 COSIND_0.05 92
999 COSGEN_0.05 92
102 ESRank2 92
203 ESBackSacRefixation 92
999 WORDS_étudiants~3 252
999 WORDFREQ_18.78 252
999 WORDSALL_ces~2_étudiants~3 252
999 COSIND_0.01 252
999 COSGEN_0.01 252
103 ESRank3 252
202 ESForwSacLong+2+5 252
999 WORDS_n'ont~5 132
999 WORDFREQ_240.61 132
999 WORDSALL_qui~4_n'ont~5 132
999 COSIND_-0.09 132
999 COSGEN_-0.09 132
104 ESRank4 132
202 ESForwSacLong+2+5 132
999 WORDS_n'ont~5 131
999 WORDFREQ_240.61 131
999 WORDSALL_n'ont~5 131
999 COSIND_-0.09 131
999 COSGEN_-0.09 131
105 ESRank5 131
203 ESBackSacRefixation 131
999 WORDS_euros~15 125
999 WORDFREQ_0 125
999 WORDSALL_n'ont~5_euros~15 125
999 COSIND_N/A 125
106 ESRank6 125
202 ESForwSacLong+10+42 125
999 WORDS_moyens~8 83
999 WORDFREQ_58.31 83
999 WORDSALL_Qui~0_sont~1_moyens~8 83
999 COSIND_-0.04 83
999 COSGEN_-0.04 83
107 ESRank7 83
206 ESBackSacRegrLong-7-27 83
999 WORDS_moyens~8 96
999 WORDFREQ_58.31 96
999 WORDSALL_Qui~0_sont~1_moyens~8 96
999 COSIND_-0.04 96
999 COSGEN_-0.04 96
108 ESRank8 96
203 ESBackSacRefixation 96
999 WORDS_moyens~8 128
999 WORDFREQ_58.31 128
999 WORDSALL_Qui~0_sont~1_moyens~8 128
999 COSIND_-0.04 128
999 COSGEN_-0.04 128
109 ESRank9 128
203 ESBackSacRefixation 128
999 WORDS_s'offrir~10 206
999 WORDFREQ_50.34 206
999 WORDSALL_ces~2_étudiants~3_s'offrir~10 206
999 COSIND_0.10 206
999 COSGEN_0.10 206
110 ESRank10 206
202 ESForwSacLong+2+4 206
999 WORDS_repas~12 149
999 WORDFREQ_76.62 149
999 WORDSALL_étudiants~3_n'ont~5_repas~12 149
999 COSIND_0.23 149
999 COSGEN_0.23 149
111 ESRank11 149
202 ESForwSacLong+2+4 149
999 WORDS_3~14 210
999 WORDFREQ_N/A 210
999 WORDSALL_à~13_3~14 210
999 COSIND_N/A 210
112 ESRank12 210
202 ESForwSacLong+2+4 210
999 WORDS_Principalement~16 152
999 WORDFREQ_6.08 152
999 WORDSALL_moyens~8_Principalement~16 152
999 COSIND_0.01 152
999 COSGEN_0.01 152
113 ESRank13 152
202 ESForwSacLong+2+7 152
999 WORDS_Principalement~16 156
999 WORDFREQ_6.08 156
999 WORDSALL_moyens~8_Principalement~16 156
999 COSIND_0.01 156
999 COSGEN_0.01 156
114 ESRank14 156
203 ESBackSacRefixation 156
999 WORDS_s'offrir~10 171
999 WORDFREQ_50.34 171
999 WORDSALL_s'offrir~10 171
999 COSIND_0.10 171
999 COSGEN_0.10 171
115 ESRank15 171
206 ESBackSacRegrLong-6-21 171
200 ESRankN 171
199 ESRankNMinus1 156
198 ESRankNMinus2 152
197 ESRankNMinus3 210
196 ESRankNMinus4 149
195 ESRankNMinus5 206
194 ESRankNMinus6 128
193 ESRankNMinus7 96
192 ESRankNMinus8 83
191 ESRankNMinus9 125
190 ESRankNMinus10 131
