999 WORDS_Quatre~0 100
999 WORDFREQ_282.64 100
999 WORDSALL_Quatre~0 100
999 COSIND_0.01 100
999 COSGEN_0.01 100
101 ESRank1 100
999 WORDS_jours~1 129
999 WORDFREQ_515.41 129
999 WORDSALL_jours~1 129
999 COSIND_-0.00 129
999 COSGEN_-0.00 129
102 ESRank2 129
201 ESForwSacShort 129
999 WORDS_grains~3 181
999 WORDFREQ_11.69 181
999 WORDSALL_grains~3 181
999 COSIND_-0.00 181
999 COSGEN_-0.00 181
103 ESRank3 181
202 ESForwSacLong+2+4 181
999 WORDS_venus~5 149
999 WORDFREQ_40.41 149
999 WORDSALL_sont~4_venus~5 149
999 COSIND_-0.00 149
999 COSGEN_-0.00 149
104 ESRank4 149
202 ESForwSacLong+2+6 149
999 WORDS_venus~5 118
999 WORDFREQ_40.41 118
999 WORDSALL_venus~5 118
999 COSIND_-0.00 118
999 COSGEN_-0.00 118
105 ESRank5 118
203 ESBackSacRefixation 118
999 WORDS_clore~6 118
999 WORDFREQ_2.57 118
999 WORDSALL_clore~6 118
999 COSIND_-0.02 118
999 COSGEN_-0.02 118
106 ESRank6 118
201 ESForwSacShort 118
999 WORDS_traversée~8 186
999 WORDFREQ_13.58 186
999 WORDSALL_Quatre~0_jours~1_traversée~8 186
999 COSIND_-0.01 186
999 COSGEN_-0.01 186
107 ESRank7 186
202 ESForwSacLong+2+4 186
999 WORDS_Pacifique~10 168
999 WORDFREQ_0.34 168
999 WORDSALL_du~9_Pacifique~10 168
999 COSIND_-0.02 168
999 COSGEN_-0.02 168
108 ESRank8 168
202 ESForwSacLong+2+4 168
999 WORDS_a~12 161
999 WORDFREQ_2926.69 161
999 WORDSALL_L'eau~11_a~12 161
999 COSIND_N/A 161
109 ESRank9 161
202 ESForwSacLong+2+7 161
999 WORDS_gagné~13 237
999 WORDFREQ_33.51 237
999 WORDSALL_a~12_gagné~13 237
999 COSIND_-0.03 237
999 COSGEN_-0.03 237
110 ESRank10 237
201 ESForwSacShort 237
999 WORDS_gagné~13 154
999 WORDFREQ_33.51 154
999 WORDSALL_gagné~13 154
999 COSIND_-0.03 154
999 COSGEN_-0.03 154
111 ESRank11 154
203 ESBackSacRefixation 154
999 WORDS_bord~21 204
999 WORDFREQ_197.36 204
999 WORDSALL_à~20_bord~21 204
999 COSIND_0.08 204
999 COSGEN_0.08 204
112 ESRank12 204
202 ESForwSacLong+8+38 204
999 WORDS_trempé~19 191
999 WORDFREQ_3.85 191
999 WORDSALL_L'eau~11_trempé~19 191
999 COSIND_-0.04 191
999 COSGEN_-0.04 191
113 ESRank13 191
206 ESBackSacRegrLong-2-4 191
999 WORDS_était~18 130
999 WORDFREQ_3688.99 130
999 WORDSALL_tout~17_était~18 130
999 COSIND_-0.01 130
999 COSGEN_-0.01 130
114 ESRank14 130
205 ESBackSacRegrShort 130
999 WORDS_moment~26 120
999 WORDFREQ_611.62 120
999 WORDSALL_était~18_trempé~19_moment~26 120
999 COSIND_-0.01 120
999 COSGEN_-0.01 120
115 ESRank15 120
202 ESForwSacLong+8+41 120
999 WORDS_moment~26 130
999 WORDFREQ_611.62 130
999 WORDSALL_trempé~19_moment~26 130
999 COSIND_-0.01 130
999 COSGEN_-0.01 130
116 ESRank16 130
203 ESBackSacRefixation 130
999 WORDS_idéal~27 123
999 WORDFREQ_7.97 123
999 WORDSALL_trempé~19_à~20_bord~21_idéal~27 123
999 COSIND_-0.02 123
999 COSGEN_-0.02 123
117 ESRank17 123
201 ESForwSacShort 123
999 WORDS_navigateur~23 179
999 WORDFREQ_1.89 179
999 WORDSALL_navigateur~23 179
999 COSIND_0.04 179
999 COSGEN_0.04 179
118 ESRank18 179
206 ESBackSacRegrLong-4-18 179
999 WORDS_attend~24 156
999 WORDFREQ_74.46 156
999 WORDSALL_attend~24 156
999 COSIND_-0.05 156
999 COSGEN_-0.05 156
119 ESRank19 156
201 ESForwSacShort 156
200 ESRankN 156
199 ESRankNMinus1 179
198 ESRankNMinus2 123
197 ESRankNMinus3 130
196 ESRankNMinus4 120
195 ESRankNMinus5 130
194 ESRankNMinus6 191
193 ESRankNMinus7 204
192 ESRankNMinus8 154
191 ESRankNMinus9 237
190 ESRankNMinus10 161
