999 WORDS_Proche-orient~0 131
999 WORDFREQ_N/A 131
999 WORDSALL_Proche-orient~0 131
999 COSIND_N/A 131
101 ESRank1 131
999 WORDS_Proche-orient~0 121
999 WORDFREQ_N/A 121
999 WORDSALL_Proche-orient~0 121
999 COSIND_N/A 121
102 ESRank2 121
203 ESBackSacRefixation 121
999 WORDS_chef~2 180
999 WORDFREQ_172.57 180
999 WORDSALL_le~1_chef~2 180
999 COSIND_0.02 180
999 COSGEN_0.02 180
103 ESRank3 180
202 ESForwSacLong+2+4 180
999 WORDS_gouvernement~4 107
999 WORDFREQ_119.73 107
999 WORDSALL_du~3_gouvernement~4 107
999 COSIND_-0.00 107
999 COSGEN_-0.00 107
104 ESRank4 107
202 ESForwSacLong+2+4 107
999 WORDS_promis~6 181
999 WORDFREQ_42.43 181
999 WORDSALL_promis~6 181
999 COSIND_0.01 181
999 COSGEN_0.01 181
105 ESRank5 181
202 ESForwSacLong+2+3 181
999 WORDS_retirer~8 167
999 WORDFREQ_21.96 167
999 WORDSALL_de~7_retirer~8 167
999 COSIND_-0.07 167
999 COSGEN_-0.07 167
106 ESRank6 167
202 ESForwSacLong+2+4 167
999 WORDS_l'armée~9 158
999 WORDFREQ_114.46 158
999 WORDSALL_l'armée~9 158
999 COSIND_-0.04 158
999 COSGEN_-0.04 158
107 ESRank7 158
201 ESForwSacShort 158
999 WORDS_israélienne~10 140
999 WORDFREQ_0.07 140
999 WORDSALL_israélienne~10 140
999 COSIND_0.11 140
999 COSGEN_0.11 140
108 ESRank8 140
201 ESForwSacShort 140
999 WORDS_retirer~8 245
999 WORDFREQ_21.96 245
999 WORDSALL_promis~6_retirer~8 245
999 COSIND_-0.07 245
999 COSGEN_-0.07 245
109 ESRank9 245
206 ESBackSacRegrLong-2-10 245
999 WORDS_promis~6 167
999 WORDFREQ_42.43 167
999 WORDSALL_promis~6 167
999 COSIND_0.01 167
999 COSGEN_0.01 167
110 ESRank10 167
206 ESBackSacRegrLong-2-4 167
999 WORDS_délai~16 150
999 WORDFREQ_14.59 150
999 WORDSALL_dans~14_délai~16 150
999 COSIND_0.02 150
999 COSGEN_0.02 150
111 ESRank11 150
202 ESForwSacLong+10+55 150
999 WORDS_délai~16 169
999 WORDFREQ_14.59 169
999 WORDSALL_un~15_délai~16 169
999 COSIND_0.02 169
999 COSGEN_0.02 169
112 ESRank12 169
203 ESBackSacRefixation 169
999 WORDS_simultanément~23 162
999 WORDFREQ_5.81 162
999 WORDSALL_simultanément~23 162
999 COSIND_0.04 162
999 COSGEN_0.04 162
113 ESRank13 162
202 ESForwSacLong+7+34 162
999 WORDS_simultanément~23 99
999 WORDFREQ_5.81 99
999 WORDSALL_simultanément~23 99
999 COSIND_0.04 99
999 COSGEN_0.04 99
114 ESRank14 99
203 ESBackSacRefixation 99
999 WORDS_simultanément~23 170
999 WORDFREQ_5.81 170
999 WORDSALL_simultanément~23 170
999 COSIND_0.04 170
999 COSGEN_0.04 170
115 ESRank15 170
203 ESBackSacRefixation 170
999 WORDS_dispositif~30 243
999 WORDFREQ_5.07 243
999 WORDSALL_dispositif~30 243
999 COSIND_-0.09 243
999 COSGEN_-0.09 243
116 ESRank16 243
202 ESForwSacLong+7+33 243
999 WORDS_dispositif~30 117
999 WORDFREQ_5.07 117
999 WORDSALL_un~29_dispositif~30 117
999 COSIND_-0.09 117
999 COSGEN_-0.09 117
117 ESRank17 117
203 ESBackSacRefixation 117
999 WORDS_entretient~28 133
999 WORDFREQ_3.38 133
999 WORDSALL_qui~27_entretient~28 133
999 COSIND_0.16 133
999 COSGEN_0.16 133
118 ESRank18 133
206 ESBackSacRegrLong-2-4 133
999 WORDS_négocier~22 160
999 WORDFREQ_5.61 160
999 WORDSALL_envisage~20_négocier~22 160
999 COSIND_0.21 160
999 COSGEN_0.21 160
119 ESRank19 160
206 ESBackSacRegrLong-6-34 160
999 WORDS_négocier~22 146
999 WORDFREQ_5.61 146
999 WORDSALL_de~21_négocier~22 146
999 COSIND_0.21 146
999 COSGEN_0.21 146
120 ESRank20 146
203 ESBackSacRefixation 146
999 WORDS_envisage~20 195
999 WORDFREQ_4.05 195
999 WORDSALL_envisage~20 195
999 COSIND_0.04 195
999 COSGEN_0.04 195
206 ESBackSacRegrLong-2-4 195
999 WORDS_Syrie~26 168
999 WORDFREQ_N/A 168
999 WORDSALL_Syrie~26 168
999 COSIND_N/A 168
202 ESForwSacLong+6+37 168
999 WORDS_chef~2 130
999 WORDFREQ_172.57 130
999 WORDSALL_Proche-orient~0_chef~2 130
999 COSIND_0.02 130
999 COSGEN_0.02 130
206 ESBackSacRegrLong-24-143 130
999 WORDS_gouvernement~4 256
999 WORDFREQ_119.73 256
999 WORDSALL_gouvernement~4 256
999 COSIND_-0.00 256
999 COSGEN_-0.00 256
202 ESForwSacLong+2+4 256
200 ESRankN 256
199 ESRankNMinus1 130
198 ESRankNMinus2 168
197 ESRankNMinus3 195
196 ESRankNMinus4 146
195 ESRankNMinus5 160
194 ESRankNMinus6 133
193 ESRankNMinus7 117
192 ESRankNMinus8 243
191 ESRankNMinus9 170
190 ESRankNMinus10 99
