999 WORDS_pluies~1 138
999 WORDFREQ_10.81 138
999 WORDSALL_Les~0_pluies~1 138
999 COSIND_0.41 138
999 COSGEN_0.41 138
101 ESRank1 138
999 WORDS_intenses~2 152
999 WORDFREQ_2.3 152
999 WORDSALL_intenses~2 152
999 COSIND_0.24 152
999 COSGEN_0.24 152
102 ESRank2 152
201 ESForwSacShort 152
999 WORDS_duré~4 204
999 WORDFREQ_13.85 204
999 WORDSALL_duré~4 204
999 COSIND_0.05 204
999 COSGEN_0.05 204
103 ESRank3 204
202 ESForwSacLong+2+5 204
999 WORDS_causant~7 265
999 WORDFREQ_1.76 265
999 WORDSALL_heures~6_causant~7 265
999 COSIND_N/A 265
104 ESRank4 265
202 ESForwSacLong+3+18 265
999 WORDS_causant~7 92
999 WORDFREQ_1.76 92
999 WORDSALL_causant~7 92
999 COSIND_N/A 92
105 ESRank5 92
203 ESBackSacRefixation 92
999 WORDS_l'interruption~8 218
999 WORDFREQ_4.86 218
999 WORDSALL_l'interruption~8 218
999 COSIND_0.02 218
999 COSGEN_0.02 218
106 ESRank6 218
201 ESForwSacShort 218
999 WORDS_isolant~13 103
999 WORDFREQ_0.95 103
999 WORDSALL_circulation~11_isolant~13 103
999 COSIND_0.16 103
999 COSGEN_0.16 103
107 ESRank7 103
202 ESForwSacLong+5+22 103
999 WORDS_circulation~11 84
999 WORDFREQ_14.32 84
999 WORDSALL_circulation~11 84
999 COSIND_0.16 84
999 COSGEN_0.16 84
108 ESRank8 84
206 ESBackSacRegrLong-2-4 84
999 WORDS_circulation~11 104
999 WORDFREQ_14.32 104
999 WORDSALL_circulation~11 104
999 COSIND_0.16 104
999 COSGEN_0.16 104
109 ESRank9 104
203 ESBackSacRefixation 104
999 WORDS_certain~15 119
999 WORDFREQ_6.89 119
999 WORDSALL_un~14_certain~15 119
999 COSIND_0.00 119
999 COSGEN_0.00 119
110 ESRank10 119
202 ESForwSacLong+4+15 119
999 WORDS_nombre~16 145
999 WORDFREQ_76.28 145
999 WORDSALL_nombre~16 145
999 COSIND_0.03 145
999 COSGEN_0.03 145
111 ESRank11 145
201 ESForwSacShort 145
999 WORDS_bureau~20 105
999 WORDFREQ_130.07 105
999 WORDSALL_Le~19_bureau~20 105
999 COSIND_-0.06 105
999 COSGEN_-0.06 105
112 ESRank12 105
202 ESForwSacLong+4+16 105
999 WORDS_prévoit~21 143
999 WORDFREQ_1.96 143
999 WORDSALL_bureau~20_prévoit~21 143
999 COSIND_0.18 143
999 COSGEN_0.18 143
113 ESRank13 143
201 ESForwSacShort 143
999 WORDS_augmentation~23 207
999 WORDFREQ_3.24 207
999 WORDSALL_une~22_augmentation~23 207
999 COSIND_0.17 207
999 COSGEN_0.17 207
114 ESRank14 207
202 ESForwSacLong+2+5 207
999 WORDS_dérèglements~26 98
999 WORDFREQ_0.27 98
999 WORDSALL_de~24_dérèglements~26 98
999 COSIND_0.16 98
999 COSGEN_0.16 98
115 ESRank15 98
202 ESForwSacLong+3+8 98
999 WORDS_dérèglements~26 108
999 WORDFREQ_0.27 108
999 WORDSALL_de~24_dérèglements~26 108
999 COSIND_0.16 108
999 COSGEN_0.16 108
116 ESRank16 108
203 ESBackSacRefixation 108
999 WORDS_dérèglements~26 151
999 WORDFREQ_0.27 151
999 WORDSALL_ces~25_dérèglements~26 151
999 COSIND_0.16 151
999 COSGEN_0.16 151
117 ESRank17 151
203 ESBackSacRefixation 151
999 WORDS_climatiques~27 185
999 WORDFREQ_0.2 185
999 WORDSALL_climatiques~27 185
999 COSIND_0.98 185
999 COSGEN_0.98 185
118 ESRank18 185
201 ESForwSacShort 185
999 WORDS_niveau~29 168
999 WORDFREQ_30.74 168
999 WORDSALL_au~28_niveau~29 168
999 COSIND_0.05 168
999 COSGEN_0.05 168
119 ESRank19 168
202 ESForwSacLong+2+4 168
999 WORDS_planète~32 202
999 WORDFREQ_19.86 202
999 WORDSALL_de~30_planète~32 202
999 COSIND_0.52 202
999 COSGEN_0.52 202
120 ESRank20 202
202 ESForwSacLong+3+7 202
200 ESRankN 202
199 ESRankNMinus1 168
198 ESRankNMinus2 185
197 ESRankNMinus3 151
196 ESRankNMinus4 108
195 ESRankNMinus5 98
194 ESRankNMinus6 207
193 ESRankNMinus7 143
192 ESRankNMinus8 105
191 ESRankNMinus9 145
190 ESRankNMinus10 119
