999 WORDS_société~1 202
999 WORDFREQ_56.55 202
999 WORDSALL_La~0_société~1 202
999 COSIND_0.07 202
999 COSGEN_0.07 202
101 ESRank1 202
999 WORDS_HLM~2 215
999 WORDFREQ_N/A 215
999 WORDSALL_société~1_HLM~2 215
999 COSIND_N/A 215
102 ESRank2 215
201 ESForwSacShort 215
999 WORDS_organisé~5 156
999 WORDFREQ_7.16 156
999 WORDSALL_a~4_organisé~5 156
999 COSIND_0.12 156
999 COSGEN_0.12 156
103 ESRank3 156
202 ESForwSacLong+3+6 156
999 WORDS_réservée~11 120
999 WORDFREQ_2.36 120
999 WORDSALL_réservée~11 120
999 COSIND_0.01 120
999 COSGEN_0.01 120
104 ESRank4 120
202 ESForwSacLong+6+30 120
999 WORDS_gardiens~13 196
999 WORDFREQ_9.59 196
999 WORDSALL_aux~12_gardiens~13 196
999 COSIND_0.32 196
999 COSGEN_0.32 196
105 ESRank5 196
202 ESForwSacLong+2+5 196
999 WORDS_L'objectif~15 113
999 WORDFREQ_9.19 113
999 WORDSALL_d'immeubles~14_L'objectif~15 113
999 COSIND_0.04 113
999 COSGEN_0.04 113
106 ESRank6 113
202 ESForwSacLong+2+13 113
999 WORDS_d'immeubles~14 208
999 WORDFREQ_17.91 208
999 WORDSALL_d'immeubles~14 208
999 COSIND_0.10 208
999 COSGEN_0.10 208
107 ESRank7 208
205 ESBackSacRegrShort 208
999 WORDS_L'objectif~15 157
999 WORDFREQ_9.19 157
999 WORDSALL_L'objectif~15 157
999 COSIND_0.04 157
999 COSGEN_0.04 157
108 ESRank8 157
201 ESForwSacShort 157
999 WORDS_permettre~18 156
999 WORDFREQ_25.81 156
999 WORDSALL_de~17_permettre~18 156
999 COSIND_0.03 156
999 COSGEN_0.03 156
109 ESRank9 156
202 ESForwSacLong+3+8 156
999 WORDS_personnels~20 224
999 WORDFREQ_0.61 224
999 WORDSALL_aux~19_personnels~20 224
999 COSIND_-0.02 224
999 COSGEN_-0.02 224
110 ESRank10 224
202 ESForwSacLong+2+5 224
999 WORDS_terrain~22 251
999 WORDFREQ_64.86 251
999 WORDSALL_de~21_terrain~22 251
999 COSIND_0.17 251
999 COSGEN_0.17 251
111 ESRank11 251
202 ESForwSacLong+2+4 251
999 WORDS_nécessaire~27 162
999 WORDFREQ_48.45 162
999 WORDSALL_distance~26_nécessaire~27 162
999 COSIND_0.18 162
999 COSGEN_0.18 162
112 ESRank12 162
202 ESForwSacLong+5+23 162
999 WORDS_situations~30 188
999 WORDFREQ_8.24 188
999 WORDSALL_les~29_situations~30 188
999 COSIND_0.07 188
999 COSGEN_0.07 188
113 ESRank13 188
202 ESForwSacLong+3+10 188
200 ESRankN 188
199 ESRankNMinus1 162
198 ESRankNMinus2 251
197 ESRankNMinus3 224
196 ESRankNMinus4 156
195 ESRankNMinus5 157
194 ESRankNMinus6 208
193 ESRankNMinus7 113
192 ESRankNMinus8 196
191 ESRankNMinus9 120
190 ESRankNMinus10 156
