# 192 Fixation 1 (370.4,284.3): inventé~2
# 135 Fixation 2 (319.5,276.8): Il~0 a~1 inventé~2
# 160 Fixation 3 (484.4,284.2): une~3 forme~4
# 177 Fixation 4 (597.3,293.4): de~5 tennis~6
# 127 Fixation 5 (695.4,276.9): tennis~6
# 183 Fixation 6 (320.5,326.6): convient~9
# 145 Fixation 7 (434,337.9): parfaitement~10
# 229 Fixation 8 (637.9,356.1): le~12 rend~13
# 187 Fixation 9 (336.4,408.6): dangereux~15
# 179 Fixation 10 (467.6,402.8): Avec~16 façon~18
# 163 Fixation 11 (575.6,406.2): façon~18
# 163 Fixation 12 (656.3,414.1): d'engager~19
# 223 Fixation 13 (346.7,454.6): revers~21 raquette~23
# 543 Fixation 14 (286.7,462.9): revers~21
# 154 Fixation 15 (439,475.7): raquette~23
# 162 Fixation 16 (537.8,472.4): réalise~24
# 114 Fixation 17 (659.8,473.4): des~25 coups~26
# 209 Fixation 18 (346.5,532): souvent~27 surprenants~28
# 148 Fixation 19 (288.4,526.5): souvent~27 surprenants~28
%%
# Il~0 Fixations= "2/"
# a~1 Fixations= "2/"
# inventé~2 Fixations= "2/"
# une~3 Fixations= "3/"
# forme~4 Fixations= "3/"
# de~5 Fixations= "4/"
# tennis~6 Fixations= "5/"
# qui~7 Fixations= ""
# lui~8 Fixations= ""
# convient~9 Fixations= "6/"
# parfaitement~10 Fixations= "7/"
# et~11 Fixations= ""
# le~12 Fixations= "8/"
# rend~13 Fixations= "8/"
# toujours~14 Fixations= ""
# dangereux~15 Fixations= "9/"
# Avec~16 Fixations= "10/"
# cette~17 Fixations= ""
# façon~18 Fixations= "11/"
# d'engager~19 Fixations= "12/"
# des~20 Fixations= ""
# revers~21 Fixations= "14/"
# sa~22 Fixations= ""
# raquette~23 Fixations= "15/"
# réalise~24 Fixations= "16/"
# des~25 Fixations= "17/"
# coups~26 Fixations= "17/"
# souvent~27 Fixations= "19/"
# surprenants~28 Fixations= "19/"
%%
#  IL[2] A[2] INVENTé[2] UNE[3] FORME[3] DE[4] TENNIS[5] qui lui CONVIENT[6] PARFAITEMENT[7] et LE[8] REND[8] toujours DANGEREUX[9] AVEC[10] cette FAçON[11] D'ENGAGER[12] des REVERS[14] sa RAQUETTE[15] RéALISE[16] DES[17] COUPS[17] SOUVENT[19] SURPRENANTS[19]
# s17 victoire_footballeurs-m1 PercentageOfWordsProcessed= 0.758620689655172 PercentageOfWordsReallyProcessed= 0.758620689655172
