# 190 Fixation 1 (285,291.2): Les~0 États-Unis~1
# 136 Fixation 2 (471.4,297.9): et~2 nombreuses~4
# 233 Fixation 3 (468,330.9): juridiquement~7
# 233 Fixation 4 (583.7,342.3): une~8 mise~9
# 154 Fixation 5 (509.6,413): crimes~13
# 190 Fixation 6 (676.7,416.8): l'humanité~15
# 354 Fixation 7 (441.4,456.8): Tribunal~18
# 182 Fixation 8 (487.6,560): civils~23 militaires~24
# 190 Fixation 9 (414.5,556.3): civils~23
%%
# Les~0 Fixations= "1/"
# États-Unis~1 Fixations= "1/"
# et~2 Fixations= "2/"
# de~3 Fixations= ""
# nombreuses~4 Fixations= "2/"
# ONG~5 Fixations= ""
# préparent~6 Fixations= ""
# juridiquement~7 Fixations= "3/"
# une~8 Fixations= "4/"
# mise~9 Fixations= "4/"
# en~10 Fixations= ""
# accusation~11 Fixations= ""
# pour~12 Fixations= ""
# crimes~13 Fixations= "5/"
# contre~14 Fixations= ""
# l'humanité~15 Fixations= "6/"
# devant~16 Fixations= ""
# le~17 Fixations= ""
# Tribunal~18 Fixations= "7/"
# pénal~19 Fixations= ""
# international~20 Fixations= ""
# des~21 Fixations= ""
# dirigeants~22 Fixations= ""
# civils~23 Fixations= "9/"
# militaires~24 Fixations= "8/"
# et~25 Fixations= ""
# paramilitaires~26 Fixations= ""
# de~27 Fixations= ""
# Belgrade~28 Fixations= ""
%%
#  LES[1] ÉTATS-UNIS[1] ET[2] de NOMBREUSES[2] ONG préparent JURIDIQUEMENT[3] UNE[4] MISE[4] en accusation pour CRIMES[5] contre L'HUMANITé[6] devant le TRIBUNAL[7] pénal international des dirigeants CIVILS[9] MILITAIRES[8] et paramilitaires de Belgrade
# s21 tribunal_international-f1 PercentageOfWordsProcessed= 0.413793103448276 PercentageOfWordsReallyProcessed= 0.48
