999 WORDS_bombe~1 145
999 WORDFREQ_15 145
999 WORDSALL_Une~0_bombe~1 145
999 COSIND_-0.02 145
999 COSGEN_-0.02 145
101 ESRank1 145
999 WORDS_forte~3 146
999 WORDFREQ_62.64 146
999 WORDSALL_forte~3 146
999 COSIND_-0.01 146
999 COSGEN_-0.01 146
102 ESRank2 146
202 ESForwSacLong+2+4 146
999 WORDS_a~5 149
999 WORDFREQ_2926.69 149
999 WORDSALL_puissance~4_a~5 149
999 COSIND_N/A 149
103 ESRank3 149
202 ESForwSacLong+2+11 149
999 WORDS_explosé~6 95
999 WORDFREQ_3.31 95
999 WORDSALL_a~5_explosé~6 95
999 COSIND_-0.03 95
999 COSGEN_-0.03 95
104 ESRank4 95
201 ESForwSacShort 95
999 WORDS_capitale~12 213
999 WORDFREQ_23.18 213
999 WORDSALL_capitale~12 213
999 COSIND_0.04 213
999 COSGEN_0.04 213
105 ESRank5 213
202 ESForwSacLong+6+22 213
999 WORDS_passage~15 121
999 WORDFREQ_136.82 121
999 WORDSALL_sur~13_passage~15 121
999 COSIND_-0.00 121
999 COSGEN_-0.00 121
106 ESRank6 121
202 ESForwSacLong+3+8 121
999 WORDS_centre~9 240
999 WORDFREQ_80 240
999 WORDSALL_le~8_centre~9 240
999 COSIND_0.03 240
999 COSGEN_0.03 240
107 ESRank7 240
206 ESBackSacRegrLong-6-23 240
999 WORDS_capitale~12 148
999 WORDFREQ_23.18 148
999 WORDSALL_la~11_capitale~12 148
999 COSIND_0.04 148
999 COSGEN_0.04 148
108 ESRank8 148
202 ESForwSacLong+3+7 148
999 WORDS_passage~15 148
999 WORDFREQ_136.82 148
999 WORDSALL_le~14_passage~15 148
999 COSIND_-0.00 148
999 COSGEN_-0.00 148
109 ESRank9 148
202 ESForwSacLong+3+8 148
999 WORDS_président~17 219
999 WORDFREQ_76.22 219
999 WORDSALL_président~17 219
999 COSIND_-0.00 219
999 COSGEN_-0.00 219
110 ESRank10 219
202 ESForwSacLong+2+4 219
999 WORDS_tchétchène~18 255
999 WORDFREQ_0 255
999 WORDSALL_tchétchène~18 255
999 COSIND_N/A 255
111 ESRank11 255
201 ESForwSacShort 255
999 WORDS_L'attentat~19 368
999 WORDFREQ_5.34 368
999 WORDSALL_L'attentat~19 368
999 COSIND_0.10 368
999 COSGEN_0.10 368
112 ESRank12 368
201 ESForwSacShort 368
999 WORDS_passage~15 213
999 WORDFREQ_136.82 213
999 WORDSALL_sur~13_passage~15 213
999 COSIND_-0.00 213
999 COSGEN_-0.00 213
113 ESRank13 213
206 ESBackSacRegrLong-4-28 213
999 WORDS_passage~15 84
999 WORDFREQ_136.82 84
999 WORDSALL_passage~15 84
999 COSIND_-0.00 84
999 COSGEN_-0.00 84
114 ESRank14 84
203 ESBackSacRefixation 84
999 WORDS_président~17 254
999 WORDFREQ_76.22 254
999 WORDSALL_président~17 254
999 COSIND_-0.00 254
999 COSGEN_-0.00 254
115 ESRank15 254
202 ESForwSacLong+2+4 254
999 WORDS_L'attentat~19 136
999 WORDFREQ_5.34 136
999 WORDSALL_L'attentat~19 136
999 COSIND_0.10 136
999 COSGEN_0.10 136
116 ESRank16 136
202 ESForwSacLong+2+14 136
999 WORDS_L'attentat~19 146
999 WORDFREQ_5.34 146
999 WORDSALL_L'attentat~19 146
999 COSIND_0.10 146
999 COSGEN_0.10 146
117 ESRank17 146
203 ESBackSacRefixation 146
999 WORDS_revendiqué~24 108
999 WORDFREQ_0.27 108
999 WORDSALL_été~23_revendiqué~24 108
999 COSIND_-0.02 108
999 COSGEN_-0.02 108
118 ESRank18 108
202 ESForwSacLong+5+22 108
999 WORDS_été~23 206
999 WORDFREQ_40.2 206
999 WORDSALL_encore~22_été~23 206
999 COSIND_0.01 206
999 COSGEN_0.01 206
119 ESRank19 206
205 ESBackSacRegrShort 206
999 WORDS_indique~25 214
999 WORDFREQ_10.2 214
999 WORDSALL_revendiqué~24_indique~25 214
999 COSIND_-0.03 214
999 COSGEN_-0.03 214
120 ESRank20 214
202 ESForwSacLong+2+13 214
999 WORDS_indique~25 152
999 WORDFREQ_10.2 152
999 WORDSALL_indique~25 152
999 COSIND_-0.03 152
999 COSGEN_-0.03 152
203 ESBackSacRefixation 152
999 WORDS_Moscou~26 128
999 WORDFREQ_N/A 128
999 WORDSALL_Moscou~26 128
999 COSIND_N/A 128
201 ESForwSacShort 128
999 WORDS_L'attentat~19 231
999 WORDFREQ_5.34 231
999 WORDSALL_L'attentat~19 231
999 COSIND_0.10 231
999 COSGEN_0.10 231
206 ESBackSacRegrLong-7-42 231
200 ESRankN 231
199 ESRankNMinus1 128
198 ESRankNMinus2 152
197 ESRankNMinus3 214
196 ESRankNMinus4 206
195 ESRankNMinus5 108
194 ESRankNMinus6 146
193 ESRankNMinus7 136
192 ESRankNMinus8 254
191 ESRankNMinus9 84
190 ESRankNMinus10 213
