999 WORDS_Malgré~0 125
999 WORDFREQ_191.55 125
999 WORDSALL_Malgré~0 125
999 COSIND_0.02 125
999 COSGEN_0.02 125
101 ESRank1 125
999 WORDS_accord~2 148
999 WORDFREQ_124.66 148
999 WORDSALL_un~1_accord~2 148
999 COSIND_-0.05 148
999 COSGEN_-0.05 148
102 ESRank2 148
202 ESForwSacLong+2+4 148
999 WORDS_principe~4 278
999 WORDFREQ_30.88 278
999 WORDSALL_de~3_principe~4 278
999 COSIND_-0.00 278
999 COSGEN_-0.00 278
103 ESRank3 278
202 ESForwSacLong+2+4 278
999 WORDS_nécessité~7 268
999 WORDFREQ_28.78 268
999 WORDSALL_nécessité~7 268
999 COSIND_0.26 268
999 COSGEN_0.26 268
104 ESRank4 268
202 ESForwSacLong+3+8 268
999 WORDS_réforme~9 197
999 WORDFREQ_4.93 197
999 WORDSALL_d'une~8_réforme~9 197
999 COSIND_0.93 197
999 COSGEN_0.93 197
105 ESRank5 197
202 ESForwSacLong+2+7 197
999 WORDS_comprenant~10 265
999 WORDFREQ_9.32 265
999 WORDSALL_comprenant~10 265
999 COSIND_-0.05 265
999 COSGEN_-0.05 265
106 ESRank6 265
201 ESForwSacShort 265
999 WORDS_aide~12 249
999 WORDFREQ_52.3 249
999 WORDSALL_une~11_aide~12 249
999 COSIND_0.07 249
999 COSGEN_0.07 249
107 ESRank7 249
202 ESForwSacLong+2+5 249
999 WORDS_individualisée~13 159
999 WORDFREQ_N/A 159
999 WORDSALL_individualisée~13 159
999 COSIND_N/A 159
108 ESRank8 159
201 ESForwSacShort 159
999 WORDS_individualisée~13 141
999 WORDFREQ_N/A 141
999 WORDSALL_individualisée~13 141
999 COSIND_N/A 141
109 ESRank9 141
203 ESBackSacRefixation 141
999 WORDS_élèves~15 313
999 WORDFREQ_36.08 313
999 WORDSALL_aux~14_élèves~15 313
999 COSIND_-0.11 313
999 COSGEN_-0.11 313
110 ESRank10 313
202 ESForwSacLong+2+5 313
999 WORDS_syndicat~17 169
999 WORDFREQ_5.2 169
999 WORDSALL_le~16_syndicat~17 169
999 COSIND_0.19 169
999 COSGEN_0.19 169
111 ESRank11 169
202 ESForwSacLong+2+4 169
999 WORDS_syndicat~17 119
999 WORDFREQ_5.2 119
999 WORDSALL_le~16_syndicat~17 119
999 COSIND_0.19 119
999 COSGEN_0.19 119
112 ESRank12 119
203 ESBackSacRefixation 119
200 ESRankN 119
199 ESRankNMinus1 169
198 ESRankNMinus2 313
197 ESRankNMinus3 141
196 ESRankNMinus4 159
195 ESRankNMinus5 249
194 ESRankNMinus6 265
193 ESRankNMinus7 197
192 ESRankNMinus8 268
191 ESRankNMinus9 278
190 ESRankNMinus10 148
