999 WORDS_collectif~6 112
999 WORDFREQ_4.73 112
999 WORDSALL_Le~0_football~1_collectif~6 112
999 COSIND_0.04 112
999 COSGEN_0.04 112
101 ESRank1 112
999 WORDS_football~1 160
999 WORDFREQ_6.28 160
999 WORDSALL_football~1 160
999 COSIND_0.02 160
999 COSGEN_0.02 160
102 ESRank2 160
206 ESBackSacRegrLong-5-25 160
999 WORDS_américain~2 199
999 WORDFREQ_25.95 199
999 WORDSALL_américain~2 199
999 COSIND_-0.00 199
999 COSGEN_-0.00 199
103 ESRank3 199
201 ESForwSacShort 199
999 WORDS_mélanger~9 156
999 WORDFREQ_3.18 156
999 WORDSALL_américain~2_mélanger~9 156
999 COSIND_-0.06 156
999 COSGEN_-0.06 156
104 ESRank4 156
202 ESForwSacLong+7+35 156
999 WORDS_mélanger~9 240
999 WORDFREQ_3.18 240
999 WORDSALL_pour~8_mélanger~9 240
999 COSIND_-0.06 240
999 COSGEN_-0.06 240
105 ESRank5 240
203 ESBackSacRefixation 240
999 WORDS_jeu~15 120
999 WORDFREQ_130.68 120
999 WORDSALL_mélanger~9_jeu~15 120
999 COSIND_-0.01 120
999 COSGEN_-0.01 120
106 ESRank6 120
202 ESForwSacLong+6+33 120
999 WORDS_physique~16 192
999 WORDFREQ_27.5 192
999 WORDSALL_jeu~15_physique~16 192
999 COSIND_0.02 192
999 COSGEN_0.02 192
107 ESRank7 192
201 ESForwSacShort 192
200 ESRankN 192
199 ESRankNMinus1 120
198 ESRankNMinus2 240
197 ESRankNMinus3 156
196 ESRankNMinus4 199
195 ESRankNMinus5 160
194 ESRankNMinus6 112
