999 WORDS_bombe~1 168
999 WORDFREQ_15 168
999 WORDSALL_Une~0_bombe~1 168
999 COSIND_-0.02 168
999 COSGEN_-0.02 168
101 ESRank1 168
999 WORDS_forte~3 158
999 WORDFREQ_62.64 158
999 WORDSALL_bombe~1_forte~3 158
999 COSIND_-0.01 158
999 COSGEN_-0.01 158
102 ESRank2 158
202 ESForwSacLong+2+4 158
999 WORDS_forte~3 82
999 WORDFREQ_62.64 82
999 WORDSALL_de~2_forte~3 82
999 COSIND_-0.01 82
999 COSGEN_-0.01 82
103 ESRank3 82
203 ESBackSacRefixation 82
999 WORDS_puissance~4 215
999 WORDFREQ_44.12 215
999 WORDSALL_puissance~4 215
999 COSIND_-0.02 215
999 COSGEN_-0.02 215
104 ESRank4 215
201 ESForwSacShort 215
999 WORDS_explosé~6 131
999 WORDFREQ_3.31 131
999 WORDSALL_a~5_explosé~6 131
999 COSIND_-0.03 131
999 COSGEN_-0.03 131
105 ESRank5 131
202 ESForwSacLong+2+3 131
999 WORDS_explosé~6 134
999 WORDFREQ_3.31 134
999 WORDSALL_explosé~6 134
999 COSIND_-0.03 134
999 COSGEN_-0.03 134
106 ESRank6 134
203 ESBackSacRefixation 134
999 WORDS_centre~9 222
999 WORDFREQ_80 222
999 WORDSALL_le~8_centre~9 222
999 COSIND_0.03 222
999 COSGEN_0.03 222
107 ESRank7 222
202 ESForwSacLong+3+9 222
999 WORDS_capitale~12 114
999 WORDFREQ_23.18 114
999 WORDSALL_de~10_capitale~12 114
999 COSIND_0.04 114
999 COSGEN_0.04 114
108 ESRank8 114
202 ESForwSacLong+3+7 114
999 WORDS_capitale~12 137
999 WORDFREQ_23.18 137
999 WORDSALL_capitale~12 137
999 COSIND_0.04 137
999 COSGEN_0.04 137
109 ESRank9 137
203 ESBackSacRefixation 137
999 WORDS_passage~15 132
999 WORDFREQ_136.82 132
999 WORDSALL_sur~13_passage~15 132
999 COSIND_-0.00 132
999 COSGEN_-0.00 132
110 ESRank10 132
202 ESForwSacLong+3+8 132
999 WORDS_passage~15 140
999 WORDFREQ_136.82 140
999 WORDSALL_le~14_passage~15 140
999 COSIND_-0.00 140
999 COSGEN_-0.00 140
111 ESRank11 140
203 ESBackSacRefixation 140
999 WORDS_président~17 134
999 WORDFREQ_76.22 134
999 WORDSALL_président~17 134
999 COSIND_-0.00 134
999 COSGEN_-0.00 134
112 ESRank12 134
202 ESForwSacLong+2+4 134
999 WORDS_président~17 168
999 WORDFREQ_76.22 168
999 WORDSALL_président~17 168
999 COSIND_-0.00 168
999 COSGEN_-0.00 168
113 ESRank13 168
203 ESBackSacRefixation 168
999 WORDS_tchétchène~18 193
999 WORDFREQ_0 193
999 WORDSALL_tchétchène~18 193
999 COSIND_N/A 193
114 ESRank14 193
201 ESForwSacShort 193
999 WORDS_L'attentat~19 211
999 WORDFREQ_5.34 211
999 WORDSALL_L'attentat~19 211
999 COSIND_0.10 211
999 COSGEN_0.10 211
115 ESRank15 211
201 ESForwSacShort 211
999 WORDS_indique~25 153
999 WORDFREQ_10.2 153
999 WORDSALL_indique~25 153
999 COSIND_-0.03 153
999 COSGEN_-0.03 153
116 ESRank16 153
202 ESForwSacLong+6+34 153
200 ESRankN 153
199 ESRankNMinus1 211
198 ESRankNMinus2 193
197 ESRankNMinus3 168
196 ESRankNMinus4 134
195 ESRankNMinus5 140
194 ESRankNMinus6 132
193 ESRankNMinus7 137
192 ESRankNMinus8 114
191 ESRankNMinus9 222
190 ESRankNMinus10 134
