999 WORDS_bourse~1 205
999 WORDFREQ_11.22 205
999 WORDSALL_La~0_bourse~1 205
999 COSIND_0.89 205
999 COSGEN_0.89 205
101 ESRank1 205
999 WORDS_Tokyo~3 156
999 WORDFREQ_N/A 156
999 WORDSALL_bourse~1_Tokyo~3 156
999 COSIND_N/A 156
102 ESRank2 156
202 ESForwSacLong+2+4 156
999 WORDS_bourse~1 81
999 WORDFREQ_11.22 81
999 WORDSALL_bourse~1 81
999 COSIND_0.89 81
999 COSGEN_0.89 81
103 ESRank3 81
206 ESBackSacRegrLong-2-4 81
999 WORDS_clôturé~5 192
999 WORDFREQ_0.34 192
999 WORDSALL_a~4_clôturé~5 192
999 COSIND_0.85 192
999 COSGEN_0.85 192
104 ESRank4 192
202 ESForwSacLong+4+12 192
999 WORDS_séance~7 190
999 WORDFREQ_22.3 190
999 WORDSALL_la~6_séance~7 190
999 COSIND_0.78 190
999 COSGEN_0.78 190
105 ESRank5 190
202 ESForwSacLong+2+4 190
999 WORDS_légère~11 191
999 WORDFREQ_47.84 191
999 WORDSALL_mardi~9_légère~11 191
999 COSIND_0.33 191
999 COSGEN_0.33 191
106 ESRank6 191
202 ESForwSacLong+4+13 191
999 WORDS_hausse~12 197
999 WORDFREQ_2.09 197
999 WORDSALL_légère~11_hausse~12 197
999 COSIND_0.85 197
999 COSGEN_0.85 197
107 ESRank7 197
201 ESForwSacShort 197
999 WORDS_soutenue~13 219
999 WORDFREQ_1.49 219
999 WORDSALL_soutenue~13 219
999 COSIND_0.10 219
999 COSGEN_0.10 219
108 ESRank8 219
201 ESForwSacShort 219
999 WORDS_achats~16 159
999 WORDFREQ_6.01 159
999 WORDSALL_achats~16 159
999 COSIND_0.20 159
999 COSGEN_0.20 159
109 ESRank9 159
202 ESForwSacLong+3+9 159
999 WORDS_investisseurs~18 140
999 WORDFREQ_0.07 140
999 WORDSALL_investisseurs~18 140
999 COSIND_0.50 140
999 COSGEN_0.50 140
110 ESRank10 140
202 ESForwSacLong+2+5 140
999 WORDS_étrangers~19 130
999 WORDFREQ_14.86 130
999 WORDSALL_étrangers~19 130
999 COSIND_0.02 130
999 COSGEN_0.02 130
111 ESRank11 130
201 ESForwSacShort 130
200 ESRankN 130
199 ESRankNMinus1 140
198 ESRankNMinus2 159
197 ESRankNMinus3 219
196 ESRankNMinus4 197
195 ESRankNMinus5 191
194 ESRankNMinus6 190
193 ESRankNMinus7 192
192 ESRankNMinus8 81
191 ESRankNMinus9 156
190 ESRankNMinus10 205
