999 WORDS_l'aide~1 158
999 WORDFREQ_52.3 158
999 WORDSALL_Avec~0_l'aide~1 158
999 COSIND_0.07 158
999 COSGEN_0.07 158
101 ESRank1 158
999 WORDS_l'aide~1 203
999 WORDFREQ_52.3 203
999 WORDSALL_Avec~0_l'aide~1 203
999 COSIND_0.07 203
999 COSGEN_0.07 203
102 ESRank2 203
203 ESBackSacRefixation 203
999 WORDS_l'aide~1 118
999 WORDFREQ_52.3 118
999 WORDSALL_l'aide~1 118
999 COSIND_0.07 118
999 COSGEN_0.07 118
103 ESRank3 118
203 ESBackSacRefixation 118
999 WORDS_rabatteurs~4 218
999 WORDFREQ_0.95 218
999 WORDSALL_de~2_rabatteurs~4 218
999 COSIND_0.17 218
999 COSGEN_0.17 218
104 ESRank4 218
202 ESForwSacLong+3+10 218
999 WORDS_rabatteurs~4 177
999 WORDFREQ_0.95 177
999 WORDSALL_rabatteurs~4 177
999 COSIND_0.17 177
999 COSGEN_0.17 177
105 ESRank5 177
203 ESBackSacRefixation 177
999 WORDS_rabatteurs~4 250
999 WORDFREQ_0.95 250
999 WORDSALL_leurs~3_rabatteurs~4 250
999 COSIND_0.17 250
999 COSGEN_0.17 250
106 ESRank6 250
203 ESBackSacRefixation 250
999 WORDS_rabatteurs~4 235
999 WORDFREQ_0.95 235
999 WORDSALL_de~2_rabatteurs~4 235
999 COSIND_0.17 235
999 COSGEN_0.17 235
107 ESRank7 235
203 ESBackSacRefixation 235
999 WORDS_rabatteurs~4 237
999 WORDFREQ_0.95 237
999 WORDSALL_leurs~3_rabatteurs~4 237
999 COSIND_0.17 237
999 COSGEN_0.17 237
108 ESRank8 237
203 ESBackSacRefixation 237
999 WORDS_rabatteurs~4 91
999 WORDFREQ_0.95 91
999 WORDSALL_rabatteurs~4 91
999 COSIND_0.17 91
999 COSGEN_0.17 91
109 ESRank9 91
203 ESBackSacRefixation 91
999 WORDS_déguenillés~5 471
999 WORDFREQ_0.2 471
999 WORDSALL_déguenillés~5 471
999 COSIND_N/A 471
110 ESRank10 471
201 ESForwSacShort 471
999 WORDS_pesaient~7 207
999 WORDFREQ_3.99 207
999 WORDSALL_elles~6_pesaient~7 207
999 COSIND_0.06 207
999 COSGEN_0.06 207
111 ESRank11 207
202 ESForwSacLong+2+7 207
999 WORDS_pesaient~7 218
999 WORDFREQ_3.99 218
999 WORDSALL_elles~6_pesaient~7 218
999 COSIND_0.06 218
999 COSGEN_0.06 218
112 ESRank12 218
203 ESBackSacRefixation 218
999 WORDS_l'offre~8 308
999 WORDFREQ_8.78 308
999 WORDSALL_l'offre~8 308
999 COSIND_-0.00 308
999 COSGEN_-0.00 308
113 ESRank13 308
201 ESForwSacShort 308
999 WORDS_l'offre~8 114
999 WORDFREQ_8.78 114
999 WORDSALL_l'offre~8 114
999 COSIND_-0.00 114
999 COSGEN_-0.00 114
114 ESRank14 114
203 ESBackSacRefixation 114
999 WORDS_demande~11 377
999 WORDFREQ_35.27 377
999 WORDSALL_demande~11 377
999 COSIND_-0.02 377
999 COSGEN_-0.02 377
115 ESRank15 377
202 ESForwSacLong+3+7 377
999 WORDS_savaient~13 204
999 WORDFREQ_30.2 204
999 WORDSALL_Elles~12_savaient~13 204
999 COSIND_0.01 204
999 COSGEN_0.01 204
116 ESRank16 204
202 ESForwSacLong+2+7 204
999 WORDS_savaient~13 162
999 WORDFREQ_30.2 162
999 WORDSALL_Elles~12_savaient~13 162
999 COSIND_0.01 162
999 COSGEN_0.01 162
117 ESRank17 162
203 ESBackSacRefixation 162
999 WORDS_précisément~14 234
999 WORDFREQ_34.8 234
999 WORDSALL_précisément~14 234
999 COSIND_0.03 234
999 COSGEN_0.03 234
118 ESRank18 234
201 ESForwSacShort 234
999 WORDS_précisément~14 155
999 WORDFREQ_34.8 155
999 WORDSALL_précisément~14 155
999 COSIND_0.03 155
999 COSGEN_0.03 155
119 ESRank19 155
203 ESBackSacRefixation 155
999 WORDS_précisément~14 129
999 WORDFREQ_34.8 129
999 WORDSALL_précisément~14 129
999 COSIND_0.03 129
999 COSGEN_0.03 129
120 ESRank20 129
203 ESBackSacRefixation 129
999 WORDS_jour~16 213
999 WORDFREQ_826.35 213
999 WORDSALL_jour~16 213
999 COSIND_-0.05 213
999 COSGEN_-0.05 213
202 ESForwSacLong+2+6 213
999 WORDS_mois~18 195
999 WORDFREQ_304.86 195
999 WORDSALL_du~17_mois~18 195
999 COSIND_0.05 195
999 COSGEN_0.05 195
202 ESForwSacLong+2+4 195
999 WORDS_entreprises~20 284
999 WORDFREQ_9.26 284
999 WORDSALL_entreprises~20 284
999 COSIND_-0.03 284
999 COSGEN_-0.03 284
202 ESForwSacLong+2+5 284
200 ESRankN 284
199 ESRankNMinus1 195
198 ESRankNMinus2 213
197 ESRankNMinus3 129
196 ESRankNMinus4 155
195 ESRankNMinus5 234
194 ESRankNMinus6 162
193 ESRankNMinus7 204
192 ESRankNMinus8 377
191 ESRankNMinus9 114
190 ESRankNMinus10 308
