999 WORDS_marges~1 195
999 WORDFREQ_2.23 195
999 WORDSALL_Les~0_marges~1 195
999 COSIND_0.12 195
999 COSGEN_0.12 195
101 ESRank1 195
999 WORDS_croissance~3 183
999 WORDFREQ_3.92 183
999 WORDSALL_de~2_croissance~3 183
999 COSIND_0.79 183
999 COSGEN_0.79 183
102 ESRank2 183
202 ESForwSacLong+2+4 183
999 WORDS_réformes~9 202
999 WORDFREQ_6.42 202
999 WORDSALL_des~8_réformes~9 202
999 COSIND_-0.01 202
999 COSGEN_-0.01 202
103 ESRank3 202
202 ESForwSacLong+6+38 202
999 WORDS_pourraient~4 278
999 WORDFREQ_26.62 278
999 WORDSALL_pourraient~4 278
999 COSIND_0.03 278
999 COSGEN_0.03 278
104 ESRank4 278
206 ESBackSacRegrLong-5-27 278
999 WORDS_marchés~13 217
999 WORDFREQ_5.07 217
999 WORDSALL_les~12_marchés~13 217
999 COSIND_0.05 217
999 COSGEN_0.05 217
105 ESRank5 217
202 ESForwSacLong+9+59 217
999 WORDS_réformes~9 161
999 WORDFREQ_6.42 161
999 WORDSALL_des~8_réformes~9 161
999 COSIND_-0.01 161
999 COSGEN_-0.01 161
106 ESRank6 161
206 ESBackSacRegrLong-4-23 161
999 WORDS_structurelles~10 136
999 WORDFREQ_N/A 136
999 WORDSALL_structurelles~10 136
999 COSIND_N/A 136
107 ESRank7 136
201 ESForwSacShort 136
999 WORDS_accélération~21 236
999 WORDFREQ_2.64 236
999 WORDSALL_une~20_accélération~21 236
999 COSIND_0.45 236
999 COSGEN_0.45 236
108 ESRank8 236
202 ESForwSacLong+11+58 236
999 WORDS_accélération~21 133
999 WORDFREQ_2.64 133
999 WORDSALL_accélération~21 133
999 COSIND_0.45 133
999 COSGEN_0.45 133
109 ESRank9 133
203 ESBackSacRefixation 133
999 WORDS_stabilité~26 164
999 WORDFREQ_3.18 164
999 WORDSALL_stabilité~26 164
999 COSIND_0.35 164
999 COSGEN_0.35 164
110 ESRank10 164
202 ESForwSacLong+5+21 164
999 WORDS_stabilité~26 156
999 WORDFREQ_3.18 156
999 WORDSALL_la~25_stabilité~26 156
999 COSIND_0.35 156
999 COSGEN_0.35 156
111 ESRank11 156
203 ESBackSacRefixation 156
999 WORDS_prix~28 174
999 WORDFREQ_107.5 174
999 WORDSALL_des~27_prix~28 174
999 COSIND_-0.03 174
999 COSGEN_-0.03 174
112 ESRank12 174
202 ESForwSacLong+2+5 174
999 WORDS_excédent~31 200
999 WORDFREQ_0.54 200
999 WORDSALL_excédent~31 200
999 COSIND_0.27 200
999 COSGEN_0.27 200
113 ESRank13 200
202 ESForwSacLong+3+7 200
999 WORDS_balance~34 184
999 WORDFREQ_8.18 184
999 WORDSALL_de~32_balance~34 184
999 COSIND_0.27 184
999 COSGEN_0.27 184
114 ESRank14 184
202 ESForwSacLong+3+7 184
999 WORDS_paiements~36 159
999 WORDFREQ_0.41 159
999 WORDSALL_des~35_paiements~36 159
999 COSIND_0.01 159
999 COSGEN_0.01 159
115 ESRank15 159
202 ESForwSacLong+2+5 159
999 WORDS_courants~37 190
999 WORDFREQ_1.42 190
999 WORDSALL_courants~37 190
999 COSIND_-0.01 190
999 COSGEN_-0.01 190
116 ESRank16 190
201 ESForwSacShort 190
999 WORDS_courants~37 129
999 WORDFREQ_1.42 129
999 WORDSALL_courants~37 129
999 COSIND_-0.01 129
999 COSGEN_-0.01 129
117 ESRank17 129
203 ESBackSacRefixation 129
999 WORDS_balance~34 175
999 WORDFREQ_8.18 175
999 WORDSALL_balance~34 175
999 COSIND_0.27 175
999 COSGEN_0.27 175
118 ESRank18 175
206 ESBackSacRegrLong-3-15 175
999 WORDS_balance~34 196
999 WORDFREQ_8.18 196
999 WORDSALL_de~32_balance~34 196
999 COSIND_0.27 196
999 COSGEN_0.27 196
119 ESRank19 196
203 ESBackSacRefixation 196
200 ESRankN 196
199 ESRankNMinus1 175
198 ESRankNMinus2 129
197 ESRankNMinus3 190
196 ESRankNMinus4 159
195 ESRankNMinus5 184
194 ESRankNMinus6 200
193 ESRankNMinus7 174
192 ESRankNMinus8 156
191 ESRankNMinus9 164
190 ESRankNMinus10 133
