999 WORDS_pollution~2 231
999 WORDFREQ_1.15 231
999 WORDSALL_Outre~0_pollution~2 231
999 COSIND_0.01 231
999 COSGEN_0.01 231
101 ESRank1 231
999 WORDS_tonnes~11 191
999 WORDFREQ_11.55 191
999 WORDSALL_des~10_tonnes~11 191
999 COSIND_0.15 191
999 COSGEN_0.15 191
102 ESRank2 191
202 ESForwSacLong+9+43 191
999 WORDS_surface~4 202
999 WORDFREQ_51.49 202
999 WORDSALL_de~3_surface~4 202
999 COSIND_0.13 202
999 COSGEN_0.13 202
103 ESRank3 202
206 ESBackSacRegrLong-7-32 202
999 WORDS_problème~9 187
999 WORDFREQ_55.2 187
999 WORDSALL_problème~9 187
999 COSIND_0.05 187
999 COSGEN_0.05 187
104 ESRank4 187
202 ESForwSacLong+5+18 187
999 WORDS_surface~4 165
999 WORDFREQ_51.49 165
999 WORDSALL_surface~4 165
999 COSIND_0.13 165
999 COSGEN_0.13 165
105 ESRank5 165
206 ESBackSacRegrLong-5-18 165
999 WORDS_surface~4 170
999 WORDFREQ_51.49 170
999 WORDSALL_de~3_surface~4 170
999 COSIND_0.13 170
999 COSGEN_0.13 170
106 ESRank6 170
203 ESBackSacRefixation 170
999 WORDS_pollution~2 396
999 WORDFREQ_1.15 396
999 WORDSALL_la~1_pollution~2 396
999 COSIND_0.01 396
999 COSGEN_0.01 396
107 ESRank7 396
206 ESBackSacRegrLong-2-4 396
999 WORDS_surface~4 227
999 WORDFREQ_51.49 227
999 WORDSALL_surface~4 227
999 COSIND_0.13 227
999 COSGEN_0.13 227
108 ESRank8 227
202 ESForwSacLong+2+4 227
999 WORDS_pose~6 229
999 WORDFREQ_48.85 229
999 WORDSALL_se~5_pose~6 229
999 COSIND_0.07 229
999 COSGEN_0.07 229
109 ESRank9 229
202 ESForwSacLong+2+4 229
999 WORDS_pétrole~13 136
999 WORDFREQ_14.73 136
999 WORDSALL_tonnes~11_pétrole~13 136
999 COSIND_0.55 136
999 COSGEN_0.55 136
110 ESRank10 136
202 ESForwSacLong+7+34 136
999 WORDS_tonnes~11 154
999 WORDFREQ_11.55 154
999 WORDSALL_des~10_tonnes~11 154
999 COSIND_0.15 154
999 COSGEN_0.15 154
111 ESRank11 154
206 ESBackSacRegrLong-2-4 154
200 ESRankN 154
199 ESRankNMinus1 136
198 ESRankNMinus2 229
197 ESRankNMinus3 227
196 ESRankNMinus4 396
195 ESRankNMinus5 170
194 ESRankNMinus6 165
193 ESRankNMinus7 187
192 ESRankNMinus8 202
191 ESRankNMinus9 191
190 ESRankNMinus10 231
