# 255 Fixation 1 (313,298.9): Le~0 Conseil~1
# 231 Fixation 2 (405.3,283.3): Conseil~1 national~2
# 319 Fixation 3 (531.1,277.5): des~3 programmes~4
# 223 Fixation 4 (681.7,271.8): programmes~4
# 330 Fixation 5 (278.6,358.9): observatoires~7
# 241 Fixation 6 (473.3,351.3): académiques~8
# 161 Fixation 7 (648.9,342.2): des~9 pratiques~10
# 165 Fixation 8 (625.3,348.7): des~9 pratiques~10
# 299 Fixation 9 (282.8,401.4): pédagogiques~11
# 222 Fixation 10 (438.4,414): seront~12
# 200 Fixation 11 (523.5,419.1): seront~12 chargés~13
# 119 Fixation 12 (614,421.9): chargés~13 définir~15
# 205 Fixation 13 (477.6,413.6): seront~12
# 425 Fixation 14 (621.8,429.8): chargés~13 définir~15
# 326 Fixation 15 (562,407): chargés~13
# 248 Fixation 16 (621.4,406.2): chargés~13 définir~15
# 202 Fixation 17 (670.9,395.3): de~14 définir~15
# 153 Fixation 18 (746.2,410.8): définir~15
# 383 Fixation 19 (305,459.9): compétences~17
# 180 Fixation 20 (433.4,479.1): communes~18
# 236 Fixation 21 (358.6,468): compétences~17
# 203 Fixation 22 (480.6,476.2): communes~18
# 306 Fixation 23 (552.9,481): dispensées~19
# 249 Fixation 24 (659.5,480.9): dispensées~19 collège~21
# 131 Fixation 25 (699.2,491.7): au~20 collège~21
# 336 Fixation 26 (311.7,534.4): Les~22 enseignants~23
# 312 Fixation 27 (460.8,542.6): souhaitent~24
# 114 Fixation 28 (413.2,578.7): programme~29
# 274 Fixation 29 (619,536.3): être~25
# 141 Fixation 30 (665.1,548.8): être~25 consultés~26
%%
# Le~0 Fixations= "1/"
# Conseil~1 Fixations= "2/"
# national~2 Fixations= "2/"
# des~3 Fixations= "3/"
# programmes~4 Fixations= "4/"
# et~5 Fixations= ""
# les~6 Fixations= ""
# observatoires~7 Fixations= "5/"
# académiques~8 Fixations= "6/"
# des~9 Fixations= "8/"
# pratiques~10 Fixations= "8/"
# pédagogiques~11 Fixations= "9/"
# seront~12 Fixations= "13/"
# chargés~13 Fixations= "16/"
# de~14 Fixations= "17/"
# définir~15 Fixations= "18/"
# les~16 Fixations= ""
# compétences~17 Fixations= "21/"
# communes~18 Fixations= "22/"
# dispensées~19 Fixations= "24/"
# au~20 Fixations= "25/"
# collège~21 Fixations= "25/"
# Les~22 Fixations= "26/"
# enseignants~23 Fixations= "26/"
# souhaitent~24 Fixations= "27/"
# être~25 Fixations= "30/"
# consultés~26 Fixations= "30/"
# sur~27 Fixations= ""
# ce~28 Fixations= ""
# programme~29 Fixations= "28/"
%%
#  LE[1] CONSEIL[2] NATIONAL[2] DES[3] PROGRAMMES[4] et les OBSERVATOIRES[5] ACADéMIQUES[6] DES[8] PRATIQUES[8] PéDAGOGIQUES[9] SERONT[13] CHARGéS[16] DE[17] DéFINIR[18] les COMPéTENCES[21] COMMUNES[22] DISPENSéES[24] AU[25] COLLèGE[25] LES[26] ENSEIGNANTS[26] SOUHAITENT[27] êTRE[30] CONSULTéS[30] sur ce PROGRAMME[28]
# s14 formation_informatique-m2 PercentageOfWordsProcessed= 0.833333333333333 PercentageOfWordsReallyProcessed= 0.833333333333333
