999 WORDS_Commission~1 154
999 WORDFREQ_10.81 154
999 WORDSALL_La~0_Commission~1 154
999 COSIND_0.06 154
999 COSGEN_0.06 154
101 ESRank1 154
999 WORDS_propositions~7 186
999 WORDFREQ_7.5 186
999 WORDSALL_Commission~1_européenne~2_propositions~7 186
999 COSIND_0.12 186
999 COSGEN_0.12 186
102 ESRank2 186
202 ESForwSacLong+6+38 186
999 WORDS_qu'elle~4 125
999 WORDFREQ_N/A 125
999 WORDSALL_qu'elle~4 125
999 COSIND_N/A 125
103 ESRank3 125
206 ESBackSacRegrLong-3-10 125
999 WORDS_fera~5 202
999 WORDFREQ_59.66 202
999 WORDSALL_La~0_Commission~1_fera~5 202
999 COSIND_-0.02 202
999 COSGEN_-0.02 202
104 ESRank4 202
201 ESForwSacShort 202
999 WORDS_encourager~9 175
999 WORDFREQ_7.03 175
999 WORDSALL_pour~8_encourager~9 175
999 COSIND_-0.09 175
999 COSGEN_-0.09 175
105 ESRank5 175
202 ESForwSacLong+4+23 175
999 WORDS_musique~17 89
999 WORDFREQ_109.8 89
999 WORDSALL_encourager~9_musique~17 89
999 COSIND_0.02 89
999 COSGEN_0.02 89
106 ESRank6 89
202 ESForwSacLong+8+36 89
999 WORDS_marché~11 256
999 WORDFREQ_57.36 256
999 WORDSALL_marché~11 256
999 COSIND_-0.03 256
999 COSGEN_-0.03 256
107 ESRank7 256
206 ESBackSacRegrLong-6-25 256
999 WORDS_secteur~14 184
999 WORDFREQ_18.45 184
999 WORDSALL_du~13_secteur~14 184
999 COSIND_0.05 184
999 COSGEN_0.05 184
108 ESRank8 184
202 ESForwSacLong+3+11 184
999 WORDS_musique~17 214
999 WORDFREQ_109.8 214
999 WORDSALL_la~16_musique~17 214
999 COSIND_0.02 214
999 COSGEN_0.02 214
109 ESRank9 214
202 ESForwSacLong+3+7 214
999 WORDS_commun~12 227
999 WORDFREQ_32.16 227
999 WORDSALL_marché~11_commun~12 227
999 COSIND_0.09 227
999 COSGEN_0.09 227
110 ESRank10 227
206 ESBackSacRegrLong-5-18 227
200 ESRankN 227
199 ESRankNMinus1 214
198 ESRankNMinus2 184
197 ESRankNMinus3 256
196 ESRankNMinus4 89
195 ESRankNMinus5 175
194 ESRankNMinus6 202
193 ESRankNMinus7 125
192 ESRankNMinus8 186
191 ESRankNMinus9 154
