# 167 Fixation 1 (262.1,277): Le~0 ministre~1
# 177 Fixation 2 (406.1,278): ministre~1 irakien~2
# 243 Fixation 3 (455.8,336.7): l'Arabie~8
# 129 Fixation 4 (514.7,346.3): saoudite~9
# 139 Fixation 5 (625.7,349.3): d'avoir~10
# 212 Fixation 6 (325.3,415.5): le~12 marché~13
# 173 Fixation 7 (456.3,410.6): du~14 pétrole~15
# 266 Fixation 8 (602.8,419.8): Il~16 a~17 réclamé~18
# 292 Fixation 9 (614.6,467.6): saoudienne~24
# 231 Fixation 10 (466.7,476.1): la~22 production~23
# 172 Fixation 11 (396.6,541.6): prix~28
# 192 Fixation 12 (333.7,544.6): que~26 prix~28
# 242 Fixation 13 (267.8,546.5): que~26 prix~28
%%
# Le~0 Fixations= "1/"
# ministre~1 Fixations= "2/"
# irakien~2 Fixations= "2/"
# du~3 Fixations= ""
# pétrole~4 Fixations= ""
# a~5 Fixations= ""
# accusé~6 Fixations= ""
# dimanche~7 Fixations= ""
# l'Arabie~8 Fixations= "3/"
# saoudite~9 Fixations= "4/"
# d'avoir~10 Fixations= "5/"
# inondé~11 Fixations= ""
# le~12 Fixations= "6/"
# marché~13 Fixations= "6/"
# du~14 Fixations= "7/"
# pétrole~15 Fixations= "7/"
# Il~16 Fixations= "8/"
# a~17 Fixations= "8/"
# réclamé~18 Fixations= "8/"
# une~19 Fixations= ""
# réduction~20 Fixations= ""
# de~21 Fixations= ""
# la~22 Fixations= "10/"
# production~23 Fixations= "10/"
# saoudienne~24 Fixations= "9/"
# pour~25 Fixations= ""
# que~26 Fixations= "13/"
# les~27 Fixations= ""
# prix~28 Fixations= "13/"
# remontent~29 Fixations= ""
%%
#  LE[1] MINISTRE[2] IRAKIEN[2] du pétrole a accusé dimanche L'ARABIE[3] SAOUDITE[4] D'AVOIR[5] inondé LE[6] MARCHé[6] DU[7] PéTROLE[7] IL[8] A[8] RéCLAMé[8] une réduction de LA[10] PRODUCTION[10] SAOUDIENNE[9] pour QUE[13] les PRIX[13] remontent
# s21 prix_petrole-f2 PercentageOfWordsProcessed= 0.6 PercentageOfWordsReallyProcessed= 0.620689655172414
