999 WORDS_avion~1 286
999 WORDFREQ_46.82 286
999 WORDSALL_avion~1 286
999 COSIND_0.34 286
999 COSGEN_0.34 286
101 ESRank1 286
999 WORDS_combat~3 174
999 WORDFREQ_52.36 174
999 WORDSALL_de~2_combat~3 174
999 COSIND_0.15 174
999 COSGEN_0.15 174
102 ESRank2 174
202 ESForwSacLong+2+4 174
999 WORDS_avion~1 114
999 WORDFREQ_46.82 114
999 WORDSALL_Un~0_avion~1 114
999 COSIND_0.34 114
999 COSGEN_0.34 114
103 ESRank3 114
206 ESBackSacRegrLong-2-4 114
999 WORDS_russe~4 179
999 WORDFREQ_35.34 179
999 WORDSALL_russe~4 179
999 COSIND_0.01 179
999 COSGEN_0.01 179
104 ESRank4 179
202 ESForwSacLong+3+11 179
999 WORDS_biréacteur~5 310
999 WORDFREQ_N/A 310
999 WORDSALL_russe~4_biréacteur~5 310
999 COSIND_N/A 310
105 ESRank5 310
201 ESForwSacShort 310
999 WORDS_russe~4 132
999 WORDFREQ_35.34 132
999 WORDSALL_russe~4 132
999 COSIND_0.01 132
999 COSGEN_0.01 132
106 ESRank6 132
205 ESBackSacRegrShort 132
999 WORDS_biréacteur~5 246
999 WORDFREQ_N/A 246
999 WORDSALL_biréacteur~5 246
999 COSIND_N/A 246
107 ESRank7 246
201 ESForwSacShort 246
999 WORDS_biréacteur~5 124
999 WORDFREQ_N/A 124
999 WORDSALL_russe~4_biréacteur~5 124
999 COSIND_N/A 124
108 ESRank8 124
203 ESBackSacRefixation 124
999 WORDS_Sukhoi-30~6 206
999 WORDFREQ_N/A 206
999 WORDSALL_Sukhoi-30~6 206
999 COSIND_N/A 206
109 ESRank9 206
201 ESForwSacShort 206
999 WORDS_Sukhoi-30~6 242
999 WORDFREQ_N/A 242
999 WORDSALL_Sukhoi-30~6 242
999 COSIND_N/A 242
110 ESRank10 242
203 ESBackSacRefixation 242
999 WORDS_écrasé~8 183
999 WORDFREQ_13.24 183
999 WORDSALL_s'est~7_écrasé~8 183
999 COSIND_0.15 183
999 COSGEN_0.15 183
111 ESRank11 183
202 ESForwSacLong+2+7 183
999 WORDS_Sukhoi-30~6 220
999 WORDFREQ_N/A 220
999 WORDSALL_Sukhoi-30~6 220
999 COSIND_N/A 220
112 ESRank12 220
206 ESBackSacRegrLong-2-7 220
999 WORDS_Sukhoi-30~6 164
999 WORDFREQ_N/A 164
999 WORDSALL_Sukhoi-30~6 164
999 COSIND_N/A 164
113 ESRank13 164
203 ESBackSacRefixation 164
999 WORDS_écrasé~8 204
999 WORDFREQ_13.24 204
999 WORDSALL_s'est~7_écrasé~8 204
999 COSIND_0.15 204
999 COSGEN_0.15 204
114 ESRank14 204
202 ESForwSacLong+2+7 204
999 WORDS_pendant~9 174
999 WORDFREQ_450.14 174
999 WORDSALL_pendant~9 174
999 COSIND_N/A 174
115 ESRank15 174
201 ESForwSacShort 174
999 WORDS_démonstration~11 165
999 WORDFREQ_9.53 165
999 WORDSALL_démonstration~11 165
999 COSIND_0.17 165
999 COSGEN_0.17 165
116 ESRank16 165
202 ESForwSacLong+2+5 165
999 WORDS_démonstration~11 136
999 WORDFREQ_9.53 136
999 WORDSALL_démonstration~11 136
999 COSIND_0.17 136
999 COSGEN_0.17 136
117 ESRank17 136
203 ESBackSacRefixation 136
999 WORDS_samedi~14 261
999 WORDFREQ_34.26 261
999 WORDSALL_vol~13_samedi~14 261
999 COSIND_0.09 261
999 COSGEN_0.09 261
118 ESRank18 261
202 ESForwSacLong+3+8 261
999 WORDS_samedi~14 187
999 WORDFREQ_34.26 187
999 WORDSALL_samedi~14 187
999 COSIND_0.09 187
999 COSGEN_0.09 187
119 ESRank19 187
203 ESBackSacRefixation 187
999 WORDS_15~16 145
999 WORDFREQ_N/A 145
999 WORDSALL_vers~15_15~16 145
999 COSIND_N/A 145
120 ESRank20 145
202 ESForwSacLong+2+6 145
999 WORDS_heures~17 177
999 WORDFREQ_484.19 177
999 WORDSALL_heures~17 177
999 COSIND_0.04 177
999 COSGEN_0.04 177
201 ESForwSacShort 177
999 WORDS_heures~17 108
999 WORDFREQ_484.19 108
999 WORDSALL_heures~17 108
999 COSIND_0.04 108
999 COSGEN_0.04 108
203 ESBackSacRefixation 108
999 WORDS_l'inauguration~20 242
999 WORDFREQ_2.57 242
999 WORDSALL_de~19_l'inauguration~20 242
999 COSIND_0.15 242
999 COSGEN_0.15 242
202 ESForwSacLong+3+9 242
999 WORDS_l'inauguration~20 203
999 WORDFREQ_2.57 203
999 WORDSALL_l'inauguration~20 203
999 COSIND_0.15 203
999 COSGEN_0.15 203
203 ESBackSacRefixation 203
999 WORDS_salon~22 160
999 WORDFREQ_84.12 160
999 WORDSALL_du~21_salon~22 160
999 COSIND_0.89 160
999 COSGEN_0.89 160
202 ESForwSacLong+2+4 160
999 WORDS_aéronautique~23 210
999 WORDFREQ_0.07 210
999 WORDSALL_aéronautique~23 210
999 COSIND_0.60 210
999 COSGEN_0.60 210
201 ESForwSacShort 210
200 ESRankN 210
199 ESRankNMinus1 160
198 ESRankNMinus2 203
197 ESRankNMinus3 242
196 ESRankNMinus4 108
195 ESRankNMinus5 177
194 ESRankNMinus6 145
193 ESRankNMinus7 187
192 ESRankNMinus8 261
191 ESRankNMinus9 136
190 ESRankNMinus10 165
