# 209 Fixation 1 (262,287.2): La~0 science~1
# 182 Fixation 2 (419.2,269.8): n'apporte~2
# 197 Fixation 3 (588.8,293.1): pas~3 apporté~9 armes~11
# 306 Fixation 4 (329.6,362.1): bienfaits~6
# 138 Fixation 5 (428.1,385.1): mais~7 a~8 massive~14
# 179 Fixation 6 (432.8,405): mais~7 a~8 massive~14
# 219 Fixation 7 (586.4,453.6): et~15 possibilités~17 technique~22
# 297 Fixation 8 (653.6,534.9): technique~22 dégradation~28
# 301 Fixation 9 (309.8,606.3): la~30 biosphère~31
%%
# La~0 Fixations= "1/"
# science~1 Fixations= "1/"
# n'apporte~2 Fixations= "2/"
# pas~3 Fixations= "3/"
# seulement~4 Fixations= ""
# des~5 Fixations= ""
# bienfaits~6 Fixations= "4/"
# mais~7 Fixations= "6/"
# a~8 Fixations= "6/"
# apporté~9 Fixations= "3/"
# des~10 Fixations= ""
# armes~11 Fixations= "3/"
# de~12 Fixations= ""
# destruction~13 Fixations= ""
# massive~14 Fixations= "6/"
# et~15 Fixations= "7/"
# des~16 Fixations= ""
# possibilités~17 Fixations= "7/"
# de~18 Fixations= ""
# manipulation~19 Fixations= ""
# biologique~20 Fixations= ""
# La~21 Fixations= ""
# technique~22 Fixations= "8/"
# et~23 Fixations= ""
# l'économie~24 Fixations= ""
# concourent~25 Fixations= ""
# à~26 Fixations= ""
# la~27 Fixations= ""
# dégradation~28 Fixations= "8/"
# de~29 Fixations= ""
# la~30 Fixations= "9/"
# biosphère~31 Fixations= "9/"
%%
#  LA[1] SCIENCE[1] N'APPORTE[2] PAS[3] seulement des BIENFAITS[4] MAIS[6] A[6] APPORTé[3] des ARMES[3] de destruction MASSIVE[6] ET[7] des POSSIBILITéS[7] de manipulation biologique La TECHNIQUE[8] et l'économie concourent à la DéGRADATION[8] de LA[9] BIOSPHèRE[9]
# s21 reforme_justice-a1 PercentageOfWordsProcessed= 0.5 PercentageOfWordsReallyProcessed= 0.5
