999 WORDS_juge~1 175
999 WORDFREQ_11.15 175
999 WORDSALL_juge~1 175
999 COSIND_0.03 175
999 COSGEN_0.03 175
101 ESRank1 175
999 WORDS_administratif~2 195
999 WORDFREQ_2.97 195
999 WORDSALL_administratif~2 195
999 COSIND_0.10 195
999 COSGEN_0.10 195
102 ESRank2 195
201 ESForwSacShort 195
999 WORDS_estime~3 165
999 WORDFREQ_8.92 165
999 WORDSALL_estime~3 165
999 COSIND_0.00 165
999 COSGEN_0.00 165
103 ESRank3 165
201 ESForwSacShort 165
999 WORDS_que~4 139
999 WORDFREQ_2975.34 139
999 WORDSALL_que~4 139
999 COSIND_N/A 139
104 ESRank4 139
201 ESForwSacShort 139
999 WORDS_extension~6 237
999 WORDFREQ_2.57 237
999 WORDSALL_Le~0_juge~1_extension~6 237
999 COSIND_0.11 237
999 COSGEN_0.11 237
105 ESRank5 237
202 ESForwSacLong+2+7 237
999 WORDS_système~8 240
999 WORDFREQ_42.23 240
999 WORDSALL_administratif~2_système~8 240
999 COSIND_-0.09 240
999 COSGEN_-0.09 240
106 ESRank6 240
202 ESForwSacLong+2+4 240
999 WORDS_extension~6 160
999 WORDFREQ_2.57 160
999 WORDSALL_Le~0_juge~1_extension~6 160
999 COSIND_0.11 160
999 COSGEN_0.11 160
107 ESRank7 160
206 ESBackSacRegrLong-2-4 160
999 WORDS_système~8 188
999 WORDFREQ_42.23 188
999 WORDSALL_administratif~2_estime~3_système~8 188
999 COSIND_-0.09 188
999 COSGEN_-0.09 188
108 ESRank8 188
202 ESForwSacLong+2+4 188
999 WORDS_locations~10 278
999 WORDFREQ_0.34 278
999 WORDSALL_estime~3_locations~10 278
999 COSIND_-0.05 278
999 COSGEN_-0.05 278
109 ESRank9 278
202 ESForwSacLong+2+4 278
999 WORDS_vélos~12 163
999 WORDFREQ_4.12 163
999 WORDSALL_cette~5_vélos~12 163
999 COSIND_-0.07 163
999 COSGEN_-0.07 163
110 ESRank10 163
202 ESForwSacLong+2+4 163
999 WORDS_libre-service~14 221
999 WORDFREQ_0.34 221
999 WORDSALL_extension~6_libre-service~14 221
999 COSIND_N/A 221
111 ESRank11 221
202 ESForwSacLong+2+4 221
999 WORDS_libre-service~14 171
999 WORDFREQ_0.34 171
999 WORDSALL_extension~6_libre-service~14 171
999 COSIND_N/A 171
112 ESRank12 171
203 ESBackSacRefixation 171
999 WORDS_locations~10 214
999 WORDFREQ_0.34 214
999 WORDSALL_estime~3_locations~10 214
999 COSIND_-0.05 214
999 COSGEN_-0.05 214
113 ESRank13 214
206 ESBackSacRegrLong-4-14 214
999 WORDS_système~8 266
999 WORDFREQ_42.23 266
999 WORDSALL_du~7_système~8 266
999 COSIND_-0.09 266
999 COSGEN_-0.09 266
114 ESRank14 266
206 ESBackSacRegrLong-2-4 266
999 WORDS_libre-service~14 268
999 WORDFREQ_0.34 268
999 WORDSALL_extension~6_système~8_libre-service~14 268
999 COSIND_N/A 268
115 ESRank15 268
202 ESForwSacLong+6+27 268
999 WORDS_constitue~15 202
999 WORDFREQ_7.03 202
999 WORDSALL_système~8_constitue~15 202
999 COSIND_0.01 202
999 COSGEN_0.01 202
116 ESRank16 202
201 ESForwSacShort 202
999 WORDS_fournit~20 265
999 WORDFREQ_6.55 265
999 WORDSALL_libre-service~14_fournit~20 265
999 COSIND_0.02 265
999 COSGEN_0.02 265
117 ESRank17 265
202 ESForwSacLong+5+23 265
999 WORDS_bicyclettes~28 168
999 WORDFREQ_5 168
999 WORDSALL_fournit~20_bicyclettes~28 168
999 COSIND_-0.05 168
999 COSGEN_-0.05 168
118 ESRank18 168
202 ESForwSacLong+8+39 168
999 WORDS_service~26 246
999 WORDFREQ_106.28 246
999 WORDSALL_marché~18_service~26 246
999 COSIND_-0.01 246
999 COSGEN_-0.01 246
119 ESRank19 246
206 ESBackSacRegrLong-2-4 246
200 ESRankN 246
199 ESRankNMinus1 168
198 ESRankNMinus2 265
197 ESRankNMinus3 202
196 ESRankNMinus4 268
195 ESRankNMinus5 266
194 ESRankNMinus6 214
193 ESRankNMinus7 171
192 ESRankNMinus8 221
191 ESRankNMinus9 163
190 ESRankNMinus10 278
