# 81 Fixation 1 (264.4,292.5): Les~0 via~1
# 192 Fixation 2 (350.3,320.5): connaissent~8
# 137 Fixation 3 (334.6,296.5): Les~0 via~1
# 404 Fixation 4 (303.3,286.6): Les~0 via~1
# 199 Fixation 5 (366.5,291.2): via~1 ferrata~2
# 149 Fixation 6 (445.4,289): ferrata~2
# 193 Fixation 7 (523.7,289.8): et~3 sports~5
# 768 Fixation 8 (642.1,290.2): sports~5 d'eau~6
# 224 Fixation 9 (461.7,304.5): ferrata~2
# 140 Fixation 10 (410.5,335.6): un~9 succès~10
# 357 Fixation 11 (415.8,412.4): au~14 vertige~15
# 465 Fixation 12 (487.3,516): ancrés~28
%%
# Les~0 Fixations= "4/"
# via~1 Fixations= "5/"
# ferrata~2 Fixations= "9/"
# et~3 Fixations= "7/"
# les~4 Fixations= ""
# sports~5 Fixations= "8/"
# d'eau~6 Fixations= "8/"
# vive~7 Fixations= ""
# connaissent~8 Fixations= "2/"
# un~9 Fixations= "10/"
# succès~10 Fixations= "10/"
# constant~11 Fixations= ""
# Les~12 Fixations= ""
# candidats~13 Fixations= ""
# au~14 Fixations= "11/"
# vertige~15 Fixations= "11/"
# se~16 Fixations= ""
# comptent~17 Fixations= ""
# par~18 Fixations= ""
# milliers~19 Fixations= ""
# sur~20 Fixations= ""
# la~21 Fixations= ""
# cinquantaine~22 Fixations= ""
# de~23 Fixations= ""
# parcours~24 Fixations= ""
# de~25 Fixations= ""
# via~26 Fixations= ""
# ferrata~27 Fixations= ""
# ancrés~28 Fixations= "12/"
# en~29 Fixations= ""
# pleine~30 Fixations= ""
# falaise~31 Fixations= ""
%%
#  LES[4] VIA[5] FERRATA[9] ET[7] les SPORTS[8] D'EAU[8] vive CONNAISSENT[2] UN[10] SUCCèS[10] constant Les candidats AU[11] VERTIGE[11] se comptent par milliers sur la cinquantaine de parcours de via ferrata ANCRéS[12] en pleine falaise
# s14 tourisme_montagne-f1 PercentageOfWordsProcessed= 0.375 PercentageOfWordsReallyProcessed= 0.413793103448276
