# 143 Fixation 1 (272.1,284.5): Des~0 livres~1
# 653 Fixation 2 (429.2,295.7): de~2 mémoires~3
# 142 Fixation 3 (577.6,298.9): d'anciens~4
# 113 Fixation 4 (603.7,295.1): d'anciens~4
# 203 Fixation 5 (685.4,296.5): d'anciens~4 déportés~5
# 231 Fixation 6 (430.7,356.1): paraît~8 régulièrement~9
# 112 Fixation 7 (343.5,358.5): en~7 paraît~8
# 197 Fixation 8 (642.2,368.3): De~10 qualité~11
# 178 Fixation 9 (569.9,451.5): inégal~15
%%
# Des~0 Fixations= "1/"
# livres~1 Fixations= "1/"
# de~2 Fixations= "2/"
# mémoires~3 Fixations= "2/"
# d'anciens~4 Fixations= "5/"
# déportés~5 Fixations= "5/"
# il~6 Fixations= ""
# en~7 Fixations= "7/"
# paraît~8 Fixations= "7/"
# régulièrement~9 Fixations= "6/"
# De~10 Fixations= "8/"
# qualité~11 Fixations= "8/"
# inégale~12 Fixations= ""
# et~13 Fixations= ""
# d'intérêt~14 Fixations= ""
# inégal~15 Fixations= "9/"
# mais~16 Fixations= ""
# ce~17 Fixations= ""
# n'est~18 Fixations= ""
# jamais~19 Fixations= ""
# la~20 Fixations= ""
# même~21 Fixations= ""
# histoire~22 Fixations= ""
# car~23 Fixations= ""
# le~24 Fixations= ""
# ressenti~25 Fixations= ""
# est~26 Fixations= ""
# à~27 Fixations= ""
# chaque~28 Fixations= ""
# fois~29 Fixations= ""
# unique~30 Fixations= ""
%%
#  DES[1] LIVRES[1] DE[2] MéMOIRES[2] D'ANCIENS[5] DéPORTéS[5] il EN[7] PARAîT[7] RéGULIèREMENT[6] DE[8] QUALITé[8] inégale et d'intérêt INéGAL[9] mais ce n'est jamais la même histoire car le ressenti est à chaque fois unique
# s18 victoire_footballeurs-a1 PercentageOfWordsProcessed= 0.387096774193548 PercentageOfWordsReallyProcessed= 0.75
