# 115 Fixation 1 (284.4,263.1): Dans~0 contexte~2
# 178 Fixation 2 (403.1,271.7): contexte~2
# 228 Fixation 3 (497.6,276.3): relevé~3
# 164 Fixation 4 (615.7,285.1): les~4 joueurs~5
# 134 Fixation 5 (299.1,361.6): marseillais~6
# 82 Fixation 6 (351.3,350.3): marseillais~6
# 238 Fixation 7 (476.8,344): voulaient~7
# 149 Fixation 8 (461,347.2): voulaient~7
# 193 Fixation 9 (648.1,344.8): surtout~8 satisfaire~9
# 314 Fixation 10 (343.8,408.1): leur~10 public~11
# 162 Fixation 11 (524.2,421.4): cette~13 finale~14
# 189 Fixation 12 (625.5,405.9): finale~14 gagnée~15
# 216 Fixation 13 (360.8,472): l'équipe~16 phocéenne~17
# 204 Fixation 14 (313.9,475): l'équipe~16
# 222 Fixation 15 (621.9,475.2): particulièrement~19
# 151 Fixation 16 (374.4,516.2): son~21 retour~22
# 110 Fixation 17 (343.8,532.1): réussi~20 retour~22
# 168 Fixation 18 (572.4,538.8): parmi~23 l'élite~24
# 260 Fixation 19 (712.4,534.2): du~25 football~26
# 285 Fixation 20 (300.3,590): professionnel~27
%%
# Dans~0 Fixations= "1/"
# ce~1 Fixations= ""
# contexte~2 Fixations= "2/"
# relevé~3 Fixations= "3/"
# les~4 Fixations= "4/"
# joueurs~5 Fixations= "4/"
# marseillais~6 Fixations= "6/"
# voulaient~7 Fixations= "8/"
# surtout~8 Fixations= "9/"
# satisfaire~9 Fixations= "9/"
# leur~10 Fixations= "10/"
# public~11 Fixations= "10/"
# Avec~12 Fixations= ""
# cette~13 Fixations= "11/"
# finale~14 Fixations= "12/"
# gagnée~15 Fixations= "12/"
# l'équipe~16 Fixations= "14/"
# phocéenne~17 Fixations= "13/"
# a~18 Fixations= ""
# particulièrement~19 Fixations= "15/"
# réussi~20 Fixations= "17/"
# son~21 Fixations= "16/"
# retour~22 Fixations= "17/"
# parmi~23 Fixations= "18/"
# l'élite~24 Fixations= "18/"
# du~25 Fixations= "19/"
# football~26 Fixations= "19/"
# professionnel~27 Fixations= "20/"
%%
#  DANS[1] ce CONTEXTE[2] RELEVé[3] LES[4] JOUEURS[4] MARSEILLAIS[6] VOULAIENT[8] SURTOUT[9] SATISFAIRE[9] LEUR[10] PUBLIC[10] Avec CETTE[11] FINALE[12] GAGNéE[12] L'éQUIPE[14] PHOCéENNE[13] a PARTICULIèREMENT[15] RéUSSI[17] SON[16] RETOUR[17] PARMI[18] L'éLITE[18] DU[19] FOOTBALL[19] PROFESSIONNEL[20]
# s01 victoire_footballeurs-f1 PercentageOfWordsProcessed= 0.892857142857143 PercentageOfWordsReallyProcessed= 0.892857142857143
