999 WORDS_Dans~0 147
999 WORDFREQ_8296.08 147
999 WORDSALL_Dans~0 147
999 COSIND_N/A 147
101 ESRank1 147
999 WORDS_clairières~2 269
999 WORDFREQ_3.18 269
999 WORDSALL_les~1_clairières~2 269
999 COSIND_0.02 269
999 COSGEN_0.02 269
102 ESRank2 269
202 ESForwSacLong+2+5 269
999 WORDS_Indiennes~4 170
999 WORDFREQ_0.68 170
999 WORDSALL_les~3_Indiennes~4 170
999 COSIND_-0.06 170
999 COSGEN_-0.06 170
103 ESRank3 170
202 ESForwSacLong+2+5 170
999 WORDS_Indiennes~4 146
999 WORDFREQ_0.68 146
999 WORDSALL_les~3_Indiennes~4 146
999 COSIND_-0.06 146
999 COSGEN_-0.06 146
104 ESRank4 146
203 ESBackSacRefixation 146
999 WORDS_maïs~9 152
999 WORDFREQ_6.42 152
999 WORDSALL_les~3_Indiennes~4_maïs~9 152
999 COSIND_-0.07 152
999 COSGEN_-0.07 152
105 ESRank5 152
202 ESForwSacLong+5+25 152
999 WORDS_bananes~11 133
999 WORDFREQ_3.51 133
999 WORDSALL_Indiennes~4_bananes~11 133
999 COSIND_-0.04 133
999 COSGEN_-0.04 133
106 ESRank6 133
202 ESForwSacLong+2+5 133
999 WORDS_maïs~9 191
999 WORDFREQ_6.42 191
999 WORDSALL_du~8_maïs~9 191
999 COSIND_-0.07 191
999 COSGEN_-0.07 191
107 ESRank7 191
206 ESBackSacRegrLong-2-5 191
999 WORDS_paniers~17 149
999 WORDFREQ_8.78 149
999 WORDSALL_Leurs~16_paniers~17 149
999 COSIND_0.01 149
999 COSGEN_0.01 149
108 ESRank8 149
202 ESForwSacLong+8+41 149
999 WORDS_équilibrés~24 240
999 WORDFREQ_0.2 240
999 WORDSALL_Leurs~16_paniers~17_équilibrés~24 240
999 COSIND_0.24 240
999 COSGEN_0.24 240
109 ESRank9 240
202 ESForwSacLong+7+28 240
999 WORDS_dos~22 122
999 WORDFREQ_213.99 122
999 WORDSALL_sur~20_dos~22 122
999 COSIND_0.03 122
999 COSGEN_0.03 122
110 ESRank10 122
206 ESBackSacRegrLong-2-4 122
200 ESRankN 122
199 ESRankNMinus1 240
198 ESRankNMinus2 149
197 ESRankNMinus3 191
196 ESRankNMinus4 133
195 ESRankNMinus5 152
194 ESRankNMinus6 146
193 ESRankNMinus7 170
192 ESRankNMinus8 269
191 ESRankNMinus9 147
