# 130 Fixation 1 (343.9,308.4): galeries~1
# 189 Fixation 2 (286.2,280.7): Les~0 galeries~1
# 115 Fixation 3 (263.2,277): Les~0 galeries~1
# 242 Fixation 4 (475,277.2): d'anatomie~2
# 412 Fixation 5 (429.7,290.7): galeries~1 d'anatomie~2
# 137 Fixation 6 (379.5,292.5): galeries~1
# 249 Fixation 7 (451.4,286.3): d'anatomie~2
# 336 Fixation 8 (561.2,280.7): d'anatomie~2 comparée~3
# 188 Fixation 9 (459.1,274.4): d'anatomie~2
# 647 Fixation 10 (578.3,280.3): comparée~3
# 173 Fixation 11 (603.3,275): comparée~3
# 196 Fixation 12 (681.4,271.7): comparée~3
# 412 Fixation 13 (275.8,338.2): paléontologie~6
# 408 Fixation 14 (258.8,346.7): paléontologie~6
# 127 Fixation 15 (283.5,346.8): paléontologie~6
# 257 Fixation 16 (406.8,343.6): paléontologie~6 musée~8
# 196 Fixation 17 (441.3,346.6): du~7 musée~8
# 510 Fixation 18 (544.2,347.9): musée~8 national~9
# 321 Fixation 19 (662.3,346.2): national~9 d'histoire~10
# 332 Fixation 20 (266.5,418.1): naturelle~11
# 198 Fixation 21 (396.6,409.1): sont~12
# 206 Fixation 22 (471,413.2): sont~12 nouveau~14
# 178 Fixation 23 (381.8,403.7): naturelle~11 sont~12
# 195 Fixation 24 (490.9,409.4): de~13 nouveau~14
# 308 Fixation 25 (585.6,409.8): nouveau~14 ouvertes~15
# 153 Fixation 26 (652.8,414): ouvertes~15
# 241 Fixation 27 (290.9,462.4): public~17
# 244 Fixation 28 (381.5,472.9): depuis~18 18~20
# 278 Fixation 29 (475.8,469.1): le~19 18~20
# 196 Fixation 30 (389.5,537.4): de~25 travaux~26
# 430 Fixation 31 (655.4,479.4): après~22
# 149 Fixation 32 (302.8,533.7): mois~24
# 193 Fixation 33 (257.9,537.3): mois~24
# 116 Fixation 34 (366.5,506.3): depuis~18 18~20
# 355 Fixation 35 (408.8,321.4): paléontologie~6 musée~8
%%
# Les~0 Fixations= "3/"
# galeries~1 Fixations= "6/"
# d'anatomie~2 Fixations= "9/"
# comparée~3 Fixations= "12/"
# et~4 Fixations= ""
# de~5 Fixations= ""
# paléontologie~6 Fixations= "35/"
# du~7 Fixations= "17/"
# musée~8 Fixations= "35/"
# national~9 Fixations= "19/"
# d'histoire~10 Fixations= "19/"
# naturelle~11 Fixations= "23/"
# sont~12 Fixations= "23/"
# de~13 Fixations= "24/"
# nouveau~14 Fixations= "25/"
# ouvertes~15 Fixations= "26/"
# au~16 Fixations= ""
# public~17 Fixations= "27/"
# depuis~18 Fixations= "34/"
# le~19 Fixations= "29/"
# 18~20 Fixations= "34/"
# décembre~21 Fixations= ""
# après~22 Fixations= "31/"
# trois~23 Fixations= ""
# mois~24 Fixations= "33/"
# de~25 Fixations= "30/"
# travaux~26 Fixations= "30/"
%%
#  LES[3] GALERIES[6] D'ANATOMIE[9] COMPARéE[12] et de PALéONTOLOGIE[35] DU[17] MUSéE[35] NATIONAL[19] D'HISTOIRE[19] NATURELLE[23] SONT[23] DE[24] NOUVEAU[25] OUVERTES[26] au PUBLIC[27] DEPUIS[34] LE[29] 18[34] décembre APRèS[31] trois MOIS[33] DE[30] TRAVAUX[30]
# s14 art_contemporain-m2 PercentageOfWordsProcessed= 0.814814814814815 PercentageOfWordsReallyProcessed= 0.814814814814815
