# 152 Fixation 1 (295.5,281.9): Le~0 candidat~1
# 185 Fixation 2 (479.1,293.6): conservateur~2
# 253 Fixation 3 (600.3,298.6): a~3 bénéficié~4
# 82 Fixation 4 (701.5,304.3): bénéficié~4 d'évangélistes~10
# 150 Fixation 5 (334.4,337): candidat~1 soutien~6
# 188 Fixation 6 (296.9,338.3): Le~0 candidat~1 soutien~6
# 164 Fixation 7 (387.4,337): candidat~1 fort~8
# 174 Fixation 8 (508.6,341.7): conservateur~2 contingent~9
# 183 Fixation 9 (489.9,347.4): conservateur~2 contingent~9
# 341 Fixation 10 (650.6,353.1): d'évangélistes~10
%%
# Le~0 Fixations= "6/"
# candidat~1 Fixations= "7/"
# conservateur~2 Fixations= "9/"
# a~3 Fixations= "3/"
# bénéficié~4 Fixations= "4/"
# du~5 Fixations= ""
# soutien~6 Fixations= "6/"
# du~7 Fixations= ""
# fort~8 Fixations= "7/"
# contingent~9 Fixations= "9/"
# d'évangélistes~10 Fixations= "10/"
# et~11 Fixations= ""
# de~12 Fixations= ""
# religieux~13 Fixations= ""
# conservateurs~14 Fixations= ""
# qui~15 Fixations= ""
# habitent~16 Fixations= ""
# cet~17 Fixations= ""
# État~18 Fixations= ""
# souvent~19 Fixations= ""
# critiqué~20 Fixations= ""
# pour~21 Fixations= ""
# son~22 Fixations= ""
# manque~23 Fixations= ""
# de~24 Fixations= ""
# représentativité~25 Fixations= ""
# à~26 Fixations= ""
# l'échelon~27 Fixations= ""
# national~28 Fixations= ""
%%
#  LE[6] CANDIDAT[7] CONSERVATEUR[9] A[3] BéNéFICIé[4] du SOUTIEN[6] du FORT[7] CONTINGENT[9] D'éVANGéLISTES[10] et de religieux conservateurs qui habitent cet État souvent critiqué pour son manque de représentativité à l'échelon national
# s05 victoire_footballeurs-a2 PercentageOfWordsProcessed= 0.310344827586207 PercentageOfWordsReallyProcessed= 0.818181818181818
