# 99 Fixation 1 (227.1,288.8): Pour~0 l'instant~1
# 94 Fixation 2 (272.8,286.9): Pour~0 l'instant~1
# 174 Fixation 3 (342.3,289): Pour~0 l'instant~1
# 110 Fixation 4 (506.9,295.7): les~2 télécommunications~3
# 107 Fixation 5 (590.7,297.5): télécommunications~3
# 123 Fixation 6 (658.5,295.1): télécommunications~3
# 193 Fixation 7 (291.1,348.5): palestiniennes~4
# 215 Fixation 8 (353.7,352.7): palestiniennes~4
# 214 Fixation 9 (495.8,363.9): sous-traitent~5
# 185 Fixation 10 (474.4,355.9): sous-traitent~5
# 152 Fixation 11 (668,354.8): l'accès~6
# 231 Fixation 12 (303.7,397.1): l'international~8
# 98 Fixation 13 (412.7,405.6): l'international~8 à~9
# 137 Fixation 14 (503.4,405.1): à~9
# 154 Fixation 15 (581,411.2): compagnie~11
# 140 Fixation 16 (669.1,418): compagnie~11 privée~12
# 286 Fixation 17 (297.4,461.4): israélienne~13
# 162 Fixation 18 (267.8,462.4): israélienne~13
# 135 Fixation 19 (444.5,473.3): Les~14 réseaux~15
%%
# Pour~0 Fixations= "3/"
# l'instant~1 Fixations= "3/"
# les~2 Fixations= "4/"
# télécommunications~3 Fixations= "6/"
# palestiniennes~4 Fixations= "8/"
# sous-traitent~5 Fixations= "10/"
# l'accès~6 Fixations= "11/"
# à~7 Fixations= ""
# l'international~8 Fixations= "13/"
# à~9 Fixations= "14/"
# une~10 Fixations= ""
# compagnie~11 Fixations= "16/"
# privée~12 Fixations= "16/"
# israélienne~13 Fixations= "18/"
# Les~14 Fixations= "19/"
# réseaux~15 Fixations= "19/"
# sont~16 Fixations= ""
# au~17 Fixations= ""
# point~18 Fixations= ""
# et~19 Fixations= ""
# on~20 Fixations= ""
# trouve~21 Fixations= ""
# maintenant~22 Fixations= ""
# des~23 Fixations= ""
# cabines~24 Fixations= ""
# téléphoniques~25 Fixations= ""
# publiques~26 Fixations= ""
# à~27 Fixations= ""
# carte~28 Fixations= ""
%%
#  POUR[3] L'INSTANT[3] LES[4] TéLéCOMMUNICATIONS[6] PALESTINIENNES[8] SOUS-TRAITENT[10] L'ACCèS[11] à L'INTERNATIONAL[13] à[14] une COMPAGNIE[16] PRIVéE[16] ISRAéLIENNE[18] LES[19] RéSEAUX[19] sont au point et on trouve maintenant des cabines téléphoniques publiques à carte
# s02 conflit_israelo_palestinien-m2 PercentageOfWordsProcessed= 0.482758620689655 PercentageOfWordsReallyProcessed= 0.875
