999 WORDS_science~1 145
999 WORDFREQ_24.93 145
999 WORDSALL_La~0_science~1 145
999 COSIND_-0.02 145
999 COSGEN_-0.02 145
101 ESRank1 145
999 WORDS_science~1 172
999 WORDFREQ_24.93 172
999 WORDSALL_La~0_science~1 172
999 COSIND_-0.02 172
999 COSGEN_-0.02 172
102 ESRank2 172
203 ESBackSacRefixation 172
999 WORDS_n'apporte~2 214
999 WORDFREQ_22.97 214
999 WORDSALL_science~1_n'apporte~2 214
999 COSIND_0.06 214
999 COSGEN_0.06 214
103 ESRank3 214
201 ESForwSacShort 214
999 WORDS_apporté~9 81
999 WORDFREQ_24.53 81
999 WORDSALL_n'apporte~2_a~8_apporté~9 81
999 COSIND_0.06 81
999 COSGEN_0.06 81
104 ESRank4 81
202 ESForwSacLong+7+36 81
999 WORDS_apporté~9 177
999 WORDFREQ_24.53 177
999 WORDSALL_pas~3_apporté~9 177
999 COSIND_0.06 177
999 COSGEN_0.06 177
105 ESRank5 177
203 ESBackSacRefixation 177
999 WORDS_armes~11 157
999 WORDFREQ_74.39 157
999 WORDSALL_pas~3_apporté~9_armes~11 157
999 COSIND_-0.11 157
999 COSGEN_-0.11 157
106 ESRank6 157
202 ESForwSacLong+2+5 157
999 WORDS_armes~11 113
999 WORDFREQ_74.39 113
999 WORDSALL_seulement~4_armes~11 113
999 COSIND_-0.11 113
999 COSGEN_-0.11 113
107 ESRank7 113
203 ESBackSacRefixation 113
999 WORDS_bienfaits~6 176
999 WORDFREQ_3.24 176
999 WORDSALL_La~0_science~1_bienfaits~6 176
999 COSIND_0.15 176
999 COSGEN_0.15 176
108 ESRank8 176
206 ESBackSacRegrLong-5-21 176
999 WORDS_bienfaits~6 161
999 WORDFREQ_3.24 161
999 WORDSALL_La~0_science~1_bienfaits~6 161
999 COSIND_0.15 161
999 COSGEN_0.15 161
109 ESRank9 161
203 ESBackSacRefixation 161
999 WORDS_a~8 149
999 WORDFREQ_2926.69 149
999 WORDSALL_n'apporte~2_a~8 149
999 COSIND_N/A 149
110 ESRank10 149
202 ESForwSacLong+2+6 149
999 WORDS_apporté~9 149
999 WORDFREQ_24.53 149
999 WORDSALL_a~8_apporté~9 149
999 COSIND_0.06 149
999 COSGEN_0.06 149
111 ESRank11 149
201 ESForwSacShort 149
999 WORDS_armes~11 168
999 WORDFREQ_74.39 168
999 WORDSALL_des~10_armes~11 168
999 COSIND_-0.11 168
999 COSGEN_-0.11 168
112 ESRank12 168
202 ESForwSacLong+2+5 168
999 WORDS_armes~11 139
999 WORDFREQ_74.39 139
999 WORDSALL_des~10_armes~11 139
999 COSIND_-0.11 139
999 COSGEN_-0.11 139
113 ESRank13 139
203 ESBackSacRefixation 139
999 WORDS_destruction~13 239
999 WORDFREQ_11.76 239
999 WORDSALL_bienfaits~6_destruction~13 239
999 COSIND_-0.02 239
999 COSGEN_-0.02 239
114 ESRank14 239
202 ESForwSacLong+2+4 239
999 WORDS_massive~14 226
999 WORDFREQ_8.38 226
999 WORDSALL_mais~7_a~8_massive~14 226
999 COSIND_-0.04 226
999 COSGEN_-0.04 226
115 ESRank15 226
201 ESForwSacShort 226
999 WORDS_possibilités~17 195
999 WORDFREQ_11.08 195
999 WORDSALL_apporté~9_armes~11_possibilités~17 195
999 COSIND_0.08 195
999 COSGEN_0.08 195
116 ESRank16 195
202 ESForwSacLong+3+8 195
999 WORDS_apporté~9 119
999 WORDFREQ_24.53 119
999 WORDSALL_apporté~9 119
999 COSIND_0.06 119
999 COSGEN_0.06 119
117 ESRank17 119
206 ESBackSacRegrLong-8-41 119
999 WORDS_apporté~9 118
999 WORDFREQ_24.53 118
999 WORDSALL_apporté~9 118
999 COSIND_0.06 118
999 COSGEN_0.06 118
118 ESRank18 118
203 ESBackSacRefixation 118
999 WORDS_possibilités~17 148
999 WORDFREQ_11.08 148
999 WORDSALL_armes~11_possibilités~17 148
999 COSIND_0.08 148
999 COSGEN_0.08 148
119 ESRank19 148
202 ESForwSacLong+8+41 148
999 WORDS_massive~14 143
999 WORDFREQ_8.38 143
999 WORDSALL_massive~14 143
999 COSIND_-0.04 143
999 COSGEN_-0.04 143
120 ESRank20 143
206 ESBackSacRegrLong-3-8 143
999 WORDS_destruction~13 160
999 WORDFREQ_11.76 160
999 WORDSALL_destruction~13 160
999 COSIND_-0.02 160
999 COSGEN_-0.02 160
205 ESBackSacRegrShort 160
999 WORDS_destruction~13 99
999 WORDFREQ_11.76 99
999 WORDSALL_destruction~13 99
999 COSIND_-0.02 99
999 COSGEN_-0.02 99
203 ESBackSacRefixation 99
999 WORDS_technique~22 147
999 WORDFREQ_10.41 147
999 WORDSALL_des~16_possibilités~17_technique~22 147
999 COSIND_-0.03 147
999 COSGEN_-0.03 147
202 ESForwSacLong+9+60 147
999 WORDS_technique~22 153
999 WORDFREQ_10.41 153
999 WORDSALL_possibilités~17_technique~22 153
999 COSIND_-0.03 153
999 COSGEN_-0.03 153
203 ESBackSacRefixation 153
999 WORDS_l'économie~24 143
999 WORDFREQ_15.74 143
999 WORDSALL_manipulation~19_l'économie~24 143
999 COSIND_-0.00 143
999 COSGEN_-0.00 143
202 ESForwSacLong+2+4 143
999 WORDS_l'économie~24 162
999 WORDFREQ_15.74 162
999 WORDSALL_manipulation~19_l'économie~24 162
999 COSIND_-0.00 162
999 COSGEN_-0.00 162
203 ESBackSacRefixation 162
200 ESRankN 162
199 ESRankNMinus1 143
198 ESRankNMinus2 153
197 ESRankNMinus3 147
196 ESRankNMinus4 99
195 ESRankNMinus5 160
194 ESRankNMinus6 143
193 ESRankNMinus7 148
192 ESRankNMinus8 118
191 ESRankNMinus9 119
190 ESRankNMinus10 195
