999 WORDS_moral~1 183
999 WORDFREQ_14.19 183
999 WORDSALL_Le~0_moral~1 183
999 COSIND_-0.03 183
999 COSGEN_-0.03 183
101 ESRank1 183
999 WORDS_boursiers~3 241
999 WORDFREQ_0.07 241
999 WORDSALL_des~2_boursiers~3 241
999 COSIND_-0.01 241
999 COSGEN_-0.01 241
102 ESRank2 241
202 ESForwSacLong+2+5 241
999 WORDS_sérieusement~5 221
999 WORDFREQ_21.76 221
999 WORDSALL_s'est~4_sérieusement~5 221
999 COSIND_-0.02 221
999 COSGEN_-0.02 221
103 ESRank3 221
202 ESForwSacLong+2+7 221
999 WORDS_dégradé~6 181
999 WORDFREQ_0.47 181
999 WORDSALL_dégradé~6 181
999 COSIND_0.12 181
999 COSGEN_0.12 181
104 ESRank4 181
201 ESForwSacShort 181
999 WORDS_fixées~20 218
999 WORDFREQ_2.97 218
999 WORDSALL_fixées~20 218
999 COSIND_-0.13 218
999 COSGEN_-0.13 218
105 ESRank5 218
202 ESForwSacLong+14+90 218
999 WORDS_mercredi~21 188
999 WORDFREQ_11.82 188
999 WORDSALL_fixées~20_mercredi~21 188
999 COSIND_0.00 188
999 COSGEN_0.00 188
106 ESRank6 188
201 ESForwSacShort 188
200 ESRankN 188
199 ESRankNMinus1 218
198 ESRankNMinus2 181
197 ESRankNMinus3 221
196 ESRankNMinus4 241
195 ESRankNMinus5 183
