999 WORDS_juge~1 129
999 WORDFREQ_11.15 129
999 WORDSALL_Le~0_juge~1 129
999 COSIND_0.03 129
999 COSGEN_0.03 129
101 ESRank1 129
999 WORDS_estime~3 169
999 WORDFREQ_8.92 169
999 WORDSALL_estime~3 169
999 COSIND_0.00 169
999 COSGEN_0.00 169
102 ESRank2 169
202 ESForwSacLong+2+15 169
999 WORDS_extension~6 182
999 WORDFREQ_2.57 182
999 WORDSALL_Le~0_juge~1_extension~6 182
999 COSIND_0.11 182
999 COSGEN_0.11 182
103 ESRank3 182
202 ESForwSacLong+3+11 182
999 WORDS_système~8 176
999 WORDFREQ_42.23 176
999 WORDSALL_administratif~2_système~8 176
999 COSIND_-0.09 176
999 COSGEN_-0.09 176
104 ESRank4 176
202 ESForwSacLong+2+4 176
999 WORDS_locations~10 157
999 WORDFREQ_0.34 157
999 WORDSALL_estime~3_locations~10 157
999 COSIND_-0.05 157
999 COSGEN_-0.05 157
105 ESRank5 157
202 ESForwSacLong+2+4 157
999 WORDS_vélos~12 82
999 WORDFREQ_4.12 82
999 WORDSALL_que~4_vélos~12 82
999 COSIND_-0.07 82
999 COSGEN_-0.07 82
106 ESRank6 82
202 ESForwSacLong+2+4 82
999 WORDS_extension~6 258
999 WORDFREQ_2.57 258
999 WORDSALL_extension~6 258
999 COSIND_0.11 258
999 COSGEN_0.11 258
107 ESRank7 258
206 ESBackSacRegrLong-6-29 258
200 ESRankN 258
199 ESRankNMinus1 82
198 ESRankNMinus2 157
197 ESRankNMinus3 176
196 ESRankNMinus4 182
195 ESRankNMinus5 169
194 ESRankNMinus6 129
