999 WORDS_pianiste~1 165
999 WORDFREQ_4.8 165
999 WORDSALL_La~0_pianiste~1 165
999 COSIND_-0.02 165
999 COSGEN_-0.02 165
101 ESRank1 165
999 WORDS_américaine~2 142
999 WORDFREQ_19.53 142
999 WORDSALL_américaine~2 142
999 COSIND_0.02 142
999 COSGEN_0.02 142
102 ESRank2 142
201 ESForwSacShort 142
999 WORDS_Rosalyn~3 250
999 WORDFREQ_N/A 250
999 WORDSALL_Rosalyn~3 250
999 COSIND_N/A 250
103 ESRank3 250
201 ESForwSacShort 250
999 WORDS_quatre-vingt-quatre~9 329
999 WORDFREQ_0.74 329
999 WORDSALL_quatre-vingt-quatre~9 329
999 COSIND_N/A 329
104 ESRank4 329
202 ESForwSacLong+6+28 329
999 WORDS_discographique~14 303
999 WORDFREQ_N/A 303
999 WORDSALL_discographique~14 303
999 COSIND_N/A 303
105 ESRank5 303
202 ESForwSacLong+5+25 303
999 WORDS_interprétation~19 252
999 WORDFREQ_5.68 252
999 WORDSALL_discographique~14_interprétation~19 252
999 COSIND_-0.05 252
999 COSGEN_-0.05 252
106 ESRank6 252
202 ESForwSacLong+5+28 252
200 ESRankN 252
199 ESRankNMinus1 303
198 ESRankNMinus2 329
197 ESRankNMinus3 250
196 ESRankNMinus4 142
195 ESRankNMinus5 165
