999 WORDS_avion~1 204
999 WORDFREQ_46.82 204
999 WORDSALL_Un~0_avion~1 204
999 COSIND_0.34 204
999 COSGEN_0.34 204
101 ESRank1 204
999 WORDS_combat~3 145
999 WORDFREQ_52.36 145
999 WORDSALL_de~2_combat~3 145
999 COSIND_0.15 145
999 COSGEN_0.15 145
102 ESRank2 145
202 ESForwSacLong+2+4 145
999 WORDS_avion~1 153
999 WORDFREQ_46.82 153
999 WORDSALL_Un~0_avion~1 153
999 COSIND_0.34 153
999 COSGEN_0.34 153
103 ESRank3 153
206 ESBackSacRegrLong-2-4 153
999 WORDS_avion~1 172
999 WORDFREQ_46.82 172
999 WORDSALL_Un~0_avion~1 172
999 COSIND_0.34 172
999 COSGEN_0.34 172
104 ESRank4 172
203 ESBackSacRefixation 172
999 WORDS_combat~3 191
999 WORDFREQ_52.36 191
999 WORDSALL_avion~1_combat~3 191
999 COSIND_0.15 191
999 COSGEN_0.15 191
105 ESRank5 191
202 ESForwSacLong+2+4 191
999 WORDS_russe~4 220
999 WORDFREQ_35.34 220
999 WORDSALL_russe~4 220
999 COSIND_0.01 220
999 COSGEN_0.01 220
106 ESRank6 220
201 ESForwSacShort 220
999 WORDS_russe~4 276
999 WORDFREQ_35.34 276
999 WORDSALL_combat~3_russe~4 276
999 COSIND_0.01 276
999 COSGEN_0.01 276
107 ESRank7 276
203 ESBackSacRefixation 276
999 WORDS_biréacteur~5 252
999 WORDFREQ_N/A 252
999 WORDSALL_russe~4_biréacteur~5 252
999 COSIND_N/A 252
108 ESRank8 252
201 ESForwSacShort 252
999 WORDS_biréacteur~5 168
999 WORDFREQ_N/A 168
999 WORDSALL_russe~4_biréacteur~5 168
999 COSIND_N/A 168
109 ESRank9 168
203 ESBackSacRefixation 168
999 WORDS_Sukhoi-30~6 274
999 WORDFREQ_N/A 274
999 WORDSALL_Sukhoi-30~6 274
999 COSIND_N/A 274
110 ESRank10 274
201 ESForwSacShort 274
999 WORDS_écrasé~8 317
999 WORDFREQ_13.24 317
999 WORDSALL_s'est~7_écrasé~8 317
999 COSIND_0.15 317
999 COSGEN_0.15 317
111 ESRank11 317
202 ESForwSacLong+2+7 317
999 WORDS_écrasé~8 163
999 WORDFREQ_13.24 163
999 WORDSALL_écrasé~8 163
999 COSIND_0.15 163
999 COSGEN_0.15 163
112 ESRank12 163
203 ESBackSacRefixation 163
999 WORDS_écrasé~8 399
999 WORDFREQ_13.24 399
999 WORDSALL_écrasé~8 399
999 COSIND_0.15 399
999 COSGEN_0.15 399
113 ESRank13 399
203 ESBackSacRefixation 399
999 WORDS_écrasé~8 339
999 WORDFREQ_13.24 339
999 WORDSALL_s'est~7_écrasé~8 339
999 COSIND_0.15 339
999 COSGEN_0.15 339
114 ESRank14 339
203 ESBackSacRefixation 339
999 WORDS_pendant~9 237
999 WORDFREQ_450.14 237
999 WORDSALL_pendant~9 237
999 COSIND_N/A 237
115 ESRank15 237
201 ESForwSacShort 237
999 WORDS_écrasé~8 194
999 WORDFREQ_13.24 194
999 WORDSALL_écrasé~8 194
999 COSIND_0.15 194
999 COSGEN_0.15 194
116 ESRank16 194
205 ESBackSacRegrShort 194
999 WORDS_démonstration~11 249
999 WORDFREQ_9.53 249
999 WORDSALL_démonstration~11 249
999 COSIND_0.17 249
999 COSGEN_0.17 249
117 ESRank17 249
202 ESForwSacLong+3+13 249
999 WORDS_démonstration~11 169
999 WORDFREQ_9.53 169
999 WORDSALL_démonstration~11 169
999 COSIND_0.17 169
999 COSGEN_0.17 169
118 ESRank18 169
203 ESBackSacRefixation 169
999 WORDS_vol~13 265
999 WORDFREQ_41.22 265
999 WORDSALL_en~12_vol~13 265
999 COSIND_0.28 265
999 COSGEN_0.28 265
119 ESRank19 265
202 ESForwSacLong+2+4 265
999 WORDS_samedi~14 341
999 WORDFREQ_34.26 341
999 WORDSALL_vol~13_samedi~14 341
999 COSIND_0.09 341
999 COSGEN_0.09 341
120 ESRank20 341
201 ESForwSacShort 341
999 WORDS_l'inauguration~20 121
999 WORDFREQ_2.57 121
999 WORDSALL_l'inauguration~20 121
999 COSIND_0.15 121
999 COSGEN_0.15 121
202 ESForwSacLong+6+24 121
999 WORDS_l'inauguration~20 215
999 WORDFREQ_2.57 215
999 WORDSALL_lors~18_l'inauguration~20 215
999 COSIND_0.15 215
999 COSGEN_0.15 215
203 ESBackSacRefixation 215
999 WORDS_samedi~14 175
999 WORDFREQ_34.26 175
999 WORDSALL_samedi~14 175
999 COSIND_0.09 175
999 COSGEN_0.09 175
206 ESBackSacRegrLong-6-24 175
999 WORDS_heures~17 294
999 WORDFREQ_484.19 294
999 WORDSALL_heures~17 294
999 COSIND_0.04 294
999 COSGEN_0.04 294
202 ESForwSacLong+3+9 294
999 WORDS_lors~18 123
999 WORDFREQ_70.27 123
999 WORDSALL_lors~18 123
999 COSIND_N/A 123
201 ESForwSacShort 123
999 WORDS_Bourget~25 152
999 WORDFREQ_N/A 152
999 WORDSALL_du~24_Bourget~25 152
999 COSIND_N/A 152
202 ESForwSacLong+7+45 152
999 WORDS_l'inauguration~20 207
999 WORDFREQ_2.57 207
999 WORDSALL_l'inauguration~20 207
999 COSIND_0.15 207
999 COSGEN_0.15 207
206 ESBackSacRegrLong-5-27 207
200 ESRankN 207
199 ESRankNMinus1 152
198 ESRankNMinus2 123
197 ESRankNMinus3 294
196 ESRankNMinus4 175
195 ESRankNMinus5 215
194 ESRankNMinus6 121
193 ESRankNMinus7 341
192 ESRankNMinus8 265
191 ESRankNMinus9 169
190 ESRankNMinus10 249
