# 145 Fixation 1 (265.3,283.9): Quatre~0
# 174 Fixation 2 (335.7,285.1): Quatre~0 jours~1
# 268 Fixation 3 (443.6,293.4): jours~1 grains~3
# 85 Fixation 4 (421.7,291.7): jours~1 grains~3
# 175 Fixation 5 (563,299.7): grains~3 sont~4
# 171 Fixation 6 (608.2,301.1): sont~4 venus~5
# 236 Fixation 7 (689.6,302.3): venus~5 clore~6
# 169 Fixation 8 (713.5,302): venus~5 clore~6
# 206 Fixation 9 (318.7,343.3): Quatre~0 jours~1 traversée~8
# 137 Fixation 10 (476.8,354.2): Pacifique~10
# 170 Fixation 11 (443.2,352.5): du~9 Pacifique~10
# 133 Fixation 12 (584.8,359.1): L'eau~11
# 295 Fixation 13 (629.7,363.3): L'eau~11 a~12
# 167 Fixation 14 (684.8,362.8): a~12 gagné~13
# 81 Fixation 15 (698.1,366.2): a~12 gagné~13
# 149 Fixation 16 (319.4,401.8): traversée~8 bagarre~15
# 133 Fixation 17 (285.6,403.6): traversée~8 bagarre~15
# 173 Fixation 18 (391.9,403.4): du~9 Pacifique~10 était~18
# 187 Fixation 19 (474,408.7): Pacifique~10 était~18
# 199 Fixation 20 (553.4,407.8): Pacifique~10 L'eau~11 trempé~19
# 261 Fixation 21 (644.8,416.3): trempé~19 à~20 bord~21
# 256 Fixation 22 (691.5,419.4): à~20 bord~21
# 157 Fixation 23 (530,452.2): était~18 trempé~19 moment~26
# 186 Fixation 24 (437.7,469.9): tout~17 était~18 attend~24
# 114 Fixation 25 (376.1,550): se~30 reposer~31
# 129 Fixation 26 (368.6,538.3): navigateur~23 attend~24 reposer~31
%%
# Quatre~0 Fixations= "9/"
# jours~1 Fixations= "9/"
# de~2 Fixations= ""
# grains~3 Fixations= "5/"
# sont~4 Fixations= "6/"
# venus~5 Fixations= "8/"
# clore~6 Fixations= "8/"
# sa~7 Fixations= ""
# traversée~8 Fixations= "17/"
# du~9 Fixations= "18/"
# Pacifique~10 Fixations= "20/"
# L'eau~11 Fixations= "20/"
# a~12 Fixations= "15/"
# gagné~13 Fixations= "15/"
# la~14 Fixations= ""
# bagarre~15 Fixations= "17/"
# et~16 Fixations= ""
# tout~17 Fixations= "24/"
# était~18 Fixations= "24/"
# trempé~19 Fixations= "23/"
# à~20 Fixations= "22/"
# bord~21 Fixations= "22/"
# Le~22 Fixations= ""
# navigateur~23 Fixations= "26/"
# attend~24 Fixations= "26/"
# le~25 Fixations= ""
# moment~26 Fixations= "23/"
# idéal~27 Fixations= ""
# pour~28 Fixations= ""
# aller~29 Fixations= ""
# se~30 Fixations= "25/"
# reposer~31 Fixations= "26/"
%%
#  QUATRE[9] JOURS[9] de GRAINS[5] SONT[6] VENUS[8] CLORE[8] sa TRAVERSéE[17] DU[18] PACIFIQUE[20] L'EAU[20] A[15] GAGNé[15] la BAGARRE[17] et TOUT[24] éTAIT[24] TREMPé[23] à[22] BORD[22] Le NAVIGATEUR[26] ATTEND[26] le MOMENT[23] idéal pour aller SE[25] REPOSER[26]
# s05 croissance_economie-a2 PercentageOfWordsProcessed= 0.71875 PercentageOfWordsReallyProcessed= 0.71875
