999 WORDS_Destiné~0 140
999 WORDFREQ_11.35 140
999 WORDSALL_Destiné~0 140
999 COSIND_0.08 140
999 COSGEN_0.08 140
101 ESRank1 140
999 WORDS_Destiné~0 100
999 WORDFREQ_11.35 100
999 WORDSALL_Destiné~0 100
999 COSIND_0.08 100
999 COSGEN_0.08 100
102 ESRank2 100
203 ESBackSacRefixation 100
999 WORDS_récompenser~2 245
999 WORDFREQ_2.77 245
999 WORDSALL_à~1_récompenser~2 245
999 COSIND_0.74 245
999 COSGEN_0.74 245
103 ESRank3 245
202 ESForwSacLong+2+4 245
999 WORDS_oeuvre~4 124
999 WORDFREQ_68.11 124
999 WORDSALL_une~3_oeuvre~4 124
999 COSIND_0.05 124
999 COSGEN_0.05 124
104 ESRank4 124
202 ESForwSacLong+2+5 124
999 WORDS_oeuvre~4 98
999 WORDFREQ_68.11 98
999 WORDSALL_oeuvre~4 98
999 COSIND_0.05 98
999 COSGEN_0.05 98
105 ESRank5 98
203 ESBackSacRefixation 98
999 WORDS_fiction~6 121
999 WORDFREQ_4.32 121
999 WORDSALL_de~5_fiction~6 121
999 COSIND_0.09 121
999 COSGEN_0.09 121
106 ESRank6 121
202 ESForwSacLong+2+4 121
999 WORDS_inédite~7 141
999 WORDFREQ_2.5 141
999 WORDSALL_inédite~7 141
999 COSIND_0.07 141
999 COSGEN_0.07 141
107 ESRank7 141
201 ESForwSacShort 141
999 WORDS_inédite~7 146
999 WORDFREQ_2.5 146
999 WORDSALL_inédite~7 146
999 COSIND_0.07 146
999 COSGEN_0.07 146
108 ESRank8 146
203 ESBackSacRefixation 146
999 WORDS_prose~9 231
999 WORDFREQ_3.31 231
999 WORDSALL_en~8_prose~9 231
999 COSIND_0.19 231
999 COSGEN_0.19 231
109 ESRank9 231
202 ESForwSacLong+2+4 231
200 ESRankN 231
199 ESRankNMinus1 146
198 ESRankNMinus2 141
197 ESRankNMinus3 121
196 ESRankNMinus4 98
195 ESRankNMinus5 124
194 ESRankNMinus6 245
193 ESRankNMinus7 100
192 ESRankNMinus8 140
