999 WORDS_moral~1 145
999 WORDFREQ_14.19 145
999 WORDSALL_Le~0_moral~1 145
999 COSIND_-0.03 145
999 COSGEN_-0.03 145
101 ESRank1 145
999 WORDS_moral~1 138
999 WORDFREQ_14.19 138
999 WORDSALL_Le~0_moral~1 138
999 COSIND_-0.03 138
999 COSGEN_-0.03 138
102 ESRank2 138
203 ESBackSacRefixation 138
999 WORDS_boursiers~3 129
999 WORDFREQ_0.07 129
999 WORDSALL_moral~1_boursiers~3 129
999 COSIND_-0.01 129
999 COSGEN_-0.01 129
103 ESRank3 129
202 ESForwSacLong+2+5 129
999 WORDS_boursiers~3 180
999 WORDFREQ_0.07 180
999 WORDSALL_des~2_boursiers~3 180
999 COSIND_-0.01 180
999 COSGEN_-0.01 180
104 ESRank4 180
203 ESBackSacRefixation 180
999 WORDS_désormais~9 181
999 WORDFREQ_88.45 181
999 WORDSALL_s'est~4_sérieusement~5_désormais~9 181
999 COSIND_0.03 181
999 COSGEN_0.03 181
105 ESRank5 181
202 ESForwSacLong+6+43 181
999 WORDS_sérieusement~5 150
999 WORDFREQ_21.76 150
999 WORDSALL_sérieusement~5 150
999 COSIND_-0.02 150
999 COSGEN_-0.02 150
106 ESRank6 150
206 ESBackSacRegrLong-4-23 150
999 WORDS_dégradé~6 275
999 WORDFREQ_0.47 275
999 WORDSALL_Le~0_moral~1_dégradé~6 275
999 COSIND_0.12 275
999 COSGEN_0.12 275
107 ESRank7 275
201 ESForwSacShort 275
999 WORDS_marges~13 84
999 WORDFREQ_2.23 84
999 WORDSALL_ils~7_doutent~8_marges~13 84
999 COSIND_0.03 84
999 COSGEN_0.03 84
108 ESRank8 84
202 ESForwSacLong+7+42 84
999 WORDS_doutent~8 208
999 WORDFREQ_1.82 208
999 WORDSALL_ils~7_doutent~8 208
999 COSIND_-0.04 208
999 COSGEN_-0.04 208
109 ESRank9 208
206 ESBackSacRegrLong-5-30 208
999 WORDS_désormais~9 208
999 WORDFREQ_88.45 208
999 WORDSALL_désormais~9 208
999 COSIND_0.03 208
999 COSGEN_0.03 208
110 ESRank10 208
201 ESForwSacShort 208
999 WORDS_désormais~9 136
999 WORDFREQ_88.45 136
999 WORDSALL_désormais~9 136
999 COSIND_0.03 136
999 COSGEN_0.03 136
111 ESRank11 136
203 ESBackSacRefixation 136
999 WORDS_nouvelles~12 140
999 WORDFREQ_41.69 140
999 WORDSALL_dégradé~6_nouvelles~12 140
999 COSIND_-0.01 140
999 COSGEN_-0.01 140
112 ESRank12 140
202 ESForwSacLong+3+9 140
999 WORDS_nouvelles~12 87
999 WORDFREQ_41.69 87
999 WORDSALL_dégradé~6_nouvelles~12 87
999 COSIND_-0.01 87
999 COSGEN_-0.01 87
113 ESRank13 87
203 ESBackSacRefixation 87
999 WORDS_marges~13 212
999 WORDFREQ_2.23 212
999 WORDSALL_ils~7_doutent~8_marges~13 212
999 COSIND_0.03 212
999 COSGEN_0.03 212
114 ESRank14 212
201 ESForwSacShort 212
999 WORDS_fluctuation~15 234
999 WORDFREQ_0.07 234
999 WORDSALL_de~14_fluctuation~15 234
999 COSIND_-0.07 234
999 COSGEN_-0.07 234
115 ESRank15 234
202 ESForwSacLong+2+4 234
999 WORDS_devise~18 176
999 WORDFREQ_6.22 176
999 WORDSALL_nouvelles~12_devise~18 176
999 COSIND_-0.10 176
999 COSGEN_-0.10 176
116 ESRank16 176
202 ESForwSacLong+3+7 176
999 WORDS_brésilienne~19 246
999 WORDFREQ_1.55 246
999 WORDSALL_nouvelles~12_marges~13_brésilienne~19 246
999 COSIND_-0.04 246
999 COSGEN_-0.04 246
117 ESRank17 246
201 ESForwSacShort 246
999 WORDS_brésilienne~19 251
999 WORDFREQ_1.55 251
999 WORDSALL_nouvelles~12_marges~13_brésilienne~19 251
999 COSIND_-0.04 251
999 COSGEN_-0.04 251
118 ESRank18 251
203 ESBackSacRefixation 251
200 ESRankN 251
199 ESRankNMinus1 246
198 ESRankNMinus2 176
197 ESRankNMinus3 234
196 ESRankNMinus4 212
195 ESRankNMinus5 87
194 ESRankNMinus6 140
193 ESRankNMinus7 136
192 ESRankNMinus8 208
191 ESRankNMinus9 208
190 ESRankNMinus10 84
