999 WORDS_vedette~1 172
999 WORDFREQ_13.92 172
999 WORDSALL_vedette~1 172
999 COSIND_0.52 172
999 COSGEN_0.52 172
101 ESRank1 172
999 WORDS_L'indice~0 145
999 WORDFREQ_4.66 145
999 WORDSALL_L'indice~0 145
999 COSIND_0.90 145
999 COSGEN_0.90 145
102 ESRank2 145
205 ESBackSacRegrShort 145
999 WORDS_Bourse~4 202
999 WORDFREQ_11.22 202
999 WORDSALL_de~2_Bourse~4 202
999 COSIND_0.89 202
999 COSGEN_0.89 202
103 ESRank3 202
202 ESForwSacLong+4+15 202
999 WORDS_Londres~6 167
999 WORDFREQ_N/A 167
999 WORDSALL_Bourse~4_Londres~6 167
999 COSIND_N/A 167
104 ESRank4 167
202 ESForwSacLong+2+4 167
999 WORDS_mardi~9 314
999 WORDFREQ_15.47 314
999 WORDSALL_clôturé~8_mardi~9 314
999 COSIND_0.14 314
999 COSGEN_0.14 314
105 ESRank5 314
202 ESForwSacLong+3+13 314
999 WORDS_hausse~11 293
999 WORDFREQ_2.09 293
999 WORDSALL_en~10_hausse~11 293
999 COSIND_0.85 293
999 COSGEN_0.85 293
106 ESRank6 293
202 ESForwSacLong+2+4 293
999 WORDS_était~13 118
999 WORDFREQ_3688.99 118
999 WORDSALL_Il~12_était~13 118
999 COSIND_0.00 118
999 COSGEN_0.00 118
107 ESRank7 118
202 ESForwSacLong+2+4 118
999 WORDS_diverses~17 218
999 WORDFREQ_14.53 218
999 WORDSALL_par~15_diverses~17 218
999 COSIND_-0.11 218
999 COSGEN_-0.11 218
108 ESRank8 218
202 ESForwSacLong+4+20 218
200 ESRankN 218
199 ESRankNMinus1 118
198 ESRankNMinus2 293
197 ESRankNMinus3 314
196 ESRankNMinus4 167
195 ESRankNMinus5 202
194 ESRankNMinus6 145
193 ESRankNMinus7 172
