# 148 Fixation 1 (261.2,280.7): La~0 plainte~1
# 127 Fixation 2 (410.3,279.1): avait~2
# 236 Fixation 3 (315.2,282.1): La~0 plainte~1
# 231 Fixation 4 (421,282.7): avait~2
# 339 Fixation 5 (301,282.3): La~0 plainte~1
# 135 Fixation 6 (453.1,283.9): avait~2 été~3
# 178 Fixation 7 (539.8,284): été~3 déposée~4
# 193 Fixation 8 (310.9,345.2): La~0 plainte~1 l'entreprise~6
# 172 Fixation 9 (529.1,352.9): portait~8
# 157 Fixation 10 (659.7,362.6): le~10 mobilier~11
# 167 Fixation 11 (346.5,416.2): urbain~12 libre~21
# 142 Fixation 12 (477.8,419.8): service~15
# 132 Fixation 13 (643.1,423.2): location~17
%%
# La~0 Fixations= "8/"
# plainte~1 Fixations= "8/"
# avait~2 Fixations= "6/"
# été~3 Fixations= "7/"
# déposée~4 Fixations= "7/"
# par~5 Fixations= ""
# l'entreprise~6 Fixations= "8/"
# et~7 Fixations= ""
# portait~8 Fixations= "9/"
# sur~9 Fixations= ""
# le~10 Fixations= "10/"
# mobilier~11 Fixations= "10/"
# urbain~12 Fixations= "11/"
# et~13 Fixations= ""
# le~14 Fixations= ""
# service~15 Fixations= "12/"
# de~16 Fixations= ""
# location~17 Fixations= "13/"
# de~18 Fixations= ""
# vélos~19 Fixations= ""
# en~20 Fixations= ""
# libre~21 Fixations= "11/"
# service~22 Fixations= ""
# Le~23 Fixations= ""
# groupe~24 Fixations= ""
# américain~25 Fixations= ""
# a~26 Fixations= ""
# déposé~27 Fixations= ""
# un~28 Fixations= ""
# recours~29 Fixations= ""
%%
#  LA[8] PLAINTE[8] AVAIT[6] éTé[7] DéPOSéE[7] par L'ENTREPRISE[8] et PORTAIT[9] sur LE[10] MOBILIER[10] URBAIN[11] et le SERVICE[12] de LOCATION[13] de vélos en LIBRE[11] service Le groupe américain a déposé un recours
# s17 observation_planetes-a1 PercentageOfWordsProcessed= 0.433333333333333 PercentageOfWordsReallyProcessed= 0.590909090909091
