999 WORDS_grève~1 205
999 WORDFREQ_22.36 205
999 WORDSALL_Cette~0_grève~1 205
999 COSIND_1.00 205
999 COSGEN_1.00 205
101 ESRank1 205
999 WORDS_grève~1 123
999 WORDFREQ_22.36 123
999 WORDSALL_Cette~0_grève~1 123
999 COSIND_1.00 123
999 COSGEN_1.00 123
102 ESRank2 123
203 ESBackSacRefixation 123
999 WORDS_grève~1 291
999 WORDFREQ_22.36 291
999 WORDSALL_grève~1 291
999 COSIND_1.00 291
999 COSGEN_1.00 291
103 ESRank3 291
203 ESBackSacRefixation 291
999 WORDS_manifestation~4 345
999 WORDFREQ_9.8 345
999 WORDSALL_cette~3_manifestation~4 345
999 COSIND_0.24 345
999 COSGEN_0.24 345
104 ESRank4 345
202 ESForwSacLong+3+10 345
999 WORDS_manifestation~4 177
999 WORDFREQ_9.8 177
999 WORDSALL_manifestation~4 177
999 COSIND_0.24 177
999 COSGEN_0.24 177
105 ESRank5 177
203 ESBackSacRefixation 177
999 WORDS_affichaient~5 306
999 WORDFREQ_1.35 306
999 WORDSALL_affichaient~5 306
999 COSIND_0.07 306
999 COSGEN_0.07 306
106 ESRank6 306
201 ESForwSacShort 306
999 WORDS_positions~7 260
999 WORDFREQ_9.53 260
999 WORDSALL_des~6_positions~7 260
999 COSIND_-0.03 260
999 COSGEN_-0.03 260
107 ESRank7 260
202 ESForwSacLong+2+5 260
999 WORDS_objectifs~10 134
999 WORDFREQ_3.24 134
999 WORDSALL_et~8_objectifs~10 134
999 COSIND_-0.07 134
999 COSGEN_-0.07 134
108 ESRank8 134
202 ESForwSacLong+3+8 134
999 WORDS_croyait~14 145
999 WORDFREQ_73.24 145
999 WORDSALL_direction~13_croyait~14 145
999 COSIND_0.01 145
999 COSGEN_0.01 145
109 ESRank9 145
202 ESForwSacLong+4+30 145
999 WORDS_pourrir~19 297
999 WORDFREQ_5.95 297
999 WORDSALL_pourrir~19 297
999 COSIND_-0.00 297
999 COSGEN_-0.00 297
110 ESRank10 297
202 ESForwSacLong+5+25 297
200 ESRankN 297
199 ESRankNMinus1 145
198 ESRankNMinus2 134
197 ESRankNMinus3 260
196 ESRankNMinus4 306
195 ESRankNMinus5 177
194 ESRankNMinus6 345
193 ESRankNMinus7 291
192 ESRankNMinus8 123
191 ESRankNMinus9 205
