999 WORDS_rythme~1 135
999 WORDFREQ_42.57 135
999 WORDSALL_Le~0_rythme~1 135
999 COSIND_-0.01 135
999 COSGEN_-0.01 135
101 ESRank1 135
999 WORDS_rythme~1 252
999 WORDFREQ_42.57 252
999 WORDSALL_Le~0_rythme~1 252
999 COSIND_-0.01 252
999 COSGEN_-0.01 252
102 ESRank2 252
203 ESBackSacRefixation 252
999 WORDS_rythme~1 157
999 WORDFREQ_42.57 157
999 WORDSALL_rythme~1 157
999 COSIND_-0.01 157
999 COSGEN_-0.01 157
103 ESRank3 157
203 ESBackSacRefixation 157
999 WORDS_rythme~1 255
999 WORDFREQ_42.57 255
999 WORDSALL_Le~0_rythme~1 255
999 COSIND_-0.01 255
999 COSGEN_-0.01 255
104 ESRank4 255
203 ESBackSacRefixation 255
999 WORDS_transformations~3 262
999 WORDFREQ_1.82 262
999 WORDSALL_des~2_transformations~3 262
999 COSIND_0.05 262
999 COSGEN_0.05 262
105 ESRank5 262
202 ESForwSacLong+2+5 262
999 WORDS_transformations~3 179
999 WORDFREQ_1.82 179
999 WORDSALL_transformations~3 179
999 COSIND_0.05 179
999 COSGEN_0.05 179
106 ESRank6 179
203 ESBackSacRefixation 179
999 WORDS_bureaux~5 332
999 WORDFREQ_20 332
999 WORDSALL_de~4_bureaux~5 332
999 COSIND_0.20 332
999 COSGEN_0.20 332
107 ESRank7 332
202 ESForwSacLong+2+4 332
999 WORDS_s'accélère~6 364
999 WORDFREQ_4.05 364
999 WORDSALL_s'accélère~6 364
999 COSIND_0.06 364
999 COSGEN_0.06 364
108 ESRank8 364
201 ESForwSacShort 364
999 WORDS_capitale~9 204
999 WORDFREQ_23.18 204
999 WORDSALL_dans~7_capitale~9 204
999 COSIND_0.07 204
999 COSGEN_0.07 204
109 ESRank9 204
202 ESForwSacLong+3+9 204
999 WORDS_capitale~9 168
999 WORDFREQ_23.18 168
999 WORDSALL_la~8_capitale~9 168
999 COSIND_0.07 168
999 COSGEN_0.07 168
110 ESRank10 168
203 ESBackSacRefixation 168
999 WORDS_bureaux~5 255
999 WORDFREQ_20 255
999 WORDSALL_de~4_bureaux~5 255
999 COSIND_0.20 255
999 COSGEN_0.20 255
111 ESRank11 255
206 ESBackSacRegrLong-4-22 255
999 WORDS_moitié~13 231
999 WORDFREQ_76.96 231
999 WORDSALL_moitié~13 231
999 COSIND_0.04 231
999 COSGEN_0.04 231
112 ESRank12 231
202 ESForwSacLong+8+47 231
999 WORDS_deviennent~14 266
999 WORDFREQ_16.22 266
999 WORDSALL_moitié~13_deviennent~14 266
999 COSIND_-0.05 266
999 COSGEN_-0.05 266
113 ESRank13 266
201 ESForwSacShort 266
999 WORDS_appartements~16 233
999 WORDFREQ_13.24 233
999 WORDSALL_des~15_appartements~16 233
999 COSIND_0.44 233
999 COSGEN_0.44 233
114 ESRank14 233
202 ESForwSacLong+2+5 233
999 WORDS_intermédiaires~17 223
999 WORDFREQ_0.88 223
999 WORDSALL_intermédiaires~17 223
999 COSIND_0.08 223
999 COSGEN_0.08 223
115 ESRank15 223
201 ESForwSacShort 223
999 WORDS_intermédiaires~17 203
999 WORDFREQ_0.88 203
999 WORDSALL_intermédiaires~17 203
999 COSIND_0.08 203
999 COSGEN_0.08 203
116 ESRank16 203
203 ESBackSacRefixation 203
999 WORDS_appartements~16 330
999 WORDFREQ_13.24 330
999 WORDSALL_des~15_appartements~16 330
999 COSIND_0.44 330
999 COSGEN_0.44 330
117 ESRank17 330
205 ESBackSacRegrShort 330
999 WORDS_niveau~19 247
999 WORDFREQ_30.74 247
999 WORDSALL_d'un~18_niveau~19 247
999 COSIND_0.02 247
999 COSGEN_0.02 247
118 ESRank18 247
202 ESForwSacLong+3+22 247
999 WORDS_plus~20 216
999 WORDFREQ_5014.53 216
999 WORDSALL_plus~20 216
999 COSIND_0.03 216
999 COSGEN_0.03 216
119 ESRank19 216
201 ESForwSacShort 216
999 WORDS_plus~20 145
999 WORDFREQ_5014.53 145
999 WORDSALL_niveau~19_plus~20 145
999 COSIND_0.03 145
999 COSGEN_0.03 145
120 ESRank20 145
203 ESBackSacRefixation 145
999 WORDS_parc~25 172
999 WORDFREQ_38.72 172
999 WORDSALL_celui~23_parc~25 172
999 COSIND_0.33 172
999 COSGEN_0.33 172
202 ESForwSacLong+5+22 172
200 ESRankN 172
199 ESRankNMinus1 145
198 ESRankNMinus2 216
197 ESRankNMinus3 247
196 ESRankNMinus4 330
195 ESRankNMinus5 203
194 ESRankNMinus6 223
193 ESRankNMinus7 233
192 ESRankNMinus8 266
191 ESRankNMinus9 231
190 ESRankNMinus10 255
