# 136 Fixation 1 (238.2,298.8): Des~0 livres~1
# 208 Fixation 2 (468.7,265.7): de~2 mémoires~3
# 202 Fixation 3 (581.3,319.5): d'anciens~4
# 122 Fixation 4 (584.7,343.7): d'anciens~4
# 175 Fixation 5 (496.9,306.2): mémoires~3 régulièrement~9
# 229 Fixation 6 (359.6,319.3): livres~1 paraît~8
# 207 Fixation 7 (607.8,327.2): d'anciens~4 qualité~11
# 139 Fixation 8 (309.1,449.3): inégale~12 jamais~19
# 172 Fixation 9 (270.4,465.3): inégale~12 jamais~19
# 216 Fixation 10 (441.3,478.7): même~21 histoire~22
# 252 Fixation 11 (627.7,508.8): car~23 ressenti~25
# 199 Fixation 12 (358.1,547.4): chaque~28 fois~29
# 154 Fixation 13 (303.1,551.3): à~27
# 166 Fixation 14 (256.8,481.7): jamais~19
# 162 Fixation 15 (379.2,488.9): la~20 même~21
# 163 Fixation 16 (467.1,478.6): même~21 histoire~22
# 134 Fixation 17 (644.9,296.8): d'anciens~4 qualité~11
# 180 Fixation 18 (672.6,289.3): d'anciens~4 déportés~5
# 242 Fixation 19 (559.1,308.5): mémoires~3 d'anciens~4
%%
# Des~0 Fixations= "1/"
# livres~1 Fixations= "6/"
# de~2 Fixations= "2/"
# mémoires~3 Fixations= "19/"
# d'anciens~4 Fixations= "19/"
# déportés~5 Fixations= "18/"
# il~6 Fixations= ""
# en~7 Fixations= ""
# paraît~8 Fixations= "6/"
# régulièrement~9 Fixations= "5/"
# De~10 Fixations= ""
# qualité~11 Fixations= "17/"
# inégale~12 Fixations= "9/"
# et~13 Fixations= ""
# d'intérêt~14 Fixations= ""
# inégal~15 Fixations= ""
# mais~16 Fixations= ""
# ce~17 Fixations= ""
# n'est~18 Fixations= ""
# jamais~19 Fixations= "14/"
# la~20 Fixations= "15/"
# même~21 Fixations= "16/"
# histoire~22 Fixations= "16/"
# car~23 Fixations= "11/"
# le~24 Fixations= ""
# ressenti~25 Fixations= "11/"
# est~26 Fixations= ""
# à~27 Fixations= "13/"
# chaque~28 Fixations= "12/"
# fois~29 Fixations= "12/"
# unique~30 Fixations= ""
%%
#  DES[1] LIVRES[6] DE[2] MéMOIRES[19] D'ANCIENS[19] DéPORTéS[18] il en PARAîT[6] RéGULIèREMENT[5] De QUALITé[17] INéGALE[9] et d'intérêt inégal mais ce n'est JAMAIS[14] LA[15] MêME[16] HISTOIRE[16] CAR[11] le RESSENTI[11] est à[13] CHAQUE[12] FOIS[12] unique
# s21 victoire_footballeurs-a1 PercentageOfWordsProcessed= 0.612903225806452 PercentageOfWordsReallyProcessed= 0.633333333333333
