# 179 Fixation 1 (282.2,280): Une~0 bombe~1
# 192 Fixation 2 (418.2,285.4): de~2 forte~3
# 235 Fixation 3 (515.7,295.5): forte~3 puissance~4
# 199 Fixation 4 (631.8,299.2): puissance~4 a~5
# 106 Fixation 5 (711.7,295.2): explosé~6
# 210 Fixation 6 (310.8,343.9): le~8 centre~9
# 170 Fixation 7 (439.2,344.7): de~10 capitale~12
# 125 Fixation 8 (473.1,345.1): la~11 capitale~12
# 150 Fixation 9 (604.8,353): sur~13 passage~15
# 203 Fixation 10 (652.1,361.3): sur~13 passage~15
# 120 Fixation 11 (727.7,357): passage~15
# 137 Fixation 12 (357.1,396.3): président~17
# 149 Fixation 13 (307.2,398.9): président~17
# 109 Fixation 14 (270.7,401.4): président~17
# 263 Fixation 15 (405.4,400.7): tchétchène~18
# 119 Fixation 16 (441.6,400.1): tchétchène~18
# 289 Fixation 17 (593.2,408.8): L'attentat~19
# 205 Fixation 18 (691.5,414): n'a~20
# 117 Fixation 19 (333.5,454.6): encore~22 été~23
# 151 Fixation 20 (299.4,451.5): encore~22 été~23
# 224 Fixation 21 (438.1,456.9): revendiqué~24
# 238 Fixation 22 (593.5,466.6): indique~25
# 191 Fixation 23 (663.4,470): indique~25 Moscou~26
%%
# Une~0 Fixations= "1/"
# bombe~1 Fixations= "1/"
# de~2 Fixations= "2/"
# forte~3 Fixations= "3/"
# puissance~4 Fixations= "4/"
# a~5 Fixations= "4/"
# explosé~6 Fixations= "5/"
# dans~7 Fixations= ""
# le~8 Fixations= "6/"
# centre~9 Fixations= "6/"
# de~10 Fixations= "7/"
# la~11 Fixations= "8/"
# capitale~12 Fixations= "8/"
# sur~13 Fixations= "10/"
# le~14 Fixations= ""
# passage~15 Fixations= "11/"
# du~16 Fixations= ""
# président~17 Fixations= "14/"
# tchétchène~18 Fixations= "16/"
# L'attentat~19 Fixations= "17/"
# n'a~20 Fixations= "18/"
# pas~21 Fixations= ""
# encore~22 Fixations= "20/"
# été~23 Fixations= "20/"
# revendiqué~24 Fixations= "21/"
# indique~25 Fixations= "23/"
# Moscou~26 Fixations= "23/"
%%
#  UNE[1] BOMBE[1] DE[2] FORTE[3] PUISSANCE[4] A[4] EXPLOSé[5] dans LE[6] CENTRE[6] DE[7] LA[8] CAPITALE[8] SUR[10] le PASSAGE[11] du PRéSIDENT[14] TCHéTCHèNE[16] L'ATTENTAT[17] N'A[18] pas ENCORE[20] éTé[20] REVENDIQUé[21] INDIQUE[23] MOSCOU[23]
# s05 chef_russie-m2 PercentageOfWordsProcessed= 0.851851851851852 PercentageOfWordsReallyProcessed= 0.851851851851852
