999 WORDS_preuve~1 120
999 WORDFREQ_50.54 120
999 WORDSALL_Aucune~0_preuve~1 120
999 COSIND_0.17 120
999 COSGEN_0.17 120
101 ESRank1 120
999 WORDS_preuve~1 140
999 WORDFREQ_50.54 140
999 WORDSALL_preuve~1 140
999 COSIND_0.17 140
999 COSGEN_0.17 140
102 ESRank2 140
203 ESBackSacRefixation 140
999 WORDS_scientifique~2 260
999 WORDFREQ_4.46 260
999 WORDSALL_scientifique~2 260
999 COSIND_-0.08 260
999 COSGEN_-0.08 260
103 ESRank3 260
201 ESForwSacShort 260
999 WORDS_permet~4 223
999 WORDFREQ_23.99 223
999 WORDSALL_ne~3_permet~4 223
999 COSIND_0.04 223
999 COSGEN_0.04 223
104 ESRank4 223
202 ESForwSacLong+2+4 223
999 WORDS_aujourd'hui~5 268
999 WORDFREQ_158.24 268
999 WORDSALL_aujourd'hui~5 268
999 COSIND_N/A 268
105 ESRank5 268
201 ESForwSacShort 268
999 WORDS_démontrer~7 232
999 WORDFREQ_5.61 232
999 WORDSALL_démontrer~7 232
999 COSIND_0.02 232
999 COSGEN_0.02 232
106 ESRank6 232
202 ESForwSacLong+2+4 232
999 WORDS_l'utilisation~9 218
999 WORDFREQ_4.12 218
999 WORDSALL_ne~3_permet~4_l'utilisation~9 218
999 COSIND_0.10 218
999 COSGEN_0.10 218
107 ESRank7 218
202 ESForwSacLong+2+5 218
999 WORDS_téléphones~11 177
999 WORDFREQ_2.84 177
999 WORDSALL_téléphones~11 177
999 COSIND_-0.04 177
999 COSGEN_-0.04 177
108 ESRank8 177
202 ESForwSacLong+2+5 177
999 WORDS_téléphones~11 131
999 WORDFREQ_2.84 131
999 WORDSALL_téléphones~11 131
999 COSIND_-0.04 131
999 COSGEN_-0.04 131
109 ESRank9 131
203 ESBackSacRefixation 131
999 WORDS_présente~13 160
999 WORDFREQ_27.5 160
999 WORDSALL_mobiles~12_présente~13 160
999 COSIND_0.06 160
999 COSGEN_0.06 160
110 ESRank10 160
202 ESForwSacLong+2+9 160
999 WORDS_présente~13 183
999 WORDFREQ_27.5 183
999 WORDSALL_que~8_l'utilisation~9_présente~13 183
999 COSIND_0.06 183
999 COSGEN_0.06 183
111 ESRank11 183
203 ESBackSacRefixation 183
999 WORDS_communiqué~21 161
999 WORDFREQ_7.03 161
999 WORDSALL_présente~13_communiqué~21 161
999 COSIND_-0.04 161
999 COSGEN_-0.04 161
112 ESRank12 161
202 ESForwSacLong+8+37 161
999 WORDS_santé~19 207
999 WORDFREQ_52.43 207
999 WORDSALL_santé~19 207
999 COSIND_-0.10 207
999 COSGEN_-0.10 207
113 ESRank13 207
206 ESBackSacRegrLong-2-4 207
200 ESRankN 207
199 ESRankNMinus1 161
198 ESRankNMinus2 183
197 ESRankNMinus3 160
196 ESRankNMinus4 131
195 ESRankNMinus5 177
194 ESRankNMinus6 218
193 ESRankNMinus7 232
192 ESRankNMinus8 268
191 ESRankNMinus9 223
190 ESRankNMinus10 260
