999 WORDS_miraculé~1 105
999 WORDFREQ_0.41 105
999 WORDSALL_Un~0_miraculé~1 105
999 COSIND_0.11 105
999 COSGEN_0.11 105
101 ESRank1 105
999 WORDS_miraculé~1 157
999 WORDFREQ_0.41 157
999 WORDSALL_miraculé~1 157
999 COSIND_0.11 157
999 COSGEN_0.11 157
102 ESRank2 157
203 ESBackSacRefixation 157
999 WORDS_l'aviation~3 140
999 WORDFREQ_13.38 140
999 WORDSALL_de~2_l'aviation~3 140
999 COSIND_0.29 140
999 COSGEN_0.29 140
103 ESRank3 140
202 ESForwSacLong+2+4 140
999 WORDS_l'aviation~3 220
999 WORDFREQ_13.38 220
999 WORDSALL_l'aviation~3 220
999 COSIND_0.29 220
999 COSGEN_0.29 220
104 ESRank4 220
203 ESBackSacRefixation 220
999 WORDS_jeune~5 196
999 WORDFREQ_432.64 196
999 WORDSALL_un~4_jeune~5 196
999 COSIND_0.02 196
999 COSGEN_0.02 196
105 ESRank5 196
202 ESForwSacLong+2+4 196
999 WORDS_passager~6 121
999 WORDFREQ_3.24 121
999 WORDSALL_passager~6 121
999 COSIND_0.22 121
999 COSGEN_0.22 121
106 ESRank6 121
201 ESForwSacShort 121
999 WORDS_passager~6 116
999 WORDFREQ_3.24 116
999 WORDSALL_passager~6 116
999 COSIND_0.22 116
999 COSGEN_0.22 116
107 ESRank7 116
203 ESBackSacRefixation 116
999 WORDS_clandestin~7 258
999 WORDFREQ_5.07 258
999 WORDSALL_clandestin~7 258
999 COSIND_-0.05 258
999 COSGEN_-0.05 258
108 ESRank8 258
201 ESForwSacShort 258
999 WORDS_a~8 172
999 WORDFREQ_2926.69 172
999 WORDSALL_clandestin~7_a~8 172
999 COSIND_N/A 172
109 ESRank9 172
201 ESForwSacShort 172
999 WORDS_fait~9 160
999 WORDFREQ_1459.26 160
999 WORDSALL_a~8_fait~9 160
999 COSIND_0.03 160
999 COSGEN_0.03 160
110 ESRank10 160
201 ESForwSacShort 160
999 WORDS_trajet~11 183
999 WORDFREQ_14.66 183
999 WORDSALL_le~10_trajet~11 183
999 COSIND_0.06 183
999 COSGEN_0.06 183
111 ESRank11 183
202 ESForwSacLong+2+4 183
999 WORDS_Dakar-Lyon~12 315
999 WORDFREQ_N/A 315
999 WORDSALL_Dakar-Lyon~12 315
999 COSIND_N/A 315
112 ESRank12 315
201 ESForwSacShort 315
999 WORDS_Dakar-Lyon~12 156
999 WORDFREQ_N/A 156
999 WORDSALL_Dakar-Lyon~12 156
999 COSIND_N/A 156
113 ESRank13 156
203 ESBackSacRefixation 156
999 WORDS_mardi~13 331
999 WORDFREQ_15.47 331
999 WORDSALL_mardi~13 331
999 COSIND_-0.06 331
999 COSGEN_-0.06 331
114 ESRank14 331
201 ESForwSacShort 331
999 WORDS_dernier~14 281
999 WORDFREQ_146.42 281
999 WORDSALL_mardi~13_dernier~14 281
999 COSIND_0.03 281
999 COSGEN_0.03 281
115 ESRank15 281
201 ESForwSacShort 281
999 WORDS_train~17 198
999 WORDFREQ_271.28 198
999 WORDSALL_dans~15_train~17 198
999 COSIND_0.07 198
999 COSGEN_0.07 198
116 ESRank16 198
202 ESForwSacLong+3+9 198
999 WORDS_train~17 150
999 WORDFREQ_271.28 150
999 WORDSALL_le~16_train~17 150
999 COSIND_0.07 150
999 COSGEN_0.07 150
117 ESRank17 150
203 ESBackSacRefixation 150
999 WORDS_d'atterrissage~18 185
999 WORDFREQ_2.16 185
999 WORDSALL_d'atterrissage~18 185
999 COSIND_0.22 185
999 COSGEN_0.22 185
118 ESRank18 185
201 ESForwSacShort 185
999 WORDS_d'atterrissage~18 141
999 WORDFREQ_2.16 141
999 WORDSALL_d'atterrissage~18 141
999 COSIND_0.22 141
999 COSGEN_0.22 141
119 ESRank19 141
203 ESBackSacRefixation 141
999 WORDS_Airbus~20 198
999 WORDFREQ_0 198
999 WORDSALL_d'un~19_Airbus~20 198
999 COSIND_N/A 198
120 ESRank20 198
202 ESForwSacLong+2+6 198
999 WORDS_Airbus~20 186
999 WORDFREQ_0 186
999 WORDSALL_d'un~19_Airbus~20 186
999 COSIND_N/A 186
203 ESBackSacRefixation 186
999 WORDS_A300~21 366
999 WORDFREQ_N/A 366
999 WORDSALL_Airbus~20_A300~21 366
999 COSIND_N/A 366
201 ESForwSacShort 366
200 ESRankN 366
199 ESRankNMinus1 186
198 ESRankNMinus2 198
197 ESRankNMinus3 141
196 ESRankNMinus4 185
195 ESRankNMinus5 150
194 ESRankNMinus6 198
193 ESRankNMinus7 281
192 ESRankNMinus8 331
191 ESRankNMinus9 156
190 ESRankNMinus10 315
