999 WORDS_Pas-de-Calais~2 94
999 WORDFREQ_N/A 94
999 WORDSALL_Dans~0_Pas-de-Calais~2 94
999 COSIND_N/A 94
101 ESRank1 94
999 WORDS_Pas-de-Calais~2 153
999 WORDFREQ_N/A 153
999 WORDSALL_le~1_Pas-de-Calais~2 153
999 COSIND_N/A 153
102 ESRank2 153
203 ESBackSacRefixation 153
999 WORDS_Pas-de-Calais~2 140
999 WORDFREQ_N/A 140
999 WORDSALL_Pas-de-Calais~2 140
999 COSIND_N/A 140
103 ESRank3 140
203 ESBackSacRefixation 140
999 WORDS_chasseurs~4 173
999 WORDFREQ_17.43 173
999 WORDSALL_les~3_chasseurs~4 173
999 COSIND_0.86 173
999 COSGEN_0.86 173
104 ESRank4 173
202 ESForwSacLong+2+5 173
999 WORDS_chasseurs~4 112
999 WORDFREQ_17.43 112
999 WORDSALL_chasseurs~4 112
999 COSIND_0.86 112
999 COSGEN_0.86 112
105 ESRank5 112
203 ESBackSacRefixation 112
999 WORDS_réclament~5 189
999 WORDFREQ_2.5 189
999 WORDSALL_réclament~5 189
999 COSIND_0.01 189
999 COSGEN_0.01 189
106 ESRank6 189
201 ESForwSacShort 189
999 WORDS_Pas-de-Calais~2 92
999 WORDFREQ_N/A 92
999 WORDSALL_Pas-de-Calais~2 92
999 COSIND_N/A 92
107 ESRank7 92
206 ESBackSacRegrLong-3-15 92
999 WORDS_réclament~5 228
999 WORDFREQ_2.5 228
999 WORDSALL_réclament~5 228
999 COSIND_0.01 228
999 COSGEN_0.01 228
108 ESRank8 228
202 ESForwSacLong+3+15 228
999 WORDS_Pas-de-Calais~2 164
999 WORDFREQ_N/A 164
999 WORDSALL_Pas-de-Calais~2 164
999 COSIND_N/A 164
109 ESRank9 164
206 ESBackSacRegrLong-3-15 164
999 WORDS_réclament~5 172
999 WORDFREQ_2.5 172
999 WORDSALL_réclament~5 172
999 COSIND_0.01 172
999 COSGEN_0.01 172
110 ESRank10 172
202 ESForwSacLong+3+15 172
999 WORDS_droit~7 183
999 WORDFREQ_138.72 183
999 WORDSALL_le~6_droit~7 183
999 COSIND_0.06 183
999 COSGEN_0.06 183
111 ESRank11 183
202 ESForwSacLong+2+4 183
999 WORDS_chasseurs~4 254
999 WORDFREQ_17.43 254
999 WORDSALL_les~3_chasseurs~4 254
999 COSIND_0.86 254
999 COSGEN_0.86 254
112 ESRank12 254
206 ESBackSacRegrLong-3-15 254
999 WORDS_chasser~11 239
999 WORDFREQ_20.81 239
999 WORDSALL_à~10_chasser~11 239
999 COSIND_0.41 239
999 COSGEN_0.41 239
113 ESRank13 239
202 ESForwSacLong+7+37 239
999 WORDS_huttes~14 167
999 WORDFREQ_2.91 167
999 WORDSALL_dans~12_huttes~14 167
999 COSIND_0.37 167
999 COSGEN_0.37 167
114 ESRank14 167
202 ESForwSacLong+3+10 167
999 WORDS_huttes~14 149
999 WORDFREQ_2.91 149
999 WORDSALL_huttes~14 149
999 COSIND_0.37 149
999 COSGEN_0.37 149
115 ESRank15 149
203 ESBackSacRefixation 149
999 WORDS_France~16 158
999 WORDFREQ_N/A 158
999 WORDSALL_France~16 158
999 COSIND_N/A 158
116 ESRank16 158
202 ESForwSacLong+2+4 158
999 WORDS_France~16 87
999 WORDFREQ_N/A 87
999 WORDSALL_La~15_France~16 87
999 COSIND_N/A 87
117 ESRank17 87
203 ESBackSacRefixation 87
999 WORDS_risque~17 144
999 WORDFREQ_25.34 144
999 WORDSALL_risque~17 144
999 COSIND_-0.01 144
999 COSGEN_-0.01 144
118 ESRank18 144
201 ESForwSacShort 144
999 WORDS_pourtant~18 103
999 WORDFREQ_375.68 103
999 WORDSALL_pourtant~18 103
999 COSIND_N/A 103
119 ESRank19 103
201 ESForwSacShort 103
999 WORDS_lourde~20 197
999 WORDFREQ_56.62 197
999 WORDSALL_une~19_lourde~20 197
999 COSIND_-0.03 197
999 COSGEN_-0.03 197
120 ESRank20 197
202 ESForwSacLong+2+5 197
999 WORDS_amende~21 134
999 WORDFREQ_3.65 134
999 WORDSALL_amende~21 134
999 COSIND_-0.02 134
999 COSGEN_-0.02 134
201 ESForwSacShort 134
999 WORDS_contrevient~24 141
999 WORDFREQ_0.2 141
999 WORDSALL_contrevient~24 141
999 COSIND_0.23 141
999 COSGEN_0.23 141
202 ESForwSacLong+3+9 141
999 WORDS_contrevient~24 84
999 WORDFREQ_0.2 84
999 WORDSALL_contrevient~24 84
999 COSIND_0.23 84
999 COSGEN_0.23 84
203 ESBackSacRefixation 84
999 WORDS_directives~26 153
999 WORDFREQ_4.46 153
999 WORDSALL_directives~26 153
999 COSIND_-0.09 153
999 COSGEN_-0.09 153
202 ESForwSacLong+2+5 153
999 WORDS_protègent~29 105
999 WORDFREQ_2.43 105
999 WORDSALL_protègent~29 105
999 COSIND_0.25 105
999 COSGEN_0.25 105
202 ESForwSacLong+3+18 105
999 WORDS_migrateurs~32 155
999 WORDFREQ_1.08 155
999 WORDSALL_oiseaux~31_migrateurs~32 155
999 COSIND_0.88 155
999 COSGEN_0.88 155
202 ESForwSacLong+3+13 155
200 ESRankN 155
199 ESRankNMinus1 105
198 ESRankNMinus2 153
197 ESRankNMinus3 84
196 ESRankNMinus4 141
195 ESRankNMinus5 134
194 ESRankNMinus6 197
193 ESRankNMinus7 103
192 ESRankNMinus8 144
191 ESRankNMinus9 87
190 ESRankNMinus10 158
