999 WORDS_neige~1 152
999 WORDFREQ_74.93 152
999 WORDSALL_La~0_neige~1 152
999 COSIND_-0.01 152
999 COSGEN_-0.01 152
101 ESRank1 152
999 WORDS_défaut~3 147
999 WORDFREQ_27.7 147
999 WORDSALL_fait~2_défaut~3 147
999 COSIND_0.03 147
999 COSGEN_0.03 147
102 ESRank2 147
202 ESForwSacLong+2+6 147
999 WORDS_défaut~3 185
999 WORDFREQ_27.7 185
999 WORDSALL_défaut~3 185
999 COSIND_0.03 185
999 COSGEN_0.03 185
103 ESRank3 185
203 ESBackSacRefixation 185
999 WORDS_saisonniers~10 152
999 WORDFREQ_0.41 152
999 WORDSALL_dans~4_Hautes-Alpes~6_saisonniers~10 152
999 COSIND_0.12 152
999 COSGEN_0.12 152
104 ESRank4 152
202 ESForwSacLong+7+47 152
999 WORDS_saisonniers~10 117
999 WORDFREQ_0.41 117
999 WORDSALL_les~5_Hautes-Alpes~6_saisonniers~10 117
999 COSIND_0.12 117
999 COSGEN_0.12 117
105 ESRank5 117
203 ESBackSacRefixation 117
999 WORDS_Hautes-Alpes~6 96
999 WORDFREQ_N/A 96
999 WORDSALL_Hautes-Alpes~6 96
999 COSIND_N/A 96
106 ESRank6 96
206 ESBackSacRegrLong-4-25 96
999 WORDS_travailleurs~9 159
999 WORDFREQ_9.46 159
999 WORDSALL_fait~2_défaut~3_travailleurs~9 159
999 COSIND_-0.02 159
999 COSGEN_-0.02 159
107 ESRank7 159
202 ESForwSacLong+3+12 159
999 WORDS_saisonniers~10 231
999 WORDFREQ_0.41 231
999 WORDSALL_saisonniers~10 231
999 COSIND_0.12 231
999 COSGEN_0.12 231
108 ESRank8 231
201 ESForwSacShort 231
999 WORDS_exploitants~23 192
999 WORDFREQ_0.34 192
999 WORDSALL_dans~15_rues~17_exploitants~23 192
999 COSIND_0.09 192
999 COSGEN_0.09 192
109 ESRank9 192
202 ESForwSacLong+13+70 192
999 WORDS_rues~17 108
999 WORDFREQ_113.45 108
999 WORDSALL_dans~15_rues~17 108
999 COSIND_0.15 108
999 COSGEN_0.15 108
110 ESRank10 108
206 ESBackSacRegrLong-6-24 108
999 WORDS_remontées~25 143
999 WORDFREQ_0.27 143
999 WORDSALL_les~16_rues~17_remontées~25 143
999 COSIND_-0.12 143
999 COSGEN_-0.12 143
111 ESRank11 143
202 ESForwSacLong+8+39 143
200 ESRankN 143
199 ESRankNMinus1 108
198 ESRankNMinus2 192
197 ESRankNMinus3 231
196 ESRankNMinus4 159
195 ESRankNMinus5 96
194 ESRankNMinus6 117
193 ESRankNMinus7 152
192 ESRankNMinus8 185
191 ESRankNMinus9 147
190 ESRankNMinus10 152
