# 120 Fixation 1 (260,284.1): Comme~0 écho~2
# 192 Fixation 2 (351.1,282.5): Comme~0 écho~2
# 98 Fixation 3 (397.7,282.2): en~1 écho~2 à~3
# 191 Fixation 4 (456.8,280.7): écho~2 à~3
# 189 Fixation 5 (574.9,283.5): assurance~5
# 137 Fixation 6 (697.7,291.4): retrouvée~6
# 129 Fixation 7 (275.6,356): depuis~7 fin~9
# 121 Fixation 8 (286.3,348.2): depuis~7 fin~9
# 240 Fixation 9 (371,343): la~8 fin~9
# 202 Fixation 10 (511.2,348.6): la~11 guerre~12
# 150 Fixation 11 (644.5,355.5): la~13 commission~14
# 177 Fixation 12 (289.3,396.7): des~15 affaires~16
# 134 Fixation 13 (332.7,397.9): des~15 affaires~16
# 198 Fixation 14 (443.9,398.1): étrangères~17
# 178 Fixation 15 (602.7,409.3): du~18 Sénat~19
# 102 Fixation 16 (663.4,410.1): Sénat~19 a~20
# 147 Fixation 17 (717,412.1): a~20 fixé~21
# 125 Fixation 18 (313.4,479.1): date~23
# 89 Fixation 19 (323.7,467.9): date~23
%%
# Comme~0 Fixations= "2/"
# en~1 Fixations= "3/"
# écho~2 Fixations= "4/"
# à~3 Fixations= "4/"
# cette~4 Fixations= ""
# assurance~5 Fixations= "5/"
# retrouvée~6 Fixations= "6/"
# depuis~7 Fixations= "8/"
# la~8 Fixations= "9/"
# fin~9 Fixations= "9/"
# de~10 Fixations= ""
# la~11 Fixations= "10/"
# guerre~12 Fixations= "10/"
# la~13 Fixations= "11/"
# commission~14 Fixations= "11/"
# des~15 Fixations= "13/"
# affaires~16 Fixations= "13/"
# étrangères~17 Fixations= "14/"
# du~18 Fixations= "15/"
# Sénat~19 Fixations= "16/"
# a~20 Fixations= "17/"
# fixé~21 Fixations= "17/"
# une~22 Fixations= ""
# date~23 Fixations= "19/"
# pour~24 Fixations= ""
# le~25 Fixations= ""
# début~26 Fixations= ""
# des~27 Fixations= ""
# auditions~28 Fixations= ""
# et~29 Fixations= ""
# la~30 Fixations= ""
# nomination~31 Fixations= ""
# qui~32 Fixations= ""
# était~33 Fixations= ""
# bloquée~34 Fixations= ""
# depuis~35 Fixations= ""
# dix~36 Fixations= ""
# mois~37 Fixations= ""
%%
#  COMME[2] EN[3] éCHO[4] à[4] cette ASSURANCE[5] RETROUVéE[6] DEPUIS[8] LA[9] FIN[9] de LA[10] GUERRE[10] LA[11] COMMISSION[11] DES[13] AFFAIRES[13] éTRANGèRES[14] DU[15] SéNAT[16] A[17] FIXé[17] une DATE[19] pour le début des auditions et la nomination qui était bloquée depuis dix mois
# s02 conflit_irak-m1 PercentageOfWordsProcessed= 0.552631578947368 PercentageOfWordsReallyProcessed= 0.875
