999 WORDS_l'aide~1 88
999 WORDFREQ_52.3 88
999 WORDSALL_Avec~0_l'aide~1 88
999 COSIND_0.07 88
999 COSGEN_0.07 88
101 ESRank1 88
999 WORDS_l'aide~1 122
999 WORDFREQ_52.3 122
999 WORDSALL_l'aide~1 122
999 COSIND_0.07 122
999 COSGEN_0.07 122
102 ESRank2 122
203 ESBackSacRefixation 122
999 WORDS_rabatteurs~4 173
999 WORDFREQ_0.95 173
999 WORDSALL_de~2_rabatteurs~4 173
999 COSIND_0.17 173
999 COSGEN_0.17 173
103 ESRank3 173
202 ESForwSacLong+3+10 173
999 WORDS_rabatteurs~4 212
999 WORDFREQ_0.95 212
999 WORDSALL_rabatteurs~4 212
999 COSIND_0.17 212
999 COSGEN_0.17 212
104 ESRank4 212
203 ESBackSacRefixation 212
999 WORDS_rabatteurs~4 84
999 WORDFREQ_0.95 84
999 WORDSALL_leurs~3_rabatteurs~4 84
999 COSIND_0.17 84
999 COSGEN_0.17 84
105 ESRank5 84
203 ESBackSacRefixation 84
999 WORDS_déguenillés~5 165
999 WORDFREQ_0.2 165
999 WORDSALL_déguenillés~5 165
999 COSIND_N/A 165
106 ESRank6 165
201 ESForwSacShort 165
999 WORDS_déguenillés~5 194
999 WORDFREQ_0.2 194
999 WORDSALL_déguenillés~5 194
999 COSIND_N/A 194
107 ESRank7 194
203 ESBackSacRefixation 194
999 WORDS_pesaient~7 159
999 WORDFREQ_3.99 159
999 WORDSALL_elles~6_pesaient~7 159
999 COSIND_0.06 159
999 COSGEN_0.06 159
108 ESRank8 159
202 ESForwSacLong+2+7 159
999 WORDS_pesaient~7 209
999 WORDFREQ_3.99 209
999 WORDSALL_pesaient~7 209
999 COSIND_0.06 209
999 COSGEN_0.06 209
109 ESRank9 209
203 ESBackSacRefixation 209
999 WORDS_l'offre~8 242
999 WORDFREQ_8.78 242
999 WORDSALL_l'offre~8 242
999 COSIND_-0.00 242
999 COSGEN_-0.00 242
110 ESRank10 242
201 ESForwSacShort 242
999 WORDS_l'offre~8 133
999 WORDFREQ_8.78 133
999 WORDSALL_l'offre~8 133
999 COSIND_-0.00 133
999 COSGEN_-0.00 133
111 ESRank11 133
203 ESBackSacRefixation 133
999 WORDS_demande~11 269
999 WORDFREQ_35.27 269
999 WORDSALL_demande~11 269
999 COSIND_-0.02 269
999 COSGEN_-0.02 269
112 ESRank12 269
202 ESForwSacLong+3+7 269
999 WORDS_savaient~13 153
999 WORDFREQ_30.2 153
999 WORDSALL_Elles~12_savaient~13 153
999 COSIND_0.01 153
999 COSGEN_0.01 153
113 ESRank13 153
202 ESForwSacLong+2+7 153
999 WORDS_savaient~13 160
999 WORDFREQ_30.2 160
999 WORDSALL_Elles~12_savaient~13 160
999 COSIND_0.01 160
999 COSGEN_0.01 160
114 ESRank14 160
203 ESBackSacRefixation 160
999 WORDS_précisément~14 264
999 WORDFREQ_34.8 264
999 WORDSALL_précisément~14 264
999 COSIND_0.03 264
999 COSGEN_0.03 264
115 ESRank15 264
201 ESForwSacShort 264
999 WORDS_précisément~14 199
999 WORDFREQ_34.8 199
999 WORDSALL_précisément~14 199
999 COSIND_0.03 199
999 COSGEN_0.03 199
116 ESRank16 199
203 ESBackSacRefixation 199
999 WORDS_chercheraient~21 168
999 WORDFREQ_0.47 168
999 WORDSALL_chercheraient~21 168
999 COSIND_-0.01 168
999 COSGEN_-0.01 168
117 ESRank17 168
202 ESForwSacLong+7+35 168
999 WORDS_entreprises~20 146
999 WORDFREQ_9.26 146
999 WORDSALL_entreprises~20 146
999 COSIND_-0.03 146
999 COSGEN_-0.03 146
118 ESRank18 146
205 ESBackSacRegrShort 146
999 WORDS_entreprises~20 87
999 WORDFREQ_9.26 87
999 WORDSALL_mois~18_entreprises~20 87
999 COSIND_-0.03 87
999 COSGEN_-0.03 87
119 ESRank19 87
203 ESBackSacRefixation 87
999 WORDS_mois~18 175
999 WORDFREQ_304.86 175
999 WORDSALL_jour~16_mois~18 175
999 COSIND_0.05 175
999 COSGEN_0.05 175
120 ESRank20 175
206 ESBackSacRegrLong-2-5 175
999 WORDS_monnaie~24 269
999 WORDFREQ_25.34 269
999 WORDSALL_la~23_monnaie~24 269
999 COSIND_0.43 269
999 COSGEN_0.43 269
202 ESForwSacLong+6+37 269
200 ESRankN 269
199 ESRankNMinus1 175
198 ESRankNMinus2 87
197 ESRankNMinus3 146
196 ESRankNMinus4 168
195 ESRankNMinus5 199
194 ESRankNMinus6 264
193 ESRankNMinus7 160
192 ESRankNMinus8 153
191 ESRankNMinus9 269
190 ESRankNMinus10 133
