999 WORDS_Lorsque~0 94
999 WORDFREQ_207.09 94
999 WORDSALL_Lorsque~0 94
999 COSIND_N/A 94
101 ESRank1 94
999 WORDS_Lorsque~0 136
999 WORDFREQ_207.09 136
999 WORDSALL_Lorsque~0 136
999 COSIND_N/A 136
102 ESRank2 136
203 ESBackSacRefixation 136
999 WORDS_vague~2 199
999 WORDFREQ_38.18 199
999 WORDSALL_la~1_vague~2 199
999 COSIND_0.03 199
999 COSGEN_0.03 199
103 ESRank3 199
202 ESForwSacLong+2+4 199
999 WORDS_réfugiés~4 264
999 WORDFREQ_8.18 264
999 WORDSALL_des~3_réfugiés~4 264
999 COSIND_0.06 264
999 COSGEN_0.06 264
104 ESRank4 264
202 ESForwSacLong+2+5 264
999 WORDS_ 254
999 WORDFREQ_ 254
999 WORDSALL_ 254
105 ESRank5 254
999 WORDS_camp~8 214
999 WORDFREQ_75.61 214
999 WORDSALL_le~7_camp~8 214
999 COSIND_0.20 214
999 COSGEN_0.20 214
106 ESRank6 214
999 WORDS_improvisé~9 326
999 WORDFREQ_2.5 326
999 WORDSALL_camp~8_improvisé~9 326
999 COSIND_0.09 326
999 COSGEN_0.09 326
107 ESRank7 326
201 ESForwSacShort 326
999 WORDS_microbus~11 265
999 WORDFREQ_0 265
999 WORDSALL_les~10_microbus~11 265
999 COSIND_N/A 265
108 ESRank8 265
202 ESForwSacLong+2+5 265
200 ESRankN 265
199 ESRankNMinus1 326
198 ESRankNMinus2 214
197 ESRankNMinus3 254
196 ESRankNMinus4 264
195 ESRankNMinus5 199
194 ESRankNMinus6 136
193 ESRankNMinus7 94
