999 WORDS_L'idée~0 279
999 WORDFREQ_241.08 279
999 WORDSALL_L'idée~0 279
999 COSIND_-0.01 279
999 COSGEN_-0.01 279
101 ESRank1 279
999 WORDS_pousser~3 190
999 WORDFREQ_45.68 190
999 WORDSALL_est~1_pousser~3 190
999 COSIND_-0.07 190
999 COSGEN_-0.07 190
102 ESRank2 190
202 ESForwSacLong+3+8 190
999 WORDS_L'idée~0 245
999 WORDFREQ_241.08 245
999 WORDSALL_L'idée~0 245
999 COSIND_-0.01 245
999 COSGEN_-0.01 245
103 ESRank3 245
206 ESBackSacRegrLong-3-8 245
999 WORDS_pousser~3 441
999 WORDFREQ_45.68 441
999 WORDSALL_est~1_pousser~3 441
999 COSIND_-0.07 441
999 COSGEN_-0.07 441
104 ESRank4 441
202 ESForwSacLong+3+8 441
999 WORDS_pétrolières~6 494
999 WORDFREQ_0.61 494
999 WORDSALL_pétrolières~6 494
999 COSIND_0.33 494
999 COSGEN_0.33 494
105 ESRank5 494
202 ESForwSacLong+3+16 494
999 WORDS_compagnies~5 179
999 WORDFREQ_6.28 179
999 WORDSALL_les~4_compagnies~5 179
999 COSIND_0.08 179
999 COSGEN_0.08 179
106 ESRank6 179
205 ESBackSacRegrShort 179
200 ESRankN 179
199 ESRankNMinus1 494
198 ESRankNMinus2 441
197 ESRankNMinus3 245
196 ESRankNMinus4 190
195 ESRankNMinus5 279
