999 WORDS_chef~1 143
999 WORDFREQ_172.57 143
999 WORDSALL_Le~0_chef~1 143
999 COSIND_0.02 143
999 COSGEN_0.02 143
101 ESRank1 143
999 WORDS_gouvernement~3 174
999 WORDFREQ_119.73 174
999 WORDSALL_chef~1_gouvernement~3 174
999 COSIND_-0.00 174
999 COSGEN_-0.00 174
102 ESRank2 174
202 ESForwSacLong+2+4 174
999 WORDS_accusé~5 235
999 WORDFREQ_1.01 235
999 WORDSALL_est~4_accusé~5 235
999 COSIND_-0.06 235
999 COSGEN_-0.06 235
103 ESRank3 235
202 ESForwSacLong+2+5 235
999 WORDS_relations~7 120
999 WORDFREQ_42.16 120
999 WORDSALL_relations~7 120
999 COSIND_0.15 120
999 COSGEN_0.15 120
104 ESRank4 120
202 ESForwSacLong+2+5 120
999 WORDS_relations~7 183
999 WORDFREQ_42.16 183
999 WORDSALL_relations~7 183
999 COSIND_0.15 183
999 COSGEN_0.15 183
105 ESRank5 183
203 ESBackSacRefixation 183
999 WORDS_États-Unis~11 191
999 WORDFREQ_N/A 191
999 WORDSALL_avec~9_États-Unis~11 191
999 COSIND_N/A 191
106 ESRank6 191
202 ESForwSacLong+4+18 191
999 WORDS_États-Unis~11 148
999 WORDFREQ_N/A 148
999 WORDSALL_États-Unis~11 148
999 COSIND_N/A 148
107 ESRank7 148
203 ESBackSacRefixation 148
999 WORDS_l'isolement~13 182
999 WORDFREQ_7.91 182
999 WORDSALL_l'isolement~13 182
999 COSIND_-0.01 182
999 COSGEN_-0.01 182
108 ESRank8 182
202 ESForwSacLong+2+4 182
999 WORDS_d'Israël~14 199
999 WORDFREQ_N/A 199
999 WORDSALL_d'Israël~14 199
999 COSIND_N/A 199
109 ESRank9 199
201 ESForwSacShort 199
999 WORDS_monde~17 146
999 WORDFREQ_732.43 146
999 WORDSALL_dans~15_monde~17 146
999 COSIND_-0.01 146
999 COSGEN_-0.01 146
110 ESRank10 146
202 ESForwSacLong+3+9 146
999 WORDS_chômage~19 268
999 WORDFREQ_5.41 268
999 WORDSALL_chômage~19 268
999 COSIND_-0.03 268
999 COSGEN_-0.03 268
111 ESRank11 268
202 ESForwSacLong+2+4 268
999 WORDS_vertigineuse~22 200
999 WORDFREQ_4.86 200
999 WORDSALL_montée~21_vertigineuse~22 200
999 COSIND_-0.11 200
999 COSGEN_-0.11 200
112 ESRank12 200
202 ESForwSacLong+3+12 200
999 WORDS_et~23 143
999 WORDFREQ_20879.73 143
999 WORDSALL_et~23 143
999 COSIND_N/A 143
113 ESRank13 143
201 ESForwSacShort 143
999 WORDS_détérioration~26 213
999 WORDFREQ_0.54 213
999 WORDSALL_détérioration~26 213
999 COSIND_0.10 213
999 COSGEN_0.10 213
114 ESRank14 213
202 ESForwSacLong+3+7 213
999 WORDS_détérioration~26 153
999 WORDFREQ_0.54 153
999 WORDSALL_détérioration~26 153
999 COSIND_0.10 153
999 COSGEN_0.10 153
115 ESRank15 153
203 ESBackSacRefixation 153
999 WORDS_toutes~28 261
999 WORDFREQ_50.47 261
999 WORDSALL_toutes~28 261
999 COSIND_0.02 261
999 COSGEN_0.02 261
116 ESRank16 261
202 ESForwSacLong+2+4 261
200 ESRankN 261
199 ESRankNMinus1 153
198 ESRankNMinus2 213
197 ESRankNMinus3 143
196 ESRankNMinus4 200
195 ESRankNMinus5 268
194 ESRankNMinus6 146
193 ESRankNMinus7 199
192 ESRankNMinus8 182
191 ESRankNMinus9 148
190 ESRankNMinus10 191
