# 149 Fixation 1 (272.3,272.8): Les~0 familles~1
# 134 Fixation 2 (484.3,265.5): ayant~2
# 144 Fixation 3 (600.8,265.8): jumeaux~4
# 121 Fixation 4 (679.4,273.7): bénéficient~5
# 169 Fixation 5 (334.7,332.4): des~6 mêmes~7
# 130 Fixation 6 (429.8,344.1): prestations~8
# 230 Fixation 7 (602.4,335): familiales~9
# 108 Fixation 8 (709.8,334): que~10
# 158 Fixation 9 (318.1,395.5): autres~12
%%
# Les~0 Fixations= "1/"
# familles~1 Fixations= "1/"
# ayant~2 Fixations= "2/"
# des~3 Fixations= ""
# jumeaux~4 Fixations= "3/"
# bénéficient~5 Fixations= "4/"
# des~6 Fixations= "5/"
# mêmes~7 Fixations= "5/"
# prestations~8 Fixations= "6/"
# familiales~9 Fixations= "7/"
# que~10 Fixations= "8/"
# les~11 Fixations= ""
# autres~12 Fixations= "9/"
# mais~13 Fixations= ""
# les~14 Fixations= ""
# congés~15 Fixations= ""
# maternité~16 Fixations= ""
# sont~17 Fixations= ""
# plus~18 Fixations= ""
# longs~19 Fixations= ""
# de~20 Fixations= ""
# 18~21 Fixations= ""
# semaines~22 Fixations= ""
%%
#  LES[1] FAMILLES[1] AYANT[2] des JUMEAUX[3] BéNéFICIENT[4] DES[5] MêMES[5] PRESTATIONS[6] FAMILIALES[7] QUE[8] les AUTRES[9] mais les congés maternité sont plus longs de 18 semaines
# s19 allocation_familiale-f1 PercentageOfWordsProcessed= 0.478260869565217 PercentageOfWordsReallyProcessed= 0.846153846153846
