# 187 Fixation 1 (326.2,295): Le~0 skippeur~1
# 135 Fixation 2 (452.7,292.9): rend~2 hommage~3
# 208 Fixation 3 (494.8,294.9): rend~2 hommage~3
# 149 Fixation 4 (400.7,292.9): skippeur~1 rend~2
# 118 Fixation 5 (418.5,336.6): rend~2 légèreté~10
# 145 Fixation 6 (483.9,343.3): rend~2 hommage~3 légèreté~10
# 155 Fixation 7 (605.2,352.6): et~11 simplicité~14 sont~21
# 95 Fixation 8 (674.6,353.6): la~13 simplicité~14
# 199 Fixation 9 (327.3,386.6): Le~6 pari~7 osé~16
# 151 Fixation 10 (467.2,397.7): la~9 légèreté~10 gens~18
# 128 Fixation 11 (547.7,401.9): légèreté~10 sont~21
# 115 Fixation 12 (553.5,449.8): qui~19 sont~21 existe~27
# 137 Fixation 13 (595.5,456.3): qui~19 sont~21 peuvent~28
# 158 Fixation 14 (301.6,473.7): était~15 osé~16
%%
# Le~0 Fixations= "1/"
# skippeur~1 Fixations= "4/"
# rend~2 Fixations= "6/"
# hommage~3 Fixations= "6/"
# aux~4 Fixations= ""
# concepteurs~5 Fixations= ""
# Le~6 Fixations= "9/"
# pari~7 Fixations= "9/"
# de~8 Fixations= ""
# la~9 Fixations= "10/"
# légèreté~10 Fixations= "11/"
# et~11 Fixations= "7/"
# de~12 Fixations= ""
# la~13 Fixations= "8/"
# simplicité~14 Fixations= "8/"
# était~15 Fixations= "14/"
# osé~16 Fixations= "14/"
# Les~17 Fixations= ""
# gens~18 Fixations= "10/"
# qui~19 Fixations= "13/"
# se~20 Fixations= ""
# sont~21 Fixations= "13/"
# investis~22 Fixations= ""
# pour~23 Fixations= ""
# que~24 Fixations= ""
# ce~25 Fixations= ""
# projet~26 Fixations= ""
# existe~27 Fixations= "12/"
# peuvent~28 Fixations= "13/"
# être~29 Fixations= ""
# fiers~30 Fixations= ""
%%
#  LE[1] SKIPPEUR[4] REND[6] HOMMAGE[6] aux concepteurs LE[9] PARI[9] de LA[10] LéGèRETé[11] ET[7] de LA[8] SIMPLICITé[8] éTAIT[14] OSé[14] Les GENS[10] QUI[13] se SONT[13] investis pour que ce projet EXISTE[12] PEUVENT[13] être fiers
# s08 faiblesse_dollar-a2 PercentageOfWordsProcessed= 0.580645161290323 PercentageOfWordsReallyProcessed= 0.620689655172414
