999 WORDS_bonne~1 135
999 WORDFREQ_294.53 135
999 WORDSALL_Une~0_bonne~1 135
999 COSIND_-0.00 135
999 COSGEN_-0.00 135
101 ESRank1 135
999 WORDS_connaissance~2 165
999 WORDFREQ_55.81 165
999 WORDSALL_connaissance~2 165
999 COSIND_0.12 165
999 COSGEN_0.12 165
102 ESRank2 165
201 ESForwSacShort 165
999 WORDS_fonctionnement~4 144
999 WORDFREQ_6.01 144
999 WORDSALL_du~3_fonctionnement~4 144
999 COSIND_0.02 144
999 COSGEN_0.02 144
103 ESRank3 144
202 ESForwSacLong+2+4 144
999 WORDS_fonctionnement~4 132
999 WORDFREQ_6.01 132
999 WORDSALL_fonctionnement~4 132
999 COSIND_0.02 132
999 COSGEN_0.02 132
104 ESRank4 132
203 ESBackSacRefixation 132
999 WORDS_l'ordinateur~6 149
999 WORDFREQ_2.3 149
999 WORDSALL_l'ordinateur~6 149
999 COSIND_0.28 149
999 COSGEN_0.28 149
105 ESRank5 149
202 ESForwSacLong+2+4 149
999 WORDS_l'ordinateur~6 134
999 WORDFREQ_2.3 134
999 WORDSALL_l'ordinateur~6 134
999 COSIND_0.28 134
999 COSGEN_0.28 134
106 ESRank6 134
203 ESBackSacRefixation 134
999 WORDS_d'Internet~8 143
999 WORDFREQ_0 143
999 WORDSALL_et~7_d'Internet~8 143
999 COSIND_N/A 143
107 ESRank7 143
202 ESForwSacLong+2+4 143
999 WORDS_importante~10 170
999 WORDFREQ_18.31 170
999 WORDSALL_est~9_importante~10 170
999 COSIND_0.01 170
999 COSGEN_0.01 170
108 ESRank8 170
202 ESForwSacLong+2+5 170
999 WORDS_importante~10 119
999 WORDFREQ_18.31 119
999 WORDSALL_importante~10 119
999 COSIND_0.01 119
999 COSGEN_0.01 119
109 ESRank9 119
203 ESBackSacRefixation 119
999 WORDS_systèmes~12 186
999 WORDFREQ_4.73 186
999 WORDSALL_Des~11_systèmes~12 186
999 COSIND_0.13 186
999 COSGEN_0.13 186
110 ESRank10 186
202 ESForwSacLong+2+5 186
999 WORDS_formation~14 162
999 WORDFREQ_9.32 162
999 WORDSALL_de~13_formation~14 162
999 COSIND_0.93 162
999 COSGEN_0.93 162
111 ESRank11 162
202 ESForwSacLong+2+4 162
999 WORDS_distance~16 257
999 WORDFREQ_52.64 257
999 WORDSALL_à~15_distance~16 257
999 COSIND_0.23 257
999 COSGEN_0.23 257
112 ESRank12 257
202 ESForwSacLong+2+4 257
999 WORDS_distance~16 157
999 WORDFREQ_52.64 157
999 WORDSALL_distance~16 157
999 COSIND_0.23 157
999 COSGEN_0.23 157
113 ESRank13 157
203 ESBackSacRefixation 157
999 WORDS_pédagogie~20 185
999 WORDFREQ_1.22 185
999 WORDSALL_la~19_pédagogie~20 185
999 COSIND_0.19 185
999 COSGEN_0.19 185
114 ESRank14 185
202 ESForwSacLong+4+10 185
999 WORDS_adultes~22 148
999 WORDFREQ_17.23 148
999 WORDSALL_pour~21_adultes~22 148
999 COSIND_0.09 148
999 COSGEN_0.09 148
115 ESRank15 148
202 ESForwSacLong+2+6 148
999 WORDS_formation~24 204
999 WORDFREQ_9.32 204
999 WORDSALL_en~23_formation~24 204
999 COSIND_0.93 204
999 COSGEN_0.93 204
116 ESRank16 204
202 ESForwSacLong+2+4 204
999 WORDS_adultes~22 122
999 WORDFREQ_17.23 122
999 WORDSALL_pour~21_adultes~22 122
999 COSIND_0.09 122
999 COSGEN_0.09 122
117 ESRank17 122
206 ESBackSacRegrLong-2-4 122
999 WORDS_connaissance~2 197
999 WORDFREQ_55.81 197
999 WORDSALL_bonne~1_connaissance~2 197
999 COSIND_0.12 197
999 COSGEN_0.12 197
118 ESRank18 197
206 ESBackSacRegrLong-20-128 197
200 ESRankN 197
199 ESRankNMinus1 122
198 ESRankNMinus2 204
197 ESRankNMinus3 148
196 ESRankNMinus4 185
195 ESRankNMinus5 157
194 ESRankNMinus6 257
193 ESRankNMinus7 162
192 ESRankNMinus8 186
191 ESRankNMinus9 119
190 ESRankNMinus10 170
