999 WORDS_Zinedine~0 133
999 WORDFREQ_N/A 133
999 WORDSALL_Zinedine~0 133
999 COSIND_N/A 133
101 ESRank1 133
999 WORDS_Zidane~1 266
999 WORDFREQ_N/A 266
999 WORDSALL_Zinedine~0_Zidane~1 266
999 COSIND_N/A 266
102 ESRank2 266
201 ESForwSacShort 266
999 WORDS_grand~2 177
999 WORDFREQ_537.97 177
999 WORDSALL_grand~2 177
999 COSIND_-0.01 177
999 COSGEN_-0.01 177
103 ESRank3 177
201 ESForwSacShort 177
999 WORDS_artisan~3 196
999 WORDFREQ_5 196
999 WORDSALL_grand~2_artisan~3 196
999 COSIND_-0.08 196
999 COSGEN_-0.08 196
104 ESRank4 196
201 ESForwSacShort 196
999 WORDS_France~9 285
999 WORDFREQ_N/A 285
999 WORDSALL_Zidane~1_grand~2_France~9 285
999 COSIND_N/A 285
105 ESRank5 285
202 ESForwSacLong+6+22 285
999 WORDS_finale~11 166
999 WORDFREQ_2.5 166
999 WORDSALL_en~10_finale~11 166
999 COSIND_-0.01 166
999 COSGEN_-0.01 166
106 ESRank6 166
202 ESForwSacLong+2+4 166
999 WORDS_Brésil~19 161
999 WORDFREQ_0.07 161
999 WORDSALL_en~10_finale~11_Brésil~19 161
999 COSIND_-0.01 161
999 COSGEN_-0.01 161
107 ESRank7 161
202 ESForwSacLong+8+32 161
999 WORDS_a~20 160
999 WORDFREQ_2926.69 160
999 WORDSALL_finale~11_Brésil~19_a~20 160
999 COSIND_N/A 160
108 ESRank8 160
201 ESForwSacShort 160
999 WORDS_champions~25 136
999 WORDFREQ_2.97 136
999 WORDSALL_contre~17_Brésil~19_champions~25 136
999 COSIND_0.01 136
999 COSGEN_0.01 136
109 ESRank9 136
202 ESForwSacLong+5+25 136
200 ESRankN 136
199 ESRankNMinus1 160
198 ESRankNMinus2 161
197 ESRankNMinus3 166
196 ESRankNMinus4 285
195 ESRankNMinus5 196
194 ESRankNMinus6 177
193 ESRankNMinus7 266
192 ESRankNMinus8 133
