# 139 Fixation 1 (330.6,286.9): L'Euro~0
# 152 Fixation 2 (446.5,290.2): poursuivait~1
# 154 Fixation 3 (575.4,298): remontée~3
# 128 Fixation 4 (691.3,286.4): face~4
# 188 Fixation 5 (416.2,346.5): vendredi~7
# 163 Fixation 6 (578,334.8): les~9 premiers~10
# 111 Fixation 7 (702.8,347.3): premiers~10 échanges~11
%%
# L'Euro~0 Fixations= "1/"
# poursuivait~1 Fixations= "2/"
# sa~2 Fixations= ""
# remontée~3 Fixations= "3/"
# face~4 Fixations= "4/"
# au~5 Fixations= ""
# dollar~6 Fixations= ""
# vendredi~7 Fixations= "5/"
# dans~8 Fixations= ""
# les~9 Fixations= "6/"
# premiers~10 Fixations= "7/"
# échanges~11 Fixations= "7/"
# entre~12 Fixations= ""
# bourses~13 Fixations= ""
# Soutenu~14 Fixations= ""
# par~15 Fixations= ""
# les~16 Fixations= ""
# bonnes~17 Fixations= ""
# perspectives~18 Fixations= ""
# de~19 Fixations= ""
# croissance~20 Fixations= ""
# économique~21 Fixations= ""
# et~22 Fixations= ""
# sociale~23 Fixations= ""
# il~24 Fixations= ""
# atteignait~25 Fixations= ""
# un~26 Fixations= ""
# record~27 Fixations= ""
# historique~28 Fixations= ""
%%
#  L'EURO[1] POURSUIVAIT[2] sa REMONTéE[3] FACE[4] au dollar VENDREDI[5] dans LES[6] PREMIERS[7] éCHANGES[7] entre bourses Soutenu par les bonnes perspectives de croissance économique et sociale il atteignait un record historique
# s07 faiblesse_dollar-f1 PercentageOfWordsProcessed= 0.275862068965517 PercentageOfWordsReallyProcessed= 0.666666666666667
