999 WORDS_Code~1 187
999 WORDFREQ_13.58 187
999 WORDSALL_Le~0_Code~1 187
999 COSIND_0.10 187
999 COSGEN_0.10 187
101 ESRank1 187
999 WORDS_Code~1 89
999 WORDFREQ_13.58 89
999 WORDSALL_Le~0_Code~1 89
999 COSIND_0.10 89
999 COSGEN_0.10 89
102 ESRank2 89
203 ESBackSacRefixation 89
999 WORDS_procédure~3 201
999 WORDFREQ_3.38 201
999 WORDSALL_Code~1_procédure~3 201
999 COSIND_0.28 201
999 COSGEN_0.28 201
103 ESRank3 201
202 ESForwSacLong+2+4 201
999 WORDS_pénale~4 251
999 WORDFREQ_0.2 251
999 WORDSALL_procédure~3_pénale~4 251
999 COSIND_0.49 251
999 COSGEN_0.49 251
104 ESRank4 251
201 ESForwSacShort 251
999 WORDS_pénale~4 111
999 WORDFREQ_0.2 111
999 WORDSALL_pénale~4 111
999 COSIND_0.49 111
999 COSGEN_0.49 111
105 ESRank5 111
203 ESBackSacRefixation 111
999 WORDS_réaffirme~5 252
999 WORDFREQ_0 252
999 WORDSALL_réaffirme~5 252
999 COSIND_0.19 252
999 COSGEN_0.19 252
106 ESRank6 252
201 ESForwSacShort 252
999 WORDS_réaffirme~5 138
999 WORDFREQ_0 138
999 WORDSALL_pénale~4_réaffirme~5 138
999 COSIND_0.19 138
999 COSGEN_0.19 138
107 ESRank7 138
203 ESBackSacRefixation 138
999 WORDS_réaffirme~5 113
999 WORDFREQ_0 113
999 WORDSALL_réaffirme~5 113
999 COSIND_0.19 113
999 COSGEN_0.19 113
108 ESRank8 113
203 ESBackSacRefixation 113
999 WORDS_principe~7 234
999 WORDFREQ_30.88 234
999 WORDSALL_principe~7 234
999 COSIND_0.05 234
999 COSGEN_0.05 234
109 ESRank9 234
202 ESForwSacLong+2+4 234
999 WORDS_principe~7 83
999 WORDFREQ_30.88 83
999 WORDSALL_principe~7 83
999 COSIND_0.05 83
999 COSGEN_0.05 83
110 ESRank10 83
203 ESBackSacRefixation 83
999 WORDS_publicité~10 265
999 WORDFREQ_12.57 265
999 WORDSALL_de~8_publicité~10 265
999 COSIND_0.03 265
999 COSGEN_0.03 265
111 ESRank11 265
202 ESForwSacLong+3+7 265
999 WORDS_publicité~10 118
999 WORDFREQ_12.57 118
999 WORDSALL_la~9_publicité~10 118
999 COSIND_0.03 118
999 COSGEN_0.03 118
112 ESRank12 118
203 ESBackSacRefixation 118
999 WORDS_débats~12 149
999 WORDFREQ_6.35 149
999 WORDSALL_des~11_débats~12 149
999 COSIND_0.06 149
999 COSGEN_0.06 149
113 ESRank13 149
202 ESForwSacLong+2+5 149
999 WORDS_débats~12 300
999 WORDFREQ_6.35 300
999 WORDSALL_des~11_débats~12 300
999 COSIND_0.06 300
999 COSGEN_0.06 300
114 ESRank14 300
203 ESBackSacRefixation 300
999 WORDS_débats~12 229
999 WORDFREQ_6.35 229
999 WORDSALL_publicité~10_débats~12 229
999 COSIND_0.06 229
999 COSGEN_0.06 229
115 ESRank15 229
203 ESBackSacRefixation 229
999 WORDS_débats~12 129
999 WORDFREQ_6.35 129
999 WORDSALL_débats~12 129
999 COSIND_0.06 129
999 COSGEN_0.06 129
116 ESRank16 129
203 ESBackSacRefixation 129
999 WORDS_indique~14 118
999 WORDFREQ_10.2 118
999 WORDSALL_indique~14 118
999 COSIND_0.02 118
999 COSGEN_0.02 118
117 ESRank17 118
202 ESForwSacLong+2+4 118
999 WORDS_indique~14 120
999 WORDFREQ_10.2 120
999 WORDSALL_indique~14 120
999 COSIND_0.02 120
999 COSGEN_0.02 120
118 ESRank18 120
203 ESBackSacRefixation 120
999 WORDS_indique~14 98
999 WORDFREQ_10.2 98
999 WORDSALL_indique~14 98
999 COSIND_0.02 98
999 COSGEN_0.02 98
119 ESRank19 98
203 ESBackSacRefixation 98
999 WORDS_débats~17 188
999 WORDFREQ_6.35 188
999 WORDSALL_que~15_débats~17 188
999 COSIND_0.06 188
999 COSGEN_0.06 188
120 ESRank20 188
202 ESForwSacLong+3+9 188
999 WORDS_débats~17 110
999 WORDFREQ_6.35 110
999 WORDSALL_les~16_débats~17 110
999 COSIND_0.06 110
999 COSGEN_0.06 110
203 ESBackSacRefixation 110
999 WORDS_publics~19 304
999 WORDFREQ_14.46 304
999 WORDSALL_sont~18_publics~19 304
999 COSIND_-0.04 304
999 COSGEN_-0.04 304
202 ESForwSacLong+2+6 304
200 ESRankN 304
199 ESRankNMinus1 110
198 ESRankNMinus2 188
197 ESRankNMinus3 98
196 ESRankNMinus4 120
195 ESRankNMinus5 118
194 ESRankNMinus6 129
193 ESRankNMinus7 229
192 ESRankNMinus8 300
191 ESRankNMinus9 149
190 ESRankNMinus10 118
