# 164 Fixation 1 (291.6,271.9): Les~0 agences~1
# 153 Fixation 2 (418.5,259.9): agences~1 spatiales~2
# 199 Fixation 3 (577.4,267.5): françaises~3
# 160 Fixation 4 (283.9,338.8): Les~0 agences~1 japonaises~5
# 151 Fixation 5 (457.2,338.6): spatiales~2 ont~6 décidé~7
# 143 Fixation 6 (631.7,340.8): françaises~3 créer~9
# 129 Fixation 7 (707.4,338.2): et~4 groupes~11
# 170 Fixation 8 (308.7,405): japonaises~5 travail~13
# 161 Fixation 9 (483.5,413.1): le~15 suivi~16
# 112 Fixation 10 (603.1,412.2): de~8 créer~9 risques~18
# 129 Fixation 11 (310.4,478): naturels~19
# 92 Fixation 12 (256.7,472.9): de~12 travail~13 naturels~19
# 152 Fixation 13 (443.3,473.2): sur~14 suivi~16
# 125 Fixation 14 (538.3,480.9): d'eux~21 sera~22
# 144 Fixation 15 (270.4,546.1): réfléchir~25
# 131 Fixation 16 (564.4,534.7): sera~22
# 136 Fixation 17 (312.4,596.9): réfléchir~25 données~31
%%
# Les~0 Fixations= "4/"
# agences~1 Fixations= "4/"
# spatiales~2 Fixations= "5/"
# françaises~3 Fixations= "6/"
# et~4 Fixations= "7/"
# japonaises~5 Fixations= "8/"
# ont~6 Fixations= "5/"
# décidé~7 Fixations= "5/"
# de~8 Fixations= "10/"
# créer~9 Fixations= "10/"
# des~10 Fixations= ""
# groupes~11 Fixations= "7/"
# de~12 Fixations= "12/"
# travail~13 Fixations= "12/"
# sur~14 Fixations= "13/"
# le~15 Fixations= "9/"
# suivi~16 Fixations= "13/"
# des~17 Fixations= ""
# risques~18 Fixations= "10/"
# naturels~19 Fixations= "12/"
# L'un~20 Fixations= ""
# d'eux~21 Fixations= "14/"
# sera~22 Fixations= "16/"
# chargé~23 Fixations= ""
# de~24 Fixations= ""
# réfléchir~25 Fixations= "17/"
# à~26 Fixations= ""
# une~27 Fixations= ""
# meilleure~28 Fixations= ""
# utilisation~29 Fixations= ""
# des~30 Fixations= ""
# données~31 Fixations= "17/"
# spatiales~32 Fixations= ""
%%
#  LES[4] AGENCES[4] SPATIALES[5] FRANçAISES[6] ET[7] JAPONAISES[8] ONT[5] DéCIDé[5] DE[10] CRéER[10] des GROUPES[7] DE[12] TRAVAIL[12] SUR[13] LE[9] SUIVI[13] des RISQUES[10] NATURELS[12] L'un D'EUX[14] SERA[16] chargé de RéFLéCHIR[17] à une meilleure utilisation des DONNéES[17] spatiales
# s19 chasse_oiseaux-a1 PercentageOfWordsProcessed= 0.666666666666667 PercentageOfWordsReallyProcessed= 0.6875
