999 WORDS_Code~1 119
999 WORDFREQ_13.58 119
999 WORDSALL_Le~0_Code~1 119
999 COSIND_0.10 119
999 COSGEN_0.10 119
101 ESRank1 119
999 WORDS_procédure~3 190
999 WORDFREQ_3.38 190
999 WORDSALL_de~2_procédure~3 190
999 COSIND_0.28 190
999 COSGEN_0.28 190
102 ESRank2 190
202 ESForwSacLong+2+4 190
999 WORDS_Code~1 133
999 WORDFREQ_13.58 133
999 WORDSALL_Le~0_Code~1 133
999 COSIND_0.10 133
999 COSGEN_0.10 133
103 ESRank3 133
206 ESBackSacRegrLong-2-4 133
999 WORDS_procédure~3 134
999 WORDFREQ_3.38 134
999 WORDSALL_Code~1_procédure~3 134
999 COSIND_0.28 134
999 COSGEN_0.28 134
104 ESRank4 134
202 ESForwSacLong+2+4 134
999 WORDS_pénale~4 349
999 WORDFREQ_0.2 349
999 WORDSALL_procédure~3_pénale~4 349
999 COSIND_0.49 349
999 COSGEN_0.49 349
105 ESRank5 349
201 ESForwSacShort 349
999 WORDS_réaffirme~5 326
999 WORDFREQ_0 326
999 WORDSALL_pénale~4_réaffirme~5 326
999 COSIND_0.19 326
999 COSGEN_0.19 326
106 ESRank6 326
201 ESForwSacShort 326
999 WORDS_principe~7 225
999 WORDFREQ_30.88 225
999 WORDSALL_principe~7 225
999 COSIND_0.05 225
999 COSGEN_0.05 225
107 ESRank7 225
202 ESForwSacLong+2+4 225
999 WORDS_publicité~10 225
999 WORDFREQ_12.57 225
999 WORDSALL_de~8_publicité~10 225
999 COSIND_0.03 225
999 COSGEN_0.03 225
108 ESRank8 225
202 ESForwSacLong+3+7 225
999 WORDS_publicité~10 121
999 WORDFREQ_12.57 121
999 WORDSALL_publicité~10 121
999 COSIND_0.03 121
999 COSGEN_0.03 121
109 ESRank9 121
203 ESBackSacRefixation 121
999 WORDS_débats~12 266
999 WORDFREQ_6.35 266
999 WORDSALL_des~11_débats~12 266
999 COSIND_0.06 266
999 COSGEN_0.06 266
110 ESRank10 266
202 ESForwSacLong+2+5 266
999 WORDS_publicité~10 242
999 WORDFREQ_12.57 242
999 WORDSALL_la~9_publicité~10 242
999 COSIND_0.03 242
999 COSGEN_0.03 242
111 ESRank11 242
206 ESBackSacRegrLong-2-5 242
999 WORDS_débats~12 177
999 WORDFREQ_6.35 177
999 WORDSALL_des~11_débats~12 177
999 COSIND_0.06 177
999 COSGEN_0.06 177
112 ESRank12 177
202 ESForwSacLong+2+5 177
999 WORDS_débats~12 215
999 WORDFREQ_6.35 215
999 WORDSALL_des~11_débats~12 215
999 COSIND_0.06 215
999 COSGEN_0.06 215
113 ESRank13 215
203 ESBackSacRefixation 215
999 WORDS_débats~12 137
999 WORDFREQ_6.35 137
999 WORDSALL_débats~12 137
999 COSIND_0.06 137
999 COSGEN_0.06 137
114 ESRank14 137
203 ESBackSacRefixation 137
999 WORDS_indique~14 207
999 WORDFREQ_10.2 207
999 WORDSALL_indique~14 207
999 COSIND_0.02 207
999 COSGEN_0.02 207
115 ESRank15 207
202 ESForwSacLong+2+4 207
999 WORDS_débats~17 112
999 WORDFREQ_6.35 112
999 WORDSALL_que~15_débats~17 112
999 COSIND_0.06 112
999 COSGEN_0.06 112
116 ESRank16 112
202 ESForwSacLong+3+9 112
999 WORDS_débats~17 100
999 WORDFREQ_6.35 100
999 WORDSALL_les~16_débats~17 100
999 COSIND_0.06 100
999 COSGEN_0.06 100
117 ESRank17 100
203 ESBackSacRefixation 100
999 WORDS_sont~18 214
999 WORDFREQ_713.18 214
999 WORDSALL_débats~17_sont~18 214
999 COSIND_0.05 214
999 COSGEN_0.05 214
118 ESRank18 214
201 ESForwSacShort 214
999 WORDS_publics~19 106
999 WORDFREQ_14.46 106
999 WORDSALL_sont~18_publics~19 106
999 COSIND_-0.04 106
999 COSGEN_-0.04 106
119 ESRank19 106
201 ESForwSacShort 106
999 WORDS_moins~21 197
999 WORDFREQ_718.18 197
999 WORDSALL_moins~21 197
999 COSIND_N/A 197
120 ESRank20 197
202 ESForwSacLong+2+4 197
999 WORDS_publicité~24 252
999 WORDFREQ_12.57 252
999 WORDSALL_que~22_publicité~24 252
999 COSIND_0.03 252
999 COSGEN_0.03 252
202 ESForwSacLong+3+8 252
999 WORDS_soit~26 233
999 WORDFREQ_167.03 233
999 WORDSALL_ne~25_soit~26 233
999 COSIND_N/A 233
202 ESForwSacLong+2+4 233
999 WORDS_soit~26 124
999 WORDFREQ_167.03 124
999 WORDSALL_soit~26 124
999 COSIND_N/A 124
203 ESBackSacRefixation 124
999 WORDS_l'ordre~29 124
999 WORDFREQ_179.26 124
999 WORDSALL_l'ordre~29 124
999 COSIND_0.05 124
999 COSGEN_0.05 124
202 ESForwSacLong+3+17 124
999 WORDS_publicité~24 182
999 WORDFREQ_12.57 182
999 WORDSALL_publicité~24 182
999 COSIND_0.03 182
999 COSGEN_0.03 182
206 ESBackSacRegrLong-5-25 182
999 WORDS_publicité~24 180
999 WORDFREQ_12.57 180
999 WORDSALL_publicité~24 180
999 COSIND_0.03 180
999 COSGEN_0.03 180
203 ESBackSacRefixation 180
999 WORDS_soit~26 133
999 WORDFREQ_167.03 133
999 WORDSALL_ne~25_soit~26 133
999 COSIND_N/A 133
202 ESForwSacLong+2+4 133
200 ESRankN 133
199 ESRankNMinus1 180
198 ESRankNMinus2 182
197 ESRankNMinus3 124
196 ESRankNMinus4 124
195 ESRankNMinus5 233
194 ESRankNMinus6 252
193 ESRankNMinus7 197
192 ESRankNMinus8 106
191 ESRankNMinus9 214
190 ESRankNMinus10 100
