999 WORDS_bombardier~1 137
999 WORDFREQ_0.68 137
999 WORDSALL_Le~0_bombardier~1 137
999 COSIND_-0.03 137
999 COSGEN_-0.03 137
101 ESRank1 137
999 WORDS_Bourget~9 124
999 WORDFREQ_N/A 124
999 WORDSALL_bombardier~1_Spirit~2_Bourget~9 124
999 COSIND_N/A 124
102 ESRank2 124
202 ESForwSacLong+8+38 124
999 WORDS_Spirit~2 159
999 WORDFREQ_N/A 159
999 WORDSALL_Spirit~2 159
999 COSIND_N/A 159
103 ESRank3 159
206 ESBackSacRegrLong-7-31 159
999 WORDS_entraperçu~11 144
999 WORDFREQ_0.07 144
999 WORDSALL_que~3_visiteurs~5_entraperçu~11 144
999 COSIND_0.04 144
999 COSGEN_0.04 144
104 ESRank4 144
202 ESForwSacLong+9+43 144
999 WORDS_visiteurs~5 175
999 WORDFREQ_16.76 175
999 WORDSALL_les~4_visiteurs~5 175
999 COSIND_-0.08 175
999 COSGEN_-0.08 175
105 ESRank5 175
206 ESBackSacRegrLong-6-25 175
999 WORDS_passage~19 138
999 WORDFREQ_136.82 138
999 WORDSALL_ont~10_entraperçu~11_passage~19 138
999 COSIND_-0.06 138
999 COSGEN_-0.06 138
106 ESRank6 138
202 ESForwSacLong+14+70 138
999 WORDS_entraperçu~11 131
999 WORDFREQ_0.07 131
999 WORDSALL_entraperçu~11 131
999 COSIND_0.04 131
999 COSGEN_0.04 131
107 ESRank7 131
206 ESBackSacRegrLong-8-34 131
999 WORDS_au-dessus~20 123
999 WORDFREQ_0.07 123
999 WORDSALL_entraperçu~11_juin~13_au-dessus~20 123
999 COSIND_N/A 123
108 ESRank8 123
202 ESForwSacLong+9+42 123
999 WORDS_juin~13 159
999 WORDFREQ_51.28 159
999 WORDSALL_en~12_juin~13 159
999 COSIND_0.00 159
999 COSGEN_0.00 159
109 ESRank9 159
206 ESBackSacRegrLong-7-34 159
999 WORDS_bref~18 154
999 WORDFREQ_35.2 154
999 WORDSALL_très~17_bref~18 154
999 COSIND_-0.08 154
999 COSGEN_-0.08 154
110 ESRank10 154
202 ESForwSacLong+5+21 154
999 WORDS_passage~19 157
999 WORDFREQ_136.82 157
999 WORDSALL_bref~18_passage~19 157
999 COSIND_-0.06 157
999 COSGEN_-0.06 157
111 ESRank11 157
201 ESForwSacShort 157
999 WORDS_au-dessus~20 236
999 WORDFREQ_0.07 236
999 WORDSALL_entraperçu~11_juin~13_au-dessus~20 236
999 COSIND_N/A 236
112 ESRank12 236
201 ESForwSacShort 236
999 WORDS_têtes~23 199
999 WORDFREQ_61.96 199
999 WORDSALL_temps~15_têtes~23 199
999 COSIND_0.02 199
999 COSGEN_0.02 199
113 ESRank13 199
202 ESForwSacLong+3+10 199
999 WORDS_bref~18 126
999 WORDFREQ_35.2 126
999 WORDSALL_très~17_bref~18 126
999 COSIND_-0.08 126
999 COSGEN_-0.08 126
114 ESRank14 126
206 ESBackSacRegrLong-5-28 126
999 WORDS_drôle~26 130
999 WORDFREQ_14.46 130
999 WORDSALL_passage~19_drôle~26 130
999 COSIND_-0.06 130
999 COSGEN_-0.06 130
115 ESRank15 130
202 ESForwSacLong+8+43 130
999 WORDS_machine~28 169
999 WORDFREQ_58.99 169
999 WORDSALL_passage~19_au-dessus~20_machine~28 169
999 COSIND_-0.02 169
999 COSGEN_-0.02 169
116 ESRank16 169
202 ESForwSacLong+2+4 169
999 WORDS_têtes~23 165
999 WORDFREQ_61.96 165
999 WORDSALL_têtes~23 165
999 COSIND_0.02 165
999 COSGEN_0.02 165
117 ESRank17 165
206 ESBackSacRegrLong-5-19 165
200 ESRankN 165
199 ESRankNMinus1 169
198 ESRankNMinus2 130
197 ESRankNMinus3 126
196 ESRankNMinus4 199
195 ESRankNMinus5 236
194 ESRankNMinus6 157
193 ESRankNMinus7 154
192 ESRankNMinus8 159
191 ESRankNMinus9 123
190 ESRankNMinus10 131
