999 WORDS_pacte~1 110
999 WORDFREQ_11.49 110
999 WORDSALL_Le~0_pacte~1 110
999 COSIND_0.15 110
999 COSGEN_0.15 110
101 ESRank1 110
999 WORDS_stabilité~3 148
999 WORDFREQ_3.18 148
999 WORDSALL_de~2_stabilité~3 148
999 COSIND_0.35 148
999 COSGEN_0.35 148
102 ESRank2 148
202 ESForwSacLong+2+4 148
999 WORDS_stabilité~3 148
999 WORDFREQ_3.18 148
999 WORDSALL_stabilité~3 148
999 COSIND_0.35 148
999 COSGEN_0.35 148
103 ESRank3 148
203 ESBackSacRefixation 148
999 WORDS_stabilité~3 84
999 WORDFREQ_3.18 84
999 WORDSALL_stabilité~3 84
999 COSIND_0.35 84
999 COSGEN_0.35 84
104 ESRank4 84
203 ESBackSacRefixation 84
999 WORDS_croissance~6 140
999 WORDFREQ_3.92 140
999 WORDSALL_et~4_croissance~6 140
999 COSIND_0.79 140
999 COSGEN_0.79 140
105 ESRank5 140
202 ESForwSacLong+3+7 140
999 WORDS_croissance~6 129
999 WORDFREQ_3.92 129
999 WORDSALL_croissance~6 129
999 COSIND_0.79 129
999 COSGEN_0.79 129
106 ESRank6 129
203 ESBackSacRefixation 129
999 WORDS_pose~7 103
999 WORDFREQ_48.85 103
999 WORDSALL_pose~7 103
999 COSIND_0.00 103
999 COSGEN_0.00 103
107 ESRank7 103
201 ESForwSacShort 103
999 WORDS_limites~9 175
999 WORDFREQ_25.47 175
999 WORDSALL_des~8_limites~9 175
999 COSIND_-0.01 175
999 COSGEN_-0.01 175
108 ESRank8 175
202 ESForwSacLong+2+5 175
999 WORDS_limites~9 156
999 WORDFREQ_25.47 156
999 WORDSALL_des~8_limites~9 156
999 COSIND_-0.01 156
999 COSGEN_-0.01 156
109 ESRank9 156
203 ESBackSacRefixation 156
999 WORDS_l'utilisation~11 361
999 WORDFREQ_4.12 361
999 WORDSALL_à~10_l'utilisation~11 361
999 COSIND_-0.06 361
999 COSGEN_-0.06 361
110 ESRank10 361
202 ESForwSacLong+2+4 361
999 WORDS_l'utilisation~11 90
999 WORDFREQ_4.12 90
999 WORDSALL_l'utilisation~11 90
999 COSIND_-0.06 90
999 COSGEN_-0.06 90
111 ESRank11 90
203 ESBackSacRefixation 90
999 WORDS_budget~13 199
999 WORDFREQ_5.34 199
999 WORDSALL_du~12_budget~13 199
999 COSIND_0.18 199
999 COSGEN_0.18 199
112 ESRank12 199
202 ESForwSacLong+2+4 199
999 WORDS_budget~13 147
999 WORDFREQ_5.34 147
999 WORDSALL_budget~13 147
999 COSIND_0.18 147
999 COSGEN_0.18 147
113 ESRank13 147
203 ESBackSacRefixation 147
999 WORDS_relancer~15 262
999 WORDFREQ_2.77 262
999 WORDSALL_relancer~15 262
999 COSIND_0.15 262
999 COSGEN_0.15 262
114 ESRank14 262
202 ESForwSacLong+2+6 262
999 WORDS_relancer~15 159
999 WORDFREQ_2.77 159
999 WORDSALL_relancer~15 159
999 COSIND_0.15 159
999 COSGEN_0.15 159
115 ESRank15 159
203 ESBackSacRefixation 159
999 WORDS_économie~17 191
999 WORDFREQ_15.74 191
999 WORDSALL_une~16_économie~17 191
999 COSIND_0.88 191
999 COSGEN_0.88 191
116 ESRank16 191
202 ESForwSacLong+2+5 191
999 WORDS_économistes~19 265
999 WORDFREQ_0.14 265
999 WORDSALL_Les~18_économistes~19 265
999 COSIND_0.64 265
999 COSGEN_0.64 265
117 ESRank17 265
202 ESForwSacLong+2+5 265
999 WORDS_économistes~19 182
999 WORDFREQ_0.14 182
999 WORDSALL_économistes~19 182
999 COSIND_0.64 182
999 COSGEN_0.64 182
118 ESRank18 182
203 ESBackSacRefixation 182
999 WORDS_relancer~15 103
999 WORDFREQ_2.77 103
999 WORDSALL_relancer~15 103
999 COSIND_0.15 103
999 COSGEN_0.15 103
119 ESRank19 103
206 ESBackSacRegrLong-4-19 103
999 WORDS_s'interrogent~20 151
999 WORDFREQ_1.42 151
999 WORDSALL_s'interrogent~20 151
999 COSIND_0.04 151
999 COSGEN_0.04 151
120 ESRank20 151
202 ESForwSacLong+5+32 151
999 WORDS_s'interrogent~20 180
999 WORDFREQ_1.42 180
999 WORDSALL_s'interrogent~20 180
999 COSIND_0.04 180
999 COSGEN_0.04 180
203 ESBackSacRefixation 180
999 WORDS_pérennité~23 151
999 WORDFREQ_0.74 151
999 WORDSALL_la~22_pérennité~23 151
999 COSIND_0.03 151
999 COSGEN_0.03 151
202 ESForwSacLong+3+8 151
999 WORDS_de~24 135
999 WORDFREQ_38928.92 135
999 WORDSALL_de~24 135
999 COSIND_N/A 135
201 ESForwSacShort 135
999 WORDS_de~24 114
999 WORDFREQ_38928.92 114
999 WORDSALL_de~24 114
999 COSIND_N/A 114
203 ESBackSacRefixation 114
999 WORDS_croissance~26 97
999 WORDFREQ_3.92 97
999 WORDSALL_croissance~26 97
999 COSIND_0.79 97
999 COSGEN_0.79 97
202 ESForwSacLong+2+7 97
999 WORDS_croissance~26 141
999 WORDFREQ_3.92 141
999 WORDSALL_croissance~26 141
999 COSIND_0.79 141
999 COSGEN_0.79 141
203 ESBackSacRefixation 141
999 WORDS_étonnante~29 180
999 WORDFREQ_10.47 180
999 WORDSALL_qui~27_étonnante~29 180
999 COSIND_0.02 180
999 COSGEN_0.02 180
202 ESForwSacLong+3+9 180
200 ESRankN 180
199 ESRankNMinus1 141
198 ESRankNMinus2 97
197 ESRankNMinus3 114
196 ESRankNMinus4 135
195 ESRankNMinus5 151
194 ESRankNMinus6 180
193 ESRankNMinus7 151
192 ESRankNMinus8 103
191 ESRankNMinus9 182
190 ESRankNMinus10 265
