999 WORDS_Comment~0 196
999 WORDFREQ_164.93 196
999 WORDSALL_Comment~0 196
999 COSIND_N/A 196
101 ESRank1 196
999 WORDS_France~2 227
999 WORDFREQ_N/A 227
999 WORDSALL_Comment~0_France~2 227
999 COSIND_N/A 227
102 ESRank2 227
202 ESForwSacLong+2+4 227
999 WORDS_France~2 401
999 WORDFREQ_N/A 401
999 WORDSALL_France~2 401
999 COSIND_N/A 401
103 ESRank3 401
203 ESBackSacRefixation 401
999 WORDS_pourra-t-elle~3 349
999 WORDFREQ_N/A 349
999 WORDSALL_pourra-t-elle~3 349
999 COSIND_N/A 349
104 ESRank4 349
201 ESForwSacShort 349
999 WORDS_pourra-t-elle~3 180
999 WORDFREQ_N/A 180
999 WORDSALL_pourra-t-elle~3 180
999 COSIND_N/A 180
105 ESRank5 180
203 ESBackSacRefixation 180
999 WORDS_passer~5 218
999 WORDFREQ_288.78 218
999 WORDSALL_pourra-t-elle~3_passer~5 218
999 COSIND_-0.02 218
999 COSGEN_-0.02 218
106 ESRank6 218
202 ESForwSacLong+2+4 218
999 WORDS_passer~5 198
999 WORDFREQ_288.78 198
999 WORDSALL_se~4_passer~5 198
999 COSIND_-0.02 198
999 COSGEN_-0.02 198
107 ESRank7 198
203 ESBackSacRefixation 198
999 WORDS_passer~5 97
999 WORDFREQ_288.78 97
999 WORDSALL_se~4_passer~5 97
999 COSIND_-0.02 97
999 COSGEN_-0.02 97
108 ESRank8 97
203 ESBackSacRefixation 97
999 WORDS_cigarette~8 253
999 WORDFREQ_77.57 253
999 WORDSALL_la~7_cigarette~8 253
999 COSIND_0.09 253
999 COSGEN_0.09 253
109 ESRank9 253
202 ESForwSacLong+3+7 253
999 WORDS_publics~15 190
999 WORDFREQ_14.46 190
999 WORDSALL_L'interdiction~9_publics~15 190
999 COSIND_0.02 190
999 COSGEN_0.02 190
110 ESRank10 190
202 ESForwSacLong+7+40 190
999 WORDS_publics~15 148
999 WORDFREQ_14.46 148
999 WORDSALL_L'interdiction~9_publics~15 148
999 COSIND_0.02 148
999 COSGEN_0.02 148
111 ESRank11 148
203 ESBackSacRefixation 148
200 ESRankN 148
199 ESRankNMinus1 190
198 ESRankNMinus2 253
197 ESRankNMinus3 97
196 ESRankNMinus4 198
195 ESRankNMinus5 218
194 ESRankNMinus6 180
193 ESRankNMinus7 349
192 ESRankNMinus8 401
191 ESRankNMinus9 227
190 ESRankNMinus10 196
