999 WORDS_livres~1 155
999 WORDFREQ_134.73 155
999 WORDSALL_Des~0_livres~1 155
999 COSIND_-0.02 155
999 COSGEN_-0.02 155
101 ESRank1 155
999 WORDS_livres~1 128
999 WORDFREQ_134.73 128
999 WORDSALL_Des~0_livres~1 128
999 COSIND_-0.02 128
999 COSGEN_-0.02 128
102 ESRank2 128
203 ESBackSacRefixation 128
999 WORDS_livres~1 330
999 WORDFREQ_134.73 330
999 WORDSALL_Des~0_livres~1 330
999 COSIND_-0.02 330
999 COSGEN_-0.02 330
103 ESRank3 330
203 ESBackSacRefixation 330
999 WORDS_mémoires~3 309
999 WORDFREQ_5.14 309
999 WORDSALL_de~2_mémoires~3 309
999 COSIND_-0.02 309
999 COSGEN_-0.02 309
104 ESRank4 309
202 ESForwSacLong+2+4 309
999 WORDS_mémoires~3 132
999 WORDFREQ_5.14 132
999 WORDSALL_de~2_mémoires~3 132
999 COSIND_-0.02 132
999 COSGEN_-0.02 132
105 ESRank5 132
203 ESBackSacRefixation 132
999 WORDS_d'anciens~4 360
999 WORDFREQ_39.86 360
999 WORDSALL_d'anciens~4 360
999 COSIND_-0.01 360
999 COSGEN_-0.01 360
106 ESRank6 360
201 ESForwSacShort 360
999 WORDS_déportés~5 247
999 WORDFREQ_4.66 247
999 WORDSALL_déportés~5 247
999 COSIND_0.05 247
999 COSGEN_0.05 247
107 ESRank7 247
201 ESForwSacShort 247
999 WORDS_paraît~8 248
999 WORDFREQ_113.92 248
999 WORDSALL_Des~0_livres~1_paraît~8 248
999 COSIND_0.01 248
999 COSGEN_0.01 248
108 ESRank8 248
202 ESForwSacLong+3+7 248
999 WORDS_paraît~8 458
999 WORDFREQ_113.92 458
999 WORDSALL_en~7_paraît~8 458
999 COSIND_0.01 458
999 COSGEN_0.01 458
109 ESRank9 458
203 ESBackSacRefixation 458
999 WORDS_paraît~8 104
999 WORDFREQ_113.92 104
999 WORDSALL_en~7_paraît~8 104
999 COSIND_0.01 104
999 COSGEN_0.01 104
110 ESRank10 104
203 ESBackSacRefixation 104
999 WORDS_régulièrement~9 304
999 WORDFREQ_27.77 304
999 WORDSALL_régulièrement~9 304
999 COSIND_-0.11 304
999 COSGEN_-0.11 304
111 ESRank11 304
201 ESForwSacShort 304
999 WORDS_qualité~11 237
999 WORDFREQ_42.7 237
999 WORDSALL_De~10_qualité~11 237
999 COSIND_0.05 237
999 COSGEN_0.05 237
112 ESRank12 237
202 ESForwSacLong+2+4 237
999 WORDS_qualité~11 117
999 WORDFREQ_42.7 117
999 WORDSALL_De~10_qualité~11 117
999 COSIND_0.05 117
999 COSGEN_0.05 117
113 ESRank13 117
203 ESBackSacRefixation 117
999 WORDS_jamais~19 181
999 WORDFREQ_1122.97 181
999 WORDSALL_inégale~12_jamais~19 181
999 COSIND_N/A 181
114 ESRank14 181
202 ESForwSacLong+8+47 181
999 WORDS_inégale~12 159
999 WORDFREQ_1.69 159
999 WORDSALL_inégale~12 159
999 COSIND_0.06 159
999 COSGEN_0.06 159
115 ESRank15 159
206 ESBackSacRegrLong-7-38 159
999 WORDS_inégal~15 110
999 WORDFREQ_2.84 110
999 WORDSALL_inégal~15 110
999 COSIND_0.06 110
999 COSGEN_0.06 110
116 ESRank16 110
202 ESForwSacLong+3+16 110
999 WORDS_ressenti~25 194
999 WORDFREQ_0.61 194
999 WORDSALL_ce~17_ressenti~25 194
999 COSIND_N/A 194
117 ESRank17 194
202 ESForwSacLong+10+47 194
999 WORDS_fois~29 82
999 WORDFREQ_1140 82
999 WORDSALL_chaque~28_fois~29 82
999 COSIND_-0.02 82
999 COSGEN_-0.02 82
118 ESRank18 82
202 ESForwSacLong+4+15 82
999 WORDS_fois~29 120
999 WORDFREQ_1140 120
999 WORDSALL_jamais~19_fois~29 120
999 COSIND_-0.02 120
999 COSGEN_-0.02 120
119 ESRank19 120
203 ESBackSacRefixation 120
999 WORDS_fois~29 139
999 WORDFREQ_1140 139
999 WORDSALL_chaque~28_fois~29 139
999 COSIND_-0.02 139
999 COSGEN_-0.02 139
120 ESRank20 139
203 ESBackSacRefixation 139
999 WORDS_unique~30 188
999 WORDFREQ_66.76 188
999 WORDSALL_fois~29_unique~30 188
999 COSIND_0.03 188
999 COSGEN_0.03 188
201 ESForwSacShort 188
999 WORDS_unique~30 148
999 WORDFREQ_66.76 148
999 WORDSALL_fois~29_unique~30 148
999 COSIND_0.03 148
999 COSGEN_0.03 148
203 ESBackSacRefixation 148
999 WORDS_ressenti~25 166
999 WORDFREQ_0.61 166
999 WORDSALL_car~23_ressenti~25 166
999 COSIND_N/A 166
206 ESBackSacRegrLong-5-20 166
200 ESRankN 166
199 ESRankNMinus1 148
198 ESRankNMinus2 188
197 ESRankNMinus3 139
196 ESRankNMinus4 120
195 ESRankNMinus5 82
194 ESRankNMinus6 194
193 ESRankNMinus7 110
192 ESRankNMinus8 159
191 ESRankNMinus9 181
190 ESRankNMinus10 117
