# 289 Fixation 1 (283.2,300.2): La~0 neige~1
# 238 Fixation 2 (428.5,274.6): fait~2 défaut~3
# 152 Fixation 3 (397.6,271): fait~2
# 192 Fixation 4 (622,202.2): les~5 Hautes-Alpes~6
# 227 Fixation 5 (674.1,196): Hautes-Alpes~6
# 242 Fixation 6 (233.4,336.3): La~0 neige~1 Cinq~7
# 167 Fixation 7 (391.5,338.8): neige~1 fait~2 cents~8 travailleurs~9
# 193 Fixation 8 (433.6,326.3): fait~2 défaut~3 travailleurs~9
# 286 Fixation 9 (593,355): saisonniers~10
# 144 Fixation 10 (421.4,380): travailleurs~9
# 201 Fixation 11 (335.7,417.5): d'emploi~12 ont~13
# 251 Fixation 12 (446.2,434): ont~13 manifesté~14
# 356 Fixation 13 (719,401.9): privés~11 rues~17 Gap~19
# 197 Fixation 14 (280.8,490.4): pour~20 exiger~21
# 200 Fixation 15 (347.2,492): exiger~21
# 247 Fixation 16 (452.6,550): des~27 indemnisations~28
%%
# La~0 Fixations= "6/"
# neige~1 Fixations= "7/"
# fait~2 Fixations= "8/"
# défaut~3 Fixations= "8/"
# dans~4 Fixations= ""
# les~5 Fixations= "4/"
# Hautes-Alpes~6 Fixations= "5/"
# Cinq~7 Fixations= "6/"
# cents~8 Fixations= "7/"
# travailleurs~9 Fixations= "10/"
# saisonniers~10 Fixations= "9/"
# privés~11 Fixations= "13/"
# d'emploi~12 Fixations= "11/"
# ont~13 Fixations= "12/"
# manifesté~14 Fixations= "12/"
# dans~15 Fixations= ""
# les~16 Fixations= ""
# rues~17 Fixations= "13/"
# de~18 Fixations= ""
# Gap~19 Fixations= "13/"
# pour~20 Fixations= "14/"
# exiger~21 Fixations= "15/"
# des~22 Fixations= ""
# exploitants~23 Fixations= ""
# de~24 Fixations= ""
# remontées~25 Fixations= ""
# mécaniques~26 Fixations= ""
# des~27 Fixations= "16/"
# indemnisations~28 Fixations= "16/"
%%
#  LA[6] NEIGE[7] FAIT[8] DéFAUT[8] dans LES[4] HAUTES-ALPES[5] CINQ[6] CENTS[7] TRAVAILLEURS[10] SAISONNIERS[9] PRIVéS[13] D'EMPLOI[11] ONT[12] MANIFESTé[12] dans les RUES[13] de GAP[13] POUR[14] EXIGER[15] des exploitants de remontées mécaniques DES[16] INDEMNISATIONS[16]
# s20 salon_aeronautique-a2 PercentageOfWordsProcessed= 0.689655172413793 PercentageOfWordsReallyProcessed= 0.689655172413793
