999 WORDS_moitié~1 105
999 WORDFREQ_76.96 105
999 WORDSALL_La~0_moitié~1 105
999 COSIND_0.12 105
999 COSGEN_0.12 105
101 ESRank1 105
999 WORDS_moitié~1 149
999 WORDFREQ_76.96 149
999 WORDSALL_La~0_moitié~1 149
999 COSIND_0.12 149
999 COSGEN_0.12 149
102 ESRank2 149
203 ESBackSacRefixation 149
999 WORDS_tout-petits~3 181
999 WORDFREQ_0.41 181
999 WORDSALL_des~2_tout-petits~3 181
999 COSIND_N/A 181
103 ESRank3 181
202 ESForwSacLong+2+5 181
999 WORDS_tout-petits~3 168
999 WORDFREQ_0.41 168
999 WORDSALL_tout-petits~3 168
999 COSIND_N/A 168
104 ESRank4 168
203 ESBackSacRefixation 168
999 WORDS_sont~4 102
999 WORDFREQ_386.35 102
999 WORDSALL_sont~4 102
999 COSIND_0.09 102
999 COSGEN_0.09 102
105 ESRank5 102
201 ESForwSacShort 102
999 WORDS_tout-petits~3 188
999 WORDFREQ_0.41 188
999 WORDSALL_des~2_tout-petits~3 188
999 COSIND_N/A 188
106 ESRank6 188
205 ESBackSacRegrShort 188
999 WORDS_moitié~1 155
999 WORDFREQ_76.96 155
999 WORDSALL_moitié~1 155
999 COSIND_0.12 155
999 COSGEN_0.12 155
107 ESRank7 155
206 ESBackSacRegrLong-2-5 155
999 WORDS_sont~4 234
999 WORDFREQ_386.35 234
999 WORDSALL_sont~4 234
999 COSIND_0.09 234
999 COSGEN_0.09 234
108 ESRank8 234
202 ESForwSacLong+3+17 234
999 WORDS_gardés~5 190
999 WORDFREQ_2.77 190
999 WORDSALL_sont~4_gardés~5 190
999 COSIND_0.10 190
999 COSGEN_0.10 190
109 ESRank9 190
201 ESForwSacShort 190
999 WORDS_gardés~5 189
999 WORDFREQ_2.77 189
999 WORDSALL_gardés~5 189
999 COSIND_0.10 189
999 COSGEN_0.10 189
110 ESRank10 189
203 ESBackSacRefixation 189
999 WORDS_foyer~7 164
999 WORDFREQ_25.81 164
999 WORDSALL_foyer~7 164
999 COSIND_0.40 164
999 COSGEN_0.40 164
111 ESRank11 164
202 ESForwSacLong+2+4 164
999 WORDS_foyer~7 125
999 WORDFREQ_25.81 125
999 WORDSALL_foyer~7 125
999 COSIND_0.40 125
999 COSGEN_0.40 125
112 ESRank12 125
203 ESBackSacRefixation 125
999 WORDS_parent~10 183
999 WORDFREQ_4.53 183
999 WORDSALL_par~8_parent~10 183
999 COSIND_0.31 183
999 COSGEN_0.31 183
113 ESRank13 183
202 ESForwSacLong+3+8 183
999 WORDS_foyer~7 180
999 WORDFREQ_25.81 180
999 WORDSALL_foyer~7 180
999 COSIND_0.40 180
999 COSGEN_0.40 180
114 ESRank14 180
206 ESBackSacRegrLong-3-8 180
999 WORDS_parent~10 168
999 WORDFREQ_4.53 168
999 WORDSALL_par~8_parent~10 168
999 COSIND_0.31 168
999 COSGEN_0.31 168
115 ESRank15 168
202 ESForwSacLong+3+8 168
999 WORDS_parent~10 213
999 WORDFREQ_4.53 213
999 WORDSALL_un~9_parent~10 213
999 COSIND_0.31 213
999 COSGEN_0.31 213
116 ESRank16 213
203 ESBackSacRefixation 213
999 WORDS_maman~12 199
999 WORDFREQ_140.2 199
999 WORDSALL_la~11_maman~12 199
999 COSIND_0.13 199
999 COSGEN_0.13 199
117 ESRank17 199
202 ESForwSacLong+2+4 199
999 WORDS_maman~12 159
999 WORDFREQ_140.2 159
999 WORDSALL_maman~12 159
999 COSIND_0.13 159
999 COSGEN_0.13 159
118 ESRank18 159
203 ESBackSacRefixation 159
999 WORDS_quasi-totalité~15 224
999 WORDFREQ_0.88 224
999 WORDSALL_quasi-totalité~15 224
999 COSIND_N/A 224
119 ESRank19 224
202 ESForwSacLong+3+9 224
999 WORDS_quasi-totalité~15 155
999 WORDFREQ_0.88 155
999 WORDSALL_quasi-totalité~15 155
999 COSIND_N/A 155
120 ESRank20 155
203 ESBackSacRefixation 155
999 WORDS_cas~17 218
999 WORDFREQ_217.36 218
999 WORDSALL_des~16_cas~17 218
999 COSIND_0.08 218
999 COSGEN_0.08 218
202 ESForwSacLong+2+5 218
999 WORDS_8%~19 171
999 WORDFREQ_N/A 171
999 WORDSALL_Seuls~18_8%~19 171
999 COSIND_N/A 171
202 ESForwSacLong+2+7 171
999 WORDS_ont~20 135
999 WORDFREQ_240.61 135
999 WORDSALL_8%~19_ont~20 135
999 COSIND_0.09 135
999 COSGEN_0.09 135
201 ESForwSacShort 135
999 WORDS_accès~21 89
999 WORDFREQ_23.78 89
999 WORDSALL_ont~20_accès~21 89
999 COSIND_0.10 89
999 COSGEN_0.10 89
201 ESForwSacShort 89
999 WORDS_crèche~24 185
999 WORDFREQ_8.31 185
999 WORDSALL_une~23_crèche~24 185
999 COSIND_0.43 185
999 COSGEN_0.43 185
202 ESForwSacLong+3+8 185
999 WORDS_collective~25 196
999 WORDFREQ_7.91 196
999 WORDSALL_collective~25 196
999 COSIND_0.05 196
999 COSGEN_0.05 196
201 ESForwSacShort 196
999 WORDS_parentale~27 230
999 WORDFREQ_0.61 230
999 WORDSALL_ou~26_parentale~27 230
999 COSIND_0.44 230
999 COSGEN_0.44 230
202 ESForwSacLong+2+4 230
200 ESRankN 230
199 ESRankNMinus1 196
198 ESRankNMinus2 185
197 ESRankNMinus3 89
196 ESRankNMinus4 135
195 ESRankNMinus5 171
194 ESRankNMinus6 218
193 ESRankNMinus7 155
192 ESRankNMinus8 224
191 ESRankNMinus9 159
190 ESRankNMinus10 199
