999 WORDS_chef~1 212
999 WORDFREQ_172.57 212
999 WORDSALL_Le~0_chef~1 212
999 COSIND_0.02 212
999 COSGEN_0.02 212
101 ESRank1 212
999 WORDS_chef~1 112
999 WORDFREQ_172.57 112
999 WORDSALL_Le~0_chef~1 112
999 COSIND_0.02 112
999 COSGEN_0.02 112
102 ESRank2 112
203 ESBackSacRefixation 112
999 WORDS_gouvernement~3 193
999 WORDFREQ_119.73 193
999 WORDSALL_du~2_gouvernement~3 193
999 COSIND_-0.00 193
999 COSGEN_-0.00 193
103 ESRank3 193
202 ESForwSacLong+2+4 193
999 WORDS_accusé~5 175
999 WORDFREQ_1.01 175
999 WORDSALL_est~4_accusé~5 175
999 COSIND_-0.06 175
999 COSGEN_-0.06 175
104 ESRank4 175
202 ESForwSacLong+2+5 175
999 WORDS_accusé~5 264
999 WORDFREQ_1.01 264
999 WORDSALL_est~4_accusé~5 264
999 COSIND_-0.06 264
999 COSGEN_-0.06 264
105 ESRank5 264
203 ESBackSacRefixation 264
999 WORDS_accusé~5 141
999 WORDFREQ_1.01 141
999 WORDSALL_accusé~5 141
999 COSIND_-0.06 141
999 COSGEN_-0.06 141
106 ESRank6 141
203 ESBackSacRefixation 141
999 WORDS_relations~7 311
999 WORDFREQ_42.16 311
999 WORDSALL_relations~7 311
999 COSIND_0.15 311
999 COSGEN_0.15 311
107 ESRank7 311
202 ESForwSacLong+2+5 311
999 WORDS_tendues~8 378
999 WORDFREQ_3.45 378
999 WORDSALL_tendues~8 378
999 COSIND_0.01 378
999 COSGEN_0.01 378
108 ESRank8 378
201 ESForwSacShort 378
999 WORDS_États-Unis~11 201
999 WORDFREQ_N/A 201
999 WORDSALL_avec~9_États-Unis~11 201
999 COSIND_N/A 201
109 ESRank9 201
202 ESForwSacLong+3+10 201
999 WORDS_États-Unis~11 215
999 WORDFREQ_N/A 215
999 WORDSALL_les~10_États-Unis~11 215
999 COSIND_N/A 215
110 ESRank10 215
203 ESBackSacRefixation 215
999 WORDS_États-Unis~11 109
999 WORDFREQ_N/A 109
999 WORDSALL_États-Unis~11 109
999 COSIND_N/A 109
111 ESRank11 109
203 ESBackSacRefixation 109
999 WORDS_États-Unis~11 132
999 WORDFREQ_N/A 132
999 WORDSALL_États-Unis~11 132
999 COSIND_N/A 132
112 ESRank12 132
203 ESBackSacRefixation 132
999 WORDS_États-Unis~11 116
999 WORDFREQ_N/A 116
999 WORDSALL_États-Unis~11 116
999 COSIND_N/A 116
113 ESRank13 116
203 ESBackSacRefixation 116
999 WORDS_États-Unis~11 119
999 WORDFREQ_N/A 119
999 WORDSALL_États-Unis~11 119
999 COSIND_N/A 119
114 ESRank14 119
203 ESBackSacRefixation 119
999 WORDS_l'isolement~13 323
999 WORDFREQ_7.91 323
999 WORDSALL_l'isolement~13 323
999 COSIND_-0.01 323
999 COSGEN_-0.01 323
115 ESRank15 323
202 ESForwSacLong+2+4 323
999 WORDS_d'Israël~14 229
999 WORDFREQ_N/A 229
999 WORDSALL_d'Israël~14 229
999 COSIND_N/A 229
116 ESRank16 229
201 ESForwSacShort 229
999 WORDS_d'Israël~14 281
999 WORDFREQ_N/A 281
999 WORDSALL_d'Israël~14 281
999 COSIND_N/A 281
117 ESRank17 281
203 ESBackSacRefixation 281
999 WORDS_monde~17 131
999 WORDFREQ_732.43 131
999 WORDSALL_dans~15_monde~17 131
999 COSIND_-0.01 131
999 COSGEN_-0.01 131
118 ESRank18 131
202 ESForwSacLong+3+9 131
200 ESRankN 131
199 ESRankNMinus1 281
198 ESRankNMinus2 229
197 ESRankNMinus3 323
196 ESRankNMinus4 119
195 ESRankNMinus5 116
194 ESRankNMinus6 132
193 ESRankNMinus7 109
192 ESRankNMinus8 215
191 ESRankNMinus9 201
190 ESRankNMinus10 378
