# 120 Fixation 1 (357.1,312): s'agit~1
# 123 Fixation 2 (327.4,293.1): Il~0 s'agit~1
# 201 Fixation 3 (469,293.2): nos~3 citoyens~4
# 213 Fixation 4 (631.4,277.8): et~5 devoir~7
# 132 Fixation 5 (579.8,277): citoyens~4
# 111 Fixation 6 (668.4,285.7): le~6 devoir~7
# 183 Fixation 7 (321.7,349.3): n'importe~9
# 92 Fixation 8 (295.4,344.6): n'importe~9
# 132 Fixation 9 (414.9,291.4): de~2 citoyens~4
# 155 Fixation 10 (346.2,292.7): s'agit~1
# 142 Fixation 11 (575,279.5): citoyens~4
# 155 Fixation 12 (366.2,343.9): n'importe~9
# 170 Fixation 13 (480.6,341.2): gouvernement~11
# 233 Fixation 14 (654.3,345.9): est~12 défendre~14
# 136 Fixation 15 (696.2,344.3): est~12 défendre~14
# 236 Fixation 16 (341.3,399.9): intérêts~16
# 265 Fixation 17 (505.1,405.4): ses~18 citoyens~19
# 116 Fixation 18 (435.5,399.1): de~17 citoyens~19
# 186 Fixation 19 (660.6,404.3): Des~20 mesures~21
# 221 Fixation 20 (330,461.2): sont~22 prises~23
# 166 Fixation 21 (454.5,465.7): mais~24 également~25
# 82 Fixation 22 (524.4,465.7): également~25
# 242 Fixation 23 (663.2,463.7): une~26 coopération~27
# 177 Fixation 24 (334.9,521): avec~28 organisations~30
# 164 Fixation 25 (408.3,519.9): organisations~30
# 444 Fixation 26 (592.9,529.8): internationales~31
# 327 Fixation 27 (525.6,381.9): ses~18 citoyens~19
# 195 Fixation 28 (372.9,394): intérêts~16
# 185 Fixation 29 (327.3,401.5): les~15 intérêts~16
# 190 Fixation 30 (345.3,317.5): n'importe~9
%%
# Il~0 Fixations= "2/"
# s'agit~1 Fixations= "10/"
# de~2 Fixations= "9/"
# nos~3 Fixations= "3/"
# citoyens~4 Fixations= "11/"
# et~5 Fixations= "4/"
# le~6 Fixations= "6/"
# devoir~7 Fixations= "6/"
# de~8 Fixations= ""
# n'importe~9 Fixations= "30/"
# quel~10 Fixations= ""
# gouvernement~11 Fixations= "13/"
# est~12 Fixations= "15/"
# de~13 Fixations= ""
# défendre~14 Fixations= "15/"
# les~15 Fixations= "29/"
# intérêts~16 Fixations= "29/"
# de~17 Fixations= "18/"
# ses~18 Fixations= "27/"
# citoyens~19 Fixations= "27/"
# Des~20 Fixations= "19/"
# mesures~21 Fixations= "19/"
# sont~22 Fixations= "20/"
# prises~23 Fixations= "20/"
# mais~24 Fixations= "21/"
# également~25 Fixations= "22/"
# une~26 Fixations= "23/"
# coopération~27 Fixations= "23/"
# avec~28 Fixations= "24/"
# les~29 Fixations= ""
# organisations~30 Fixations= "25/"
# internationales~31 Fixations= "26/"
%%
#  IL[2] S'AGIT[10] DE[9] NOS[3] CITOYENS[11] ET[4] LE[6] DEVOIR[6] de N'IMPORTE[30] quel GOUVERNEMENT[13] EST[15] de DéFENDRE[15] LES[29] INTéRêTS[29] DE[18] SES[27] CITOYENS[27] DES[19] MESURES[19] SONT[20] PRISES[20] MAIS[21] éGALEMENT[22] UNE[23] COOPéRATION[23] AVEC[24] les ORGANISATIONS[25] INTERNATIONALES[26]
# s04 associations_humanitaires-m1 PercentageOfWordsProcessed= 0.875 PercentageOfWordsReallyProcessed= 0.875
