999 WORDS_Californie~1 144
999 WORDFREQ_0.07 144
999 WORDSALL_La~0_Californie~1 144
999 COSIND_0.07 144
999 COSGEN_0.07 144
101 ESRank1 144
999 WORDS_Californie~1 353
999 WORDFREQ_0.07 353
999 WORDSALL_La~0_Californie~1 353
999 COSIND_0.07 353
999 COSGEN_0.07 353
102 ESRank2 353
203 ESBackSacRefixation 353
999 WORDS_Californie~1 93
999 WORDFREQ_0.07 93
999 WORDSALL_Californie~1 93
999 COSIND_0.07 93
999 COSGEN_0.07 93
103 ESRank3 93
203 ESBackSacRefixation 93
999 WORDS_a~2 380
999 WORDFREQ_2926.69 380
999 WORDSALL_a~2 380
999 COSIND_N/A 380
104 ESRank4 380
201 ESForwSacShort 380
999 WORDS_déposé~4 217
999 WORDFREQ_10.34 217
999 WORDSALL_officiellement~3_déposé~4 217
999 COSIND_-0.01 217
999 COSGEN_-0.01 217
105 ESRank5 217
202 ESForwSacLong+2+16 217
999 WORDS_plainte~5 252
999 WORDFREQ_17.09 252
999 WORDSALL_La~0_Californie~1_plainte~5 252
999 COSIND_0.00 252
999 COSGEN_0.00 252
106 ESRank6 252
201 ESForwSacShort 252
999 WORDS_plainte~5 94
999 WORDFREQ_17.09 94
999 WORDSALL_La~0_Californie~1_plainte~5 94
999 COSIND_0.00 94
999 COSGEN_0.00 94
107 ESRank7 94
203 ESBackSacRefixation 94
999 WORDS_a~2 172
999 WORDFREQ_2926.69 172
999 WORDSALL_Californie~1_a~2 172
999 COSIND_N/A 172
108 ESRank8 172
206 ESBackSacRegrLong-3-25 172
999 WORDS_gouvernement~8 193
999 WORDFREQ_119.73 193
999 WORDSALL_a~2_officiellement~3_gouvernement~8 193
999 COSIND_-0.03 193
999 COSGEN_-0.03 193
109 ESRank9 193
202 ESForwSacLong+6+43 193
999 WORDS_gouvernement~8 176
999 WORDFREQ_119.73 176
999 WORDSALL_officiellement~3_déposé~4_gouvernement~8 176
999 COSIND_-0.03 176
999 COSGEN_-0.03 176
110 ESRank10 176
203 ESBackSacRefixation 176
999 WORDS_États-Unis~10 280
999 WORDFREQ_N/A 280
999 WORDSALL_plainte~5_États-Unis~10 280
999 COSIND_N/A 280
111 ESRank11 280
202 ESForwSacLong+2+5 280
999 WORDS_États-Unis~10 124
999 WORDFREQ_N/A 124
999 WORDSALL_plainte~5_États-Unis~10 124
999 COSIND_N/A 124
112 ESRank12 124
203 ESBackSacRefixation 124
999 WORDS_avoir~12 156
999 WORDFREQ_649.26 156
999 WORDSALL_le~7_gouvernement~8_avoir~12 156
999 COSIND_0.02 156
999 COSGEN_0.02 156
113 ESRank13 156
202 ESForwSacLong+2+6 156
999 WORDS_empêché~13 114
999 WORDFREQ_9.26 114
999 WORDSALL_gouvernement~8_empêché~13 114
999 COSIND_-0.00 114
999 COSGEN_-0.00 114
114 ESRank14 114
201 ESForwSacShort 114
999 WORDS_l'application~14 266
999 WORDFREQ_15.34 266
999 WORDSALL_des~9_l'application~14 266
999 COSIND_-0.01 266
999 COSGEN_-0.01 266
115 ESRank15 266
201 ESForwSacShort 266
999 WORDS_loi~17 211
999 WORDFREQ_44.46 211
999 WORDSALL_de~15_loi~17 211
999 COSIND_0.01 211
999 COSGEN_0.01 211
116 ESRank16 211
202 ESForwSacLong+3+7 211
999 WORDS_loi~17 159
999 WORDFREQ_44.46 159
999 WORDSALL_sa~16_loi~17 159
999 COSIND_0.01 159
999 COSGEN_0.01 159
117 ESRank17 159
203 ESBackSacRefixation 159
999 WORDS_réduction~19 249
999 WORDFREQ_2.91 249
999 WORDSALL_pour~11_avoir~12_réduction~19 249
999 COSIND_0.10 249
999 COSGEN_0.10 249
118 ESRank18 249
202 ESForwSacLong+2+4 249
999 WORDS_émissions~21 326
999 WORDFREQ_3.58 326
999 WORDSALL_empêché~13_émissions~21 326
999 COSIND_-0.07 326
999 COSGEN_-0.07 326
119 ESRank19 326
202 ESForwSacLong+2+5 326
999 WORDS_gaz~23 172
999 WORDFREQ_28.65 172
999 WORDSALL_l'application~14_gaz~23 172
999 COSIND_0.13 172
999 COSGEN_0.13 172
120 ESRank20 172
202 ESForwSacLong+2+4 172
999 WORDS_serre~27 99
999 WORDFREQ_4.53 99
999 WORDSALL_loi~17_serre~27 99
999 COSIND_0.02 99
999 COSGEN_0.02 99
202 ESForwSacLong+4+13 99
999 WORDS_effet~25 121
999 WORDFREQ_173.18 121
999 WORDSALL_sa~16_loi~17_effet~25 121
999 COSIND_0.02 121
999 COSGEN_0.02 121
206 ESBackSacRegrLong-2-4 121
999 WORDS_serre~27 184
999 WORDFREQ_4.53 184
999 WORDSALL_loi~17_réduction~19_serre~27 184
999 COSIND_0.02 184
999 COSGEN_0.02 184
202 ESForwSacLong+2+4 184
200 ESRankN 184
199 ESRankNMinus1 121
198 ESRankNMinus2 99
197 ESRankNMinus3 172
196 ESRankNMinus4 326
195 ESRankNMinus5 249
194 ESRankNMinus6 159
193 ESRankNMinus7 211
192 ESRankNMinus8 266
191 ESRankNMinus9 114
190 ESRankNMinus10 156
