999 WORDS_États-Unis~1 146
999 WORDFREQ_N/A 146
999 WORDSALL_Les~0_États-Unis~1 146
999 COSIND_N/A 146
101 ESRank1 146
999 WORDS_États-Unis~1 88
999 WORDFREQ_N/A 88
999 WORDSALL_États-Unis~1 88
999 COSIND_N/A 88
102 ESRank2 88
203 ESBackSacRefixation 88
999 WORDS_nombreuses~4 159
999 WORDFREQ_17.91 159
999 WORDSALL_de~3_nombreuses~4 159
999 COSIND_0.07 159
999 COSGEN_0.07 159
103 ESRank3 159
202 ESForwSacLong+3+7 159
999 WORDS_nombreuses~4 98
999 WORDFREQ_17.91 98
999 WORDSALL_nombreuses~4 98
999 COSIND_0.07 98
999 COSGEN_0.07 98
104 ESRank4 98
203 ESBackSacRefixation 98
999 WORDS_préparent~6 168
999 WORDFREQ_3.72 168
999 WORDSALL_préparent~6 168
999 COSIND_-0.10 168
999 COSGEN_-0.10 168
105 ESRank5 168
202 ESForwSacLong+2+5 168
999 WORDS_juridiquement~7 182
999 WORDFREQ_0.27 182
999 WORDSALL_juridiquement~7 182
999 COSIND_0.34 182
999 COSGEN_0.34 182
106 ESRank6 182
201 ESForwSacShort 182
999 WORDS_mise~9 143
999 WORDFREQ_36.08 143
999 WORDSALL_une~8_mise~9 143
999 COSIND_-0.03 143
999 COSGEN_-0.03 143
107 ESRank7 143
202 ESForwSacLong+2+5 143
999 WORDS_accusation~11 229
999 WORDFREQ_5.74 229
999 WORDSALL_accusation~11 229
999 COSIND_0.18 229
999 COSGEN_0.18 229
108 ESRank8 229
202 ESForwSacLong+2+4 229
999 WORDS_crimes~13 135
999 WORDFREQ_15.74 135
999 WORDSALL_pour~12_crimes~13 135
999 COSIND_0.52 135
999 COSGEN_0.52 135
109 ESRank9 135
202 ESForwSacLong+2+6 135
999 WORDS_crimes~13 128
999 WORDFREQ_15.74 128
999 WORDSALL_crimes~13 128
999 COSIND_0.52 128
999 COSGEN_0.52 128
110 ESRank10 128
203 ESBackSacRefixation 128
999 WORDS_crimes~13 142
999 WORDFREQ_15.74 142
999 WORDSALL_crimes~13 142
999 COSIND_0.52 142
999 COSGEN_0.52 142
111 ESRank11 142
203 ESBackSacRefixation 142
999 WORDS_l'humanité~15 119
999 WORDFREQ_23.85 119
999 WORDSALL_l'humanité~15 119
999 COSIND_0.51 119
999 COSGEN_0.51 119
112 ESRank12 119
202 ESForwSacLong+2+8 119
999 WORDS_accusation~11 157
999 WORDFREQ_5.74 157
999 WORDSALL_accusation~11 157
999 COSIND_0.18 157
999 COSGEN_0.18 157
113 ESRank13 157
206 ESBackSacRegrLong-4-20 157
999 WORDS_Tribunal~18 123
999 WORDFREQ_15 123
999 WORDSALL_Tribunal~18 123
999 COSIND_0.81 123
999 COSGEN_0.81 123
114 ESRank14 123
202 ESForwSacLong+7+42 123
999 WORDS_pénal~19 174
999 WORDFREQ_2.91 174
999 WORDSALL_pénal~19 174
999 COSIND_0.53 174
999 COSGEN_0.53 174
115 ESRank15 174
201 ESForwSacShort 174
999 WORDS_international~20 140
999 WORDFREQ_9.12 140
999 WORDSALL_international~20 140
999 COSIND_0.87 140
999 COSGEN_0.87 140
116 ESRank16 140
201 ESForwSacShort 140
999 WORDS_international~20 116
999 WORDFREQ_9.12 116
999 WORDSALL_international~20 116
999 COSIND_0.87 116
999 COSGEN_0.87 116
117 ESRank17 116
203 ESBackSacRefixation 116
999 WORDS_Tribunal~18 116
999 WORDFREQ_15 116
999 WORDSALL_le~17_Tribunal~18 116
999 COSIND_0.81 116
999 COSGEN_0.81 116
118 ESRank18 116
206 ESBackSacRegrLong-2-8 116
999 WORDS_Tribunal~18 161
999 WORDFREQ_15 161
999 WORDSALL_devant~16_Tribunal~18 161
999 COSIND_0.81 161
999 COSGEN_0.81 161
119 ESRank19 161
203 ESBackSacRefixation 161
200 ESRankN 161
199 ESRankNMinus1 116
198 ESRankNMinus2 116
197 ESRankNMinus3 140
196 ESRankNMinus4 174
195 ESRankNMinus5 123
194 ESRankNMinus6 157
193 ESRankNMinus7 119
192 ESRankNMinus8 142
191 ESRankNMinus9 128
190 ESRankNMinus10 135
