999 WORDS_tenter~7 110
999 WORDFREQ_32.43 110
999 WORDSALL_Ils~0_sont~1_tenter~7 110
999 COSIND_0.03 110
999 COSGEN_0.03 110
101 ESRank1 110
999 WORDS_sont~1 92
999 WORDFREQ_713.18 92
999 WORDSALL_Ils~0_sont~1 92
999 COSIND_0.07 92
999 COSGEN_0.07 92
102 ESRank2 92
206 ESBackSacRegrLong-6-33 92
999 WORDS_six~3 141
999 WORDFREQ_156.22 141
999 WORDSALL_encore~2_six~3 141
999 COSIND_-0.03 141
999 COSGEN_-0.03 141
103 ESRank3 141
202 ESForwSacLong+2+8 141
999 WORDS_six~3 180
999 WORDFREQ_156.22 180
999 WORDSALL_six~3 180
999 COSIND_-0.03 180
999 COSGEN_-0.03 180
104 ESRank4 180
203 ESBackSacRefixation 180
999 WORDS_candidats~4 179
999 WORDFREQ_3.99 179
999 WORDSALL_six~3_candidats~4 179
999 COSIND_0.03 179
999 COSGEN_0.03 179
105 ESRank5 179
201 ESForwSacShort 179
999 WORDS_vouloir~6 194
999 WORDFREQ_62.97 194
999 WORDSALL_à~5_vouloir~6 194
999 COSIND_-0.00 194
999 COSGEN_-0.00 194
106 ESRank6 194
202 ESForwSacLong+2+4 194
999 WORDS_tenter~7 135
999 WORDFREQ_32.43 135
999 WORDSALL_Ils~0_sont~1_tenter~7 135
999 COSIND_0.03 135
999 COSGEN_0.03 135
107 ESRank7 135
201 ESForwSacShort 135
999 WORDS_tenter~7 121
999 WORDFREQ_32.43 121
999 WORDSALL_Ils~0_sont~1_tenter~7 121
999 COSIND_0.03 121
999 COSGEN_0.03 121
108 ESRank8 121
203 ESBackSacRefixation 121
999 WORDS_tour~9 177
999 WORDFREQ_280.27 177
999 WORDSALL_sont~1_six~3_tour~9 177
999 COSIND_0.05 177
999 COSGEN_0.05 177
109 ESRank9 177
202 ESForwSacLong+2+4 177
999 WORDS_monde~11 306
999 WORDFREQ_732.43 306
999 WORDSALL_six~3_candidats~4_monde~11 306
999 COSIND_0.03 306
999 COSGEN_0.03 306
110 ESRank10 306
202 ESForwSacLong+2+4 306
999 WORDS_ballon~13 243
999 WORDFREQ_17.16 243
999 WORDSALL_en~12_ballon~13 243
999 COSIND_0.06 243
999 COSGEN_0.06 243
111 ESRank11 243
202 ESForwSacLong+2+4 243
999 WORDS_ballon~13 200
999 WORDFREQ_17.16 200
999 WORDSALL_ballon~13 200
999 COSIND_0.06 200
999 COSGEN_0.06 200
112 ESRank12 200
203 ESBackSacRefixation 200
999 WORDS_tour~9 81
999 WORDFREQ_280.27 81
999 WORDSALL_le~8_tour~9 81
999 COSIND_0.05 81
999 COSGEN_0.05 81
113 ESRank13 81
206 ESBackSacRegrLong-4-13 81
200 ESRankN 81
199 ESRankNMinus1 200
198 ESRankNMinus2 243
197 ESRankNMinus3 306
196 ESRankNMinus4 177
195 ESRankNMinus5 121
194 ESRankNMinus6 135
193 ESRankNMinus7 194
192 ESRankNMinus8 179
191 ESRankNMinus9 180
190 ESRankNMinus10 141
