# 152 Fixation 1 (369.4,288.4): la~1 pollution~2
# 110 Fixation 2 (474.1,286.7): pollution~2
# 172 Fixation 3 (637.8,299.5): surface~4 pose~6
# 218 Fixation 4 (700.6,297.7): se~5 pose~6
# 199 Fixation 5 (353.6,331.3): aussi~7 problème~9
# 128 Fixation 6 (479.9,331.2): problème~9 tonnes~11
# 178 Fixation 7 (638.9,358.8): tonnes~11 pétrole~13
# 232 Fixation 8 (328.6,395.4): encore~14 contenues~15
# 155 Fixation 9 (592.8,400.1): les~17 soutes~18
# 144 Fixation 10 (729.4,403.7): du~19 navire~20
# 250 Fixation 11 (358,461.7): sondages~22
# 150 Fixation 12 (510.2,460.6): effectués~23
%%
# Outre~0 Fixations= ""
# la~1 Fixations= "1/"
# pollution~2 Fixations= "2/"
# de~3 Fixations= ""
# surface~4 Fixations= "3/"
# se~5 Fixations= "4/"
# pose~6 Fixations= "4/"
# aussi~7 Fixations= "5/"
# le~8 Fixations= ""
# problème~9 Fixations= "6/"
# des~10 Fixations= ""
# tonnes~11 Fixations= "7/"
# de~12 Fixations= ""
# pétrole~13 Fixations= "7/"
# encore~14 Fixations= "8/"
# contenues~15 Fixations= "8/"
# dans~16 Fixations= ""
# les~17 Fixations= "9/"
# soutes~18 Fixations= "9/"
# du~19 Fixations= "10/"
# navire~20 Fixations= "10/"
# Les~21 Fixations= ""
# sondages~22 Fixations= "11/"
# effectués~23 Fixations= "12/"
# indiquent~24 Fixations= ""
# que~25 Fixations= ""
# les~26 Fixations= ""
# morceaux~27 Fixations= ""
# du~28 Fixations= ""
# bateau~29 Fixations= ""
# sont~30 Fixations= ""
# stabilisés~31 Fixations= ""
%%
#  Outre LA[1] POLLUTION[2] de SURFACE[3] SE[4] POSE[4] AUSSI[5] le PROBLèME[6] des TONNES[7] de PéTROLE[7] ENCORE[8] CONTENUES[8] dans LES[9] SOUTES[9] DU[10] NAVIRE[10] Les SONDAGES[11] EFFECTUéS[12] indiquent que les morceaux du bateau sont stabilisés
# s07 prix_petrole-m2 PercentageOfWordsProcessed= 0.53125 PercentageOfWordsReallyProcessed= 0.708333333333333
