# 148 Fixation 1 (319.7,311): Une~0 équipe~1
# 113 Fixation 2 (349.1,296.9): équipe~1
# 178 Fixation 3 (453,280.2): d'un~2 laboratoire~3
# 560 Fixation 4 (642.3,294.1): japonais~4
# 117 Fixation 5 (715.5,296.7): japonais~4 a~5
# 204 Fixation 6 (336.2,343.9): point~8
# 116 Fixation 7 (321.2,357): au~7 point~8
# 239 Fixation 8 (447.3,348.9): logiciel~10
# 286 Fixation 9 (588.4,344.2): de~11 traitement~12
# 138 Fixation 10 (704.1,350.9): traitement~12 d'images~13
# 202 Fixation 11 (336.8,411.5): capable~14
# 205 Fixation 12 (302.4,411.9): capable~14
# 165 Fixation 13 (413,411): de~15 deviner~16
# 278 Fixation 14 (550.8,408.1): la~17 présence~18
# 156 Fixation 15 (600.8,401.1): présence~18
# 146 Fixation 16 (675.4,402.9): de~19 mines~20
# 142 Fixation 17 (353.5,458.8): partir~22
# 246 Fixation 18 (295.8,470.6): partir~22
# 311 Fixation 19 (440,466.6): photographies~24
# 329 Fixation 20 (604.1,475.9): aériennes~25
# 159 Fixation 21 (321.3,529.8): dispositif~28
# 153 Fixation 22 (279.3,523.9): dispositif~28
# 433 Fixation 23 (453.1,527.8): de~29 filtrage~30
# 94 Fixation 24 (701.9,472): et~26
# 125 Fixation 25 (627.3,467.4): aériennes~25
%%
# Une~0 Fixations= "1/"
# équipe~1 Fixations= "2/"
# d'un~2 Fixations= "3/"
# laboratoire~3 Fixations= "3/"
# japonais~4 Fixations= "5/"
# a~5 Fixations= "5/"
# mis~6 Fixations= ""
# au~7 Fixations= "7/"
# point~8 Fixations= "7/"
# un~9 Fixations= ""
# logiciel~10 Fixations= "8/"
# de~11 Fixations= "9/"
# traitement~12 Fixations= "10/"
# d'images~13 Fixations= "10/"
# capable~14 Fixations= "12/"
# de~15 Fixations= "13/"
# deviner~16 Fixations= "13/"
# la~17 Fixations= "14/"
# présence~18 Fixations= "15/"
# de~19 Fixations= "16/"
# mines~20 Fixations= "16/"
# à~21 Fixations= ""
# partir~22 Fixations= "18/"
# de~23 Fixations= ""
# photographies~24 Fixations= "19/"
# aériennes~25 Fixations= "25/"
# et~26 Fixations= "24/"
# d'un~27 Fixations= ""
# dispositif~28 Fixations= "22/"
# de~29 Fixations= "23/"
# filtrage~30 Fixations= "23/"
%%
#  UNE[1] éQUIPE[2] D'UN[3] LABORATOIRE[3] JAPONAIS[5] A[5] mis AU[7] POINT[7] un LOGICIEL[8] DE[9] TRAITEMENT[10] D'IMAGES[10] CAPABLE[12] DE[13] DEVINER[13] LA[14] PRéSENCE[15] DE[16] MINES[16] à PARTIR[18] de PHOTOGRAPHIES[19] AéRIENNES[25] ET[24] d'un DISPOSITIF[22] DE[23] FILTRAGE[23]
# s01 observation_planetes-m2 PercentageOfWordsProcessed= 0.838709677419355 PercentageOfWordsReallyProcessed= 0.838709677419355
