# 123 Fixation 1 (263.2,272.3): Trois~0
# 90 Fixation 2 (356.2,268.7): jours~1
# 99 Fixation 3 (433.1,270.4): après~2
# 177 Fixation 4 (569.9,271.5): tir~4
# 210 Fixation 5 (642.4,273.4): du~5 missile~6
# 134 Fixation 6 (732.2,274.5): missile~6 indien~7
# 151 Fixation 7 (293.9,337.5): Trois~0 Agni-2~8
# 211 Fixation 8 (421.4,344.5): jours~1 après~2 Pakistan~10
# 169 Fixation 9 (579,354.7): répliqué~12
# 153 Fixation 10 (709.1,360.4): en~13 tirant~14
# 140 Fixation 11 (415.8,436): améliorée~17
# 130 Fixation 12 (641.8,424.2): missile~20
# 100 Fixation 13 (718.6,422.9): balistique~21
%%
# Trois~0 Fixations= "7/"
# jours~1 Fixations= "8/"
# après~2 Fixations= "8/"
# le~3 Fixations= ""
# tir~4 Fixations= "4/"
# du~5 Fixations= "5/"
# missile~6 Fixations= "6/"
# indien~7 Fixations= "6/"
# Agni-2~8 Fixations= "7/"
# le~9 Fixations= ""
# Pakistan~10 Fixations= "8/"
# a~11 Fixations= ""
# répliqué~12 Fixations= "9/"
# en~13 Fixations= "10/"
# tirant~14 Fixations= "10/"
# une~15 Fixations= ""
# version~16 Fixations= ""
# améliorée~17 Fixations= "11/"
# de~18 Fixations= ""
# son~19 Fixations= ""
# missile~20 Fixations= "12/"
# balistique~21 Fixations= "13/"
# de~22 Fixations= ""
# moyenne~23 Fixations= ""
# portée~24 Fixations= ""
# le~25 Fixations= ""
# Ghauri~26 Fixations= ""
# depuis~27 Fixations= ""
# le~28 Fixations= ""
# centre~29 Fixations= ""
# d'essai~30 Fixations= ""
# de~31 Fixations= ""
# Jhelum~32 Fixations= ""
%%
#  TROIS[7] JOURS[8] APRèS[8] le TIR[4] DU[5] MISSILE[6] INDIEN[6] AGNI-2[7] le PAKISTAN[8] a RéPLIQUé[9] EN[10] TIRANT[10] une version AMéLIORéE[11] de son MISSILE[12] BALISTIQUE[13] de moyenne portée le Ghauri depuis le centre d'essai de Jhelum
# s17 plantation_fleurs-a2 PercentageOfWordsProcessed= 0.454545454545455 PercentageOfWordsReallyProcessed= 0.681818181818182
