# 108 Fixation 1 (295.8,272.2): Le~0 6e~1
# 202 Fixation 2 (404.2,265.6): festival~2
# 231 Fixation 3 (520.7,269.8): de~3 Gérardmer~4
# 333 Fixation 4 (659.2,265.7): consacré~5
# 171 Fixation 5 (318.9,327.7): genre~7
# 132 Fixation 6 (405.5,333.6): fantastique~8
# 122 Fixation 7 (578.2,349.7): présente~9
# 144 Fixation 8 (699,361.9): quinzaine~11
# 257 Fixation 9 (527,398.6): inédits~15
# 332 Fixation 10 (352.3,413.1): longs~13 métrages~14
# 186 Fixation 11 (516.2,402): inédits~15
# 158 Fixation 12 (672.5,422.1): En~16 ouverture~17
# 171 Fixation 13 (668.8,476.8): Gus~22 van~23
# 169 Fixation 14 (412.2,524.1): le~26 classique~27
# 134 Fixation 15 (295.7,522.1): revisite~25
# 230 Fixation 16 (555.6,526.6): d'Hitchcock~28
%%
# Le~0 Fixations= "1/"
# 6e~1 Fixations= "1/"
# festival~2 Fixations= "2/"
# de~3 Fixations= "3/"
# Gérardmer~4 Fixations= "3/"
# consacré~5 Fixations= "4/"
# au~6 Fixations= ""
# genre~7 Fixations= "5/"
# fantastique~8 Fixations= "6/"
# présente~9 Fixations= "7/"
# une~10 Fixations= ""
# quinzaine~11 Fixations= "8/"
# de~12 Fixations= ""
# longs~13 Fixations= "10/"
# métrages~14 Fixations= "10/"
# inédits~15 Fixations= "11/"
# En~16 Fixations= "12/"
# ouverture~17 Fixations= "12/"
# hors~18 Fixations= ""
# compétition~19 Fixations= ""
# Psycho~20 Fixations= ""
# de~21 Fixations= ""
# Gus~22 Fixations= "13/"
# van~23 Fixations= "13/"
# Sant~24 Fixations= ""
# revisite~25 Fixations= "15/"
# le~26 Fixations= "14/"
# classique~27 Fixations= "14/"
# d'Hitchcock~28 Fixations= "16/"
%%
#  LE[1] 6E[1] FESTIVAL[2] DE[3] GéRARDMER[3] CONSACRé[4] au GENRE[5] FANTASTIQUE[6] PRéSENTE[7] une QUINZAINE[8] de LONGS[10] MéTRAGES[10] INéDITS[11] EN[12] OUVERTURE[12] hors compétition Psycho de GUS[13] VAN[13] Sant REVISITE[15] LE[14] CLASSIQUE[14] D'HITCHCOCK[16]
# s17 prix_litteraire-m2 PercentageOfWordsProcessed= 0.724137931034483 PercentageOfWordsReallyProcessed= 0.724137931034483
