999 WORDS_L'allocation~0 233
999 WORDFREQ_0.41 233
999 WORDSALL_L'allocation~0 233
999 COSIND_1.00 233
999 COSGEN_1.00 233
101 ESRank1 233
999 WORDS_rentrée~2 237
999 WORDFREQ_14.19 237
999 WORDSALL_de~1_rentrée~2 237
999 COSIND_0.08 237
999 COSGEN_0.08 237
102 ESRank2 237
202 ESForwSacLong+2+4 237
999 WORDS_rentrée~2 123
999 WORDFREQ_14.19 123
999 WORDSALL_de~1_rentrée~2 123
999 COSIND_0.08 123
999 COSGEN_0.08 123
103 ESRank3 123
203 ESBackSacRefixation 123
999 WORDS_scolaire~3 124
999 WORDFREQ_9.66 124
999 WORDSALL_scolaire~3 124
999 COSIND_0.01 124
999 COSGEN_0.01 124
104 ESRank4 124
201 ESForwSacShort 124
999 WORDS_concerne~4 239
999 WORDFREQ_26.42 239
999 WORDSALL_concerne~4 239
999 COSIND_0.08 239
999 COSGEN_0.08 239
105 ESRank5 239
201 ESForwSacShort 239
999 WORDS_000~6 160
999 WORDFREQ_N/A 160
999 WORDSALL_350~5_000~6 160
999 COSIND_N/A 160
106 ESRank6 160
202 ESForwSacLong+2+5 160
999 WORDS_000~6 143
999 WORDFREQ_N/A 143
999 WORDSALL_350~5_000~6 143
999 COSIND_N/A 143
107 ESRank7 143
203 ESBackSacRefixation 143
999 WORDS_350~5 259
999 WORDFREQ_N/A 259
999 WORDSALL_350~5 259
999 COSIND_N/A 259
108 ESRank8 259
205 ESBackSacRegrShort 259
999 WORDS_familles~7 128
999 WORDFREQ_32.7 128
999 WORDSALL_familles~7 128
999 COSIND_0.38 128
999 COSGEN_0.38 128
109 ESRank9 128
202 ESForwSacLong+2+5 128
999 WORDS_modestes~8 180
999 WORDFREQ_8.31 180
999 WORDSALL_modestes~8 180
999 COSIND_0.28 180
999 COSGEN_0.28 180
110 ESRank10 180
201 ESForwSacShort 180
999 WORDS_ayant~9 138
999 WORDFREQ_3.85 138
999 WORDSALL_ayant~9 138
999 COSIND_0.09 138
999 COSGEN_0.09 138
111 ESRank11 138
201 ESForwSacShort 138
999 WORDS_modestes~8 140
999 WORDFREQ_8.31 140
999 WORDSALL_familles~7_modestes~8 140
999 COSIND_0.28 140
999 COSGEN_0.28 140
112 ESRank12 140
205 ESBackSacRegrShort 140
999 WORDS_ayant~9 153
999 WORDFREQ_3.85 153
999 WORDSALL_ayant~9 153
999 COSIND_0.09 153
999 COSGEN_0.09 153
113 ESRank13 153
201 ESForwSacShort 153
999 WORDS_enfant~11 116
999 WORDFREQ_381.96 116
999 WORDSALL_un~10_enfant~11 116
999 COSIND_0.25 116
999 COSGEN_0.25 116
114 ESRank14 116
202 ESForwSacLong+2+4 116
999 WORDS_scolarisé~12 141
999 WORDFREQ_N/A 141
999 WORDSALL_scolarisé~12 141
999 COSIND_N/A 141
115 ESRank15 141
201 ESForwSacShort 141
999 WORDS_pourrait~15 171
999 WORDFREQ_159.32 171
999 WORDSALL_pourrait~15 171
999 COSIND_-0.00 171
999 COSGEN_-0.00 171
116 ESRank16 171
202 ESForwSacLong+3+18 171
999 WORDS_prochainement~17 184
999 WORDFREQ_2.77 184
999 WORDSALL_prochainement~17 184
999 COSIND_-0.03 184
999 COSGEN_-0.03 184
117 ESRank17 184
202 ESForwSacLong+2+7 184
200 ESRankN 184
199 ESRankNMinus1 171
198 ESRankNMinus2 141
197 ESRankNMinus3 116
196 ESRankNMinus4 153
195 ESRankNMinus5 140
194 ESRankNMinus6 138
193 ESRankNMinus7 180
192 ESRankNMinus8 128
191 ESRankNMinus9 259
190 ESRankNMinus10 143
