# 131 Fixation 1 (286.6,284.1): La~0 plupart~1
# 135 Fixation 2 (377.1,280): plupart~1
# 161 Fixation 3 (466.7,273.8): des~2 animateurs-modérateurs~3
# 111 Fixation 4 (571,260.6): animateurs-modérateurs~3
# 180 Fixation 5 (621.7,259.4): animateurs-modérateurs~3
# 131 Fixation 6 (346.7,362): formation~6
# 132 Fixation 7 (336.5,357.9): une~5 formation~6
# 130 Fixation 8 (478.6,341.6): de~7 journaliste~8
# 122 Fixation 9 (531.4,337.3): journaliste~8
# 194 Fixation 10 (674.6,324.5): Il~9 n'existe~10
# 172 Fixation 11 (612.3,494): ou~20 communication~22
# 158 Fixation 12 (679.4,493.2): communication~22
# 255 Fixation 13 (510.2,523.2): cours~26
# 179 Fixation 14 (311.8,520.6): qui~23 donnent~24
# 192 Fixation 15 (561.2,535.2): cours~26 multimédia~28
# 234 Fixation 16 (481.7,529.3): des~25 cours~26
%%
# La~0 Fixations= "1/"
# plupart~1 Fixations= "2/"
# des~2 Fixations= "3/"
# animateurs-modérateurs~3 Fixations= "5/"
# ont~4 Fixations= ""
# une~5 Fixations= "7/"
# formation~6 Fixations= "7/"
# de~7 Fixations= "8/"
# journaliste~8 Fixations= "9/"
# Il~9 Fixations= "10/"
# n'existe~10 Fixations= "10/"
# pas~11 Fixations= ""
# de~12 Fixations= ""
# formation~13 Fixations= ""
# spécifique~14 Fixations= ""
# mais~15 Fixations= ""
# des~16 Fixations= ""
# écoles~17 Fixations= ""
# de~18 Fixations= ""
# journalisme~19 Fixations= ""
# ou~20 Fixations= "11/"
# de~21 Fixations= ""
# communication~22 Fixations= "12/"
# qui~23 Fixations= "14/"
# donnent~24 Fixations= "14/"
# des~25 Fixations= "16/"
# cours~26 Fixations= "16/"
# en~27 Fixations= ""
# multimédia~28 Fixations= "15/"
%%
#  LA[1] PLUPART[2] DES[3] ANIMATEURS-MODéRATEURS[5] ont UNE[7] FORMATION[7] DE[8] JOURNALISTE[9] IL[10] N'EXISTE[10] pas de formation spécifique mais des écoles de journalisme OU[11] de COMMUNICATION[12] QUI[14] DONNENT[14] DES[16] COURS[16] en MULTIMéDIA[15]
# s10 formation_informatique-f1 PercentageOfWordsProcessed= 0.586206896551724 PercentageOfWordsReallyProcessed= 0.586206896551724
