# 113 Fixation 1 (263.2,286.1): Les~0 laboratoires~1 premier~6
# 218 Fixation 2 (332.6,293.2): Les~0 laboratoires~1
# 201 Fixation 3 (501.9,300.6): ont~2
# 97 Fixation 4 (546.4,295.5): ont~2 existence~10
# 209 Fixation 5 (633.3,298.1): réalisé~4
# 128 Fixation 6 (616,297.7): ainsi~3 réalisé~4
# 101 Fixation 7 (688.1,297.5): réalisé~4 qu'au~5
# 152 Fixation 8 (307.4,349.7): premier~6
# 133 Fixation 9 (279.4,350.1): premier~6
# 162 Fixation 10 (377,348.9): laboratoires~1 coup~7
# 153 Fixation 11 (525.6,352.8): leur~9 existence~10
# 227 Fixation 12 (552.6,353.3): leur~9 existence~10
# 182 Fixation 13 (694.7,353): même~11
# 95 Fixation 14 (727.4,352.7): même~11 était~12
# 192 Fixation 15 (311.1,397): premier~6 menacée~13
# 157 Fixation 16 (284.3,402.5): premier~6 menacée~13
# 320 Fixation 17 (433.4,404.2): coup~7 dur~8 médicaments~15
# 207 Fixation 18 (595.4,412.3): existence~10 nouveaux~16
# 283 Fixation 19 (709.2,416): n'étaient~17
# 215 Fixation 20 (721,413.2): n'étaient~17
# 127 Fixation 21 (512.7,427.6): médicaments~15
# 126 Fixation 22 (458.7,454.3): médicaments~15 nombreux~20
# 113 Fixation 23 (370.5,457.4): menacée~13 nombreux~20
# 176 Fixation 24 (301.9,458.4): menacée~13 plus~18
# 244 Fixation 25 (582.3,471.1): nouveaux~16 compenser~22
# 135 Fixation 26 (645.2,470.4): nouveaux~16 compenser~22
# 157 Fixation 27 (725.8,477.4): la~23 chute~24
# 256 Fixation 28 (690.8,545.4): domaine~30 public~31
%%
# Les~0 Fixations= "2/"
# laboratoires~1 Fixations= "10/"
# ont~2 Fixations= "4/"
# ainsi~3 Fixations= "6/"
# réalisé~4 Fixations= "7/"
# qu'au~5 Fixations= "7/"
# premier~6 Fixations= "16/"
# coup~7 Fixations= "17/"
# dur~8 Fixations= "17/"
# leur~9 Fixations= "12/"
# existence~10 Fixations= "18/"
# même~11 Fixations= "14/"
# était~12 Fixations= "14/"
# menacée~13 Fixations= "24/"
# Les~14 Fixations= ""
# médicaments~15 Fixations= "22/"
# nouveaux~16 Fixations= "26/"
# n'étaient~17 Fixations= "20/"
# plus~18 Fixations= "24/"
# assez~19 Fixations= ""
# nombreux~20 Fixations= "23/"
# pour~21 Fixations= ""
# compenser~22 Fixations= "26/"
# la~23 Fixations= "27/"
# chute~24 Fixations= "27/"
# de~25 Fixations= ""
# leurs~26 Fixations= ""
# brevets~27 Fixations= ""
# dans~28 Fixations= ""
# le~29 Fixations= ""
# domaine~30 Fixations= "28/"
# public~31 Fixations= "28/"
%%
#  LES[2] LABORATOIRES[10] ONT[4] AINSI[6] RéALISé[7] QU'AU[7] PREMIER[16] COUP[17] DUR[17] LEUR[12] EXISTENCE[18] MêME[14] éTAIT[14] MENACéE[24] Les MéDICAMENTS[22] NOUVEAUX[26] N'éTAIENT[20] PLUS[24] assez NOMBREUX[23] pour COMPENSER[26] LA[27] CHUTE[27] de leurs brevets dans le DOMAINE[28] PUBLIC[28]
# s05 conflit_israelo_palestinien-a2 PercentageOfWordsProcessed= 0.75 PercentageOfWordsReallyProcessed= 0.75
