# 97 Fixation 1 (246.5,281.5): La~0 société~1
# 99 Fixation 2 (322.8,296.2): La~0 société~1
# 210 Fixation 3 (396,292.6): société~1 HLM~2
# 119 Fixation 4 (389.2,292.5): société~1 HLM~2
# 319 Fixation 5 (536.8,292): a~4 organisé~5
# 232 Fixation 6 (666.6,294.2): une~6 formation~7
# 175 Fixation 7 (267.6,341): de~8 trois~9
# 99 Fixation 8 (319.9,340.8): de~8 trois~9
# 127 Fixation 9 (384.6,344): trois~9 jours~10
# 140 Fixation 10 (466.1,345.6): jours~10 réservée~11
# 170 Fixation 11 (582.4,346.1): aux~12 gardiens~13
# 86 Fixation 12 (637.2,351): aux~12 gardiens~13
# 143 Fixation 13 (254.7,398.2): d'immeubles~14
# 135 Fixation 14 (313.3,392.3): d'immeubles~14
# 158 Fixation 15 (460.9,404.6): L'objectif~15
# 108 Fixation 16 (515.4,408.1): L'objectif~15
# 160 Fixation 17 (632.8,412.6): est~16 permettre~18
# 228 Fixation 18 (293.5,459): aux~19 personnels~20
# 287 Fixation 19 (478.7,459): de~21 terrain~22
# 241 Fixation 20 (628.6,471.6): de~23 garder~24
# 225 Fixation 21 (263.9,515.2): distance~26
# 274 Fixation 22 (389.5,531.4): nécessaire~27
# 157 Fixation 23 (536.3,530): dans~28 situations~30
# 298 Fixation 24 (640,538): les~29 situations~30
# 87 Fixation 25 (686.8,541.6): situations~30
# 395 Fixation 26 (254.3,581.6): violence~32
%%
# La~0 Fixations= "2/"
# société~1 Fixations= "4/"
# HLM~2 Fixations= "4/"
# 3F~3 Fixations= ""
# a~4 Fixations= "5/"
# organisé~5 Fixations= "5/"
# une~6 Fixations= "6/"
# formation~7 Fixations= "6/"
# de~8 Fixations= "8/"
# trois~9 Fixations= "9/"
# jours~10 Fixations= "10/"
# réservée~11 Fixations= "10/"
# aux~12 Fixations= "12/"
# gardiens~13 Fixations= "12/"
# d'immeubles~14 Fixations= "14/"
# L'objectif~15 Fixations= "16/"
# est~16 Fixations= "17/"
# de~17 Fixations= ""
# permettre~18 Fixations= "17/"
# aux~19 Fixations= "18/"
# personnels~20 Fixations= "18/"
# de~21 Fixations= "19/"
# terrain~22 Fixations= "19/"
# de~23 Fixations= "20/"
# garder~24 Fixations= "20/"
# la~25 Fixations= ""
# distance~26 Fixations= "21/"
# nécessaire~27 Fixations= "22/"
# dans~28 Fixations= "23/"
# les~29 Fixations= "24/"
# situations~30 Fixations= "25/"
# de~31 Fixations= ""
# violence~32 Fixations= "26/"
%%
#  LA[2] SOCIéTé[4] HLM[4] 3F A[5] ORGANISé[5] UNE[6] FORMATION[6] DE[8] TROIS[9] JOURS[10] RéSERVéE[10] AUX[12] GARDIENS[12] D'IMMEUBLES[14] L'OBJECTIF[16] EST[17] de PERMETTRE[17] AUX[18] PERSONNELS[18] DE[19] TERRAIN[19] DE[20] GARDER[20] la DISTANCE[21] NéCESSAIRE[22] DANS[23] LES[24] SITUATIONS[25] de VIOLENCE[26]
# s06 delinquance_juvenile-m2 PercentageOfWordsProcessed= 0.878787878787879 PercentageOfWordsReallyProcessed= 0.878787878787879
