# 160 Fixation 1 (268.1,241.1): La~0 plainte~1
# 130 Fixation 2 (347.3,231.9): plainte~1
# 141 Fixation 3 (406.2,228.6): plainte~1 avait~2
# 174 Fixation 4 (270.8,249.2): La~0 plainte~1
# 107 Fixation 5 (302.2,262.3): La~0 plainte~1
# 192 Fixation 6 (431.6,227.3): avait~2
# 247 Fixation 7 (538.5,210.2): été~3 déposée~4
# 444 Fixation 8 (290,361.2): l'entreprise~6
# 211 Fixation 9 (501.7,366.7): portait~8
# 262 Fixation 10 (689.7,263.9): par~5
# 155 Fixation 11 (349.4,405.7): l'entreprise~6
# 224 Fixation 12 (282.8,413.5): urbain~12
# 165 Fixation 13 (394.1,459.6): et~13 service~15 service~22
# 198 Fixation 14 (529.6,489.1): Le~23 groupe~24
%%
# La~0 Fixations= "5/"
# plainte~1 Fixations= "5/"
# avait~2 Fixations= "6/"
# été~3 Fixations= "7/"
# déposée~4 Fixations= "7/"
# par~5 Fixations= "10/"
# l'entreprise~6 Fixations= "11/"
# et~7 Fixations= ""
# portait~8 Fixations= "9/"
# sur~9 Fixations= ""
# le~10 Fixations= ""
# mobilier~11 Fixations= ""
# urbain~12 Fixations= "12/"
# et~13 Fixations= "13/"
# le~14 Fixations= ""
# service~15 Fixations= "13/"
# de~16 Fixations= ""
# location~17 Fixations= ""
# de~18 Fixations= ""
# vélos~19 Fixations= ""
# en~20 Fixations= ""
# libre~21 Fixations= ""
# service~22 Fixations= "13/"
# Le~23 Fixations= "14/"
# groupe~24 Fixations= "14/"
# américain~25 Fixations= ""
# a~26 Fixations= ""
# déposé~27 Fixations= ""
# un~28 Fixations= ""
# recours~29 Fixations= ""
%%
#  LA[5] PLAINTE[5] AVAIT[6] éTé[7] DéPOSéE[7] PAR[10] L'ENTREPRISE[11] et PORTAIT[9] sur le mobilier URBAIN[12] ET[13] le SERVICE[13] de location de vélos en libre SERVICE[13] LE[14] GROUPE[14] américain a déposé un recours
# s20 observation_planetes-a1 PercentageOfWordsProcessed= 0.466666666666667 PercentageOfWordsReallyProcessed= 0.56
