# 138 Fixation 1 (252.1,278.9): Les~0 marges~1
# 178 Fixation 2 (293.6,274.1): Les~0 marges~1
# 225 Fixation 3 (440.2,272.9): de~2 croissance~3
# 95 Fixation 4 (393.9,275.5): marges~1
# 211 Fixation 5 (598.2,280.8): pourraient~4
# 119 Fixation 6 (709.5,288): pourraient~4 être~5
# 172 Fixation 7 (273,330.3): augmentées~6
# 153 Fixation 8 (444.5,341.1): par~7 réformes~9
# 163 Fixation 9 (516,342.5): des~8 réformes~9
# 263 Fixation 10 (660.5,347.1): structurelles~10
# 151 Fixation 11 (308.8,401.5): sur~11 marchés~13
# 121 Fixation 12 (373.5,410.9): les~12 marchés~13
# 197 Fixation 13 (532.6,409.8): du~14 travail~15
# 187 Fixation 14 (640.9,412.4): et~16 biens~18
# 211 Fixation 15 (312.6,475.8): entraînant~19
# 202 Fixation 16 (455,485.7): une~20 accélération~21
# 100 Fixation 17 (509.4,484.1): accélération~21
# 123 Fixation 18 (634.8,474.7): de~22
# 204 Fixation 19 (297.2,542.3): croissance~24
# 214 Fixation 20 (457,538.7): la~25 stabilité~26
# 188 Fixation 21 (633,534.4): des~27 prix~28
# 102 Fixation 22 (710,538): prix~28
# 176 Fixation 23 (312.8,605.5): excédent~31
# 225 Fixation 24 (459.1,604.3): la~33 balance~34
# 187 Fixation 25 (617.3,604.9): des~35 paiements~36
# 410 Fixation 26 (303.2,656): courants~37
%%
# Les~0 Fixations= "2/"
# marges~1 Fixations= "4/"
# de~2 Fixations= "3/"
# croissance~3 Fixations= "3/"
# pourraient~4 Fixations= "6/"
# être~5 Fixations= "6/"
# augmentées~6 Fixations= "7/"
# par~7 Fixations= "8/"
# des~8 Fixations= "9/"
# réformes~9 Fixations= "9/"
# structurelles~10 Fixations= "10/"
# sur~11 Fixations= "11/"
# les~12 Fixations= "12/"
# marchés~13 Fixations= "12/"
# du~14 Fixations= "13/"
# travail~15 Fixations= "13/"
# et~16 Fixations= "14/"
# des~17 Fixations= ""
# biens~18 Fixations= "14/"
# entraînant~19 Fixations= "15/"
# une~20 Fixations= "16/"
# accélération~21 Fixations= "17/"
# de~22 Fixations= "18/"
# la~23 Fixations= ""
# croissance~24 Fixations= "19/"
# la~25 Fixations= "20/"
# stabilité~26 Fixations= "20/"
# des~27 Fixations= "21/"
# prix~28 Fixations= "22/"
# et~29 Fixations= ""
# un~30 Fixations= ""
# excédent~31 Fixations= "23/"
# de~32 Fixations= ""
# la~33 Fixations= "24/"
# balance~34 Fixations= "24/"
# des~35 Fixations= "25/"
# paiements~36 Fixations= "25/"
# courants~37 Fixations= "26/"
%%
#  LES[2] MARGES[4] DE[3] CROISSANCE[3] POURRAIENT[6] êTRE[6] AUGMENTéES[7] PAR[8] DES[9] RéFORMES[9] STRUCTURELLES[10] SUR[11] LES[12] MARCHéS[12] DU[13] TRAVAIL[13] ET[14] des BIENS[14] ENTRAîNANT[15] UNE[16] ACCéLéRATION[17] DE[18] la CROISSANCE[19] LA[20] STABILITé[20] DES[21] PRIX[22] et un EXCéDENT[23] de LA[24] BALANCE[24] DES[25] PAIEMENTS[25] COURANTS[26]
# s17 croissance_economie-m2 PercentageOfWordsProcessed= 0.868421052631579 PercentageOfWordsReallyProcessed= 0.868421052631579
