999 WORDS_abords~1 182
999 WORDFREQ_11.76 182
999 WORDSALL_Aux~0_abords~1 182
999 COSIND_0.07 182
999 COSGEN_0.07 182
101 ESRank1 182
999 WORDS_gare~4 199
999 WORDFREQ_78.58 199
999 WORDSALL_de~2_gare~4 199
999 COSIND_0.17 199
999 COSGEN_0.17 199
102 ESRank2 199
202 ESForwSacLong+3+7 199
999 WORDS_abords~1 153
999 WORDFREQ_11.76 153
999 WORDSALL_abords~1 153
999 COSIND_0.07 153
999 COSGEN_0.07 153
103 ESRank3 153
206 ESBackSacRegrLong-3-7 153
999 WORDS_nulle~5 242
999 WORDFREQ_32.7 242
999 WORDSALL_gare~4_nulle~5 242
999 COSIND_-0.06 242
999 COSGEN_-0.06 242
104 ESRank4 242
202 ESForwSacLong+4+12 242
999 WORDS_barre~6 125
999 WORDFREQ_23.18 125
999 WORDSALL_nulle~5_barre~6 125
999 COSIND_0.11 125
999 COSGEN_0.11 125
105 ESRank5 125
201 ESForwSacShort 125
999 WORDS_barre~6 370
999 WORDFREQ_23.18 370
999 WORDSALL_barre~6 370
999 COSIND_0.11 370
999 COSGEN_0.11 370
106 ESRank6 370
203 ESBackSacRefixation 370
999 WORDS_logements~8 241
999 WORDFREQ_2.57 241
999 WORDSALL_logements~8 241
999 COSIND_1.00 241
999 COSGEN_1.00 241
107 ESRank7 241
202 ESForwSacLong+2+4 241
999 WORDS_logements~8 124
999 WORDFREQ_2.57 124
999 WORDSALL_logements~8 124
999 COSIND_1.00 124
999 COSGEN_1.00 124
108 ESRank8 124
203 ESBackSacRefixation 124
999 WORDS_cabine~10 241
999 WORDFREQ_29.86 241
999 WORDSALL_ni~9_cabine~10 241
999 COSIND_0.13 241
999 COSGEN_0.13 241
109 ESRank9 241
202 ESForwSacLong+2+4 241
999 WORDS_téléphonique~11 209
999 WORDFREQ_7.7 209
999 WORDSALL_téléphonique~11 209
999 COSIND_0.01 209
999 COSGEN_0.01 209
110 ESRank10 209
201 ESForwSacShort 209
999 WORDS_dévastée~12 185
999 WORDFREQ_0.47 185
999 WORDSALL_dévastée~12 185
999 COSIND_0.18 185
999 COSGEN_0.18 185
111 ESRank11 185
201 ESForwSacShort 185
999 WORDS_habitat~15 181
999 WORDFREQ_0.88 181
999 WORDSALL_mais~13_habitat~15 181
999 COSIND_0.70 181
999 COSGEN_0.70 181
112 ESRank12 181
202 ESForwSacLong+3+9 181
999 WORDS_habitat~15 162
999 WORDFREQ_0.88 162
999 WORDSALL_mais~13_habitat~15 162
999 COSIND_0.70 162
999 COSGEN_0.70 162
113 ESRank13 162
203 ESBackSacRefixation 162
999 WORDS_habitat~15 105
999 WORDFREQ_0.88 105
999 WORDSALL_un~14_habitat~15 105
999 COSIND_0.70 105
999 COSGEN_0.70 105
114 ESRank14 105
203 ESBackSacRefixation 105
999 WORDS_habitat~15 160
999 WORDFREQ_0.88 160
999 WORDSALL_mais~13_habitat~15 160
999 COSIND_0.70 160
999 COSGEN_0.70 160
115 ESRank15 160
203 ESBackSacRefixation 160
999 WORDS_constitué~16 201
999 WORDFREQ_6.82 201
999 WORDSALL_constitué~16 201
999 COSIND_-0.06 201
999 COSGEN_-0.06 201
116 ESRank16 201
201 ESForwSacShort 201
999 WORDS_d'immeubles~17 166
999 WORDFREQ_17.91 166
999 WORDSALL_d'immeubles~17 166
999 COSIND_0.50 166
999 COSGEN_0.50 166
117 ESRank17 166
201 ESForwSacShort 166
999 WORDS_constitué~16 196
999 WORDFREQ_6.82 196
999 WORDSALL_constitué~16 196
999 COSIND_-0.06 196
999 COSGEN_-0.06 196
118 ESRank18 196
205 ESBackSacRegrShort 196
999 WORDS_d'immeubles~17 269
999 WORDFREQ_17.91 269
999 WORDSALL_d'immeubles~17 269
999 COSIND_0.50 269
999 COSGEN_0.50 269
119 ESRank19 269
201 ESForwSacShort 269
999 WORDS_réhabilités~18 289
999 WORDFREQ_0.07 289
999 WORDSALL_réhabilités~18 289
999 COSIND_0.15 289
999 COSGEN_0.15 289
120 ESRank20 289
201 ESForwSacShort 289
999 WORDS_réhabilités~18 239
999 WORDFREQ_0.07 239
999 WORDSALL_réhabilités~18 239
999 COSIND_0.15 239
999 COSGEN_0.15 239
203 ESBackSacRefixation 239
999 WORDS_maisons~21 205
999 WORDFREQ_113.78 205
999 WORDSALL_et~19_maisons~21 205
999 COSIND_0.04 205
999 COSGEN_0.04 205
202 ESForwSacLong+3+7 205
999 WORDS_maisons~21 369
999 WORDFREQ_113.78 369
999 WORDSALL_et~19_maisons~21 369
999 COSIND_0.04 369
999 COSGEN_0.04 369
203 ESBackSacRefixation 369
999 WORDS_maisons~21 179
999 WORDFREQ_113.78 179
999 WORDSALL_de~20_maisons~21 179
999 COSIND_0.04 179
999 COSGEN_0.04 179
203 ESBackSacRefixation 179
999 WORDS_pierre~23 236
999 WORDFREQ_119.39 236
999 WORDSALL_maisons~21_pierre~23 236
999 COSIND_0.03 236
999 COSGEN_0.03 236
202 ESForwSacLong+2+4 236
999 WORDS_pierre~23 132
999 WORDFREQ_119.39 132
999 WORDSALL_maisons~21_pierre~23 132
999 COSIND_0.03 132
999 COSGEN_0.03 132
203 ESBackSacRefixation 132
999 WORDS_meulière~24 175
999 WORDFREQ_0.2 175
999 WORDSALL_meulière~24 175
999 COSIND_0.27 175
999 COSGEN_0.27 175
201 ESForwSacShort 175
999 WORDS_restaurées~25 236
999 WORDFREQ_0.47 236
999 WORDSALL_restaurées~25 236
999 COSIND_0.15 236
999 COSGEN_0.15 236
201 ESForwSacShort 236
999 WORDS_ornées~27 182
999 WORDFREQ_2.77 182
999 WORDSALL_et~26_ornées~27 182
999 COSIND_0.08 182
999 COSGEN_0.08 182
202 ESForwSacLong+2+4 182
999 WORDS_charmants~29 296
999 WORDFREQ_3.58 296
999 WORDSALL_de~28_charmants~29 296
999 COSIND_-0.04 296
999 COSGEN_-0.04 296
202 ESForwSacLong+2+4 296
999 WORDS_balcons~30 291
999 WORDFREQ_7.43 291
999 WORDSALL_balcons~30 291
999 COSIND_0.25 291
999 COSGEN_0.25 291
201 ESForwSacShort 291
200 ESRankN 291
199 ESRankNMinus1 296
198 ESRankNMinus2 182
197 ESRankNMinus3 236
196 ESRankNMinus4 175
195 ESRankNMinus5 132
194 ESRankNMinus6 236
193 ESRankNMinus7 179
192 ESRankNMinus8 369
191 ESRankNMinus9 205
190 ESRankNMinus10 239
