999 WORDS_L'ortolan~0 163
999 WORDFREQ_0.27 163
999 WORDSALL_L'ortolan~0 163
999 COSIND_0.54 163
999 COSGEN_0.54 163
101 ESRank1 163
999 WORDS_L'ortolan~0 180
999 WORDFREQ_0.27 180
999 WORDSALL_L'ortolan~0 180
999 COSIND_0.54 180
999 COSGEN_0.54 180
102 ESRank2 180
203 ESBackSacRefixation 180
999 WORDS_petit~1 224
999 WORDFREQ_653.78 224
999 WORDSALL_petit~1 224
999 COSIND_0.09 224
999 COSGEN_0.09 224
103 ESRank3 224
201 ESForwSacShort 224
999 WORDS_oiseau~2 164
999 WORDFREQ_47.97 164
999 WORDSALL_petit~1_oiseau~2 164
999 COSIND_0.83 164
999 COSGEN_0.83 164
104 ESRank4 164
201 ESForwSacShort 164
999 WORDS_très~3 145
999 WORDFREQ_1120.81 145
999 WORDSALL_très~3 145
999 COSIND_N/A 145
105 ESRank5 145
201 ESForwSacShort 145
999 WORDS_prisé~4 145
999 WORDFREQ_0.54 145
999 WORDSALL_très~3_prisé~4 145
999 COSIND_0.09 145
999 COSGEN_0.09 145
106 ESRank6 145
201 ESForwSacShort 145
999 WORDS_par~5 127
999 WORDFREQ_3727.09 127
999 WORDSALL_par~5 127
999 COSIND_N/A 127
107 ESRank7 127
201 ESForwSacShort 127
999 WORDS_gourmets~7 174
999 WORDFREQ_0.74 174
999 WORDSALL_gourmets~7 174
999 COSIND_0.07 174
999 COSGEN_0.07 174
108 ESRank8 174
202 ESForwSacLong+2+5 174
999 WORDS_gourmets~7 85
999 WORDFREQ_0.74 85
999 WORDSALL_gourmets~7 85
999 COSIND_0.07 85
999 COSGEN_0.07 85
109 ESRank9 85
203 ESBackSacRefixation 85
999 WORDS_Sud-ouest~9 207
999 WORDFREQ_3.51 207
999 WORDSALL_du~8_Sud-ouest~9 207
999 COSIND_N/A 207
110 ESRank10 207
202 ESForwSacLong+2+4 207
999 WORDS_Sud-ouest~9 179
999 WORDFREQ_3.51 179
999 WORDSALL_Sud-ouest~9 179
999 COSIND_N/A 179
111 ESRank11 179
203 ESBackSacRefixation 179
999 WORDS_appartiendra~10 391
999 WORDFREQ_1.01 391
999 WORDSALL_appartiendra~10 391
999 COSIND_-0.02 391
999 COSGEN_-0.02 391
112 ESRank12 391
201 ESForwSacShort 391
999 WORDS_appartiendra~10 142
999 WORDFREQ_1.01 142
999 WORDSALL_appartiendra~10 142
999 COSIND_-0.02 142
999 COSGEN_-0.02 142
113 ESRank13 142
203 ESBackSacRefixation 142
999 WORDS_bientôt~11 131
999 WORDFREQ_169.59 131
999 WORDSALL_appartiendra~10_bientôt~11 131
999 COSIND_0.02 131
999 COSGEN_0.02 131
114 ESRank14 131
201 ESForwSacShort 131
999 WORDS_bientôt~11 146
999 WORDFREQ_169.59 146
999 WORDSALL_bientôt~11 146
999 COSIND_0.02 146
999 COSGEN_0.02 146
115 ESRank15 146
203 ESBackSacRefixation 146
999 WORDS_espèces~13 188
999 WORDFREQ_14.46 188
999 WORDSALL_aux~12_espèces~13 188
999 COSIND_0.54 188
999 COSGEN_0.54 188
116 ESRank16 188
202 ESForwSacLong+2+5 188
999 WORDS_espèces~13 151
999 WORDFREQ_14.46 151
999 WORDSALL_aux~12_espèces~13 151
999 COSIND_0.54 151
999 COSGEN_0.54 151
117 ESRank17 151
203 ESBackSacRefixation 151
999 WORDS_protégées~14 288
999 WORDFREQ_0.14 288
999 WORDSALL_protégées~14 288
999 COSIND_0.25 288
999 COSGEN_0.25 288
118 ESRank18 288
201 ESForwSacShort 288
999 WORDS_protégées~14 155
999 WORDFREQ_0.14 155
999 WORDSALL_protégées~14 155
999 COSIND_0.25 155
999 COSGEN_0.25 155
119 ESRank19 155
203 ESBackSacRefixation 155
200 ESRankN 155
199 ESRankNMinus1 288
198 ESRankNMinus2 151
197 ESRankNMinus3 188
196 ESRankNMinus4 146
195 ESRankNMinus5 131
194 ESRankNMinus6 142
193 ESRankNMinus7 391
192 ESRankNMinus8 179
191 ESRankNMinus9 207
190 ESRankNMinus10 85
