999 WORDS_tir~2 195
999 WORDFREQ_16.01 195
999 WORDSALL_premier~1_tir~2 195
999 COSIND_0.44 195
999 COSGEN_0.44 195
101 ESRank1 195
999 WORDS_premier~1 110
999 WORDFREQ_237.91 110
999 WORDSALL_premier~1 110
999 COSIND_0.05 110
999 COSGEN_0.05 110
102 ESRank2 110
205 ESBackSacRegrShort 110
999 WORDS_l'année~4 168
999 WORDFREQ_128.99 168
999 WORDSALL_de~3_l'année~4 168
999 COSIND_0.03 168
999 COSGEN_0.03 168
103 ESRank3 168
202 ESForwSacLong+3+8 168
999 WORDS_fusée~7 148
999 WORDFREQ_4.59 148
999 WORDSALL_de~5_fusée~7 148
999 COSIND_0.91 148
999 COSGEN_0.91 148
104 ESRank4 148
202 ESForwSacLong+3+7 148
999 WORDS_Ariane-4~8 222
999 WORDFREQ_N/A 222
999 WORDSALL_Ariane-4~8 222
999 COSIND_N/A 222
105 ESRank5 222
201 ESForwSacShort 222
999 WORDS_centre~11 185
999 WORDFREQ_80 185
999 WORDSALL_depuis~9_centre~11 185
999 COSIND_0.09 185
999 COSGEN_0.09 185
106 ESRank6 185
202 ESForwSacLong+3+11 185
999 WORDS_centre~11 213
999 WORDFREQ_80 213
999 WORDSALL_le~10_centre~11 213
999 COSIND_0.09 213
999 COSGEN_0.09 213
107 ESRank7 213
203 ESBackSacRefixation 213
999 WORDS_spatial~12 132
999 WORDFREQ_0.61 132
999 WORDSALL_spatial~12 132
999 COSIND_0.79 132
999 COSGEN_0.79 132
108 ESRank8 132
201 ESForwSacShort 132
999 WORDS_guyanais~13 147
999 WORDFREQ_0.07 147
999 WORDSALL_guyanais~13 147
999 COSIND_N/A 147
109 ESRank9 147
201 ESForwSacShort 147
999 WORDS_a~16 162
999 WORDFREQ_2926.69 162
999 WORDSALL_Kourou~15_a~16 162
999 COSIND_N/A 162
110 ESRank10 162
202 ESForwSacLong+3+11 162
999 WORDS_Kourou~15 129
999 WORDFREQ_N/A 129
999 WORDSALL_de~14_Kourou~15 129
999 COSIND_N/A 129
111 ESRank11 129
205 ESBackSacRegrShort 129
999 WORDS_succès~19 238
999 WORDFREQ_53.72 238
999 WORDSALL_été~17_succès~19 238
999 COSIND_0.03 238
999 COSGEN_0.03 238
112 ESRank12 238
202 ESForwSacLong+4+12 238
999 WORDS_été~17 139
999 WORDFREQ_818.99 139
999 WORDSALL_a~16_été~17 139
999 COSIND_0.01 139
999 COSGEN_0.01 139
113 ESRank13 139
206 ESBackSacRegrLong-2-4 139
999 WORDS_lanceur~21 177
999 WORDFREQ_0.34 177
999 WORDSALL_le~20_lanceur~21 177
999 COSIND_0.82 177
999 COSGEN_0.82 177
114 ESRank14 177
202 ESForwSacLong+4+15 177
999 WORDS_a~16 284
999 WORDFREQ_2926.69 284
999 WORDSALL_Kourou~15_a~16 284
999 COSIND_N/A 284
115 ESRank15 284
206 ESBackSacRegrLong-5-21 284
999 WORDS_orbite~26 125
999 WORDFREQ_2.64 125
999 WORDSALL_orbite~26 125
999 COSIND_0.75 125
999 COSGEN_0.75 125
116 ESRank16 125
202 ESForwSacLong+10+49 125
999 WORDS_satellite~28 135
999 WORDFREQ_0.81 135
999 WORDSALL_satellite~28 135
999 COSIND_0.59 135
999 COSGEN_0.59 135
117 ESRank17 135
202 ESForwSacLong+2+4 135
999 WORDS_a~23 235
999 WORDFREQ_2926.69 235
999 WORDSALL_européen~22_a~23 235
999 COSIND_N/A 235
118 ESRank18 235
206 ESBackSacRegrLong-5-19 235
200 ESRankN 235
199 ESRankNMinus1 135
198 ESRankNMinus2 125
197 ESRankNMinus3 284
196 ESRankNMinus4 177
195 ESRankNMinus5 139
194 ESRankNMinus6 238
193 ESRankNMinus7 129
192 ESRankNMinus8 162
191 ESRankNMinus9 147
190 ESRankNMinus10 132
