999 WORDS_gouvernements~1 103
999 WORDFREQ_12.3 103
999 WORDSALL_Nos~0_gouvernements~1 103
999 COSIND_0.03 103
999 COSGEN_0.03 103
101 ESRank1 103
999 WORDS_gouvernements~1 171
999 WORDFREQ_12.3 171
999 WORDSALL_Nos~0_gouvernements~1 171
999 COSIND_0.03 171
999 COSGEN_0.03 171
102 ESRank2 171
203 ESBackSacRefixation 171
999 WORDS_coopéreront~2 171
999 WORDFREQ_0 171
999 WORDSALL_coopéreront~2 171
999 COSIND_0.16 171
999 COSGEN_0.16 171
103 ESRank3 171
201 ESForwSacShort 171
999 WORDS_coopéreront~2 114
999 WORDFREQ_0 114
999 WORDSALL_coopéreront~2 114
999 COSIND_0.16 114
999 COSGEN_0.16 114
104 ESRank4 114
203 ESBackSacRefixation 114
999 WORDS_coopéreront~2 180
999 WORDFREQ_0 180
999 WORDSALL_coopéreront~2 180
999 COSIND_0.16 180
999 COSGEN_0.16 180
105 ESRank5 180
203 ESBackSacRefixation 180
999 WORDS_avec~3 88
999 WORDFREQ_4000.41 88
999 WORDSALL_avec~3 88
999 COSIND_N/A 88
106 ESRank6 88
201 ESForwSacShort 88
999 WORDS_pénal~6 133
999 WORDFREQ_2.91 133
999 WORDSALL_Tribunal~5_pénal~6 133
999 COSIND_0.53 133
999 COSGEN_0.53 133
107 ESRank7 133
202 ESForwSacLong+3+13 133
999 WORDS_Tribunal~5 182
999 WORDFREQ_15 182
999 WORDSALL_Tribunal~5 182
999 COSIND_0.81 182
999 COSGEN_0.81 182
108 ESRank8 182
205 ESBackSacRegrShort 182
999 WORDS_pénal~6 162
999 WORDFREQ_2.91 162
999 WORDSALL_Tribunal~5_pénal~6 162
999 COSIND_0.53 162
999 COSGEN_0.53 162
109 ESRank9 162
201 ESForwSacShort 162
999 WORDS_international~7 189
999 WORDFREQ_9.12 189
999 WORDSALL_international~7 189
999 COSIND_0.87 189
999 COSGEN_0.87 189
110 ESRank10 189
201 ESForwSacShort 189
999 WORDS_international~7 117
999 WORDFREQ_9.12 117
999 WORDSALL_international~7 117
999 COSIND_0.87 117
999 COSGEN_0.87 117
111 ESRank11 117
203 ESBackSacRefixation 117
999 WORDS_international~7 171
999 WORDFREQ_9.12 171
999 WORDSALL_international~7 171
999 COSIND_0.87 171
999 COSGEN_0.87 171
112 ESRank12 171
203 ESBackSacRefixation 171
999 WORDS_l'ex-Yougoslavie~9 197
999 WORDFREQ_N/A 197
999 WORDSALL_l'ex-Yougoslavie~9 197
999 COSIND_N/A 197
113 ESRank13 197
202 ESForwSacLong+2+6 197
999 WORDS_l'ex-Yougoslavie~9 166
999 WORDFREQ_N/A 166
999 WORDSALL_l'ex-Yougoslavie~9 166
999 COSIND_N/A 166
114 ESRank14 166
203 ESBackSacRefixation 166
999 WORDS_l'ex-Yougoslavie~9 126
999 WORDFREQ_N/A 126
999 WORDSALL_l'ex-Yougoslavie~9 126
999 COSIND_N/A 126
115 ESRank15 126
203 ESBackSacRefixation 126
999 WORDS_l'aidant~11 190
999 WORDFREQ_11.49 190
999 WORDSALL_l'aidant~11 190
999 COSIND_0.10 190
999 COSGEN_0.10 190
116 ESRank16 190
202 ESForwSacLong+2+4 190
999 WORDS_l'aidant~11 99
999 WORDFREQ_11.49 99
999 WORDSALL_en~10_l'aidant~11 99
999 COSIND_0.10 99
999 COSGEN_0.10 99
117 ESRank17 99
203 ESBackSacRefixation 99
200 ESRankN 99
199 ESRankNMinus1 190
198 ESRankNMinus2 126
197 ESRankNMinus3 166
196 ESRankNMinus4 197
195 ESRankNMinus5 171
194 ESRankNMinus6 117
193 ESRankNMinus7 189
192 ESRankNMinus8 162
191 ESRankNMinus9 182
190 ESRankNMinus10 133
