999 WORDS_soixantaine~1 110
999 WORDFREQ_4.53 110
999 WORDSALL_Une~0_soixantaine~1 110
999 COSIND_0.03 110
999 COSGEN_0.03 110
101 ESRank1 110
999 WORDS_soixantaine~1 145
999 WORDFREQ_4.53 145
999 WORDSALL_Une~0_soixantaine~1 145
999 COSIND_0.03 145
999 COSGEN_0.03 145
102 ESRank2 145
203 ESBackSacRefixation 145
999 WORDS_jeunes~3 195
999 WORDFREQ_30.14 195
999 WORDSALL_de~2_jeunes~3 195
999 COSIND_0.28 195
999 COSGEN_0.28 195
103 ESRank3 195
202 ESForwSacLong+2+4 195
999 WORDS_Courneuve~6 180
999 WORDFREQ_N/A 180
999 WORDSALL_la~5_Courneuve~6 180
999 COSIND_N/A 180
104 ESRank4 180
202 ESForwSacLong+3+7 180
999 WORDS_incendié~8 196
999 WORDFREQ_0.47 196
999 WORDSALL_ont~7_incendié~8 196
999 COSIND_0.01 196
999 COSGEN_0.01 196
105 ESRank5 196
202 ESForwSacLong+2+5 196
999 WORDS_voitures~10 214
999 WORDFREQ_61.96 214
999 WORDSALL_des~9_voitures~10 214
999 COSIND_0.11 214
999 COSGEN_0.11 214
106 ESRank6 214
202 ESForwSacLong+2+5 214
999 WORDS_brisé~11 155
999 WORDFREQ_6.35 155
999 WORDSALL_brisé~11 155
999 COSIND_0.04 155
999 COSGEN_0.04 155
107 ESRank7 155
201 ESForwSacShort 155
999 WORDS_vitrines~13 190
999 WORDFREQ_13.31 190
999 WORDSALL_vitrines~13 190
999 COSIND_0.07 190
999 COSGEN_0.07 190
108 ESRank8 190
202 ESForwSacLong+2+5 190
999 WORDS_sont~16 144
999 WORDFREQ_386.35 144
999 WORDSALL_s'en~15_sont~16 144
999 COSIND_0.01 144
999 COSGEN_0.01 144
109 ESRank9 144
202 ESForwSacLong+3+9 144
999 WORDS_policiers~19 175
999 WORDFREQ_11.62 175
999 WORDSALL_aux~18_policiers~19 175
999 COSIND_0.48 175
999 COSGEN_0.48 175
110 ESRank10 175
202 ESForwSacLong+3+10 175
999 WORDS_attribuent~22 161
999 WORDFREQ_0.07 161
999 WORDSALL_auxquels~20_attribuent~22 161
999 COSIND_-0.03 161
999 COSGEN_-0.03 161
111 ESRank11 161
202 ESForwSacLong+3+14 161
200 ESRankN 161
199 ESRankNMinus1 175
198 ESRankNMinus2 144
197 ESRankNMinus3 190
196 ESRankNMinus4 155
195 ESRankNMinus5 214
194 ESRankNMinus6 196
193 ESRankNMinus7 180
192 ESRankNMinus8 195
191 ESRankNMinus9 145
190 ESRankNMinus10 110
