999 WORDS_aubry~1 165
999 WORDFREQ_N/A 165
999 WORDSALL_Mme~0_aubry~1 165
999 COSIND_N/A 165
101 ESRank1 165
999 WORDS_Mme~0 150
999 WORDFREQ_0 150
999 WORDSALL_Mme~0 150
999 COSIND_N/A 150
102 ESRank2 150
205 ESBackSacRegrShort 150
999 WORDS_Mme~0 167
999 WORDFREQ_0 167
999 WORDSALL_Mme~0 167
999 COSIND_N/A 167
103 ESRank3 167
203 ESBackSacRefixation 167
999 WORDS_aubry~1 181
999 WORDFREQ_N/A 181
999 WORDSALL_Mme~0_aubry~1 181
999 COSIND_N/A 181
104 ESRank4 181
201 ESForwSacShort 181
999 WORDS_Mme~0 177
999 WORDFREQ_0 177
999 WORDSALL_Mme~0 177
999 COSIND_N/A 177
105 ESRank5 177
205 ESBackSacRegrShort 177
999 WORDS_a~2 204
999 WORDFREQ_2926.69 204
999 WORDSALL_aubry~1_a~2 204
999 COSIND_N/A 204
106 ESRank6 204
202 ESForwSacLong+2+7 204
999 WORDS_a~2 285
999 WORDFREQ_2926.69 285
999 WORDSALL_aubry~1_a~2 285
999 COSIND_N/A 285
107 ESRank7 285
203 ESBackSacRefixation 285
999 WORDS_annoncé~3 254
999 WORDFREQ_15.68 254
999 WORDSALL_annoncé~3 254
999 COSIND_0.06 254
999 COSGEN_0.06 254
108 ESRank8 254
201 ESForwSacShort 254
999 WORDS_l'objectif~5 223
999 WORDFREQ_9.19 223
999 WORDSALL_que~4_l'objectif~5 223
999 COSIND_-0.08 223
999 COSGEN_-0.08 223
109 ESRank9 223
202 ESForwSacLong+2+5 223
999 WORDS_l'objectif~5 318
999 WORDFREQ_9.19 318
999 WORDSALL_l'objectif~5 318
999 COSIND_-0.08 318
999 COSGEN_-0.08 318
110 ESRank10 318
203 ESBackSacRefixation 318
999 WORDS_dépenses~8 293
999 WORDFREQ_5.07 293
999 WORDSALL_des~7_dépenses~8 293
999 COSIND_0.15 293
999 COSGEN_0.15 293
111 ESRank11 293
202 ESForwSacLong+3+14 293
999 WORDS_dépenses~8 143
999 WORDFREQ_5.07 143
999 WORDSALL_des~7_dépenses~8 143
999 COSIND_0.15 143
999 COSGEN_0.15 143
112 ESRank12 143
203 ESBackSacRefixation 143
999 WORDS_d'assurance~9 286
999 WORDFREQ_25.14 286
999 WORDSALL_dépenses~8_d'assurance~9 286
999 COSIND_0.24 286
999 COSGEN_0.24 286
113 ESRank13 286
201 ESForwSacShort 286
999 WORDS_maladie~10 237
999 WORDFREQ_49.59 237
999 WORDSALL_d'assurance~9_maladie~10 237
999 COSIND_0.12 237
999 COSGEN_0.12 237
114 ESRank14 237
201 ESForwSacShort 237
999 WORDS_d'assurance~9 237
999 WORDFREQ_25.14 237
999 WORDSALL_d'assurance~9 237
999 COSIND_0.24 237
999 COSGEN_0.24 237
115 ESRank15 237
205 ESBackSacRegrShort 237
999 WORDS_dépenses~8 346
999 WORDFREQ_5.07 346
999 WORDSALL_des~7_dépenses~8 346
999 COSIND_0.15 346
999 COSGEN_0.15 346
116 ESRank16 346
205 ESBackSacRegrShort 346
999 WORDS_d'assurance~9 315
999 WORDFREQ_25.14 315
999 WORDSALL_d'assurance~9 315
999 COSIND_0.24 315
999 COSGEN_0.24 315
117 ESRank17 315
201 ESForwSacShort 315
999 WORDS_maladie~10 272
999 WORDFREQ_49.59 272
999 WORDSALL_d'assurance~9_maladie~10 272
999 COSIND_0.12 272
999 COSGEN_0.12 272
118 ESRank18 272
201 ESForwSacShort 272
999 WORDS_voté~11 198
999 WORDFREQ_1.76 198
999 WORDSALL_maladie~10_voté~11 198
999 COSIND_-0.07 198
999 COSGEN_-0.07 198
119 ESRank19 198
201 ESForwSacShort 198
999 WORDS_parlement~14 285
999 WORDFREQ_5.54 285
999 WORDSALL_le~13_parlement~14 285
999 COSIND_-0.08 285
999 COSGEN_-0.08 285
120 ESRank20 285
202 ESForwSacLong+3+8 285
999 WORDS_sera~15 234
999 WORDFREQ_66.69 234
999 WORDSALL_sera~15 234
999 COSIND_0.09 234
999 COSGEN_0.09 234
201 ESForwSacShort 234
999 WORDS_d'euros~20 214
999 WORDFREQ_0 214
999 WORDSALL_d'euros~20 214
999 COSIND_N/A 214
202 ESForwSacLong+5+33 214
999 WORDS_d'environ~17 131
999 WORDFREQ_27.43 131
999 WORDSALL_d'environ~17 131
999 COSIND_0.09 131
999 COSGEN_0.09 131
206 ESBackSacRegrLong-3-13 131
200 ESRankN 131
199 ESRankNMinus1 214
198 ESRankNMinus2 234
197 ESRankNMinus3 285
196 ESRankNMinus4 198
195 ESRankNMinus5 272
194 ESRankNMinus6 315
193 ESRankNMinus7 346
192 ESRankNMinus8 237
191 ESRankNMinus9 237
190 ESRankNMinus10 286
