# 96 Fixation 1 (260.5,289.6): Ils~0 sont~1
# 89 Fixation 2 (326.3,292.6): Ils~0 sont~1
# 147 Fixation 3 (419.7,291.7): encore~2 six~3
# 93 Fixation 4 (474.8,294.3): encore~2 six~3
# 215 Fixation 5 (544.8,289): candidats~4
# 152 Fixation 6 (666.7,290.1): à~5 vouloir~6
# 148 Fixation 7 (308,352.2): tenter~7
# 196 Fixation 8 (371.2,347.8): sont~1 tour~9
# 193 Fixation 9 (500.1,354.4): du~10 monde~11
# 270 Fixation 10 (591.2,353.9): en~12 ballon~13
# 100 Fixation 11 (309.5,401.2): tenter~7 escale~15
%%
# Ils~0 Fixations= "2/"
# sont~1 Fixations= "8/"
# encore~2 Fixations= "4/"
# six~3 Fixations= "4/"
# candidats~4 Fixations= "5/"
# à~5 Fixations= "6/"
# vouloir~6 Fixations= "6/"
# tenter~7 Fixations= "11/"
# le~8 Fixations= ""
# tour~9 Fixations= "8/"
# du~10 Fixations= "9/"
# monde~11 Fixations= "9/"
# en~12 Fixations= "10/"
# ballon~13 Fixations= "10/"
# sans~14 Fixations= ""
# escale~15 Fixations= "11/"
# Cette~16 Fixations= ""
# circumnavigation~17 Fixations= ""
# aérienne~18 Fixations= ""
# réclame~19 Fixations= ""
# autant~20 Fixations= ""
# de~21 Fixations= ""
# courage~22 Fixations= ""
# et~23 Fixations= ""
# d'audace~24 Fixations= ""
# que~25 Fixations= ""
# de~26 Fixations= ""
# moyens~27 Fixations= ""
# et~28 Fixations= ""
# de~29 Fixations= ""
# connaissances~30 Fixations= ""
# techniques~31 Fixations= ""
%%
#  ILS[2] SONT[8] ENCORE[4] SIX[4] CANDIDATS[5] à[6] VOULOIR[6] TENTER[11] le TOUR[8] DU[9] MONDE[9] EN[10] BALLON[10] sans ESCALE[11] Cette circumnavigation aérienne réclame autant de courage et d'audace que de moyens et de connaissances techniques
# s02 dechets_nucleaires-a2 PercentageOfWordsProcessed= 0.4375 PercentageOfWordsReallyProcessed= 0.875
