999 WORDS_équipe~1 95
999 WORDFREQ_26.28 95
999 WORDSALL_Une~0_équipe~1 95
999 COSIND_0.06 95
999 COSGEN_0.06 95
101 ESRank1 95
999 WORDS_équipe~1 88
999 WORDFREQ_26.28 88
999 WORDSALL_équipe~1 88
999 COSIND_0.06 88
999 COSGEN_0.06 88
102 ESRank2 88
203 ESBackSacRefixation 88
999 WORDS_laboratoire~3 132
999 WORDFREQ_12.91 132
999 WORDSALL_d'un~2_laboratoire~3 132
999 COSIND_0.11 132
999 COSGEN_0.11 132
103 ESRank3 132
202 ESForwSacLong+2+6 132
999 WORDS_laboratoire~3 153
999 WORDFREQ_12.91 153
999 WORDSALL_laboratoire~3 153
999 COSIND_0.11 153
999 COSGEN_0.11 153
104 ESRank4 153
203 ESBackSacRefixation 153
999 WORDS_japonais~4 192
999 WORDFREQ_9.19 192
999 WORDSALL_japonais~4 192
999 COSIND_-0.02 192
999 COSGEN_-0.02 192
105 ESRank5 192
201 ESForwSacShort 192
999 WORDS_a~5 138
999 WORDFREQ_2926.69 138
999 WORDSALL_japonais~4_a~5 138
999 COSIND_N/A 138
106 ESRank6 138
201 ESForwSacShort 138
999 WORDS_point~8 171
999 WORDFREQ_272.57 171
999 WORDSALL_au~7_point~8 171
999 COSIND_-0.00 171
999 COSGEN_-0.00 171
107 ESRank7 171
202 ESForwSacLong+3+8 171
999 WORDS_logiciel~10 213
999 WORDFREQ_0.14 213
999 WORDSALL_un~9_logiciel~10 213
999 COSIND_0.03 213
999 COSGEN_0.03 213
108 ESRank8 213
202 ESForwSacLong+2+4 213
999 WORDS_traitement~12 188
999 WORDFREQ_11.08 188
999 WORDSALL_de~11_traitement~12 188
999 COSIND_-0.06 188
999 COSGEN_-0.06 188
109 ESRank9 188
202 ESForwSacLong+2+4 188
999 WORDS_d'images~13 146
999 WORDFREQ_69.53 146
999 WORDSALL_d'images~13 146
999 COSIND_0.06 146
999 COSGEN_0.06 146
110 ESRank10 146
201 ESForwSacShort 146
999 WORDS_capable~14 122
999 WORDFREQ_69.73 122
999 WORDSALL_capable~14 122
999 COSIND_0.22 122
999 COSGEN_0.22 122
111 ESRank11 122
201 ESForwSacShort 122
999 WORDS_capable~14 121
999 WORDFREQ_69.73 121
999 WORDSALL_capable~14 121
999 COSIND_0.22 121
999 COSGEN_0.22 121
112 ESRank12 121
203 ESBackSacRefixation 121
999 WORDS_deviner~16 191
999 WORDFREQ_25.95 191
999 WORDSALL_de~15_deviner~16 191
999 COSIND_0.08 191
999 COSGEN_0.08 191
113 ESRank13 191
202 ESForwSacLong+2+4 191
999 WORDS_présence~18 226
999 WORDFREQ_133.11 226
999 WORDSALL_la~17_présence~18 226
999 COSIND_0.09 226
999 COSGEN_0.09 226
114 ESRank14 226
202 ESForwSacLong+2+4 226
999 WORDS_mines~20 190
999 WORDFREQ_17.7 190
999 WORDSALL_de~19_mines~20 190
999 COSIND_0.08 190
999 COSGEN_0.08 190
115 ESRank15 190
202 ESForwSacLong+2+4 190
999 WORDS_partir~22 154
999 WORDFREQ_167.77 154
999 WORDSALL_partir~22 154
999 COSIND_0.05 154
999 COSGEN_0.05 154
116 ESRank16 154
202 ESForwSacLong+2+4 154
999 WORDS_photographies~24 91
999 WORDFREQ_17.3 91
999 WORDSALL_de~23_photographies~24 91
999 COSIND_0.05 91
999 COSGEN_0.05 91
117 ESRank17 91
202 ESForwSacLong+2+4 91
999 WORDS_photographies~24 119
999 WORDFREQ_17.3 119
999 WORDSALL_de~23_photographies~24 119
999 COSIND_0.05 119
999 COSGEN_0.05 119
118 ESRank18 119
203 ESBackSacRefixation 119
999 WORDS_photographies~24 108
999 WORDFREQ_17.3 108
999 WORDSALL_photographies~24 108
999 COSIND_0.05 108
999 COSGEN_0.05 108
119 ESRank19 108
203 ESBackSacRefixation 108
999 WORDS_aériennes~25 220
999 WORDFREQ_6.15 220
999 WORDSALL_aériennes~25 220
999 COSIND_-0.10 220
999 COSGEN_-0.10 220
120 ESRank20 220
201 ESForwSacShort 220
999 WORDS_et~26 226
999 WORDFREQ_20879.73 226
999 WORDSALL_et~26 226
999 COSIND_N/A 226
201 ESForwSacShort 226
999 WORDS_dispositif~28 188
999 WORDFREQ_5.07 188
999 WORDSALL_dispositif~28 188
999 COSIND_0.03 188
999 COSGEN_0.03 188
202 ESForwSacLong+2+6 188
999 WORDS_filtrage~30 237
999 WORDFREQ_0.07 237
999 WORDSALL_de~29_filtrage~30 237
999 COSIND_-0.09 237
999 COSGEN_-0.09 237
202 ESForwSacLong+2+4 237
999 WORDS_aériennes~25 101
999 WORDFREQ_6.15 101
999 WORDSALL_photographies~24_aériennes~25 101
999 COSIND_-0.10 101
999 COSGEN_-0.10 101
206 ESBackSacRegrLong-5-23 101
999 WORDS_aériennes~25 181
999 WORDFREQ_6.15 181
999 WORDSALL_aériennes~25 181
999 COSIND_-0.10 181
999 COSGEN_-0.10 181
203 ESBackSacRefixation 181
999 WORDS_aériennes~25 243
999 WORDFREQ_6.15 243
999 WORDSALL_aériennes~25 243
999 COSIND_-0.10 243
999 COSGEN_-0.10 243
203 ESBackSacRefixation 243
999 WORDS_et~26 168
999 WORDFREQ_20879.73 168
999 WORDSALL_et~26 168
999 COSIND_N/A 168
201 ESForwSacShort 168
999 WORDS_deviner~16 165
999 WORDFREQ_25.95 165
999 WORDSALL_deviner~16 165
999 COSIND_0.08 165
999 COSGEN_0.08 165
206 ESBackSacRegrLong-10-61 165
999 WORDS_présence~18 145
999 WORDFREQ_133.11 145
999 WORDSALL_deviner~16_présence~18 145
999 COSIND_0.09 145
999 COSGEN_0.09 145
202 ESForwSacLong+2+4 145
999 WORDS_photographies~24 197
999 WORDFREQ_17.3 197
999 WORDSALL_photographies~24 197
999 COSIND_0.05 197
999 COSGEN_0.05 197
202 ESForwSacLong+6+23 197
999 WORDS_laboratoire~3 220
999 WORDFREQ_12.91 220
999 WORDSALL_laboratoire~3 220
999 COSIND_0.11 220
999 COSGEN_0.11 220
206 ESBackSacRegrLong-21-114 220
200 ESRankN 220
199 ESRankNMinus1 197
198 ESRankNMinus2 145
197 ESRankNMinus3 165
196 ESRankNMinus4 168
195 ESRankNMinus5 243
194 ESRankNMinus6 181
193 ESRankNMinus7 101
192 ESRankNMinus8 237
191 ESRankNMinus9 188
190 ESRankNMinus10 226
