999 WORDS_livres~1 144
999 WORDFREQ_134.73 144
999 WORDSALL_Des~0_livres~1 144
999 COSIND_-0.02 144
999 COSGEN_-0.02 144
101 ESRank1 144
999 WORDS_livres~1 148
999 WORDFREQ_134.73 148
999 WORDSALL_livres~1 148
999 COSIND_-0.02 148
999 COSGEN_-0.02 148
102 ESRank2 148
203 ESBackSacRefixation 148
999 WORDS_livres~1 112
999 WORDFREQ_134.73 112
999 WORDSALL_Des~0_livres~1 112
999 COSIND_-0.02 112
999 COSGEN_-0.02 112
103 ESRank3 112
203 ESBackSacRefixation 112
999 WORDS_mémoires~3 245
999 WORDFREQ_5.14 245
999 WORDSALL_de~2_mémoires~3 245
999 COSIND_-0.02 245
999 COSGEN_-0.02 245
104 ESRank4 245
202 ESForwSacLong+2+4 245
999 WORDS_d'anciens~4 89
999 WORDFREQ_39.86 89
999 WORDSALL_d'anciens~4 89
999 COSIND_-0.01 89
999 COSGEN_-0.01 89
105 ESRank5 89
201 ESForwSacShort 89
999 WORDS_déportés~5 199
999 WORDFREQ_4.66 199
999 WORDSALL_d'anciens~4_déportés~5 199
999 COSIND_0.05 199
999 COSGEN_0.05 199
106 ESRank6 199
201 ESForwSacShort 199
999 WORDS_déportés~5 176
999 WORDFREQ_4.66 176
999 WORDSALL_déportés~5 176
999 COSIND_0.05 176
999 COSGEN_0.05 176
107 ESRank7 176
203 ESBackSacRefixation 176
999 WORDS_d'anciens~4 126
999 WORDFREQ_39.86 126
999 WORDSALL_d'anciens~4 126
999 COSIND_-0.01 126
999 COSGEN_-0.01 126
108 ESRank8 126
205 ESBackSacRegrShort 126
999 WORDS_déportés~5 99
999 WORDFREQ_4.66 99
999 WORDSALL_déportés~5 99
999 COSIND_0.05 99
999 COSGEN_0.05 99
109 ESRank9 99
201 ESForwSacShort 99
999 WORDS_paraît~8 197
999 WORDFREQ_113.92 197
999 WORDSALL_livres~1_paraît~8 197
999 COSIND_0.01 197
999 COSGEN_0.01 197
110 ESRank10 197
202 ESForwSacLong+3+7 197
999 WORDS_paraît~8 152
999 WORDFREQ_113.92 152
999 WORDSALL_Des~0_livres~1_paraît~8 152
999 COSIND_0.01 152
999 COSGEN_0.01 152
111 ESRank11 152
203 ESBackSacRefixation 152
999 WORDS_régulièrement~9 169
999 WORDFREQ_27.77 169
999 WORDSALL_de~2_mémoires~3_régulièrement~9 169
999 COSIND_-0.11 169
999 COSGEN_-0.11 169
112 ESRank12 169
201 ESForwSacShort 169
999 WORDS_paraît~8 115
999 WORDFREQ_113.92 115
999 WORDSALL_livres~1_paraît~8 115
999 COSIND_0.01 115
999 COSGEN_0.01 115
113 ESRank13 115
205 ESBackSacRegrShort 115
999 WORDS_qualité~11 167
999 WORDFREQ_42.7 167
999 WORDSALL_d'anciens~4_qualité~11 167
999 COSIND_0.05 167
999 COSGEN_0.05 167
114 ESRank14 167
202 ESForwSacLong+3+20 167
999 WORDS_qualité~11 151
999 WORDFREQ_42.7 151
999 WORDSALL_d'anciens~4_déportés~5_qualité~11 151
999 COSIND_0.05 151
999 COSGEN_0.05 151
115 ESRank15 151
203 ESBackSacRefixation 151
999 WORDS_paraît~8 255
999 WORDFREQ_113.92 255
999 WORDSALL_en~7_paraît~8 255
999 COSIND_0.01 255
999 COSGEN_0.01 255
116 ESRank16 255
206 ESBackSacRegrLong-3-20 255
999 WORDS_inégale~12 164
999 WORDFREQ_1.69 164
999 WORDSALL_il~6_paraît~8_inégale~12 164
999 COSIND_0.06 164
999 COSGEN_0.06 164
117 ESRank17 164
202 ESForwSacLong+4+29 164
999 WORDS_d'intérêt~14 364
999 WORDFREQ_75 364
999 WORDSALL_régulièrement~9_d'intérêt~14 364
999 COSIND_0.05 364
999 COSGEN_0.05 364
118 ESRank18 364
202 ESForwSacLong+2+4 364
999 WORDS_inégal~15 223
999 WORDFREQ_2.84 223
999 WORDSALL_régulièrement~9_inégal~15 223
999 COSIND_0.06 223
999 COSGEN_0.06 223
119 ESRank19 223
201 ESForwSacShort 223
999 WORDS_qualité~11 164
999 WORDFREQ_42.7 164
999 WORDSALL_De~10_qualité~11 164
999 COSIND_0.05 164
999 COSGEN_0.05 164
120 ESRank20 164
206 ESBackSacRegrLong-4-25 164
999 WORDS_qualité~11 138
999 WORDFREQ_42.7 138
999 WORDSALL_qualité~11 138
999 COSIND_0.05 138
999 COSGEN_0.05 138
203 ESBackSacRefixation 138
999 WORDS_inégale~12 222
999 WORDFREQ_1.69 222
999 WORDSALL_inégale~12 222
999 COSIND_0.06 222
999 COSGEN_0.06 222
201 ESForwSacShort 222
999 WORDS_d'intérêt~14 340
999 WORDFREQ_75 340
999 WORDSALL_d'intérêt~14 340
999 COSIND_0.05 340
999 COSGEN_0.05 340
202 ESForwSacLong+2+4 340
999 WORDS_ressenti~25 153
999 WORDFREQ_0.61 153
999 WORDSALL_inégal~15_ressenti~25 153
999 COSIND_N/A 153
202 ESForwSacLong+11+55 153
999 WORDS_ressenti~25 165
999 WORDFREQ_0.61 165
999 WORDSALL_mais~16_ressenti~25 165
999 COSIND_N/A 165
203 ESBackSacRefixation 165
999 WORDS_même~21 198
999 WORDFREQ_705.81 198
999 WORDSALL_jamais~19_même~21 198
999 COSIND_N/A 198
206 ESBackSacRegrLong-4-17 198
999 WORDS_même~21 209
999 WORDFREQ_705.81 209
999 WORDSALL_même~21 209
999 COSIND_N/A 209
203 ESBackSacRefixation 209
999 WORDS_ressenti~25 157
999 WORDFREQ_0.61 157
999 WORDSALL_ce~17_ressenti~25 157
999 COSIND_N/A 157
202 ESForwSacLong+4+17 157
999 WORDS_même~21 156
999 WORDFREQ_705.81 156
999 WORDSALL_jamais~19_même~21 156
999 COSIND_N/A 156
206 ESBackSacRegrLong-4-17 156
200 ESRankN 156
199 ESRankNMinus1 157
198 ESRankNMinus2 209
197 ESRankNMinus3 198
196 ESRankNMinus4 165
195 ESRankNMinus5 153
194 ESRankNMinus6 340
193 ESRankNMinus7 222
192 ESRankNMinus8 138
191 ESRankNMinus9 164
190 ESRankNMinus10 223
