999 WORDS_Conseil~1 174
999 WORDFREQ_58.18 174
999 WORDSALL_Le~0_Conseil~1 174
999 COSIND_-0.02 174
999 COSGEN_-0.02 174
101 ESRank1 174
999 WORDS_national~2 166
999 WORDFREQ_42.7 166
999 WORDSALL_Conseil~1_national~2 166
999 COSIND_-0.05 166
999 COSGEN_-0.05 166
102 ESRank2 166
201 ESForwSacShort 166
999 WORDS_programmes~4 205
999 WORDFREQ_4.59 205
999 WORDSALL_des~3_programmes~4 205
999 COSIND_0.25 205
999 COSGEN_0.25 205
103 ESRank3 205
202 ESForwSacLong+2+5 205
999 WORDS_programmes~4 112
999 WORDFREQ_4.59 112
999 WORDSALL_des~3_programmes~4 112
999 COSIND_0.25 112
999 COSGEN_0.25 112
104 ESRank4 112
203 ESBackSacRefixation 112
999 WORDS_programmes~4 168
999 WORDFREQ_4.59 168
999 WORDSALL_programmes~4 168
999 COSIND_0.25 168
999 COSGEN_0.25 168
105 ESRank5 168
203 ESBackSacRefixation 168
999 WORDS_programmes~4 88
999 WORDFREQ_4.59 88
999 WORDSALL_programmes~4 88
999 COSIND_0.25 88
999 COSGEN_0.25 88
106 ESRank6 88
203 ESBackSacRefixation 88
999 WORDS_observatoires~7 155
999 WORDFREQ_0.34 155
999 WORDSALL_observatoires~7 155
999 COSIND_0.05 155
999 COSGEN_0.05 155
107 ESRank7 155
202 ESForwSacLong+3+8 155
999 WORDS_observatoires~7 132
999 WORDFREQ_0.34 132
999 WORDSALL_observatoires~7 132
999 COSIND_0.05 132
999 COSGEN_0.05 132
108 ESRank8 132
203 ESBackSacRefixation 132
999 WORDS_académiques~8 275
999 WORDFREQ_0.54 275
999 WORDSALL_académiques~8 275
999 COSIND_0.19 275
999 COSGEN_0.19 275
109 ESRank9 275
201 ESForwSacShort 275
999 WORDS_pratiques~10 264
999 WORDFREQ_3.58 264
999 WORDSALL_des~9_pratiques~10 264
999 COSIND_0.13 264
999 COSGEN_0.13 264
110 ESRank10 264
202 ESForwSacLong+2+5 264
999 WORDS_pédagogiques~11 161
999 WORDFREQ_0.81 161
999 WORDSALL_pédagogiques~11 161
999 COSIND_0.23 161
999 COSGEN_0.23 161
111 ESRank11 161
201 ESForwSacShort 161
999 WORDS_pédagogiques~11 145
999 WORDFREQ_0.81 145
999 WORDSALL_pédagogiques~11 145
999 COSIND_0.23 145
999 COSGEN_0.23 145
112 ESRank12 145
203 ESBackSacRefixation 145
999 WORDS_seront~12 183
999 WORDFREQ_23.99 183
999 WORDSALL_seront~12 183
999 COSIND_0.02 183
999 COSGEN_0.02 183
113 ESRank13 183
201 ESForwSacShort 183
999 WORDS_chargés~13 158
999 WORDFREQ_2.36 158
999 WORDSALL_chargés~13 158
999 COSIND_0.10 158
999 COSGEN_0.10 158
114 ESRank14 158
201 ESForwSacShort 158
999 WORDS_définir~15 229
999 WORDFREQ_7.7 229
999 WORDSALL_de~14_définir~15 229
999 COSIND_0.03 229
999 COSGEN_0.03 229
115 ESRank15 229
202 ESForwSacLong+2+4 229
999 WORDS_définir~15 171
999 WORDFREQ_7.7 171
999 WORDSALL_définir~15 171
999 COSIND_0.03 171
999 COSGEN_0.03 171
116 ESRank16 171
203 ESBackSacRefixation 171
999 WORDS_communes~18 137
999 WORDFREQ_4.39 137
999 WORDSALL_communes~18 137
999 COSIND_-0.03 137
999 COSGEN_-0.03 137
117 ESRank17 137
202 ESForwSacLong+3+18 137
999 WORDS_compétences~17 119
999 WORDFREQ_1.82 119
999 WORDSALL_compétences~17 119
999 COSIND_0.38 119
999 COSGEN_0.38 119
118 ESRank18 119
205 ESBackSacRegrShort 119
999 WORDS_compétences~17 238
999 WORDFREQ_1.82 238
999 WORDSALL_compétences~17 238
999 COSIND_0.38 238
999 COSGEN_0.38 238
119 ESRank19 238
203 ESBackSacRefixation 238
999 WORDS_communes~18 201
999 WORDFREQ_4.39 201
999 WORDSALL_communes~18 201
999 COSIND_-0.03 201
999 COSGEN_-0.03 201
120 ESRank20 201
201 ESForwSacShort 201
999 WORDS_dispensées~19 205
999 WORDFREQ_0.07 205
999 WORDSALL_dispensées~19 205
999 COSIND_0.27 205
999 COSGEN_0.27 205
201 ESForwSacShort 205
999 WORDS_collège~21 222
999 WORDFREQ_25 222
999 WORDSALL_au~20_collège~21 222
999 COSIND_0.01 222
999 COSGEN_0.01 222
202 ESForwSacLong+2+4 222
999 WORDS_collège~21 102
999 WORDFREQ_25 102
999 WORDSALL_au~20_collège~21 102
999 COSIND_0.01 102
999 COSGEN_0.01 102
203 ESBackSacRefixation 102
999 WORDS_enseignants~23 149
999 WORDFREQ_0.81 149
999 WORDSALL_Les~22_enseignants~23 149
999 COSIND_0.02 149
999 COSGEN_0.02 149
202 ESForwSacLong+2+5 149
999 WORDS_enseignants~23 128
999 WORDFREQ_0.81 128
999 WORDSALL_Les~22_enseignants~23 128
999 COSIND_0.02 128
999 COSGEN_0.02 128
203 ESBackSacRefixation 128
999 WORDS_souhaitent~24 234
999 WORDFREQ_0.95 234
999 WORDSALL_souhaitent~24 234
999 COSIND_0.07 234
999 COSGEN_0.07 234
201 ESForwSacShort 234
999 WORDS_consultés~26 239
999 WORDFREQ_1.42 239
999 WORDSALL_être~25_consultés~26 239
999 COSIND_0.10 239
999 COSGEN_0.10 239
202 ESForwSacLong+2+7 239
999 WORDS_être~25 130
999 WORDFREQ_505.61 130
999 WORDSALL_être~25 130
999 COSIND_0.02 130
999 COSGEN_0.02 130
205 ESBackSacRegrShort 130
999 WORDS_programme~29 211
999 WORDFREQ_21.89 211
999 WORDSALL_ce~28_programme~29 211
999 COSIND_0.25 211
999 COSGEN_0.25 211
202 ESForwSacLong+4+19 211
999 WORDS_programme~29 138
999 WORDFREQ_21.89 138
999 WORDSALL_sur~27_programme~29 138
999 COSIND_0.25 138
999 COSGEN_0.25 138
203 ESBackSacRefixation 138
999 WORDS_programme~29 172
999 WORDFREQ_21.89 172
999 WORDSALL_sur~27_programme~29 172
999 COSIND_0.25 172
999 COSGEN_0.25 172
203 ESBackSacRefixation 172
999 WORDS_programme~29 254
999 WORDFREQ_21.89 254
999 WORDSALL_sur~27_programme~29 254
999 COSIND_0.25 254
999 COSGEN_0.25 254
203 ESBackSacRefixation 254
200 ESRankN 254
199 ESRankNMinus1 172
198 ESRankNMinus2 138
197 ESRankNMinus3 211
196 ESRankNMinus4 130
195 ESRankNMinus5 239
194 ESRankNMinus6 234
193 ESRankNMinus7 128
192 ESRankNMinus8 149
191 ESRankNMinus9 102
190 ESRankNMinus10 222
