999 WORDS_Patagonie~1 156
999 WORDFREQ_N/A 156
999 WORDSALL_La~0_Patagonie~1 156
999 COSIND_N/A 156
101 ESRank1 156
999 WORDS_Patagonie~1 159
999 WORDFREQ_N/A 159
999 WORDSALL_Patagonie~1 159
999 COSIND_N/A 159
102 ESRank2 159
203 ESBackSacRefixation 159
999 WORDS_chilienne~2 256
999 WORDFREQ_0.68 256
999 WORDSALL_chilienne~2 256
999 COSIND_N/A 256
103 ESRank3 256
201 ESForwSacShort 256
999 WORDS_mal~4 250
999 WORDFREQ_11.22 250
999 WORDSALL_est~3_mal~4 250
999 COSIND_0.04 250
999 COSGEN_0.04 250
104 ESRank4 250
202 ESForwSacLong+2+5 250
999 WORDS_mal~4 296
999 WORDFREQ_11.22 296
999 WORDSALL_chilienne~2_mal~4 296
999 COSIND_0.04 296
999 COSGEN_0.04 296
105 ESRank5 296
203 ESBackSacRefixation 296
999 WORDS_connue~5 90
999 WORDFREQ_5.2 90
999 WORDSALL_mal~4_connue~5 90
999 COSIND_-0.04 90
999 COSGEN_-0.04 90
106 ESRank6 90
201 ESForwSacShort 90
999 WORDS_Coincée~6 213
999 WORDFREQ_0.68 213
999 WORDSALL_Coincée~6 213
999 COSIND_0.01 213
999 COSGEN_0.01 213
107 ESRank7 213
201 ESForwSacShort 213
999 WORDS_Coincée~6 228
999 WORDFREQ_0.68 228
999 WORDSALL_Coincée~6 228
999 COSIND_0.01 228
999 COSGEN_0.01 228
108 ESRank8 228
203 ESBackSacRefixation 228
999 WORDS_cordillère~9 261
999 WORDFREQ_0.14 261
999 WORDSALL_chilienne~2_cordillère~9 261
999 COSIND_0.03 261
999 COSGEN_0.03 261
109 ESRank9 261
202 ESForwSacLong+3+10 261
999 WORDS_Andes~11 191
999 WORDFREQ_N/A 191
999 WORDSALL_est~3_mal~4_Andes~11 191
999 COSIND_N/A 191
110 ESRank10 191
202 ESForwSacLong+2+5 191
999 WORDS_Andes~11 126
999 WORDFREQ_N/A 126
999 WORDSALL_des~10_Andes~11 126
999 COSIND_N/A 126
111 ESRank11 126
203 ESBackSacRefixation 126
999 WORDS_Pacifique~14 348
999 WORDFREQ_3.11 348
999 WORDSALL_entre~7_cordillère~9_Pacifique~14 348
999 COSIND_-0.08 348
999 COSGEN_-0.08 348
112 ESRank12 348
202 ESForwSacLong+3+13 348
999 WORDS_séduit~16 146
999 WORDFREQ_5.95 146
999 WORDSALL_cordillère~9_séduit~16 146
999 COSIND_0.00 146
999 COSGEN_0.00 146
113 ESRank13 146
202 ESForwSacLong+2+6 146
999 WORDS_séduit~16 182
999 WORDFREQ_5.95 182
999 WORDSALL_cordillère~9_séduit~16 182
999 COSIND_0.00 182
999 COSGEN_0.00 182
114 ESRank14 182
203 ESBackSacRefixation 182
999 WORDS_amateurs~18 155
999 WORDFREQ_8.99 155
999 WORDSALL_Andes~11_amateurs~18 155
999 COSIND_0.01 155
999 COSGEN_0.01 155
115 ESRank15 155
202 ESForwSacLong+2+5 155
999 WORDS_grands~20 223
999 WORDFREQ_201.55 223
999 WORDSALL_l'océan~13_Pacifique~14_grands~20 223
999 COSIND_0.02 223
999 COSGEN_0.02 223
116 ESRank16 223
202 ESForwSacLong+2+4 223
999 WORDS_grands~20 146
999 WORDFREQ_201.55 146
999 WORDSALL_l'océan~13_grands~20 146
999 COSIND_0.02 146
999 COSGEN_0.02 146
117 ESRank17 146
203 ESBackSacRefixation 146
999 WORDS_espaces~21 236
999 WORDFREQ_9.93 236
999 WORDSALL_Pacifique~14_espaces~21 236
999 COSIND_-0.03 236
999 COSGEN_-0.03 236
118 ESRank18 236
201 ESForwSacShort 236
999 WORDS_solitude~23 222
999 WORDFREQ_66.96 222
999 WORDSALL_de~22_solitude~23 222
999 COSIND_-0.03 222
999 COSGEN_-0.03 222
119 ESRank19 222
202 ESForwSacLong+2+4 222
200 ESRankN 222
199 ESRankNMinus1 236
198 ESRankNMinus2 146
197 ESRankNMinus3 223
196 ESRankNMinus4 155
195 ESRankNMinus5 182
194 ESRankNMinus6 146
193 ESRankNMinus7 348
192 ESRankNMinus8 126
191 ESRankNMinus9 191
190 ESRankNMinus10 261
