999 WORDS_Aujourd'hui~0 122
999 WORDFREQ_158.24 122
999 WORDSALL_Aujourd'hui~0 122
999 COSIND_N/A 122
101 ESRank1 122
999 WORDS_française~7 135
999 WORDFREQ_105.07 135
999 WORDSALL_les~1_grands~2_française~7 135
999 COSIND_-0.00 135
999 COSGEN_-0.00 135
102 ESRank2 135
202 ESForwSacLong+7+35 135
999 WORDS_sont~8 151
999 WORDFREQ_713.18 151
999 WORDSALL_grands~2_noms~3_sont~8 151
999 COSIND_0.03 151
999 COSGEN_0.03 151
103 ESRank3 151
201 ESForwSacShort 151
999 WORDS_pâtisserie~6 200
999 WORDFREQ_9.32 200
999 WORDSALL_Aujourd'hui~0_pâtisserie~6 200
999 COSIND_-0.16 200
999 COSGEN_-0.16 200
104 ESRank4 200
206 ESBackSacRegrLong-2-12 200
999 WORDS_française~7 164
999 WORDFREQ_105.07 164
999 WORDSALL_pâtisserie~6_française~7 164
999 COSIND_-0.00 164
999 COSGEN_-0.00 164
105 ESRank5 164
201 ESForwSacShort 164
999 WORDS_présents~9 175
999 WORDFREQ_8.85 175
999 WORDSALL_sont~8_présents~9 175
999 COSIND_-0.03 175
999 COSGEN_-0.03 175
106 ESRank6 175
202 ESForwSacLong+2+6 175
999 WORDS_outre~20 88
999 WORDFREQ_23.18 88
999 WORDSALL_présents~9_Japon~11_outre~20 88
999 COSIND_0.09 88
999 COSGEN_0.09 88
107 ESRank7 88
202 ESForwSacLong+11+45 88
200 ESRankN 88
199 ESRankNMinus1 175
198 ESRankNMinus2 164
197 ESRankNMinus3 200
196 ESRankNMinus4 151
195 ESRankNMinus5 135
194 ESRankNMinus6 122
