# 131 Fixation 1 (398.7,282.2): grève~1
# 185 Fixation 2 (550.5,265): manifestation~4
# 164 Fixation 3 (294.3,352.8): affichaient~5
# 144 Fixation 4 (483.1,337.9): des~6 positions~7
# 251 Fixation 5 (671.9,333.4): des~9 objectifs~10
# 238 Fixation 6 (319.4,403.7): contradictoires~11
# 148 Fixation 7 (570.7,408): direction~13
# 166 Fixation 8 (664.5,400.8): croyait~14
# 123 Fixation 9 (348.7,458.6): mouvement~17
# 100 Fixation 10 (298.4,477.6): le~16 mouvement~17
# 178 Fixation 11 (506.8,477.8): allait~18 pourrir~19
# 201 Fixation 12 (694.4,481): Elle~20 a~21 eu~22
# 213 Fixation 13 (339.2,543): spéculer~25
# 172 Fixation 14 (493.1,542.5): un~27 recul~28
# 225 Fixation 15 (634.1,547.5): des~29 salariés~30
# 129 Fixation 16 (331.6,315.8): Cette~0 grève~1
# 203 Fixation 17 (311,286.3): Cette~0 grève~1
# 145 Fixation 18 (477.1,258.7): et~2 manifestation~4
# 128 Fixation 19 (565.7,263.9): manifestation~4
# 182 Fixation 20 (309.2,345.1): affichaient~5
# 172 Fixation 21 (457.7,339.6): des~6 positions~7
# 287 Fixation 22 (668.1,334.3): des~9 objectifs~10
# 143 Fixation 23 (289.3,411.6): contradictoires~11
# 170 Fixation 24 (380.9,415.1): contradictoires~11
# 267 Fixation 25 (515.3,422.9): La~12 direction~13
%%
# Cette~0 Fixations= "17/"
# grève~1 Fixations= "17/"
# et~2 Fixations= "18/"
# cette~3 Fixations= ""
# manifestation~4 Fixations= "19/"
# affichaient~5 Fixations= "20/"
# des~6 Fixations= "21/"
# positions~7 Fixations= "21/"
# et~8 Fixations= ""
# des~9 Fixations= "22/"
# objectifs~10 Fixations= "22/"
# contradictoires~11 Fixations= "24/"
# La~12 Fixations= "25/"
# direction~13 Fixations= "25/"
# croyait~14 Fixations= "8/"
# que~15 Fixations= ""
# le~16 Fixations= "10/"
# mouvement~17 Fixations= "10/"
# allait~18 Fixations= "11/"
# pourrir~19 Fixations= "11/"
# Elle~20 Fixations= "12/"
# a~21 Fixations= "12/"
# eu~22 Fixations= "12/"
# tort~23 Fixations= ""
# de~24 Fixations= ""
# spéculer~25 Fixations= "13/"
# sur~26 Fixations= ""
# un~27 Fixations= "14/"
# recul~28 Fixations= "14/"
# des~29 Fixations= "15/"
# salariés~30 Fixations= "15/"
%%
#  CETTE[17] GRèVE[17] ET[18] cette MANIFESTATION[19] AFFICHAIENT[20] DES[21] POSITIONS[21] et DES[22] OBJECTIFS[22] CONTRADICTOIRES[24] LA[25] DIRECTION[25] CROYAIT[8] que LE[10] MOUVEMENT[10] ALLAIT[11] POURRIR[11] ELLE[12] A[12] EU[12] tort de SPéCULER[13] sur UN[14] RECUL[14] DES[15] SALARIéS[15]
# s19 greve_cheminot-f1 PercentageOfWordsProcessed= 0.806451612903226 PercentageOfWordsReallyProcessed= 0.806451612903226
