999 WORDS_grève~1 147
999 WORDFREQ_22.36 147
999 WORDSALL_Cette~0_grève~1 147
999 COSIND_1.00 147
999 COSGEN_1.00 147
101 ESRank1 147
999 WORDS_grève~1 131
999 WORDFREQ_22.36 131
999 WORDSALL_Cette~0_grève~1 131
999 COSIND_1.00 131
999 COSGEN_1.00 131
102 ESRank2 131
203 ESBackSacRefixation 131
999 WORDS_ 142
999 WORDFREQ_ 142
999 WORDSALL_ 142
103 ESRank3 142
999 WORDS_ 198
999 WORDFREQ_ 198
999 WORDSALL_ 198
104 ESRank4 198
999 WORDS_affichaient~5 277
999 WORDFREQ_1.35 277
999 WORDSALL_affichaient~5 277
999 COSIND_0.07 277
999 COSGEN_0.07 277
105 ESRank5 277
999 WORDS_positions~7 386
999 WORDFREQ_9.53 386
999 WORDSALL_des~6_positions~7 386
999 COSIND_-0.03 386
999 COSGEN_-0.03 386
106 ESRank6 386
202 ESForwSacLong+2+5 386
999 WORDS_contradictoires~11 156
999 WORDFREQ_6.62 156
999 WORDSALL_contradictoires~11 156
999 COSIND_-0.04 156
999 COSGEN_-0.04 156
107 ESRank7 156
202 ESForwSacLong+4+18 156
999 WORDS_contradictoires~11 292
999 WORDFREQ_6.62 292
999 WORDSALL_contradictoires~11 292
999 COSIND_-0.04 292
999 COSGEN_-0.04 292
108 ESRank8 292
203 ESBackSacRefixation 292
999 WORDS_objectifs~10 190
999 WORDFREQ_3.24 190
999 WORDSALL_et~8_objectifs~10 190
999 COSIND_-0.07 190
999 COSGEN_-0.07 190
109 ESRank9 190
205 ESBackSacRegrShort 190
999 WORDS_objectifs~10 145
999 WORDFREQ_3.24 145
999 WORDSALL_des~9_objectifs~10 145
999 COSIND_-0.07 145
999 COSGEN_-0.07 145
110 ESRank10 145
203 ESBackSacRefixation 145
999 WORDS_direction~13 149
999 WORDFREQ_103.04 149
999 WORDSALL_direction~13 149
999 COSIND_0.55 149
999 COSGEN_0.55 149
111 ESRank11 149
202 ESForwSacLong+3+20 149
999 WORDS_pourrir~19 349
999 WORDFREQ_5.95 349
999 WORDSALL_allait~18_pourrir~19 349
999 COSIND_-0.00 349
999 COSGEN_-0.00 349
112 ESRank12 349
202 ESForwSacLong+6+33 349
999 WORDS_direction~13 183
999 WORDFREQ_103.04 183
999 WORDSALL_La~12_direction~13 183
999 COSIND_0.55 183
999 COSGEN_0.55 183
113 ESRank13 183
206 ESBackSacRegrLong-6-33 183
999 WORDS_croyait~14 260
999 WORDFREQ_73.24 260
999 WORDSALL_croyait~14 260
999 COSIND_0.01 260
999 COSGEN_0.01 260
114 ESRank14 260
201 ESForwSacShort 260
999 WORDS_mouvement~17 242
999 WORDFREQ_134.8 242
999 WORDSALL_le~16_mouvement~17 242
999 COSIND_0.38 242
999 COSGEN_0.38 242
115 ESRank15 242
202 ESForwSacLong+3+8 242
999 WORDS_recul~28 220
999 WORDFREQ_14.73 220
999 WORDSALL_sur~26_recul~28 220
999 COSIND_-0.04 220
999 COSGEN_-0.04 220
116 ESRank16 220
202 ESForwSacLong+11+51 220
999 WORDS_salariés~30 183
999 WORDFREQ_0.2 183
999 WORDSALL_des~29_salariés~30 183
999 COSIND_0.12 183
999 COSGEN_0.12 183
117 ESRank17 183
202 ESForwSacLong+2+5 183
999 WORDS_salariés~30 137
999 WORDFREQ_0.2 137
999 WORDSALL_des~29_salariés~30 137
999 COSIND_0.12 137
999 COSGEN_0.12 137
118 ESRank18 137
203 ESBackSacRefixation 137
999 WORDS_tort~23 123
999 WORDFREQ_51.55 123
999 WORDSALL_a~21_eu~22_tort~23 123
999 COSIND_-0.06 123
999 COSGEN_-0.06 123
119 ESRank19 123
206 ESBackSacRegrLong-7-31 123
999 WORDS_spéculer~25 162
999 WORDFREQ_0.47 162
999 WORDSALL_de~24_spéculer~25 162
999 COSIND_-0.03 162
999 COSGEN_-0.03 162
120 ESRank20 162
202 ESForwSacLong+2+4 162
999 WORDS_spéculer~25 253
999 WORDFREQ_0.47 253
999 WORDSALL_de~24_spéculer~25 253
999 COSIND_-0.03 253
999 COSGEN_-0.03 253
203 ESBackSacRefixation 253
999 WORDS_spéculer~25 183
999 WORDFREQ_0.47 183
999 WORDSALL_spéculer~25 183
999 COSIND_-0.03 183
999 COSGEN_-0.03 183
203 ESBackSacRefixation 183
999 WORDS_recul~28 192
999 WORDFREQ_14.73 192
999 WORDSALL_un~27_recul~28 192
999 COSIND_-0.04 192
999 COSGEN_-0.04 192
202 ESForwSacLong+3+8 192
999 WORDS_salariés~30 340
999 WORDFREQ_0.2 340
999 WORDSALL_des~29_salariés~30 340
999 COSIND_0.12 340
999 COSGEN_0.12 340
202 ESForwSacLong+2+5 340
999 WORDS_recul~28 405
999 WORDFREQ_14.73 405
999 WORDSALL_un~27_recul~28 405
999 COSIND_-0.04 405
999 COSGEN_-0.04 405
206 ESBackSacRegrLong-2-5 405
999 WORDS_grève~1 200
999 WORDFREQ_22.36 200
999 WORDSALL_grève~1 200
999 COSIND_1.00 200
999 COSGEN_1.00 200
206 ESBackSacRegrLong-27-171 200
999 WORDS_grève~1 189
999 WORDFREQ_22.36 189
999 WORDSALL_Cette~0_grève~1 189
999 COSIND_1.00 189
999 COSGEN_1.00 189
203 ESBackSacRefixation 189
200 ESRankN 189
199 ESRankNMinus1 200
198 ESRankNMinus2 405
197 ESRankNMinus3 340
196 ESRankNMinus4 192
195 ESRankNMinus5 183
194 ESRankNMinus6 253
193 ESRankNMinus7 162
192 ESRankNMinus8 123
191 ESRankNMinus9 137
190 ESRankNMinus10 183
