999 WORDS_Outre~0 164
999 WORDFREQ_10 164
999 WORDSALL_Outre~0 164
999 COSIND_-0.01 164
999 COSGEN_-0.01 164
101 ESRank1 164
999 WORDS_pollution~2 188
999 WORDFREQ_1.15 188
999 WORDSALL_la~1_pollution~2 188
999 COSIND_0.01 188
999 COSGEN_0.01 188
102 ESRank2 188
202 ESForwSacLong+2+4 188
999 WORDS_pollution~2 126
999 WORDFREQ_1.15 126
999 WORDSALL_pollution~2 126
999 COSIND_0.01 126
999 COSGEN_0.01 126
103 ESRank3 126
203 ESBackSacRefixation 126
999 WORDS_surface~4 195
999 WORDFREQ_51.49 195
999 WORDSALL_de~3_surface~4 195
999 COSIND_0.13 195
999 COSGEN_0.13 195
104 ESRank4 195
202 ESForwSacLong+2+4 195
999 WORDS_pollution~2 269
999 WORDFREQ_1.15 269
999 WORDSALL_pollution~2 269
999 COSIND_0.01 269
999 COSGEN_0.01 269
105 ESRank5 269
206 ESBackSacRegrLong-2-4 269
999 WORDS_surface~4 99
999 WORDFREQ_51.49 99
999 WORDSALL_de~3_surface~4 99
999 COSIND_0.13 99
999 COSGEN_0.13 99
106 ESRank6 99
202 ESForwSacLong+2+4 99
999 WORDS_surface~4 159
999 WORDFREQ_51.49 159
999 WORDSALL_de~3_surface~4 159
999 COSIND_0.13 159
999 COSGEN_0.13 159
107 ESRank7 159
203 ESBackSacRefixation 159
999 WORDS_pose~6 199
999 WORDFREQ_48.85 199
999 WORDSALL_se~5_pose~6 199
999 COSIND_0.07 199
999 COSGEN_0.07 199
108 ESRank8 199
202 ESForwSacLong+2+4 199
999 WORDS_problème~9 174
999 WORDFREQ_55.2 174
999 WORDSALL_aussi~7_problème~9 174
999 COSIND_0.05 174
999 COSGEN_0.05 174
109 ESRank9 174
202 ESForwSacLong+3+10 174
999 WORDS_problème~9 188
999 WORDFREQ_55.2 188
999 WORDSALL_le~8_problème~9 188
999 COSIND_0.05 188
999 COSGEN_0.05 188
110 ESRank10 188
203 ESBackSacRefixation 188
999 WORDS_tonnes~11 173
999 WORDFREQ_11.55 173
999 WORDSALL_des~10_tonnes~11 173
999 COSIND_0.15 173
999 COSGEN_0.15 173
111 ESRank11 173
202 ESForwSacLong+2+5 173
999 WORDS_pétrole~13 193
999 WORDFREQ_14.73 193
999 WORDSALL_de~12_pétrole~13 193
999 COSIND_0.55 193
999 COSGEN_0.55 193
112 ESRank12 193
202 ESForwSacLong+2+4 193
999 WORDS_contenues~15 112
999 WORDFREQ_0.74 112
999 WORDSALL_encore~14_contenues~15 112
999 COSIND_0.02 112
999 COSGEN_0.02 112
113 ESRank13 112
202 ESForwSacLong+2+8 112
999 WORDS_contenues~15 133
999 WORDFREQ_0.74 133
999 WORDSALL_encore~14_contenues~15 133
999 COSIND_0.02 133
999 COSGEN_0.02 133
114 ESRank14 133
203 ESBackSacRefixation 133
999 WORDS_contenues~15 203
999 WORDFREQ_0.74 203
999 WORDSALL_contenues~15 203
999 COSIND_0.02 203
999 COSGEN_0.02 203
115 ESRank15 203
203 ESBackSacRefixation 203
999 WORDS_soutes~18 152
999 WORDFREQ_1.22 152
999 WORDSALL_dans~16_soutes~18 152
999 COSIND_0.04 152
999 COSGEN_0.04 152
116 ESRank16 152
202 ESForwSacLong+3+10 152
999 WORDS_soutes~18 165
999 WORDFREQ_1.22 165
999 WORDSALL_les~17_soutes~18 165
999 COSIND_0.04 165
999 COSGEN_0.04 165
117 ESRank17 165
203 ESBackSacRefixation 165
999 WORDS_navire~20 287
999 WORDFREQ_28.04 287
999 WORDSALL_du~19_navire~20 287
999 COSIND_0.05 287
999 COSGEN_0.05 287
118 ESRank18 287
202 ESForwSacLong+2+4 287
999 WORDS_sondages~22 116
999 WORDFREQ_1.42 116
999 WORDSALL_Les~21_sondages~22 116
999 COSIND_-0.03 116
999 COSGEN_-0.03 116
119 ESRank19 116
202 ESForwSacLong+2+5 116
999 WORDS_sondages~22 182
999 WORDFREQ_1.42 182
999 WORDSALL_Les~21_sondages~22 182
999 COSIND_-0.03 182
999 COSGEN_-0.03 182
120 ESRank20 182
203 ESBackSacRefixation 182
999 WORDS_sondages~22 138
999 WORDFREQ_1.42 138
999 WORDSALL_Les~21_sondages~22 138
999 COSIND_-0.03 138
999 COSGEN_-0.03 138
203 ESBackSacRefixation 138
999 WORDS_effectués~23 138
999 WORDFREQ_0.61 138
999 WORDSALL_sondages~22_effectués~23 138
999 COSIND_-0.04 138
999 COSGEN_-0.04 138
201 ESForwSacShort 138
999 WORDS_effectués~23 158
999 WORDFREQ_0.61 158
999 WORDSALL_effectués~23 158
999 COSIND_-0.04 158
999 COSGEN_-0.04 158
203 ESBackSacRefixation 158
999 WORDS_indiquent~24 198
999 WORDFREQ_1.22 198
999 WORDSALL_indiquent~24 198
999 COSIND_0.03 198
999 COSGEN_0.03 198
201 ESForwSacShort 198
999 WORDS_que~25 161
999 WORDFREQ_2975.34 161
999 WORDSALL_que~25 161
999 COSIND_N/A 161
201 ESForwSacShort 161
999 WORDS_morceaux~27 258
999 WORDFREQ_41.49 258
999 WORDSALL_morceaux~27 258
999 COSIND_-0.08 258
999 COSGEN_-0.08 258
202 ESForwSacLong+2+5 258
200 ESRankN 258
199 ESRankNMinus1 161
198 ESRankNMinus2 198
197 ESRankNMinus3 158
196 ESRankNMinus4 138
195 ESRankNMinus5 138
194 ESRankNMinus6 182
193 ESRankNMinus7 116
192 ESRankNMinus8 287
191 ESRankNMinus9 165
190 ESRankNMinus10 152
