999 WORDS_galeries~1 195
999 WORDFREQ_10.95 195
999 WORDSALL_Les~0_galeries~1 195
999 COSIND_0.82 195
999 COSGEN_0.82 195
101 ESRank1 195
999 WORDS_d'anatomie~2 226
999 WORDFREQ_4.66 226
999 WORDSALL_d'anatomie~2 226
999 COSIND_0.06 226
999 COSGEN_0.06 226
102 ESRank2 226
201 ESForwSacShort 226
999 WORDS_d'anatomie~2 121
999 WORDFREQ_4.66 121
999 WORDSALL_d'anatomie~2 121
999 COSIND_0.06 121
999 COSGEN_0.06 121
103 ESRank3 121
203 ESBackSacRefixation 121
999 WORDS_comparée~3 144
999 WORDFREQ_0.07 144
999 WORDSALL_comparée~3 144
999 COSIND_0.01 144
999 COSGEN_0.01 144
104 ESRank4 144
201 ESForwSacShort 144
999 WORDS_galeries~1 144
999 WORDFREQ_10.95 144
999 WORDSALL_galeries~1 144
999 COSIND_0.82 144
999 COSGEN_0.82 144
105 ESRank5 144
206 ESBackSacRegrLong-2-12 144
999 WORDS_galeries~1 82
999 WORDFREQ_10.95 82
999 WORDSALL_galeries~1 82
999 COSIND_0.82 82
999 COSGEN_0.82 82
106 ESRank6 82
203 ESBackSacRefixation 82
999 WORDS_galeries~1 150
999 WORDFREQ_10.95 150
999 WORDSALL_Les~0_galeries~1 150
999 COSIND_0.82 150
999 COSGEN_0.82 150
107 ESRank7 150
203 ESBackSacRefixation 150
999 WORDS_d'anatomie~2 372
999 WORDFREQ_4.66 372
999 WORDSALL_d'anatomie~2 372
999 COSIND_0.06 372
999 COSGEN_0.06 372
108 ESRank8 372
201 ESForwSacShort 372
999 WORDS_d'anatomie~2 395
999 WORDFREQ_4.66 395
999 WORDSALL_d'anatomie~2 395
999 COSIND_0.06 395
999 COSGEN_0.06 395
109 ESRank9 395
203 ESBackSacRefixation 395
999 WORDS_comparée~3 284
999 WORDFREQ_0.07 284
999 WORDSALL_comparée~3 284
999 COSIND_0.01 284
999 COSGEN_0.01 284
110 ESRank10 284
201 ESForwSacShort 284
999 WORDS_comparée~3 244
999 WORDFREQ_0.07 244
999 WORDSALL_comparée~3 244
999 COSIND_0.01 244
999 COSGEN_0.01 244
111 ESRank11 244
203 ESBackSacRefixation 244
999 WORDS_paléontologie~6 158
999 WORDFREQ_0.14 158
999 WORDSALL_paléontologie~6 158
999 COSIND_0.10 158
999 COSGEN_0.10 158
112 ESRank12 158
202 ESForwSacLong+3+7 158
999 WORDS_paléontologie~6 277
999 WORDFREQ_0.14 277
999 WORDSALL_paléontologie~6 277
999 COSIND_0.10 277
999 COSGEN_0.10 277
113 ESRank13 277
203 ESBackSacRefixation 277
999 WORDS_paléontologie~6 136
999 WORDFREQ_0.14 136
999 WORDSALL_paléontologie~6 136
999 COSIND_0.10 136
999 COSGEN_0.10 136
114 ESRank14 136
203 ESBackSacRefixation 136
999 WORDS_musée~8 242
999 WORDFREQ_21.55 242
999 WORDSALL_du~7_musée~8 242
999 COSIND_0.86 242
999 COSGEN_0.86 242
115 ESRank15 242
202 ESForwSacLong+2+4 242
999 WORDS_national~9 95
999 WORDFREQ_42.7 95
999 WORDSALL_musée~8_national~9 95
999 COSIND_-0.01 95
999 COSGEN_-0.01 95
116 ESRank16 95
201 ESForwSacShort 95
999 WORDS_musée~8 192
999 WORDFREQ_21.55 192
999 WORDSALL_du~7_musée~8 192
999 COSIND_0.86 192
999 COSGEN_0.86 192
117 ESRank17 192
205 ESBackSacRegrShort 192
999 WORDS_national~9 222
999 WORDFREQ_42.7 222
999 WORDSALL_national~9 222
999 COSIND_-0.01 222
999 COSGEN_-0.01 222
118 ESRank18 222
201 ESForwSacShort 222
999 WORDS_d'histoire~10 256
999 WORDFREQ_292.23 256
999 WORDSALL_d'histoire~10 256
999 COSIND_0.02 256
999 COSGEN_0.02 256
119 ESRank19 256
201 ESForwSacShort 256
999 WORDS_naturelle~11 208
999 WORDFREQ_24.86 208
999 WORDSALL_naturelle~11 208
999 COSIND_0.09 208
999 COSGEN_0.09 208
120 ESRank20 208
201 ESForwSacShort 208
999 WORDS_sont~12 124
999 WORDFREQ_713.18 124
999 WORDSALL_sont~12 124
999 COSIND_0.06 124
999 COSGEN_0.06 124
201 ESForwSacShort 124
999 WORDS_nouveau~14 169
999 WORDFREQ_190.47 169
999 WORDSALL_de~13_nouveau~14 169
999 COSIND_0.03 169
999 COSGEN_0.03 169
202 ESForwSacLong+2+4 169
999 WORDS_ouvertes~15 172
999 WORDFREQ_15.14 172
999 WORDSALL_ouvertes~15 172
999 COSIND_N/A 172
201 ESForwSacShort 172
999 WORDS_ouvertes~15 188
999 WORDFREQ_15.14 188
999 WORDSALL_ouvertes~15 188
999 COSIND_N/A 188
203 ESBackSacRefixation 188
999 WORDS_public~17 177
999 WORDFREQ_37.91 177
999 WORDSALL_public~17 177
999 COSIND_-0.02 177
999 COSGEN_-0.02 177
202 ESForwSacLong+2+4 177
999 WORDS_public~17 139
999 WORDFREQ_37.91 139
999 WORDSALL_public~17 139
999 COSIND_-0.02 139
999 COSGEN_-0.02 139
203 ESBackSacRefixation 139
999 WORDS_18~20 160
999 WORDFREQ_N/A 160
999 WORDSALL_depuis~18_18~20 160
999 COSIND_N/A 160
202 ESForwSacLong+3+11 160
999 WORDS_18~20 179
999 WORDFREQ_N/A 179
999 WORDSALL_le~19_18~20 179
999 COSIND_N/A 179
203 ESBackSacRefixation 179
999 WORDS_décembre~21 142
999 WORDFREQ_31.15 142
999 WORDSALL_18~20_décembre~21 142
999 COSIND_0.03 142
999 COSGEN_0.03 142
201 ESForwSacShort 142
999 WORDS_après~22 161
999 WORDFREQ_821.55 161
999 WORDSALL_après~22 161
999 COSIND_-0.01 161
999 COSGEN_-0.01 161
201 ESForwSacShort 161
999 WORDS_trois~23 245
999 WORDFREQ_660.34 245
999 WORDSALL_après~22_trois~23 245
999 COSIND_0.01 245
999 COSGEN_0.01 245
201 ESForwSacShort 245
999 WORDS_mois~24 183
999 WORDFREQ_304.86 183
999 WORDSALL_mois~24 183
999 COSIND_-0.02 183
999 COSGEN_-0.02 183
201 ESForwSacShort 183
999 WORDS_mois~24 172
999 WORDFREQ_304.86 172
999 WORDSALL_mois~24 172
999 COSIND_-0.02 172
999 COSGEN_-0.02 172
203 ESBackSacRefixation 172
999 WORDS_travaux~26 193
999 WORDFREQ_39.46 193
999 WORDSALL_de~25_travaux~26 193
999 COSIND_-0.01 193
999 COSGEN_-0.01 193
202 ESForwSacLong+2+4 193
999 WORDS_paléontologie~6 220
999 WORDFREQ_0.14 220
999 WORDSALL_paléontologie~6 220
999 COSIND_0.10 220
999 COSGEN_0.10 220
206 ESBackSacRegrLong-20-120 220
999 WORDS_galeries~1 129
999 WORDFREQ_10.95 129
999 WORDSALL_galeries~1 129
999 COSIND_0.82 129
999 COSGEN_0.82 129
206 ESBackSacRegrLong-5-28 129
999 WORDS_galeries~1 208
999 WORDFREQ_10.95 208
999 WORDSALL_galeries~1 208
999 COSIND_0.82 208
999 COSGEN_0.82 208
203 ESBackSacRefixation 208
999 WORDS_d'anatomie~2 195
999 WORDFREQ_4.66 195
999 WORDSALL_d'anatomie~2 195
999 COSIND_0.06 195
999 COSGEN_0.06 195
201 ESForwSacShort 195
200 ESRankN 195
199 ESRankNMinus1 208
198 ESRankNMinus2 129
197 ESRankNMinus3 220
196 ESRankNMinus4 193
195 ESRankNMinus5 172
194 ESRankNMinus6 183
193 ESRankNMinus7 245
192 ESRankNMinus8 161
191 ESRankNMinus9 142
190 ESRankNMinus10 179
