999 WORDS_déguenillés~5 146
999 WORDFREQ_0.2 146
999 WORDSALL_déguenillés~5 146
999 COSIND_N/A 146
101 ESRank1 146
999 WORDS_déguenillés~5 110
999 WORDFREQ_0.2 110
999 WORDSALL_déguenillés~5 110
999 COSIND_N/A 110
102 ESRank2 110
203 ESBackSacRefixation 110
999 WORDS_pesaient~7 151
999 WORDFREQ_3.99 151
999 WORDSALL_elles~6_pesaient~7 151
999 COSIND_0.06 151
999 COSGEN_0.06 151
103 ESRank3 151
202 ESForwSacLong+2+7 151
999 WORDS_pesaient~7 144
999 WORDFREQ_3.99 144
999 WORDSALL_pesaient~7 144
999 COSIND_0.06 144
999 COSGEN_0.06 144
104 ESRank4 144
203 ESBackSacRefixation 144
999 WORDS_déguenillés~5 126
999 WORDFREQ_0.2 126
999 WORDSALL_déguenillés~5 126
999 COSIND_N/A 126
105 ESRank5 126
206 ESBackSacRegrLong-2-7 126
999 WORDS_déguenillés~5 181
999 WORDFREQ_0.2 181
999 WORDSALL_déguenillés~5 181
999 COSIND_N/A 181
106 ESRank6 181
203 ESBackSacRefixation 181
999 WORDS_pesaient~7 159
999 WORDFREQ_3.99 159
999 WORDSALL_pesaient~7 159
999 COSIND_0.06 159
999 COSGEN_0.06 159
107 ESRank7 159
202 ESForwSacLong+2+7 159
999 WORDS_l'offre~8 155
999 WORDFREQ_8.78 155
999 WORDSALL_l'offre~8 155
999 COSIND_-0.00 155
999 COSGEN_-0.00 155
108 ESRank8 155
201 ESForwSacShort 155
999 WORDS_demande~11 207
999 WORDFREQ_35.27 207
999 WORDSALL_demande~11 207
999 COSIND_-0.02 207
999 COSGEN_-0.02 207
109 ESRank9 207
202 ESForwSacLong+3+7 207
999 WORDS_savaient~13 179
999 WORDFREQ_30.2 179
999 WORDSALL_Elles~12_savaient~13 179
999 COSIND_0.01 179
999 COSGEN_0.01 179
110 ESRank10 179
202 ESForwSacLong+2+7 179
999 WORDS_précisément~14 151
999 WORDFREQ_34.8 151
999 WORDSALL_précisément~14 151
999 COSIND_0.03 151
999 COSGEN_0.03 151
111 ESRank11 151
201 ESForwSacShort 151
999 WORDS_précisément~14 106
999 WORDFREQ_34.8 106
999 WORDSALL_précisément~14 106
999 COSIND_0.03 106
999 COSGEN_0.03 106
112 ESRank12 106
203 ESBackSacRefixation 106
999 WORDS_jour~16 220
999 WORDFREQ_826.35 220
999 WORDSALL_jour~16 220
999 COSIND_-0.05 220
999 COSGEN_-0.05 220
113 ESRank13 220
202 ESForwSacLong+2+6 220
999 WORDS_entreprises~20 223
999 WORDFREQ_9.26 223
999 WORDSALL_les~19_entreprises~20 223
999 COSIND_-0.03 223
999 COSGEN_-0.03 223
114 ESRank14 223
202 ESForwSacLong+4+13 223
999 WORDS_chercheraient~21 209
999 WORDFREQ_0.47 209
999 WORDSALL_chercheraient~21 209
999 COSIND_-0.01 209
999 COSGEN_-0.01 209
115 ESRank15 209
201 ESForwSacShort 209
999 WORDS_monnaie~24 225
999 WORDFREQ_25.34 225
999 WORDSALL_de~22_monnaie~24 225
999 COSIND_0.43 225
999 COSGEN_0.43 225
116 ESRank16 225
202 ESForwSacLong+3+7 225
999 WORDS_locale~25 212
999 WORDFREQ_6.69 212
999 WORDSALL_monnaie~24_locale~25 212
999 COSIND_0.02 212
999 COSGEN_0.02 212
117 ESRank17 212
201 ESForwSacShort 212
999 WORDS_payer~27 150
999 WORDFREQ_58.31 150
999 WORDSALL_pour~26_payer~27 150
999 COSIND_0.18 150
999 COSGEN_0.18 150
118 ESRank18 150
202 ESForwSacLong+2+6 150
999 WORDS_salariés~29 201
999 WORDFREQ_0.2 201
999 WORDSALL_salariés~29 201
999 COSIND_0.05 201
999 COSGEN_0.05 201
119 ESRank19 201
202 ESForwSacLong+2+7 201
999 WORDS_salariés~29 129
999 WORDFREQ_0.2 129
999 WORDSALL_salariés~29 129
999 COSIND_0.05 129
999 COSGEN_0.05 129
120 ESRank20 129
203 ESBackSacRefixation 129
200 ESRankN 129
199 ESRankNMinus1 201
198 ESRankNMinus2 150
197 ESRankNMinus3 212
196 ESRankNMinus4 225
195 ESRankNMinus5 209
194 ESRankNMinus6 223
193 ESRankNMinus7 220
192 ESRankNMinus8 106
191 ESRankNMinus9 151
190 ESRankNMinus10 179
