# 124 Fixation 1 (307.1,298.2): Laure~0 d'argent~6
# 153 Fixation 2 (391.4,300.4): Manaudou~1
# 169 Fixation 3 (516.3,288.3): remporté~3
# 177 Fixation 4 (630.2,275.3): la~4 médaille~5
# 190 Fixation 5 (554.4,464.5): de~15 natation~16 cependant~23
# 146 Fixation 6 (695,474.3): natation~16 petit~18 revenu~24
%%
# Laure~0 Fixations= "1/"
# Manaudou~1 Fixations= "2/"
# a~2 Fixations= ""
# remporté~3 Fixations= "3/"
# la~4 Fixations= "4/"
# médaille~5 Fixations= "4/"
# d'argent~6 Fixations= "1/"
# sur~7 Fixations= ""
# 200~8 Fixations= ""
# m~9 Fixations= ""
# nage~10 Fixations= ""
# libre~11 Fixations= ""
# aux~12 Fixations= ""
# championnats~13 Fixations= ""
# d'Europe~14 Fixations= ""
# de~15 Fixations= "5/"
# natation~16 Fixations= "6/"
# en~17 Fixations= ""
# petit~18 Fixations= "6/"
# bassin~19 Fixations= ""
# Le~20 Fixations= ""
# titre~21 Fixations= ""
# est~22 Fixations= ""
# cependant~23 Fixations= "5/"
# revenu~24 Fixations= "6/"
# à~25 Fixations= ""
# la~26 Fixations= ""
# suédoise~27 Fixations= ""
%%
#  LAURE[1] MANAUDOU[2] a REMPORTé[3] LA[4] MéDAILLE[4] D'ARGENT[1] sur 200 m nage libre aux championnats d'Europe DE[5] NATATION[6] en PETIT[6] bassin Le titre est CEPENDANT[5] REVENU[6] à la suédoise
# s10 observation_planetes-a2 PercentageOfWordsProcessed= 0.392857142857143 PercentageOfWordsReallyProcessed= 0.44
