# 156 Fixation 1 (320.8,283.1): Le~0 Conseil~1
# 147 Fixation 2 (424.5,284.7): national~2
# 233 Fixation 3 (562.4,281.2): des~3 programmes~4
# 139 Fixation 4 (374,340.7): observatoires~7
# 195 Fixation 5 (280.6,350.8): observatoires~7
# 272 Fixation 6 (479.6,346.4): académiques~8
# 209 Fixation 7 (624.2,369): des~9 pratiques~10
# 177 Fixation 8 (648.1,429.6): de~14 définir~15
# 276 Fixation 9 (552.4,475.4): dispensées~19
# 101 Fixation 10 (685,484.4): au~20 collège~21
# 306 Fixation 11 (372.8,541.2): enseignants~23
# 133 Fixation 12 (477.9,533.4): souhaitent~24
# 292 Fixation 13 (330.5,456.8): compétences~17
# 229 Fixation 14 (423.8,464.4): communes~18
# 222 Fixation 15 (514.8,400.7): seront~12 chargés~13
# 182 Fixation 16 (648.1,401.8): de~14 définir~15
# 333 Fixation 17 (301.6,395.8): pédagogiques~11
# 151 Fixation 18 (426.8,548.3): enseignants~23
# 122 Fixation 19 (524.4,531.9): souhaitent~24
# 153 Fixation 20 (647.5,540.1): être~25
# 207 Fixation 21 (346.7,595.7): ce~28 programme~29
# 199 Fixation 22 (382.1,278.7): Conseil~1 national~2
# 151 Fixation 23 (329.1,282.2): Conseil~1
# 279 Fixation 24 (597.9,280.4): programmes~4
%%
# Le~0 Fixations= "1/"
# Conseil~1 Fixations= "23/"
# national~2 Fixations= "22/"
# des~3 Fixations= "3/"
# programmes~4 Fixations= "24/"
# et~5 Fixations= ""
# les~6 Fixations= ""
# observatoires~7 Fixations= "5/"
# académiques~8 Fixations= "6/"
# des~9 Fixations= "7/"
# pratiques~10 Fixations= "7/"
# pédagogiques~11 Fixations= "17/"
# seront~12 Fixations= "15/"
# chargés~13 Fixations= "15/"
# de~14 Fixations= "16/"
# définir~15 Fixations= "16/"
# les~16 Fixations= ""
# compétences~17 Fixations= "13/"
# communes~18 Fixations= "14/"
# dispensées~19 Fixations= "9/"
# au~20 Fixations= "10/"
# collège~21 Fixations= "10/"
# Les~22 Fixations= ""
# enseignants~23 Fixations= "18/"
# souhaitent~24 Fixations= "19/"
# être~25 Fixations= "20/"
# consultés~26 Fixations= ""
# sur~27 Fixations= ""
# ce~28 Fixations= "21/"
# programme~29 Fixations= "21/"
%%
#  LE[1] CONSEIL[23] NATIONAL[22] DES[3] PROGRAMMES[24] et les OBSERVATOIRES[5] ACADéMIQUES[6] DES[7] PRATIQUES[7] PéDAGOGIQUES[17] SERONT[15] CHARGéS[15] DE[16] DéFINIR[16] les COMPéTENCES[13] COMMUNES[14] DISPENSéES[9] AU[10] COLLèGE[10] Les ENSEIGNANTS[18] SOUHAITENT[19] êTRE[20] consultés sur CE[21] PROGRAMME[21]
# s18 formation_informatique-m2 PercentageOfWordsProcessed= 0.8 PercentageOfWordsReallyProcessed= 0.8
