# 131 Fixation 1 (263.9,269.6): Lorsque~0 vague~2
# 150 Fixation 2 (438.1,259.6): vague~2
# 133 Fixation 3 (579.3,273.4): réfugiés~4
# 166 Fixation 4 (671.4,281.1): déferlait~5
# 133 Fixation 5 (354.4,321.3): camp~8 improvisé~9
# 164 Fixation 6 (284.3,354.8): le~7 camp~8
# 142 Fixation 7 (501,378.5): les~10 microbus~11
# 116 Fixation 8 (503.5,397): mobilisés~15
# 244 Fixation 9 (605.8,415.2): l'organisation~17
# 382 Fixation 10 (484.9,456.7): El~19 Hilal~20
# 200 Fixation 11 (433.9,547.7): humanitaire~24
%%
# Lorsque~0 Fixations= "1/"
# la~1 Fixations= ""
# vague~2 Fixations= "2/"
# des~3 Fixations= ""
# réfugiés~4 Fixations= "3/"
# déferlait~5 Fixations= "4/"
# sur~6 Fixations= ""
# le~7 Fixations= "6/"
# camp~8 Fixations= "6/"
# improvisé~9 Fixations= "5/"
# les~10 Fixations= "7/"
# microbus~11 Fixations= "7/"
# et~12 Fixations= ""
# les~13 Fixations= ""
# tracteurs~14 Fixations= ""
# mobilisés~15 Fixations= "8/"
# par~16 Fixations= ""
# l'organisation~17 Fixations= "9/"
# macédonienne~18 Fixations= ""
# El~19 Fixations= "10/"
# Hilal~20 Fixations= "10/"
# assuraient~21 Fixations= ""
# un~22 Fixations= ""
# mini-pont~23 Fixations= ""
# humanitaire~24 Fixations= "11/"
# qui~25 Fixations= ""
# permettait~26 Fixations= ""
# d'éviter~27 Fixations= ""
# le~28 Fixations= ""
# pire~29 Fixations= ""
%%
#  LORSQUE[1] la VAGUE[2] des RéFUGIéS[3] DéFERLAIT[4] sur LE[6] CAMP[6] IMPROVISé[5] LES[7] MICROBUS[7] et les tracteurs MOBILISéS[8] par L'ORGANISATION[9] macédonienne EL[10] HILAL[10] assuraient un mini-pont HUMANITAIRE[11] qui permettait d'éviter le pire
# s21 aide_refugies-f1 PercentageOfWordsProcessed= 0.466666666666667 PercentageOfWordsReallyProcessed= 0.56
