# 111 Fixation 1 (340.4,284.1): Pour~0 vacanciers~2
# 167 Fixation 2 (392.8,281.5): les~1 vacanciers~2
# 466 Fixation 3 (527.8,286.1): qui~3 souhaitent~4
# 187 Fixation 4 (600.8,292.8): souhaitent~4
# 218 Fixation 5 (311.1,369): tout~6 reposer~8
# 105 Fixation 6 (269.4,351.5): tout~6 reposer~8
# 164 Fixation 7 (480.2,361.6): dans~9 cadre~11
# 186 Fixation 8 (555,356.6): un~10 cadre~11
# 294 Fixation 9 (648.2,364.5): cadre~11 bucolique~12
# 177 Fixation 10 (334.7,407.6): les~13 résidences~14
# 218 Fixation 11 (303.7,419.4): les~13 résidences~14
# 206 Fixation 12 (330.8,416.2): les~13 résidences~14
# 310 Fixation 13 (467.3,421.1): proposent~15
# 215 Fixation 14 (626.3,412.1): un~16 hébergement~17
# 204 Fixation 15 (344.1,483.6): adapté~18
# 270 Fixation 16 (438.8,479.3): permettant~20
# 246 Fixation 17 (592.8,485.1): de~21 partir~22
# 214 Fixation 18 (300.4,542.2): amis~25
# 137 Fixation 19 (367.2,542.6): sportifs~26
# 173 Fixation 20 (520.3,551.4): sans~27
# 132 Fixation 21 (569,547.3): pour~28 rester~30
# 108 Fixation 22 (639.2,546.2): autant~29 rester~30
# 196 Fixation 23 (294.6,595.6): inactifs~31
# 200 Fixation 24 (262.9,583.9): inactifs~31
%%
# Pour~0 Fixations= "1/"
# les~1 Fixations= "2/"
# vacanciers~2 Fixations= "2/"
# qui~3 Fixations= "3/"
# souhaitent~4 Fixations= "4/"
# avant~5 Fixations= ""
# tout~6 Fixations= "6/"
# se~7 Fixations= ""
# reposer~8 Fixations= "6/"
# dans~9 Fixations= "7/"
# un~10 Fixations= "8/"
# cadre~11 Fixations= "9/"
# bucolique~12 Fixations= "9/"
# les~13 Fixations= "12/"
# résidences~14 Fixations= "12/"
# proposent~15 Fixations= "13/"
# un~16 Fixations= "14/"
# hébergement~17 Fixations= "14/"
# adapté~18 Fixations= "15/"
# leur~19 Fixations= ""
# permettant~20 Fixations= "16/"
# de~21 Fixations= "17/"
# partir~22 Fixations= "17/"
# avec~23 Fixations= ""
# des~24 Fixations= ""
# amis~25 Fixations= "18/"
# sportifs~26 Fixations= "19/"
# sans~27 Fixations= "20/"
# pour~28 Fixations= "21/"
# autant~29 Fixations= "22/"
# rester~30 Fixations= "22/"
# inactifs~31 Fixations= "24/"
%%
#  POUR[1] LES[2] VACANCIERS[2] QUI[3] SOUHAITENT[4] avant TOUT[6] se REPOSER[6] DANS[7] UN[8] CADRE[9] BUCOLIQUE[9] LES[12] RéSIDENCES[12] PROPOSENT[13] UN[14] HéBERGEMENT[14] ADAPTé[15] leur PERMETTANT[16] DE[17] PARTIR[17] avec des AMIS[18] SPORTIFS[19] SANS[20] POUR[21] AUTANT[22] RESTER[22] INACTIFS[24]
# s01 tourisme_montagne-m1 PercentageOfWordsProcessed= 0.84375 PercentageOfWordsReallyProcessed= 0.84375
