# 166 Fixation 1 (403.4,254.1): inventé~2
# 193 Fixation 2 (510.3,275.8): forme~4
# 121 Fixation 3 (612.1,289.5): de~5 tennis~6
# 154 Fixation 4 (690.4,281.8): tennis~6
# 196 Fixation 5 (283.5,322.5): convient~9
# 140 Fixation 6 (406.6,331): parfaitement~10
# 167 Fixation 7 (583,355.7): et~11 rend~13
# 113 Fixation 8 (645.3,360.1): le~12 rend~13
# 194 Fixation 9 (289.7,401.3): dangereux~15
# 220 Fixation 10 (478.5,386.8): Avec~16 façon~18
# 171 Fixation 11 (620.7,407.7): façon~18 d'engager~19
%%
# Il~0 Fixations= ""
# a~1 Fixations= ""
# inventé~2 Fixations= "1/"
# une~3 Fixations= ""
# forme~4 Fixations= "2/"
# de~5 Fixations= "3/"
# tennis~6 Fixations= "4/"
# qui~7 Fixations= ""
# lui~8 Fixations= ""
# convient~9 Fixations= "5/"
# parfaitement~10 Fixations= "6/"
# et~11 Fixations= "7/"
# le~12 Fixations= "8/"
# rend~13 Fixations= "8/"
# toujours~14 Fixations= ""
# dangereux~15 Fixations= "9/"
# Avec~16 Fixations= "10/"
# cette~17 Fixations= ""
# façon~18 Fixations= "11/"
# d'engager~19 Fixations= "11/"
# des~20 Fixations= ""
# revers~21 Fixations= ""
# sa~22 Fixations= ""
# raquette~23 Fixations= ""
# réalise~24 Fixations= ""
# des~25 Fixations= ""
# coups~26 Fixations= ""
# souvent~27 Fixations= ""
# surprenants~28 Fixations= ""
%%
#  Il a INVENTé[1] une FORME[2] DE[3] TENNIS[4] qui lui CONVIENT[5] PARFAITEMENT[6] ET[7] LE[8] REND[8] toujours DANGEREUX[9] AVEC[10] cette FAçON[11] D'ENGAGER[11] des revers sa raquette réalise des coups souvent surprenants
# s07 victoire_footballeurs-m1 PercentageOfWordsProcessed= 0.448275862068966 PercentageOfWordsReallyProcessed= 0.65
