999 WORDS_31~2 230
999 WORDFREQ_N/A 230
999 WORDSALL_le~1_31~2 230
999 COSIND_N/A 230
101 ESRank1 230
999 WORDS_31~2 90
999 WORDFREQ_N/A 90
999 WORDSALL_Entre~0_31~2 90
999 COSIND_N/A 90
102 ESRank2 90
203 ESBackSacRefixation 90
999 WORDS_à~4 145
999 WORDFREQ_19209.05 145
999 WORDSALL_décembre~3_à~4 145
999 COSIND_N/A 145
103 ESRank3 145
202 ESForwSacLong+2+11 145
999 WORDS_minuit~5 186
999 WORDFREQ_29.80 186
999 WORDSALL_à~4_minuit~5 186
999 COSIND_-0.04 186
999 COSGEN_-0.04 186
104 ESRank4 186
201 ESForwSacShort 186
999 WORDS_jusqu'à~7 184
999 WORDFREQ_0.27 184
999 WORDSALL_et~6_jusqu'à~7 184
999 COSIND_N/A 184
105 ESRank5 184
202 ESForwSacLong+2+4 184
999 WORDS_jusqu'à~7 103
999 WORDFREQ_0.27 103
999 WORDSALL_jusqu'à~7 103
999 COSIND_N/A 103
106 ESRank6 103
203 ESBackSacRefixation 103
999 WORDS_mois~11 270
999 WORDFREQ_304.86 270
999 WORDSALL_Entre~0_31~2_fin~9_mois~11 270
999 COSIND_-0.01 270
999 COSGEN_-0.01 270
107 ESRank7 270
202 ESForwSacLong+4+11 270
999 WORDS_janvier~13 87
999 WORDFREQ_30.61 87
999 WORDSALL_décembre~3_janvier~13 87
999 COSIND_0.00 87
999 COSGEN_0.00 87
108 ESRank8 87
202 ESForwSacLong+2+4 87
999 WORDS_clubs~15 85
999 WORDFREQ_2.84 85
999 WORDSALL_à~4_minuit~5_clubs~15 85
999 COSIND_-0.04 85
999 COSGEN_-0.04 85
109 ESRank9 85
202 ESForwSacLong+2+5 85
999 WORDS_clubs~15 98
999 WORDFREQ_2.84 98
999 WORDSALL_minuit~5_clubs~15 98
999 COSIND_-0.04 98
999 COSGEN_-0.04 98
110 ESRank10 98
203 ESBackSacRefixation 98
999 WORDS_mois~11 239
999 WORDFREQ_304.86 239
999 WORDSALL_fin~9_mois~11 239
999 COSIND_-0.01 239
999 COSGEN_-0.01 239
111 ESRank11 239
206 ESBackSacRegrLong-4-16 239
999 WORDS_autorisés~19 222
999 WORDFREQ_1.49 222
999 WORDSALL_de~12_janvier~13_autorisés~19 222
999 COSIND_0.01 222
999 COSGEN_0.01 222
112 ESRank12 222
202 ESForwSacLong+8+39 222
999 WORDS_renouveler~21 188
999 WORDFREQ_5.81 188
999 WORDSALL_les~14_clubs~15_à~20_renouveler~21 188
999 COSIND_0.03 188
999 COSGEN_0.03 188
113 ESRank13 188
202 ESForwSacLong+2+4 188
999 WORDS_renouveler~21 110
999 WORDFREQ_5.81 110
999 WORDSALL_clubs~15_renouveler~21 110
999 COSIND_0.03 110
999 COSGEN_0.03 110
114 ESRank14 110
203 ESBackSacRefixation 110
999 WORDS_football~17 111
999 WORDFREQ_6.28 111
999 WORDSALL_football~17 111
999 COSIND_-0.02 111
999 COSGEN_-0.02 111
115 ESRank15 111
206 ESBackSacRegrLong-4-20 111
999 WORDS_janvier~13 199
999 WORDFREQ_30.61 199
999 WORDSALL_décembre~3_à~4_janvier~13 199
999 COSIND_0.00 199
999 COSGEN_0.00 199
116 ESRank16 199
206 ESBackSacRegrLong-4-14 199
999 WORDS_31~2 336
999 WORDFREQ_N/A 336
999 WORDSALL_le~1_31~2 336
999 COSIND_N/A 336
117 ESRank17 336
206 ESBackSacRegrLong-11-51 336
999 WORDS_31~2 112
999 WORDFREQ_N/A 112
999 WORDSALL_Entre~0_31~2 112
999 COSIND_N/A 112
118 ESRank18 112
203 ESBackSacRefixation 112
999 WORDS_à~4 212
999 WORDFREQ_19209.05 212
999 WORDSALL_décembre~3_à~4 212
999 COSIND_N/A 212
119 ESRank19 212
202 ESForwSacLong+2+11 212
999 WORDS_jusqu'à~7 198
999 WORDFREQ_0.27 198
999 WORDSALL_et~6_jusqu'à~7 198
999 COSIND_N/A 198
120 ESRank20 198
202 ESForwSacLong+3+11 198
999 WORDS_à~4 167
999 WORDFREQ_19209.05 167
999 WORDSALL_décembre~3_à~4 167
999 COSIND_N/A 167
206 ESBackSacRegrLong-3-11 167
999 WORDS_à~20 108
999 WORDFREQ_19209.05 108
999 WORDSALL_à~4_minuit~5_janvier~13_à~20 108
999 COSIND_N/A 108
202 ESForwSacLong+16+84 108
999 WORDS_janvier~13 139
999 WORDFREQ_30.61 139
999 WORDSALL_31~2_décembre~3_mois~11_janvier~13 139
999 COSIND_0.00 139
999 COSGEN_0.00 139
206 ESBackSacRegrLong-7-39 139
999 WORDS_jusqu'à~7 222
999 WORDFREQ_0.27 222
999 WORDSALL_et~6_jusqu'à~7 222
999 COSIND_N/A 222
206 ESBackSacRegrLong-6-19 222
999 WORDS_à~4 338
999 WORDFREQ_19209.05 338
999 WORDSALL_décembre~3_à~4 338
999 COSIND_N/A 338
206 ESBackSacRegrLong-3-11 338
999 WORDS_mois~11 356
999 WORDFREQ_304.86 356
999 WORDSALL_31~2_décembre~3_mois~11 356
999 COSIND_-0.01 356
999 COSGEN_-0.01 356
202 ESForwSacLong+7+30 356
999 WORDS_décembre~3 165
999 WORDFREQ_31.15 165
999 WORDSALL_le~1_31~2_décembre~3 165
999 COSIND_-0.04 165
999 COSGEN_-0.04 165
206 ESBackSacRegrLong-8-33 165
999 WORDS_à~20 292
999 WORDFREQ_19209.05 292
999 WORDSALL_les~14_clubs~15_à~20 292
999 COSIND_N/A 292
202 ESForwSacLong+17+87 292
999 WORDS_sont~18 168
999 WORDFREQ_386.35 168
999 WORDSALL_du~10_mois~11_sont~18 168
999 COSIND_0.03 168
999 COSGEN_0.03 168
206 ESBackSacRegrLong-2-12 168
999 WORDS_football~17 197
999 WORDFREQ_6.28 197
999 WORDSALL_fin~9_mois~11_football~17 197
999 COSIND_-0.02 197
999 COSGEN_-0.02 197
205 ESBackSacRegrShort 197
999 WORDS_autorisés~19 182
999 WORDFREQ_1.49 182
999 WORDSALL_de~12_janvier~13_autorisés~19 182
999 COSIND_0.01 182
999 COSGEN_0.01 182
202 ESForwSacLong+2+6 182
999 WORDS_décembre~3 356
999 WORDFREQ_31.15 356
999 WORDSALL_31~2_décembre~3 356
999 COSIND_-0.04 356
999 COSGEN_-0.04 356
206 ESBackSacRegrLong-16-76 356
999 WORDS_à~4 251
999 WORDFREQ_19209.05 251
999 WORDSALL_décembre~3_à~4 251
999 COSIND_N/A 251
201 ESForwSacShort 251
999 WORDS_jusqu'à~7 190
999 WORDFREQ_0.27 190
999 WORDSALL_et~6_jusqu'à~7 190
999 COSIND_N/A 190
202 ESForwSacLong+3+11 190
999 WORDS_jusqu'à~7 108
999 WORDFREQ_0.27 108
999 WORDSALL_jusqu'à~7 108
999 COSIND_N/A 108
203 ESBackSacRefixation 108
999 WORDS_mois~11 230
999 WORDFREQ_304.86 230
999 WORDSALL_Entre~0_31~2_fin~9_mois~11 230
999 COSIND_-0.01 230
999 COSGEN_-0.01 230
202 ESForwSacLong+4+11 230
999 WORDS_janvier~13 224
999 WORDFREQ_30.61 224
999 WORDSALL_décembre~3_janvier~13 224
999 COSIND_0.00 224
999 COSGEN_0.00 224
202 ESForwSacLong+2+4 224
999 WORDS_décembre~3 153
999 WORDFREQ_31.15 153
999 WORDSALL_31~2_décembre~3 153
999 COSIND_-0.04 153
999 COSGEN_-0.04 153
206 ESBackSacRegrLong-10-41 153
999 WORDS_décembre~3 117
999 WORDFREQ_31.15 117
999 WORDSALL_31~2_décembre~3 117
999 COSIND_-0.04 117
999 COSGEN_-0.04 117
203 ESBackSacRefixation 117
999 WORDS_minuit~5 247
999 WORDFREQ_29.80 247
999 WORDSALL_à~4_minuit~5 247
999 COSIND_-0.04 247
999 COSGEN_-0.04 247
202 ESForwSacLong+2+4 247
999 WORDS_décembre~3 110
999 WORDFREQ_31.15 110
999 WORDSALL_31~2_décembre~3 110
999 COSIND_-0.04 110
999 COSGEN_-0.04 110
206 ESBackSacRegrLong-2-4 110
999 WORDS_31~2 153
999 WORDFREQ_N/A 153
999 WORDSALL_Entre~0_31~2 153
999 COSIND_N/A 153
205 ESBackSacRegrShort 153
999 WORDS_renouveler~21 254
999 WORDFREQ_5.81 254
999 WORDSALL_les~14_clubs~15_à~20_renouveler~21 254
999 COSIND_0.03 254
999 COSGEN_0.03 254
202 ESForwSacLong+19+100 254
200 ESRankN 254
199 ESRankNMinus1 153
198 ESRankNMinus2 110
197 ESRankNMinus3 247
196 ESRankNMinus4 117
195 ESRankNMinus5 153
194 ESRankNMinus6 224
193 ESRankNMinus7 230
192 ESRankNMinus8 108
191 ESRankNMinus9 190
190 ESRankNMinus10 251
