# 139 Fixation 1 (341,290.2): semble~1
# 109 Fixation 2 (478.7,294.5): à~3 l'instar~4
# 150 Fixation 3 (550.9,303.1): l'instar~4
# 267 Fixation 4 (657.7,302.4): des~5 Anglais~6
# 101 Fixation 5 (355.4,339.4): Gallois~8 soient~9
# 184 Fixation 6 (321.4,346.2): Gallois~8
# 137 Fixation 7 (438.5,351.8): soient~9 parvenus~10
# 128 Fixation 8 (491,355): parvenus~10
# 264 Fixation 9 (623.3,365.5): à~11 assimiler~12
# 176 Fixation 10 (613.5,420): à~18 l'hémisphère~19
# 106 Fixation 11 (657.2,421): l'hémisphère~19
# 108 Fixation 12 (730.9,417): l'hémisphère~19 Sud~20
# 244 Fixation 13 (332.5,391.7): éléments~14
# 165 Fixation 14 (329.6,450.8): dominer~22
# 160 Fixation 15 (458.7,448.3): le~23 rugby~24
# 292 Fixation 16 (537.8,447): mondial~25
# 165 Fixation 17 (642.3,456.1): depuis~26
%%
# Il~0 Fixations= ""
# semble~1 Fixations= "1/"
# que~2 Fixations= ""
# à~3 Fixations= "2/"
# l'instar~4 Fixations= "3/"
# des~5 Fixations= "4/"
# Anglais~6 Fixations= "4/"
# les~7 Fixations= ""
# Gallois~8 Fixations= "6/"
# soient~9 Fixations= "7/"
# parvenus~10 Fixations= "8/"
# à~11 Fixations= "9/"
# assimiler~12 Fixations= "9/"
# les~13 Fixations= ""
# éléments~14 Fixations= "13/"
# qui~15 Fixations= ""
# ont~16 Fixations= ""
# permis~17 Fixations= ""
# à~18 Fixations= "10/"
# l'hémisphère~19 Fixations= "12/"
# Sud~20 Fixations= "12/"
# de~21 Fixations= ""
# dominer~22 Fixations= "14/"
# le~23 Fixations= "15/"
# rugby~24 Fixations= "15/"
# mondial~25 Fixations= "16/"
# depuis~26 Fixations= "17/"
# quelques~27 Fixations= ""
# années~28 Fixations= ""
%%
#  Il SEMBLE[1] que à[2] L'INSTAR[3] DES[4] ANGLAIS[4] les GALLOIS[6] SOIENT[7] PARVENUS[8] à[9] ASSIMILER[9] les éLéMENTS[13] qui ont permis à[10] L'HéMISPHèRE[12] SUD[12] de DOMINER[14] LE[15] RUGBY[15] MONDIAL[16] DEPUIS[17] quelques années
# s08 victoire_footballeurs-m2 PercentageOfWordsProcessed= 0.655172413793103 PercentageOfWordsReallyProcessed= 0.703703703703704
