999 WORDS_plus~1 167
999 WORDFREQ_5014.53 167
999 WORDSALL_Bien~0_plus~1 167
999 COSIND_0.02 167
999 COSGEN_0.02 167
101 ESRank1 167
999 WORDS_Bien~0 163
999 WORDFREQ_36.55 163
999 WORDSALL_Bien~0 163
999 COSIND_0.02 163
999 COSGEN_0.02 163
102 ESRank2 163
205 ESBackSacRegrShort 163
999 WORDS_connaissance~4 177
999 WORDFREQ_55.81 177
999 WORDSALL_que~2_connaissance~4 177
999 COSIND_0.12 177
999 COSGEN_0.12 177
103 ESRank3 177
202 ESForwSacLong+4+13 177
999 WORDS_connaissance~4 209
999 WORDFREQ_55.81 209
999 WORDSALL_la~3_connaissance~4 209
999 COSIND_0.12 209
999 COSGEN_0.12 209
104 ESRank4 209
203 ESBackSacRefixation 209
999 WORDS_ 185
999 WORDFREQ_ 185
999 WORDSALL_ 185
105 ESRank5 185
999 WORDS_ 130
999 WORDFREQ_ 130
999 WORDSALL_ 130
106 ESRank6 130
999 WORDS_morte~7 302
999 WORDFREQ_28.18 302
999 WORDSALL_morte~7 302
999 COSIND_-0.01 302
999 COSGEN_-0.01 302
107 ESRank7 302
999 WORDS_l'apprentissage~8 609
999 WORDFREQ_10.14 609
999 WORDSALL_l'apprentissage~8 609
999 COSIND_0.47 609
999 COSGEN_0.47 609
108 ESRank8 609
201 ESForwSacShort 609
999 WORDS_l'apprentissage~8 209
999 WORDFREQ_10.14 209
999 WORDSALL_l'apprentissage~8 209
999 COSIND_0.47 209
999 COSGEN_0.47 209
109 ESRank9 209
203 ESBackSacRefixation 209
999 WORDS_connaissance~4 293
999 WORDFREQ_55.81 293
999 WORDSALL_connaissance~4 293
999 COSIND_0.12 293
999 COSGEN_0.12 293
110 ESRank10 293
206 ESBackSacRegrLong-4-20 293
999 WORDS_collège~13 247
999 WORDFREQ_25 247
999 WORDSALL_collège~13 247
999 COSIND_0.01 247
999 COSGEN_0.01 247
111 ESRank11 247
202 ESForwSacLong+9+53 247
999 WORDS_exercice~16 324
999 WORDFREQ_17.5 324
999 WORDSALL_un~15_exercice~16 324
999 COSIND_0.06 324
999 COSGEN_0.06 324
112 ESRank12 324
202 ESForwSacLong+3+8 324
200 ESRankN 324
199 ESRankNMinus1 247
198 ESRankNMinus2 293
197 ESRankNMinus3 209
196 ESRankNMinus4 609
195 ESRankNMinus5 302
194 ESRankNMinus6 130
193 ESRankNMinus7 185
192 ESRankNMinus8 209
191 ESRankNMinus9 177
190 ESRankNMinus10 163
