# 227 Fixation 1 (328.6,271): Les~0 syndicats~1
# 212 Fixation 2 (495,285.4): qui~2 avaient~3
# 162 Fixation 3 (579,290.3): avaient~3 lancé~4
# 137 Fixation 4 (662.2,293.8): lancé~4 l'ordre~5
# 240 Fixation 5 (403.7,355.1): réclamaient~8
# 255 Fixation 6 (355.3,420.3): l'aménagement~12
# 171 Fixation 7 (370.7,471.1): l'embauche~19
# 181 Fixation 8 (520.8,469.2): de~20 trente~21
# 97 Fixation 9 (559.2,473.8): trente~21 personnes~22
# 215 Fixation 10 (343,523): supplémentaires~23
# 196 Fixation 11 (602.6,386.6): de~15 travail~16
# 249 Fixation 12 (566.4,339.9): une~9 amélioration~10
# 163 Fixation 13 (362.5,341.7): réclamaient~8
# 229 Fixation 14 (320.8,404.8): l'aménagement~12
# 141 Fixation 15 (481.3,403.2): du~13 temps~14
# 116 Fixation 16 (588.6,408.2): de~15 travail~16
%%
# Les~0 Fixations= "1/"
# syndicats~1 Fixations= "1/"
# qui~2 Fixations= "2/"
# avaient~3 Fixations= "3/"
# lancé~4 Fixations= "4/"
# l'ordre~5 Fixations= "4/"
# de~6 Fixations= ""
# grève~7 Fixations= ""
# réclamaient~8 Fixations= "13/"
# une~9 Fixations= "12/"
# amélioration~10 Fixations= "12/"
# de~11 Fixations= ""
# l'aménagement~12 Fixations= "14/"
# du~13 Fixations= "15/"
# temps~14 Fixations= "15/"
# de~15 Fixations= "16/"
# travail~16 Fixations= "16/"
# ainsi~17 Fixations= ""
# que~18 Fixations= ""
# l'embauche~19 Fixations= "7/"
# de~20 Fixations= "8/"
# trente~21 Fixations= "9/"
# personnes~22 Fixations= "9/"
# supplémentaires~23 Fixations= "10/"
%%
#  LES[1] SYNDICATS[1] QUI[2] AVAIENT[3] LANCé[4] L'ORDRE[4] de grève RéCLAMAIENT[13] UNE[12] AMéLIORATION[12] de L'AMéNAGEMENT[14] DU[15] TEMPS[15] DE[16] TRAVAIL[16] ainsi que L'EMBAUCHE[7] DE[8] TRENTE[9] PERSONNES[9] SUPPLéMENTAIRES[10]
# s18 syndicat_agricole-m2 PercentageOfWordsProcessed= 0.791666666666667 PercentageOfWordsReallyProcessed= 0.791666666666667
