999 WORDS_Californie~1 131
999 WORDFREQ_0.07 131
999 WORDSALL_Californie~1 131
999 COSIND_0.07 131
999 COSGEN_0.07 131
101 ESRank1 131
999 WORDS_Californie~1 148
999 WORDFREQ_0.07 148
999 WORDSALL_Californie~1 148
999 COSIND_0.07 148
999 COSGEN_0.07 148
102 ESRank2 148
203 ESBackSacRefixation 148
999 WORDS_a~2 178
999 WORDFREQ_2926.69 178
999 WORDSALL_a~2 178
999 COSIND_N/A 178
103 ESRank3 178
201 ESForwSacShort 178
999 WORDS_officiellement~3 157
999 WORDFREQ_7.36 157
999 WORDSALL_officiellement~3 157
999 COSIND_0.03 157
999 COSGEN_0.03 157
104 ESRank4 157
201 ESForwSacShort 157
999 WORDS_déposé~4 203
999 WORDFREQ_10.34 203
999 WORDSALL_déposé~4 203
999 COSIND_-0.01 203
999 COSGEN_-0.01 203
105 ESRank5 203
201 ESForwSacShort 203
999 WORDS_plainte~5 144
999 WORDFREQ_17.09 144
999 WORDSALL_La~0_Californie~1_plainte~5 144
999 COSIND_0.00 144
999 COSGEN_0.00 144
106 ESRank6 144
201 ESForwSacShort 144
999 WORDS_plainte~5 136
999 WORDFREQ_17.09 136
999 WORDSALL_La~0_Californie~1_plainte~5 136
999 COSIND_0.00 136
999 COSGEN_0.00 136
107 ESRank7 136
203 ESBackSacRefixation 136
999 WORDS_plainte~5 179
999 WORDFREQ_17.09 179
999 WORDSALL_Californie~1_plainte~5 179
999 COSIND_0.00 179
999 COSGEN_0.00 179
108 ESRank8 179
203 ESBackSacRefixation 179
999 WORDS_a~2 95
999 WORDFREQ_2926.69 95
999 WORDSALL_Californie~1_a~2 95
999 COSIND_N/A 95
109 ESRank9 95
206 ESBackSacRegrLong-3-25 95
999 WORDS_gouvernement~8 240
999 WORDFREQ_119.73 240
999 WORDSALL_a~2_officiellement~3_gouvernement~8 240
999 COSIND_-0.03 240
999 COSGEN_-0.03 240
110 ESRank10 240
202 ESForwSacLong+6+43 240
999 WORDS_gouvernement~8 195
999 WORDFREQ_119.73 195
999 WORDSALL_officiellement~3_gouvernement~8 195
999 COSIND_-0.03 195
999 COSGEN_-0.03 195
111 ESRank11 195
203 ESBackSacRefixation 195
999 WORDS_l'application~14 121
999 WORDFREQ_15.34 121
999 WORDSALL_des~9_l'application~14 121
999 COSIND_-0.01 121
999 COSGEN_-0.01 121
112 ESRank12 121
202 ESForwSacLong+6+38 121
999 WORDS_États-Unis~10 100
999 WORDFREQ_N/A 100
999 WORDSALL_plainte~5_États-Unis~10 100
999 COSIND_N/A 100
113 ESRank13 100
206 ESBackSacRegrLong-4-22 100
999 WORDS_États-Unis~10 135
999 WORDFREQ_N/A 135
999 WORDSALL_plainte~5_États-Unis~10 135
999 COSIND_N/A 135
114 ESRank14 135
203 ESBackSacRefixation 135
999 WORDS_avoir~12 144
999 WORDFREQ_649.26 144
999 WORDSALL_contre~6_gouvernement~8_avoir~12 144
999 COSIND_0.02 144
999 COSGEN_0.02 144
115 ESRank15 144
202 ESForwSacLong+2+6 144
999 WORDS_avoir~12 105
999 WORDFREQ_649.26 105
999 WORDSALL_le~7_gouvernement~8_avoir~12 105
999 COSIND_0.02 105
999 COSGEN_0.02 105
116 ESRank16 105
203 ESBackSacRefixation 105
999 WORDS_empêché~13 191
999 WORDFREQ_9.26 191
999 WORDSALL_gouvernement~8_empêché~13 191
999 COSIND_-0.00 191
999 COSGEN_-0.00 191
117 ESRank17 191
201 ESForwSacShort 191
999 WORDS_l'application~14 152
999 WORDFREQ_15.34 152
999 WORDSALL_l'application~14 152
999 COSIND_-0.01 152
999 COSGEN_-0.01 152
118 ESRank18 152
201 ESForwSacShort 152
999 WORDS_États-Unis~10 136
999 WORDFREQ_N/A 136
999 WORDSALL_États-Unis~10 136
999 COSIND_N/A 136
119 ESRank19 136
206 ESBackSacRegrLong-4-22 136
999 WORDS_loi~17 160
999 WORDFREQ_44.46 160
999 WORDSALL_États-Unis~10_loi~17 160
999 COSIND_0.01 160
999 COSGEN_0.01 160
120 ESRank20 160
202 ESForwSacLong+7+42 160
999 WORDS_réduction~19 274
999 WORDFREQ_2.91 274
999 WORDSALL_pour~11_avoir~12_réduction~19 274
999 COSIND_0.10 274
999 COSGEN_0.10 274
202 ESForwSacLong+2+4 274
999 WORDS_empêché~13 142
999 WORDFREQ_9.26 142
999 WORDSALL_empêché~13 142
999 COSIND_-0.00 142
999 COSGEN_-0.00 142
206 ESBackSacRegrLong-6-28 142
999 WORDS_émissions~21 220
999 WORDFREQ_3.58 220
999 WORDSALL_empêché~13_émissions~21 220
999 COSIND_-0.07 220
999 COSGEN_-0.07 220
202 ESForwSacLong+8+43 220
999 WORDS_gaz~23 225
999 WORDFREQ_28.65 225
999 WORDSALL_l'application~14_gaz~23 225
999 COSIND_0.13 225
999 COSGEN_0.13 225
202 ESForwSacLong+2+4 225
999 WORDS_à~24 108
999 WORDFREQ_19209.05 108
999 WORDSALL_de~15_loi~17_à~24 108
999 COSIND_N/A 108
201 ESForwSacShort 108
999 WORDS_effet~25 144
999 WORDFREQ_173.18 144
999 WORDSALL_de~15_loi~17_effet~25 144
999 COSIND_0.02 144
999 COSGEN_0.02 144
201 ESForwSacShort 144
999 WORDS_serre~27 170
999 WORDFREQ_4.53 170
999 WORDSALL_loi~17_réduction~19_serre~27 170
999 COSIND_0.02 170
999 COSGEN_0.02 170
202 ESForwSacLong+2+4 170
999 WORDS_automobiles~29 279
999 WORDFREQ_6.76 279
999 WORDSALL_réduction~19_automobiles~29 279
999 COSIND_-0.03 279
999 COSGEN_-0.03 279
202 ESForwSacLong+2+5 279
999 WORDS_automobiles~29 169
999 WORDFREQ_6.76 169
999 WORDSALL_des~20_émissions~21_automobiles~29 169
999 COSIND_-0.03 169
999 COSGEN_-0.03 169
203 ESBackSacRefixation 169
999 WORDS_automobiles~29 104
999 WORDFREQ_6.76 104
999 WORDSALL_des~20_émissions~21_automobiles~29 104
999 COSIND_-0.03 104
999 COSGEN_-0.03 104
203 ESBackSacRefixation 104
999 WORDS_plainte~5 120
999 WORDFREQ_17.09 120
999 WORDSALL_La~0_Californie~1_plainte~5 120
999 COSIND_0.00 120
999 COSGEN_0.00 120
206 ESBackSacRegrLong-24-143 120
999 WORDS_Californie~1 151
999 WORDFREQ_0.07 151
999 WORDSALL_La~0_Californie~1 151
999 COSIND_0.07 151
999 COSGEN_0.07 151
206 ESBackSacRegrLong-4-27 151
999 WORDS_a~2 273
999 WORDFREQ_2926.69 273
999 WORDSALL_a~2 273
999 COSIND_N/A 273
201 ESForwSacShort 273
999 WORDS_officiellement~3 139
999 WORDFREQ_7.36 139
999 WORDSALL_officiellement~3 139
999 COSIND_0.03 139
999 COSGEN_0.03 139
201 ESForwSacShort 139
999 WORDS_déposé~4 330
999 WORDFREQ_10.34 330
999 WORDSALL_déposé~4 330
999 COSIND_-0.01 330
999 COSGEN_-0.01 330
201 ESForwSacShort 330
999 WORDS_plainte~5 142
999 WORDFREQ_17.09 142
999 WORDSALL_La~0_Californie~1_plainte~5 142
999 COSIND_0.00 142
999 COSGEN_0.00 142
201 ESForwSacShort 142
999 WORDS_plainte~5 156
999 WORDFREQ_17.09 156
999 WORDSALL_La~0_Californie~1_plainte~5 156
999 COSIND_0.00 156
999 COSGEN_0.00 156
203 ESBackSacRefixation 156
999 WORDS_plainte~5 176
999 WORDFREQ_17.09 176
999 WORDSALL_Californie~1_plainte~5 176
999 COSIND_0.00 176
999 COSGEN_0.00 176
203 ESBackSacRefixation 176
999 WORDS_a~2 97
999 WORDFREQ_2926.69 97
999 WORDSALL_Californie~1_a~2 97
999 COSIND_N/A 97
206 ESBackSacRegrLong-3-25 97
999 WORDS_gouvernement~8 335
999 WORDFREQ_119.73 335
999 WORDSALL_le~7_gouvernement~8 335
999 COSIND_-0.03 335
999 COSGEN_-0.03 335
202 ESForwSacLong+6+43 335
999 WORDS_gouvernement~8 109
999 WORDFREQ_119.73 109
999 WORDSALL_officiellement~3_gouvernement~8 109
999 COSIND_-0.03 109
999 COSGEN_-0.03 109
203 ESBackSacRefixation 109
999 WORDS_officiellement~3 131
999 WORDFREQ_7.36 131
999 WORDSALL_officiellement~3 131
999 COSIND_0.03 131
999 COSGEN_0.03 131
206 ESBackSacRegrLong-5-28 131
999 WORDS_déposé~4 211
999 WORDFREQ_10.34 211
999 WORDSALL_déposé~4 211
999 COSIND_-0.01 211
999 COSGEN_-0.01 211
201 ESForwSacShort 211
999 WORDS_officiellement~3 147
999 WORDFREQ_7.36 147
999 WORDSALL_a~2_officiellement~3 147
999 COSIND_0.03 147
999 COSGEN_0.03 147
205 ESBackSacRegrShort 147
999 WORDS_officiellement~3 340
999 WORDFREQ_7.36 340
999 WORDSALL_a~2_officiellement~3 340
999 COSIND_0.03 340
999 COSGEN_0.03 340
203 ESBackSacRefixation 340
200 ESRankN 340
199 ESRankNMinus1 147
198 ESRankNMinus2 211
197 ESRankNMinus3 131
196 ESRankNMinus4 109
195 ESRankNMinus5 335
194 ESRankNMinus6 97
193 ESRankNMinus7 176
192 ESRankNMinus8 156
191 ESRankNMinus9 142
190 ESRankNMinus10 330
