# 107 Fixation 1 (293,266.4): En~0 Inde~1
# 152 Fixation 2 (391.5,271.7): l'épais~2
# 286 Fixation 3 (504.9,272.9): brouillard~3
# 219 Fixation 4 (526.8,358.4): depuis~10 plusieurs~11 vague~18
# 215 Fixation 5 (485.3,408.2): pays~9 à~16 vague~18
# 289 Fixation 6 (401.5,460.9): s'ajoute~15 à~16 Rajasthan~24
# 153 Fixation 7 (308.6,467.1): qui~14 s'ajoute~15 l'état~22
%%
# En~0 Fixations= "1/"
# Inde~1 Fixations= "1/"
# l'épais~2 Fixations= "2/"
# brouillard~3 Fixations= "3/"
# qui~4 Fixations= ""
# recouvre~5 Fixations= ""
# le~6 Fixations= ""
# nord~7 Fixations= ""
# du~8 Fixations= ""
# pays~9 Fixations= "5/"
# depuis~10 Fixations= "4/"
# plusieurs~11 Fixations= "4/"
# jours~12 Fixations= ""
# et~13 Fixations= ""
# qui~14 Fixations= "7/"
# s'ajoute~15 Fixations= "7/"
# à~16 Fixations= "6/"
# une~17 Fixations= ""
# vague~18 Fixations= "5/"
# de~19 Fixations= ""
# froid~20 Fixations= ""
# dans~21 Fixations= ""
# l'état~22 Fixations= "7/"
# du~23 Fixations= ""
# Rajasthan~24 Fixations= "6/"
# paralyse~25 Fixations= ""
# les~26 Fixations= ""
# transports~27 Fixations= ""
# aériens~28 Fixations= ""
%%
#  EN[1] INDE[1] L'éPAIS[2] BROUILLARD[3] qui recouvre le nord du PAYS[5] DEPUIS[4] PLUSIEURS[4] jours et QUI[7] S'AJOUTE[7] à[6] une VAGUE[5] de froid dans L'éTAT[7] du RAJASTHAN[6] paralyse les transports aériens
# s18 syndicat_agricole-a2 PercentageOfWordsProcessed= 0.448275862068966 PercentageOfWordsReallyProcessed= 0.52
