999 WORDS_quarantaine~1 117
999 WORDFREQ_10.07 117
999 WORDSALL_Une~0_quarantaine~1 117
999 COSIND_0.20 117
999 COSGEN_0.20 117
101 ESRank1 117
999 WORDS_quarantaine~1 146
999 WORDFREQ_10.07 146
999 WORDSALL_quarantaine~1 146
999 COSIND_0.20 146
999 COSGEN_0.20 146
102 ESRank2 146
203 ESBackSacRefixation 146
999 WORDS_véhicules~3 182
999 WORDFREQ_7.23 182
999 WORDSALL_de~2_véhicules~3 182
999 COSIND_0.09 182
999 COSGEN_0.09 182
103 ESRank3 182
202 ESForwSacLong+2+4 182
999 WORDS_ont~4 125
999 WORDFREQ_553.31 125
999 WORDSALL_véhicules~3_ont~4 125
999 COSIND_-0.09 125
999 COSGEN_-0.09 125
104 ESRank4 125
201 ESForwSacShort 125
999 WORDS_incendiés~6 189
999 WORDFREQ_0.88 189
999 WORDSALL_incendiés~6 189
999 COSIND_0.01 189
999 COSGEN_0.01 189
105 ESRank5 189
202 ESForwSacLong+2+7 189
999 WORDS_jeunes~9 134
999 WORDFREQ_136.55 134
999 WORDSALL_par~7_jeunes~9 134
999 COSIND_0.28 134
999 COSGEN_0.28 134
106 ESRank6 134
202 ESForwSacLong+3+9 134
999 WORDS_jeunes~9 143
999 WORDFREQ_136.55 143
999 WORDSALL_jeunes~9 143
999 COSIND_0.28 143
999 COSGEN_0.28 143
107 ESRank7 143
203 ESBackSacRefixation 143
999 WORDS_mineurs~10 205
999 WORDFREQ_6.01 205
999 WORDSALL_jeunes~9_mineurs~10 205
999 COSIND_0.73 205
999 COSGEN_0.73 205
108 ESRank8 205
201 ESForwSacShort 205
999 WORDS_dans~11 144
999 WORDFREQ_8296.08 144
999 WORDSALL_dans~11 144
999 COSIND_N/A 144
109 ESRank9 144
201 ESForwSacShort 144
999 WORDS_banlieues~13 131
999 WORDFREQ_2.5 131
999 WORDSALL_banlieues~13 131
999 COSIND_0.39 131
999 COSGEN_0.39 131
110 ESRank10 131
202 ESForwSacLong+2+5 131
999 WORDS_banlieues~13 187
999 WORDFREQ_2.5 187
999 WORDSALL_banlieues~13 187
999 COSIND_0.39 187
999 COSGEN_0.39 187
111 ESRank11 187
203 ESBackSacRefixation 187
999 WORDS_mineurs~10 164
999 WORDFREQ_6.01 164
999 WORDSALL_mineurs~10 164
999 COSIND_0.73 164
999 COSGEN_0.73 164
112 ESRank12 164
206 ESBackSacRegrLong-3-10 164
999 WORDS_mineurs~10 265
999 WORDFREQ_6.01 265
999 WORDSALL_jeunes~9_mineurs~10 265
999 COSIND_0.73 265
999 COSGEN_0.73 265
113 ESRank13 265
203 ESBackSacRefixation 265
999 WORDS_affrontements~23 162
999 WORDFREQ_1.62 162
999 WORDSALL_Des~22_affrontements~23 162
999 COSIND_0.11 162
999 COSGEN_0.11 162
114 ESRank14 162
202 ESForwSacLong+13+76 162
200 ESRankN 162
199 ESRankNMinus1 265
198 ESRankNMinus2 164
197 ESRankNMinus3 187
196 ESRankNMinus4 131
195 ESRankNMinus5 144
194 ESRankNMinus6 205
193 ESRankNMinus7 143
192 ESRankNMinus8 134
191 ESRankNMinus9 189
190 ESRankNMinus10 125
