# 144 Fixation 1 (271.7,281.9): La~0 Californie~1
# 353 Fixation 2 (301.7,281.9): La~0 Californie~1
# 93 Fixation 3 (328.9,278): Californie~1
# 380 Fixation 4 (471,275.2): a~2
# 217 Fixation 5 (624.9,283.2): officiellement~3 déposé~4
# 252 Fixation 6 (290.9,346.1): La~0 Californie~1 plainte~5
# 94 Fixation 7 (273.6,343.8): La~0 Californie~1 plainte~5
# 172 Fixation 8 (422.7,343.8): Californie~1 a~2
# 193 Fixation 9 (497.4,344): a~2 officiellement~3 gouvernement~8
# 176 Fixation 10 (626.1,348.2): officiellement~3 déposé~4 gouvernement~8
# 280 Fixation 11 (276.4,405.6): plainte~5 États-Unis~10
# 124 Fixation 12 (367.9,408.3): plainte~5 États-Unis~10
# 156 Fixation 13 (512.5,412.8): le~7 gouvernement~8 avoir~12
# 114 Fixation 14 (570.7,411.7): gouvernement~8 empêché~13
# 266 Fixation 15 (684.2,411): des~9 l'application~14
# 211 Fixation 16 (284.8,486.8): de~15 loi~17
# 159 Fixation 17 (342.1,478.2): sa~16 loi~17
# 249 Fixation 18 (455.7,472.2): pour~11 avoir~12 réduction~19
# 326 Fixation 19 (614.4,476.2): empêché~13 émissions~21
# 172 Fixation 20 (751,475.3): l'application~14 gaz~23
# 99 Fixation 21 (379.7,526.6): loi~17 serre~27
# 121 Fixation 22 (337.9,538.3): sa~16 loi~17 effet~25
# 184 Fixation 23 (392.4,525.8): loi~17 réduction~19 serre~27
%%
# La~0 Fixations= "7/"
# Californie~1 Fixations= "8/"
# a~2 Fixations= "9/"
# officiellement~3 Fixations= "10/"
# déposé~4 Fixations= "10/"
# plainte~5 Fixations= "12/"
# contre~6 Fixations= ""
# le~7 Fixations= "13/"
# gouvernement~8 Fixations= "14/"
# des~9 Fixations= "15/"
# États-Unis~10 Fixations= "12/"
# pour~11 Fixations= "18/"
# avoir~12 Fixations= "18/"
# empêché~13 Fixations= "19/"
# l'application~14 Fixations= "20/"
# de~15 Fixations= "16/"
# sa~16 Fixations= "22/"
# loi~17 Fixations= "23/"
# de~18 Fixations= ""
# réduction~19 Fixations= "23/"
# des~20 Fixations= ""
# émissions~21 Fixations= "19/"
# de~22 Fixations= ""
# gaz~23 Fixations= "20/"
# à~24 Fixations= ""
# effet~25 Fixations= "22/"
# de~26 Fixations= ""
# serre~27 Fixations= "23/"
# des~28 Fixations= ""
# automobiles~29 Fixations= ""
%%
#  LA[7] CALIFORNIE[8] A[9] OFFICIELLEMENT[10] DéPOSé[10] PLAINTE[12] contre LE[13] GOUVERNEMENT[14] DES[15] ÉTATS-UNIS[12] POUR[18] AVOIR[18] EMPêCHé[19] L'APPLICATION[20] DE[16] SA[22] LOI[23] de RéDUCTION[23] des éMISSIONS[19] de GAZ[20] à EFFET[22] de SERRE[23] des automobiles
# s13 prix_petrole-a2 PercentageOfWordsProcessed= 0.733333333333333 PercentageOfWordsReallyProcessed= 0.785714285714286
