999 WORDS_judiciaire~2 174
999 WORDFREQ_4.26 174
999 WORDSALL_judiciaire~2 174
999 COSIND_0.02 174
999 COSGEN_0.02 174
101 ESRank1 174
999 WORDS_blessures~4 127
999 WORDFREQ_13.18 127
999 WORDSALL_pour~3_blessures~4 127
999 COSIND_-0.03 127
999 COSGEN_-0.03 127
102 ESRank2 127
202 ESForwSacLong+2+6 127
999 WORDS_involontaires~5 222
999 WORDFREQ_1.01 222
999 WORDSALL_Une~0_information~1_involontaires~5 222
999 COSIND_-0.02 222
999 COSGEN_-0.02 222
103 ESRank3 222
201 ESForwSacShort 222
999 WORDS_commises~6 220
999 WORDFREQ_2.57 220
999 WORDSALL_judiciaire~2_commises~6 220
999 COSIND_0.02 220
999 COSGEN_0.02 220
104 ESRank4 220
201 ESForwSacShort 220
999 WORDS_négligences~8 201
999 WORDFREQ_0.88 201
999 WORDSALL_judiciaire~2_négligences~8 201
999 COSIND_-0.00 201
999 COSGEN_-0.00 201
105 ESRank5 201
202 ESForwSacLong+2+5 201
999 WORDS_chute~14 198
999 WORDFREQ_35.27 198
999 WORDSALL_commises~6_chute~14 198
999 COSIND_-0.04 198
999 COSGEN_-0.04 198
106 ESRank6 198
202 ESForwSacLong+6+27 198
999 WORDS_négligences~8 130
999 WORDFREQ_0.88 130
999 WORDSALL_par~7_négligences~8 130
999 COSIND_-0.00 130
999 COSGEN_-0.00 130
107 ESRank7 130
206 ESBackSacRegrLong-6-27 130
999 WORDS_ouverte~11 188
999 WORDFREQ_27.97 188
999 WORDSALL_été~10_ouverte~11 188
999 COSIND_N/A 188
108 ESRank8 188
202 ESForwSacLong+3+9 188
999 WORDS_après~12 168
999 WORDFREQ_821.55 168
999 WORDSALL_ouverte~11_après~12 168
999 COSIND_-0.01 168
999 COSGEN_-0.01 168
109 ESRank9 168
201 ESForwSacShort 168
999 WORDS_wagon~22 197
999 WORDFREQ_18.11 197
999 WORDSALL_la~13_chute~14_wagon~22 197
999 COSIND_-0.00 197
999 COSGEN_-0.00 197
110 ESRank10 197
202 ESForwSacLong+10+45 197
999 WORDS_équipé~24 162
999 WORDFREQ_0.61 162
999 WORDSALL_chute~14_équipé~24 162
999 COSIND_-0.03 162
999 COSGEN_-0.03 162
111 ESRank11 162
202 ESForwSacLong+2+5 162
999 WORDS_wagon~22 155
999 WORDFREQ_18.11 155
999 WORDSALL_d'un~21_wagon~22 155
999 COSIND_-0.00 155
999 COSGEN_-0.00 155
112 ESRank12 155
206 ESBackSacRegrLong-2-5 155
999 WORDS_sécurité~28 184
999 WORDFREQ_38.92 184
999 WORDSALL_tombé~20_wagon~22_sécurité~28 184
999 COSIND_0.04 184
999 COSGEN_0.04 184
113 ESRank13 184
202 ESForwSacLong+6+31 184
999 WORDS_fermetures~26 175
999 WORDFREQ_0.88 175
999 WORDSALL_fermetures~26 175
999 COSIND_0.05 175
999 COSGEN_0.05 175
114 ESRank14 175
206 ESBackSacRegrLong-2-4 175
200 ESRankN 175
199 ESRankNMinus1 184
198 ESRankNMinus2 155
197 ESRankNMinus3 162
196 ESRankNMinus4 197
195 ESRankNMinus5 168
194 ESRankNMinus6 188
193 ESRankNMinus7 130
192 ESRankNMinus8 198
191 ESRankNMinus9 201
190 ESRankNMinus10 220
