999 WORDS_couple~1 171
999 WORDFREQ_47.23 171
999 WORDSALL_Un~0_couple~1 171
999 COSIND_0.02 171
999 COSGEN_0.02 171
101 ESRank1 171
999 WORDS_quinquagénaires~3 358
999 WORDFREQ_0.27 358
999 WORDSALL_de~2_quinquagénaires~3 358
999 COSIND_-0.05 358
999 COSGEN_-0.05 358
102 ESRank2 358
202 ESForwSacLong+2+4 358
999 WORDS_mosellans~4 197
999 WORDFREQ_N/A 197
999 WORDSALL_quinquagénaires~3_mosellans~4 197
999 COSIND_N/A 197
103 ESRank3 197
201 ESForwSacShort 197
999 WORDS_détention~11 159
999 WORDFREQ_2.84 159
999 WORDSALL_pour~10_détention~11 159
999 COSIND_0.20 159
999 COSGEN_0.20 159
104 ESRank4 159
202 ESForwSacLong+7+40 159
999 WORDS_détention~11 160
999 WORDFREQ_2.84 160
999 WORDSALL_pour~10_détention~11 160
999 COSIND_0.20 160
999 COSGEN_0.20 160
105 ESRank5 160
203 ESBackSacRefixation 160
999 WORDS_stupéfiants~16 163
999 WORDFREQ_0.47 163
999 WORDSALL_personnel~14_stupéfiants~16 163
999 COSIND_0.21 163
999 COSGEN_0.21 163
106 ESRank6 163
202 ESForwSacLong+5+23 163
999 WORDS_stupéfiants~16 157
999 WORDFREQ_0.47 157
999 WORDSALL_de~15_stupéfiants~16 157
999 COSIND_0.21 157
999 COSGEN_0.21 157
107 ESRank7 157
203 ESBackSacRefixation 157
999 WORDS_stupéfiants~16 145
999 WORDFREQ_0.47 145
999 WORDSALL_stupéfiants~16 145
999 COSIND_0.21 145
999 COSGEN_0.21 145
108 ESRank8 145
203 ESBackSacRefixation 145
999 WORDS_pots~20 197
999 WORDFREQ_15.74 197
999 WORDSALL_leurs~19_pots~20 197
999 COSIND_0.23 197
999 COSGEN_0.23 197
109 ESRank9 197
202 ESForwSacLong+4+22 197
999 WORDS_cannabis~22 260
999 WORDFREQ_0.14 260
999 WORDSALL_de~21_cannabis~22 260
999 COSIND_N/A 260
110 ESRank10 260
202 ESForwSacLong+2+4 260
999 WORDS_cannabis~22 118
999 WORDFREQ_0.14 118
999 WORDSALL_cannabis~22 118
999 COSIND_N/A 118
111 ESRank11 118
203 ESBackSacRefixation 118
999 WORDS_fenêtre~28 140
999 WORDFREQ_199.39 140
999 WORDSALL_de~26_fenêtre~28 140
999 COSIND_-0.05 140
999 COSGEN_-0.05 140
112 ESRank12 140
202 ESForwSacLong+6+23 140
200 ESRankN 140
199 ESRankNMinus1 118
198 ESRankNMinus2 260
197 ESRankNMinus3 197
196 ESRankNMinus4 145
195 ESRankNMinus5 157
194 ESRankNMinus6 163
193 ESRankNMinus7 160
192 ESRankNMinus8 159
191 ESRankNMinus9 197
190 ESRankNMinus10 358
