999 WORDS_Pas-de-Calais~2 290
999 WORDFREQ_N/A 290
999 WORDSALL_le~1_Pas-de-Calais~2 290
999 COSIND_N/A 290
101 ESRank1 290
999 WORDS_Pas-de-Calais~2 179
999 WORDFREQ_N/A 179
999 WORDSALL_Pas-de-Calais~2 179
999 COSIND_N/A 179
102 ESRank2 179
203 ESBackSacRefixation 179
999 WORDS_chasseurs~4 237
999 WORDFREQ_17.43 237
999 WORDSALL_les~3_chasseurs~4 237
999 COSIND_0.86 237
999 COSGEN_0.86 237
103 ESRank3 237
202 ESForwSacLong+2+5 237
999 WORDS_réclament~5 185
999 WORDFREQ_2.5 185
999 WORDSALL_réclament~5 185
999 COSIND_0.01 185
999 COSGEN_0.01 185
104 ESRank4 185
201 ESForwSacShort 185
999 WORDS_réclament~5 100
999 WORDFREQ_2.5 100
999 WORDSALL_réclament~5 100
999 COSIND_0.01 100
999 COSGEN_0.01 100
105 ESRank5 100
203 ESBackSacRefixation 100
999 WORDS_droit~7 186
999 WORDFREQ_138.72 186
999 WORDSALL_le~6_droit~7 186
999 COSIND_0.06 186
999 COSGEN_0.06 186
106 ESRank6 186
202 ESForwSacLong+2+4 186
999 WORDS_continuer~9 178
999 WORDFREQ_43.51 178
999 WORDSALL_de~8_continuer~9 178
999 COSIND_0.09 178
999 COSGEN_0.09 178
107 ESRank7 178
202 ESForwSacLong+2+4 178
999 WORDS_à~10 156
999 WORDFREQ_19209.05 156
999 WORDSALL_à~10 156
999 COSIND_N/A 156
108 ESRank8 156
201 ESForwSacShort 156
999 WORDS_huttes~14 154
999 WORDFREQ_2.91 154
999 WORDSALL_dans~12_huttes~14 154
999 COSIND_0.37 154
999 COSGEN_0.37 154
109 ESRank9 154
202 ESForwSacLong+4+18 154
999 WORDS_huttes~14 172
999 WORDFREQ_2.91 172
999 WORDSALL_les~13_huttes~14 172
999 COSIND_0.37 172
999 COSGEN_0.37 172
110 ESRank10 172
203 ESBackSacRefixation 172
999 WORDS_huttes~14 157
999 WORDFREQ_2.91 157
999 WORDSALL_dans~12_huttes~14 157
999 COSIND_0.37 157
999 COSGEN_0.37 157
111 ESRank11 157
203 ESBackSacRefixation 157
999 WORDS_huttes~14 171
999 WORDFREQ_2.91 171
999 WORDSALL_les~13_huttes~14 171
999 COSIND_0.37 171
999 COSGEN_0.37 171
112 ESRank12 171
203 ESBackSacRefixation 171
999 WORDS_France~16 248
999 WORDFREQ_N/A 248
999 WORDSALL_La~15_France~16 248
999 COSIND_N/A 248
113 ESRank13 248
202 ESForwSacLong+2+4 248
999 WORDS_huttes~14 234
999 WORDFREQ_2.91 234
999 WORDSALL_dans~12_huttes~14 234
999 COSIND_0.37 234
999 COSGEN_0.37 234
114 ESRank14 234
206 ESBackSacRegrLong-2-4 234
999 WORDS_France~16 141
999 WORDFREQ_N/A 141
999 WORDSALL_La~15_France~16 141
999 COSIND_N/A 141
115 ESRank15 141
202 ESForwSacLong+2+4 141
999 WORDS_risque~17 167
999 WORDFREQ_25.34 167
999 WORDSALL_risque~17 167
999 COSIND_-0.01 167
999 COSGEN_-0.01 167
116 ESRank16 167
201 ESForwSacShort 167
999 WORDS_pourtant~18 104
999 WORDFREQ_375.68 104
999 WORDSALL_pourtant~18 104
999 COSIND_N/A 104
117 ESRank17 104
201 ESForwSacShort 104
999 WORDS_lourde~20 175
999 WORDFREQ_56.62 175
999 WORDSALL_une~19_lourde~20 175
999 COSIND_-0.03 175
999 COSGEN_-0.03 175
118 ESRank18 175
202 ESForwSacLong+2+5 175
999 WORDS_amende~21 190
999 WORDFREQ_3.65 190
999 WORDSALL_lourde~20_amende~21 190
999 COSIND_-0.02 190
999 COSGEN_-0.02 190
119 ESRank19 190
201 ESForwSacShort 190
999 WORDS_contrevient~24 178
999 WORDFREQ_0.2 178
999 WORDSALL_si~22_contrevient~24 178
999 COSIND_0.23 178
999 COSGEN_0.23 178
120 ESRank20 178
202 ESForwSacLong+3+9 178
999 WORDS_contrevient~24 329
999 WORDFREQ_0.2 329
999 WORDSALL_elle~23_contrevient~24 329
999 COSIND_0.23 329
999 COSGEN_0.23 329
203 ESBackSacRefixation 329
999 WORDS_contrevient~24 215
999 WORDFREQ_0.2 215
999 WORDSALL_contrevient~24 215
999 COSIND_0.23 215
999 COSGEN_0.23 215
203 ESBackSacRefixation 215
999 WORDS_directives~26 353
999 WORDFREQ_4.46 353
999 WORDSALL_directives~26 353
999 COSIND_-0.09 353
999 COSGEN_-0.09 353
202 ESForwSacLong+2+5 353
999 WORDS_directives~26 195
999 WORDFREQ_4.46 195
999 WORDSALL_directives~26 195
999 COSIND_-0.09 195
999 COSGEN_-0.09 195
203 ESBackSacRefixation 195
999 WORDS_européennes~27 267
999 WORDFREQ_1.42 267
999 WORDSALL_européennes~27 267
999 COSIND_-0.01 267
999 COSGEN_-0.01 267
201 ESForwSacShort 267
999 WORDS_protègent~29 316
999 WORDFREQ_2.43 316
999 WORDSALL_qui~28_protègent~29 316
999 COSIND_0.25 316
999 COSGEN_0.25 316
202 ESForwSacLong+2+5 316
999 WORDS_protègent~29 276
999 WORDFREQ_2.43 276
999 WORDSALL_protègent~29 276
999 COSIND_0.25 276
999 COSGEN_0.25 276
203 ESBackSacRefixation 276
999 WORDS_oiseaux~31 198
999 WORDFREQ_65.07 198
999 WORDSALL_oiseaux~31 198
999 COSIND_0.83 198
999 COSGEN_0.83 198
202 ESForwSacLong+2+5 198
999 WORDS_oiseaux~31 131
999 WORDFREQ_65.07 131
999 WORDSALL_oiseaux~31 131
999 COSIND_0.83 131
999 COSGEN_0.83 131
203 ESBackSacRefixation 131
999 WORDS_migrateurs~32 251
999 WORDFREQ_1.08 251
999 WORDSALL_migrateurs~32 251
999 COSIND_0.88 251
999 COSGEN_0.88 251
201 ESForwSacShort 251
999 WORDS_protègent~29 154
999 WORDFREQ_2.43 154
999 WORDSALL_protègent~29 154
999 COSIND_0.25 154
999 COSGEN_0.25 154
206 ESBackSacRegrLong-3-13 154
999 WORDS_protègent~29 108
999 WORDFREQ_2.43 108
999 WORDSALL_protègent~29 108
999 COSIND_0.25 108
999 COSGEN_0.25 108
203 ESBackSacRefixation 108
200 ESRankN 108
199 ESRankNMinus1 154
198 ESRankNMinus2 251
197 ESRankNMinus3 131
196 ESRankNMinus4 198
195 ESRankNMinus5 276
194 ESRankNMinus6 316
193 ESRankNMinus7 267
192 ESRankNMinus8 195
191 ESRankNMinus9 353
190 ESRankNMinus10 215
