# 110 Fixation 1 (264.4,281): Mme~0
# 186 Fixation 2 (307.6,281): Mme~0 aubry~1
# 173 Fixation 3 (408.9,283.3): a~2 annoncé~3
# 123 Fixation 4 (467.2,286.8): annoncé~3
# 125 Fixation 5 (565.4,288.3): que~4 l'objectif~5
# 123 Fixation 6 (640.9,285.6): l'objectif~5
# 116 Fixation 7 (729,294.7): national~6
# 142 Fixation 8 (300.1,347): des~7 dépenses~8
# 101 Fixation 9 (345,345.6): dépenses~8
# 236 Fixation 10 (448.5,347.7): d'assurance~9
# 118 Fixation 11 (587.7,351.9): maladie~10
# 160 Fixation 12 (652.8,352.7): maladie~10 voté~11
# 144 Fixation 13 (702.9,352.5): voté~11
# 246 Fixation 14 (328.6,395.2): parlement~14
# 150 Fixation 15 (454,404): sera~15
# 168 Fixation 16 (514.1,399.3): dépassé~16
# 300 Fixation 17 (635.7,403.3): d'environ~17
%%
# Mme~0 Fixations= "2/"
# aubry~1 Fixations= "2/"
# a~2 Fixations= "3/"
# annoncé~3 Fixations= "4/"
# que~4 Fixations= "5/"
# l'objectif~5 Fixations= "6/"
# national~6 Fixations= "7/"
# des~7 Fixations= "8/"
# dépenses~8 Fixations= "9/"
# d'assurance~9 Fixations= "10/"
# maladie~10 Fixations= "12/"
# voté~11 Fixations= "13/"
# par~12 Fixations= ""
# le~13 Fixations= ""
# parlement~14 Fixations= "14/"
# sera~15 Fixations= "15/"
# dépassé~16 Fixations= "16/"
# d'environ~17 Fixations= "17/"
# 2~18 Fixations= ""
# milliards~19 Fixations= ""
# d'euros~20 Fixations= ""
%%
#  MME[2] AUBRY[2] A[3] ANNONCé[4] QUE[5] L'OBJECTIF[6] NATIONAL[7] DES[8] DéPENSES[9] D'ASSURANCE[10] MALADIE[12] VOTé[13] par le PARLEMENT[14] SERA[15] DéPASSé[16] D'ENVIRON[17] 2 milliards d'euros
# s02 allocation_familiale-m2 PercentageOfWordsProcessed= 0.761904761904762 PercentageOfWordsReallyProcessed= 0.888888888888889
