# 142 Fixation 1 (325.7,298.9): Le~0 Yen~1
# 185 Fixation 2 (391,300.1): faisait~2
# 161 Fixation 3 (488.9,293.9): toujours~3 preuve~4
# 160 Fixation 4 (638.8,297.3): preuve~4
# 115 Fixation 5 (689.4,289.4): de~5 fermeté~6
# 172 Fixation 6 (335.3,327.1): face~7 billet~9
# 146 Fixation 7 (398.5,336.4): billet~9
# 194 Fixation 8 (482.7,344.3): vert~10
# 198 Fixation 9 (547.8,354): De~11 même~12
%%
# Le~0 Fixations= "1/"
# Yen~1 Fixations= "1/"
# faisait~2 Fixations= "2/"
# toujours~3 Fixations= "3/"
# preuve~4 Fixations= "4/"
# de~5 Fixations= "5/"
# fermeté~6 Fixations= "5/"
# face~7 Fixations= "6/"
# au~8 Fixations= ""
# billet~9 Fixations= "7/"
# vert~10 Fixations= "8/"
# De~11 Fixations= "9/"
# même~12 Fixations= "9/"
# l'Euro~13 Fixations= ""
# a~14 Fixations= ""
# encore~15 Fixations= ""
# gagné~16 Fixations= ""
# du~17 Fixations= ""
# terrain~18 Fixations= ""
# face~19 Fixations= ""
# au~20 Fixations= ""
# billet~21 Fixations= ""
# vert~22 Fixations= ""
# grâce~23 Fixations= ""
# aux~24 Fixations= ""
# perspectives~25 Fixations= ""
# encourageantes~26 Fixations= ""
# de~27 Fixations= ""
# reprise~28 Fixations= ""
# économique~29 Fixations= ""
%%
#  LE[1] YEN[1] FAISAIT[2] TOUJOURS[3] PREUVE[4] DE[5] FERMETé[5] FACE[6] au BILLET[7] VERT[8] DE[9] MêME[9] l'Euro a encore gagné du terrain face au billet vert grâce aux perspectives encourageantes de reprise économique
# s08 faiblesse_dollar-f2 PercentageOfWordsProcessed= 0.4 PercentageOfWordsReallyProcessed= 0.923076923076923
