# 154 Fixation 1 (324.6,282.6): Après~0 avoir~1
# 162 Fixation 2 (465.1,266): rappelé~2
# 208 Fixation 3 (602.2,267.6): les~4 gouvernements~5
# 183 Fixation 4 (295.8,344.5): successifs~6
# 166 Fixation 5 (471.5,339.2): le~8 corps~9
# 159 Fixation 6 (590.5,330.7): enseignant~10
# 155 Fixation 7 (697,340.1): ont~11
# 151 Fixation 8 (311.9,406.8): répondre~13
# 154 Fixation 9 (441.7,418.3): au~14 défi~15
# 126 Fixation 10 (548.2,406.6): démographique~16
# 197 Fixation 11 (712.6,397.8): le~17 ministre~18
# 137 Fixation 12 (331,462): rappelé~20
%%
# Après~0 Fixations= "1/"
# avoir~1 Fixations= "1/"
# rappelé~2 Fixations= "2/"
# que~3 Fixations= ""
# les~4 Fixations= "3/"
# gouvernements~5 Fixations= "3/"
# successifs~6 Fixations= "4/"
# et~7 Fixations= ""
# le~8 Fixations= "5/"
# corps~9 Fixations= "5/"
# enseignant~10 Fixations= "6/"
# ont~11 Fixations= "7/"
# su~12 Fixations= ""
# répondre~13 Fixations= "8/"
# au~14 Fixations= "9/"
# défi~15 Fixations= "9/"
# démographique~16 Fixations= "10/"
# le~17 Fixations= "11/"
# ministre~18 Fixations= "11/"
# a~19 Fixations= ""
# rappelé~20 Fixations= "12/"
# que~21 Fixations= ""
# l'effort~22 Fixations= ""
# devait~23 Fixations= ""
# à~24 Fixations= ""
# présent~25 Fixations= ""
# garantir~26 Fixations= ""
# la~27 Fixations= ""
# qualité~28 Fixations= ""
# pour~29 Fixations= ""
# tous~30 Fixations= ""
%%
#  APRèS[1] AVOIR[1] RAPPELé[2] que LES[3] GOUVERNEMENTS[3] SUCCESSIFS[4] et LE[5] CORPS[5] ENSEIGNANT[6] ONT[7] su RéPONDRE[8] AU[9] DéFI[9] DéMOGRAPHIQUE[10] LE[11] MINISTRE[11] a RAPPELé[12] que l'effort devait à présent garantir la qualité pour tous
# s19 reforme_enseignement-m2 PercentageOfWordsProcessed= 0.548387096774194 PercentageOfWordsReallyProcessed= 0.80952380952381
