# 94 Fixation 1 (265.9,288.9): Depuis~0
# 213 Fixation 2 (380.2,293.2): le~1 limogeage~2
# 200 Fixation 3 (564.7,289.8): surprise~3
# 173 Fixation 4 (511.5,287.6): limogeage~2 surprise~3
# 90 Fixation 5 (432.2,289.7): limogeage~2
# 278 Fixation 6 (627.5,292.3): surprise~3 précédent~5
# 401 Fixation 7 (296.9,350.8): chef~6
# 216 Fixation 8 (341.7,403.5): stabilité~14
# 205 Fixation 9 (534.2,383.1): président~16
# 201 Fixation 10 (487.4,410): le~15 président~16
# 169 Fixation 11 (606.3,424.5): président~16 tente~17
# 267 Fixation 12 (362.2,475.1): succès~19 maîtriser~21
# 97 Fixation 13 (296.9,483.5): succès~19
# 245 Fixation 14 (538.7,477.9): sa~22 succession~23
# 253 Fixation 15 (333,533): prétendants~25
# 177 Fixation 16 (446.7,539.9): sont~26
# 200 Fixation 17 (297.2,537.8): prétendants~25
%%
# Depuis~0 Fixations= "1/"
# le~1 Fixations= "2/"
# limogeage~2 Fixations= "5/"
# surprise~3 Fixations= "6/"
# du~4 Fixations= ""
# précédent~5 Fixations= "6/"
# chef~6 Fixations= "7/"
# du~7 Fixations= ""
# gouvernement~8 Fixations= ""
# russe~9 Fixations= ""
# après~10 Fixations= ""
# cinq~11 Fixations= ""
# ans~12 Fixations= ""
# de~13 Fixations= ""
# stabilité~14 Fixations= "8/"
# le~15 Fixations= "10/"
# président~16 Fixations= "11/"
# tente~17 Fixations= "11/"
# sans~18 Fixations= ""
# succès~19 Fixations= "13/"
# de~20 Fixations= ""
# maîtriser~21 Fixations= "12/"
# sa~22 Fixations= "14/"
# succession~23 Fixations= "14/"
# Les~24 Fixations= ""
# prétendants~25 Fixations= "17/"
# sont~26 Fixations= "16/"
# nombreux~27 Fixations= ""
%%
#  DEPUIS[1] LE[2] LIMOGEAGE[5] SURPRISE[6] du PRéCéDENT[6] CHEF[7] du gouvernement russe après cinq ans de STABILITé[8] LE[10] PRéSIDENT[11] TENTE[11] sans SUCCèS[13] de MAîTRISER[12] SA[14] SUCCESSION[14] Les PRéTENDANTS[17] SONT[16] nombreux
# s18 chef_russie-f2 PercentageOfWordsProcessed= 0.571428571428571 PercentageOfWordsReallyProcessed= 0.592592592592593
