999 WORDS_Zinedine~0 260
999 WORDFREQ_N/A 260
999 WORDSALL_Zinedine~0 260
999 COSIND_N/A 260
101 ESRank1 260
999 WORDS_Zinedine~0 101
999 WORDFREQ_N/A 101
999 WORDSALL_Zinedine~0 101
999 COSIND_N/A 101
102 ESRank2 101
203 ESBackSacRefixation 101
999 WORDS_Zidane~1 104
999 WORDFREQ_N/A 104
999 WORDSALL_Zidane~1 104
999 COSIND_N/A 104
103 ESRank3 104
201 ESForwSacShort 104
999 WORDS_grand~2 279
999 WORDFREQ_537.97 279
999 WORDSALL_grand~2 279
999 COSIND_-0.01 279
999 COSGEN_-0.01 279
104 ESRank4 279
201 ESForwSacShort 279
999 WORDS_artisan~3 275
999 WORDFREQ_5 275
999 WORDSALL_grand~2_artisan~3 275
999 COSIND_-0.08 275
999 COSGEN_-0.08 275
105 ESRank5 275
201 ESForwSacShort 275
999 WORDS_artisan~3 90
999 WORDFREQ_5 90
999 WORDSALL_artisan~3 90
999 COSIND_-0.08 90
999 COSGEN_-0.08 90
106 ESRank6 90
203 ESBackSacRefixation 90
999 WORDS_victoire~6 172
999 WORDFREQ_57.23 172
999 WORDSALL_victoire~6 172
999 COSIND_-0.09 172
999 COSGEN_-0.09 172
107 ESRank7 172
202 ESForwSacLong+3+7 172
999 WORDS_victoire~6 87
999 WORDFREQ_57.23 87
999 WORDSALL_victoire~6 87
999 COSIND_-0.09 87
999 COSGEN_-0.09 87
108 ESRank8 87
203 ESBackSacRefixation 87
999 WORDS_France~9 189
999 WORDFREQ_N/A 189
999 WORDSALL_de~7_France~9 189
999 COSIND_N/A 189
109 ESRank9 189
202 ESForwSacLong+3+7 189
999 WORDS_finale~11 295
999 WORDFREQ_2.5 295
999 WORDSALL_en~10_finale~11 295
999 COSIND_-0.01 295
999 COSGEN_-0.01 295
110 ESRank10 295
202 ESForwSacLong+2+4 295
999 WORDS_coupe~14 221
999 WORDFREQ_33.58 221
999 WORDSALL_coupe~14 221
999 COSIND_-0.07 221
999 COSGEN_-0.07 221
111 ESRank11 221
202 ESForwSacLong+3+7 221
999 WORDS_monde~16 135
999 WORDFREQ_732.43 135
999 WORDSALL_de~7_France~9_monde~16 135
999 COSIND_-0.04 135
999 COSGEN_-0.04 135
112 ESRank12 135
202 ESForwSacLong+2+4 135
999 WORDS_Brésil~19 142
999 WORDFREQ_0.07 142
999 WORDSALL_en~10_finale~11_Brésil~19 142
999 COSIND_-0.01 142
999 COSGEN_-0.01 142
113 ESRank13 142
202 ESForwSacLong+3+11 142
999 WORDS_été~21 160
999 WORDFREQ_40.2 160
999 WORDSALL_finale~11_a~20_été~21 160
999 COSIND_0.01 160
999 COSGEN_0.01 160
114 ESRank14 160
202 ESForwSacLong+2+3 160
200 ESRankN 160
199 ESRankNMinus1 142
198 ESRankNMinus2 135
197 ESRankNMinus3 221
196 ESRankNMinus4 295
195 ESRankNMinus5 189
194 ESRankNMinus6 87
193 ESRankNMinus7 172
192 ESRankNMinus8 90
191 ESRankNMinus9 275
190 ESRankNMinus10 279
