# 97 Fixation 1 (308.7,289): Aucune~0
# 135 Fixation 2 (384.7,289.6): preuve~1
# 149 Fixation 3 (484.1,285.6): scientifique~2
# 130 Fixation 4 (631,280.2): ne~3 permet~4
# 155 Fixation 5 (340.6,328): Aucune~0 preuve~1 aujourd'hui~5
# 148 Fixation 6 (468.7,332.9): scientifique~2 démontrer~7
# 195 Fixation 7 (634.7,333.1): ne~3 permet~4 l'utilisation~9
# 225 Fixation 8 (365.5,372.2): aujourd'hui~5 téléphones~11
# 175 Fixation 9 (488.7,395.2): démontrer~7 mobiles~12
# 172 Fixation 10 (580.2,405.9): démontrer~7 présente~13
# 159 Fixation 11 (698.6,410.9): l'utilisation~9 risque~15
# 102 Fixation 12 (400.9,420): téléphones~11
# 121 Fixation 13 (342.4,429.3): téléphones~11
# 157 Fixation 14 (487.9,444.4): mobiles~12
# 227 Fixation 15 (609.9,463.3): présente~13 communiqué~21
# 201 Fixation 16 (560.2,513): Le~20 communiqué~21 place~26 à~27
# 85 Fixation 17 (444.5,497): pour~17 santé~19
%%
# Aucune~0 Fixations= "5/"
# preuve~1 Fixations= "5/"
# scientifique~2 Fixations= "6/"
# ne~3 Fixations= "7/"
# permet~4 Fixations= "7/"
# aujourd'hui~5 Fixations= "8/"
# de~6 Fixations= ""
# démontrer~7 Fixations= "10/"
# que~8 Fixations= ""
# l'utilisation~9 Fixations= "11/"
# des~10 Fixations= ""
# téléphones~11 Fixations= "13/"
# mobiles~12 Fixations= "14/"
# présente~13 Fixations= "15/"
# un~14 Fixations= ""
# risque~15 Fixations= "11/"
# notable~16 Fixations= ""
# pour~17 Fixations= "17/"
# la~18 Fixations= ""
# santé~19 Fixations= "17/"
# Le~20 Fixations= "16/"
# communiqué~21 Fixations= "16/"
# du~22 Fixations= ""
# ministère~23 Fixations= ""
# ne~24 Fixations= ""
# laisse~25 Fixations= ""
# place~26 Fixations= "16/"
# à~27 Fixations= "16/"
# aucun~28 Fixations= ""
# doute~29 Fixations= ""
%%
#  AUCUNE[5] PREUVE[5] SCIENTIFIQUE[6] NE[7] PERMET[7] AUJOURD'HUI[8] de DéMONTRER[10] que L'UTILISATION[11] des TéLéPHONES[13] MOBILES[14] PRéSENTE[15] un RISQUE[11] notable POUR[17] la SANTé[17] LE[16] COMMUNIQUé[16] du ministère ne laisse PLACE[16] à[16] aucun doute
# s08 tribunal_international-a1 PercentageOfWordsProcessed= 0.6 PercentageOfWordsReallyProcessed= 0.642857142857143
