999 WORDS_L'état~0 173
999 WORDFREQ_192.03 173
999 WORDSALL_L'état~0 173
999 COSIND_-0.04 173
999 COSGEN_-0.04 173
101 ESRank1 173
999 WORDS_L'état~0 357
999 WORDFREQ_192.03 357
999 WORDSALL_L'état~0 357
999 COSIND_-0.04 357
999 COSGEN_-0.04 357
102 ESRank2 357
203 ESBackSacRefixation 357
999 WORDS_l'unique~2 216
999 WORDFREQ_66.76 216
999 WORDSALL_de~1_l'unique~2 216
999 COSIND_-0.04 216
999 COSGEN_-0.04 216
103 ESRank3 216
202 ESForwSacLong+2+4 216
999 WORDS_l'unique~2 451
999 WORDFREQ_66.76 451
999 WORDSALL_L'état~0_l'unique~2 451
999 COSIND_-0.04 451
999 COSGEN_-0.04 451
104 ESRank4 451
203 ESBackSacRefixation 451
999 WORDS_route~3 210
999 WORDFREQ_251.35 210
999 WORDSALL_l'unique~2_route~3 210
999 COSIND_-0.03 210
999 COSGEN_-0.03 210
105 ESRank5 210
201 ESForwSacShort 210
999 WORDS_route~3 178
999 WORDFREQ_251.35 178
999 WORDSALL_route~3 178
999 COSIND_-0.03 178
999 COSGEN_-0.03 178
106 ESRank6 178
203 ESBackSacRefixation 178
999 WORDS_peut~5 247
999 WORDFREQ_508.99 247
999 WORDSALL_ne~4_peut~5 247
999 COSIND_-0.01 247
999 COSGEN_-0.01 247
107 ESRank7 247
202 ESForwSacLong+2+4 247
999 WORDS_peut~5 169
999 WORDFREQ_508.99 169
999 WORDSALL_route~3_peut~5 169
999 COSIND_-0.01 169
999 COSGEN_-0.01 169
108 ESRank8 169
203 ESBackSacRefixation 169
999 WORDS_supporter~6 249
999 WORDFREQ_33.45 249
999 WORDSALL_peut~5_supporter~6 249
999 COSIND_0.13 249
999 COSGEN_0.13 249
109 ESRank9 249
201 ESForwSacShort 249
999 WORDS_afflux~8 240
999 WORDFREQ_2.3 240
999 WORDSALL_un~7_afflux~8 240
999 COSIND_0.28 240
999 COSGEN_0.28 240
110 ESRank10 240
202 ESForwSacLong+2+4 240
999 WORDS_afflux~8 287
999 WORDFREQ_2.3 287
999 WORDSALL_un~7_afflux~8 287
999 COSIND_0.28 287
999 COSGEN_0.28 287
111 ESRank11 287
203 ESBackSacRefixation 287
999 WORDS_simultané~9 179
999 WORDFREQ_0.61 179
999 WORDSALL_simultané~9 179
999 COSIND_0.01 179
999 COSGEN_0.01 179
112 ESRank12 179
201 ESForwSacShort 179
999 WORDS_simultané~9 165
999 WORDFREQ_0.61 165
999 WORDSALL_simultané~9 165
999 COSIND_0.01 165
999 COSGEN_0.01 165
113 ESRank13 165
203 ESBackSacRefixation 165
999 WORDS_réfugiés~13 237
999 WORDFREQ_8.18 237
999 WORDSALL_les~12_réfugiés~13 237
999 COSIND_0.06 237
999 COSGEN_0.06 237
114 ESRank14 237
202 ESForwSacLong+4+13 237
999 WORDS_réfugiés~13 255
999 WORDFREQ_8.18 255
999 WORDSALL_tous~11_réfugiés~13 255
999 COSIND_0.06 255
999 COSGEN_0.06 255
115 ESRank15 255
203 ESBackSacRefixation 255
999 WORDS_masse~21 274
999 WORDFREQ_60.54 274
999 WORDSALL_de~20_masse~21 274
999 COSIND_0.03 274
999 COSGEN_0.03 274
116 ESRank16 274
202 ESForwSacLong+8+48 274
999 WORDS_HCR~15 128
999 WORDFREQ_N/A 128
999 WORDSALL_Le~14_HCR~15 128
999 COSIND_N/A 128
117 ESRank17 128
206 ESBackSacRegrLong-6-41 128
200 ESRankN 128
199 ESRankNMinus1 274
198 ESRankNMinus2 255
197 ESRankNMinus3 237
196 ESRankNMinus4 165
195 ESRankNMinus5 179
194 ESRankNMinus6 287
193 ESRankNMinus7 240
192 ESRankNMinus8 249
191 ESRankNMinus9 169
190 ESRankNMinus10 247
