999 WORDS_souvient~2 153
999 WORDFREQ_15.68 153
999 WORDSALL_On~0_souvient~2 153
999 COSIND_-0.03 153
999 COSGEN_-0.03 153
101 ESRank1 153
999 WORDS_fameux~4 226
999 WORDFREQ_33.31 226
999 WORDSALL_fameux~4 226
999 COSIND_0.00 226
999 COSGEN_0.00 226
102 ESRank2 226
202 ESForwSacLong+2+4 226
999 WORDS_Warhol~11 222
999 WORDFREQ_N/A 222
999 WORDSALL_Andy~10_Warhol~11 222
999 COSIND_N/A 222
103 ESRank3 222
202 ESForwSacLong+7+33 222
999 WORDS_Andy~10 203
999 WORDFREQ_N/A 203
999 WORDSALL_par~9_Andy~10 203
999 COSIND_N/A 203
104 ESRank4 203
205 ESBackSacRegrShort 203
999 WORDS_pop-artiste~13 272
999 WORDFREQ_N/A 272
999 WORDSALL_Le~12_pop-artiste~13 272
999 COSIND_N/A 272
105 ESRank5 272
202 ESForwSacLong+3+11 272
200 ESRankN 272
199 ESRankNMinus1 203
198 ESRankNMinus2 222
197 ESRankNMinus3 226
196 ESRankNMinus4 153
