999 WORDS_l'aide~1 117
999 WORDFREQ_52.3 117
999 WORDSALL_l'aide~1 117
999 COSIND_0.07 117
999 COSGEN_0.07 117
101 ESRank1 117
999 WORDS_rabatteurs~4 174
999 WORDFREQ_0.95 174
999 WORDSALL_leurs~3_rabatteurs~4 174
999 COSIND_0.17 174
999 COSGEN_0.17 174
102 ESRank2 174
202 ESForwSacLong+3+10 174
999 WORDS_déguenillés~5 142
999 WORDFREQ_0.2 142
999 WORDSALL_déguenillés~5 142
999 COSIND_N/A 142
103 ESRank3 142
201 ESForwSacShort 142
999 WORDS_déguenillés~5 87
999 WORDFREQ_0.2 87
999 WORDSALL_déguenillés~5 87
999 COSIND_N/A 87
104 ESRank4 87
203 ESBackSacRefixation 87
999 WORDS_pesaient~7 150
999 WORDFREQ_3.99 150
999 WORDSALL_elles~6_pesaient~7 150
999 COSIND_0.06 150
999 COSGEN_0.06 150
105 ESRank5 150
202 ESForwSacLong+2+7 150
999 WORDS_l'offre~8 204
999 WORDFREQ_8.78 204
999 WORDSALL_l'offre~8 204
999 COSIND_-0.00 204
999 COSGEN_-0.00 204
106 ESRank6 204
201 ESForwSacShort 204
999 WORDS_demande~11 158
999 WORDFREQ_35.27 158
999 WORDSALL_demande~11 158
999 COSIND_-0.02 158
999 COSGEN_-0.02 158
107 ESRank7 158
202 ESForwSacLong+3+7 158
999 WORDS_savaient~13 228
999 WORDFREQ_30.2 228
999 WORDSALL_Elles~12_savaient~13 228
999 COSIND_0.01 228
999 COSGEN_0.01 228
108 ESRank8 228
202 ESForwSacLong+2+7 228
999 WORDS_précisément~14 209
999 WORDFREQ_34.8 209
999 WORDSALL_précisément~14 209
999 COSIND_0.03 209
999 COSGEN_0.03 209
109 ESRank9 209
201 ESForwSacShort 209
999 WORDS_mois~18 197
999 WORDFREQ_304.86 197
999 WORDSALL_jour~16_mois~18 197
999 COSIND_0.05 197
999 COSGEN_0.05 197
110 ESRank10 197
202 ESForwSacLong+4+14 197
999 WORDS_entreprises~20 155
999 WORDFREQ_9.26 155
999 WORDSALL_entreprises~20 155
999 COSIND_-0.03 155
999 COSGEN_-0.03 155
111 ESRank11 155
202 ESForwSacLong+2+5 155
999 WORDS_chercheraient~21 167
999 WORDFREQ_0.47 167
999 WORDSALL_chercheraient~21 167
999 COSIND_-0.01 167
999 COSGEN_-0.01 167
112 ESRank12 167
201 ESForwSacShort 167
999 WORDS_monnaie~24 156
999 WORDFREQ_25.34 156
999 WORDSALL_de~22_monnaie~24 156
999 COSIND_0.43 156
999 COSGEN_0.43 156
113 ESRank13 156
202 ESForwSacLong+3+7 156
999 WORDS_locale~25 193
999 WORDFREQ_6.69 193
999 WORDSALL_locale~25 193
999 COSIND_0.02 193
999 COSGEN_0.02 193
114 ESRank14 193
201 ESForwSacShort 193
200 ESRankN 193
199 ESRankNMinus1 156
198 ESRankNMinus2 167
197 ESRankNMinus3 155
196 ESRankNMinus4 197
195 ESRankNMinus5 209
194 ESRankNMinus6 228
193 ESRankNMinus7 158
192 ESRankNMinus8 204
191 ESRankNMinus9 150
190 ESRankNMinus10 87
