999 WORDS_moral~1 123
999 WORDFREQ_14.19 123
999 WORDSALL_Le~0_moral~1 123
999 COSIND_-0.03 123
999 COSGEN_-0.03 123
101 ESRank1 123
999 WORDS_boursiers~3 190
999 WORDFREQ_0.07 190
999 WORDSALL_des~2_boursiers~3 190
999 COSIND_-0.01 190
999 COSGEN_-0.01 190
102 ESRank2 190
202 ESForwSacLong+2+5 190
999 WORDS_désormais~9 199
999 WORDFREQ_88.45 199
999 WORDSALL_s'est~4_sérieusement~5_désormais~9 199
999 COSIND_0.03 199
999 COSGEN_0.03 199
103 ESRank3 199
202 ESForwSacLong+6+43 199
999 WORDS_dégradé~6 122
999 WORDFREQ_0.47 122
999 WORDSALL_Le~0_moral~1_dégradé~6 122
999 COSIND_0.12 122
999 COSGEN_0.12 122
104 ESRank4 122
206 ESBackSacRegrLong-3-13 122
999 WORDS_dégradé~6 138
999 WORDFREQ_0.47 138
999 WORDSALL_Le~0_moral~1_dégradé~6 138
999 COSIND_0.12 138
999 COSGEN_0.12 138
105 ESRank5 138
203 ESBackSacRefixation 138
999 WORDS_doutent~8 207
999 WORDFREQ_1.82 207
999 WORDSALL_ils~7_doutent~8 207
999 COSIND_-0.04 207
999 COSGEN_-0.04 207
106 ESRank6 207
202 ESForwSacLong+2+5 207
999 WORDS_désormais~9 166
999 WORDFREQ_88.45 166
999 WORDSALL_s'est~4_sérieusement~5_désormais~9 166
999 COSIND_0.03 166
999 COSGEN_0.03 166
107 ESRank7 166
201 ESForwSacShort 166
999 WORDS_nouvelles~12 250
999 WORDFREQ_41.69 250
999 WORDSALL_dégradé~6_nouvelles~12 250
999 COSIND_-0.01 250
999 COSGEN_-0.01 250
108 ESRank8 250
202 ESForwSacLong+3+9 250
999 WORDS_fluctuation~15 213
999 WORDFREQ_0.07 213
999 WORDSALL_doutent~8_fluctuation~15 213
999 COSIND_-0.07 213
999 COSGEN_-0.07 213
109 ESRank9 213
202 ESForwSacLong+3+11 213
999 WORDS_nouvelles~12 343
999 WORDFREQ_41.69 343
999 WORDSALL_nouvelles~12 343
999 COSIND_-0.01 343
999 COSGEN_-0.01 343
110 ESRank10 343
206 ESBackSacRegrLong-3-11 343
999 WORDS_devise~18 122
999 WORDFREQ_6.22 122
999 WORDSALL_nouvelles~12_devise~18 122
999 COSIND_-0.10 122
999 COSGEN_-0.10 122
111 ESRank11 122
202 ESForwSacLong+6+29 122
999 WORDS_fixées~20 126
999 WORDFREQ_2.97 126
999 WORDSALL_fluctuation~15_fixées~20 126
999 COSIND_-0.13 126
999 COSGEN_-0.13 126
112 ESRank12 126
202 ESForwSacLong+2+14 126
200 ESRankN 126
199 ESRankNMinus1 122
198 ESRankNMinus2 343
197 ESRankNMinus3 213
196 ESRankNMinus4 250
195 ESRankNMinus5 166
194 ESRankNMinus6 207
193 ESRankNMinus7 138
192 ESRankNMinus8 122
191 ESRankNMinus9 199
190 ESRankNMinus10 190
