# 139 Fixation 1 (294.2,263.8): L'équipe~0
# 122 Fixation 2 (381.2,269.7): cycliste~1
# 144 Fixation 3 (432.2,273.8): cycliste~1
# 297 Fixation 4 (519.6,277.7): a~2 retrouvé~3
%%
# L'équipe~0 Fixations= "1/"
# cycliste~1 Fixations= "3/"
# a~2 Fixations= "4/"
# retrouvé~3 Fixations= "4/"
# quelques~4 Fixations= ""
# couleurs~5 Fixations= ""
# sportives~6 Fixations= ""
# alors~7 Fixations= ""
# que~8 Fixations= ""
# les~9 Fixations= ""
# noms~10 Fixations= ""
# de~11 Fixations= ""
# ses~12 Fixations= ""
# représentants~13 Fixations= ""
# figuraient~14 Fixations= ""
# plus~15 Fixations= ""
# souvent~16 Fixations= ""
# à~17 Fixations= ""
# la~18 Fixations= ""
# rubrique~19 Fixations= ""
# des~20 Fixations= ""
# affaires~21 Fixations= ""
# au~22 Fixations= ""
# gré~23 Fixations= ""
# des~24 Fixations= ""
# avancées~25 Fixations= ""
# des~26 Fixations= ""
# enquêtes~27 Fixations= ""
# liées~28 Fixations= ""
# au~29 Fixations= ""
# dopage~30 Fixations= ""
%%
#  L'éQUIPE[1] CYCLISTE[3] A[4] RETROUVé[4] quelques couleurs sportives alors que les noms de ses représentants figuraient plus souvent à la rubrique des affaires au gré des avancées des enquêtes liées au dopage
# s01 course_voiliers-m2 PercentageOfWordsProcessed= 0.129032258064516 PercentageOfWordsReallyProcessed= 1
