999 WORDS_L'édition~0 104
999 WORDFREQ_10.61 104
999 WORDSALL_L'édition~0 104
999 COSIND_-0.04 104
999 COSGEN_-0.04 104
101 ESRank1 104
999 WORDS_L'édition~0 168
999 WORDFREQ_10.61 168
999 WORDSALL_L'édition~0 168
999 COSIND_-0.04 168
999 COSGEN_-0.04 168
102 ESRank2 168
203 ESBackSacRefixation 168
999 WORDS_d'art~1 116
999 WORDFREQ_81.49 116
999 WORDSALL_d'art~1 116
999 COSIND_0.07 116
999 COSGEN_0.07 116
103 ESRank3 116
201 ESForwSacShort 116
999 WORDS_L'édition~0 158
999 WORDFREQ_10.61 158
999 WORDSALL_L'édition~0 158
999 COSIND_-0.04 158
999 COSGEN_-0.04 158
104 ESRank4 158
205 ESBackSacRegrShort 158
999 WORDS_d'art~1 216
999 WORDFREQ_81.49 216
999 WORDSALL_d'art~1 216
999 COSIND_0.07 216
999 COSGEN_0.07 216
105 ESRank5 216
201 ESForwSacShort 216
999 WORDS_offre~2 221
999 WORDFREQ_29.8 221
999 WORDSALL_d'art~1_offre~2 221
999 COSIND_-0.00 221
999 COSGEN_-0.00 221
106 ESRank6 221
201 ESForwSacShort 221
999 WORDS_jeunes~4 251
999 WORDFREQ_30.14 251
999 WORDSALL_aux~3_jeunes~4 251
999 COSIND_0.03 251
999 COSGEN_0.03 251
107 ESRank7 251
202 ESForwSacLong+2+5 251
999 WORDS_éditeurs~5 234
999 WORDFREQ_3.45 234
999 WORDSALL_éditeurs~5 234
999 COSIND_0.01 234
999 COSGEN_0.01 234
108 ESRank8 234
201 ESForwSacShort 234
999 WORDS_ambitieux~6 149
999 WORDFREQ_3.72 149
999 WORDSALL_L'édition~0_ambitieux~6 149
999 COSIND_-0.06 149
999 COSGEN_-0.06 149
109 ESRank9 149
201 ESForwSacShort 149
999 WORDS_ambitieux~6 334
999 WORDFREQ_3.72 334
999 WORDSALL_L'édition~0_ambitieux~6 334
999 COSIND_-0.06 334
999 COSGEN_-0.06 334
110 ESRank10 334
203 ESBackSacRefixation 334
999 WORDS_grandes~8 201
999 WORDFREQ_126.49 201
999 WORDSALL_d'art~1_grandes~8 201
999 COSIND_0.03 201
999 COSGEN_0.03 201
111 ESRank11 201
202 ESForwSacLong+2+4 201
999 WORDS_satisfactions~9 275
999 WORDFREQ_4.12 275
999 WORDSALL_aux~3_jeunes~4_satisfactions~9 275
999 COSIND_-0.03 275
999 COSGEN_-0.03 275
112 ESRank12 275
201 ESForwSacShort 275
999 WORDS_satisfactions~9 84
999 WORDFREQ_4.12 84
999 WORDSALL_jeunes~4_satisfactions~9 84
999 COSIND_-0.03 84
999 COSGEN_-0.03 84
113 ESRank13 84
203 ESBackSacRefixation 84
999 WORDS_éditeurs~5 153
999 WORDFREQ_3.45 153
999 WORDSALL_éditeurs~5 153
999 COSIND_0.01 153
999 COSGEN_0.01 153
114 ESRank14 153
206 ESBackSacRegrLong-4-22 153
999 WORDS_peut~11 353
999 WORDFREQ_508.99 353
999 WORDSALL_ambitieux~6_peut~11 353
999 COSIND_-0.06 353
999 COSGEN_-0.06 353
115 ESRank15 353
202 ESForwSacLong+6+39 353
999 WORDS_sentiment~15 229
999 WORDFREQ_106.42 229
999 WORDSALL_le~14_sentiment~15 229
999 COSIND_0.01 229
999 COSGEN_0.01 229
116 ESRank16 229
202 ESForwSacLong+4+12 229
999 WORDS_avoir~13 168
999 WORDFREQ_177.3 168
999 WORDSALL_peut~11_avoir~13 168
999 COSIND_-0.01 168
999 COSGEN_-0.01 168
117 ESRank17 168
206 ESBackSacRegrLong-2-4 168
999 WORDS_sentiment~15 215
999 WORDFREQ_106.42 215
999 WORDSALL_le~14_sentiment~15 215
999 COSIND_0.01 215
999 COSGEN_0.01 215
118 ESRank18 215
202 ESForwSacLong+2+4 215
999 WORDS_faire~17 203
999 WORDFREQ_1555.14 203
999 WORDSALL_satisfactions~9_faire~17 203
999 COSIND_0.04 203
999 COSGEN_0.04 203
119 ESRank19 203
202 ESForwSacLong+2+4 203
999 WORDS_faire~17 112
999 WORDFREQ_1555.14 112
999 WORDSALL_de~16_faire~17 112
999 COSIND_0.04 112
999 COSGEN_0.04 112
120 ESRank20 112
203 ESBackSacRefixation 112
999 WORDS_faire~17 159
999 WORDFREQ_1555.14 159
999 WORDSALL_faire~17 159
999 COSIND_0.04 159
999 COSGEN_0.04 159
203 ESBackSacRefixation 159
999 WORDS_livres~19 185
999 WORDFREQ_134.73 185
999 WORDSALL_peut~11_livres~19 185
999 COSIND_-0.00 185
999 COSGEN_-0.00 185
202 ESForwSacLong+2+5 185
999 WORDS_A~21 172
999 WORDFREQ_58.65 172
999 WORDSALL_y~12_avoir~13_A~21 172
999 COSIND_N/A 172
202 ESForwSacLong+2+4 172
999 WORDS_livres~19 201
999 WORDFREQ_134.73 201
999 WORDSALL_peut~11_livres~19 201
999 COSIND_-0.00 201
999 COSGEN_-0.00 201
206 ESBackSacRegrLong-2-4 201
999 WORDS_A~21 191
999 WORDFREQ_58.65 191
999 WORDSALL_peut~11_avoir~13_A~21 191
999 COSIND_N/A 191
202 ESForwSacLong+2+4 191
999 WORDS_A~21 148
999 WORDFREQ_58.65 148
999 WORDSALL_y~12_avoir~13_A~21 148
999 COSIND_N/A 148
203 ESBackSacRefixation 148
999 WORDS_sentiment~15 153
999 WORDFREQ_106.42 153
999 WORDSALL_sentiment~15 153
999 COSIND_0.01 153
999 COSGEN_0.01 153
206 ESBackSacRegrLong-6-24 153
999 WORDS_producteur~26 216
999 WORDFREQ_3.45 216
999 WORDSALL_de~16_faire~17_producteur~26 216
999 COSIND_0.05 216
999 COSGEN_0.05 216
202 ESForwSacLong+11+40 216
999 WORDS_producteur~26 130
999 WORDFREQ_3.45 130
999 WORDSALL_faire~17_producteur~26 130
999 COSIND_0.05 130
999 COSGEN_0.05 130
203 ESBackSacRefixation 130
999 WORDS_A~21 168
999 WORDFREQ_58.65 168
999 WORDSALL_livres~19_A~21 168
999 COSIND_N/A 168
206 ESBackSacRegrLong-5-15 168
999 WORDS_Hollywood~28 111
999 WORDFREQ_N/A 111
999 WORDSALL_livres~19_Hollywood~28 111
999 COSIND_N/A 111
202 ESForwSacLong+7+29 111
999 WORDS_Z~23 155
999 WORDFREQ_5.07 155
999 WORDSALL_de~20_A~21_à~22_Z~23 155
999 COSIND_N/A 155
206 ESBackSacRegrLong-5-24 155
999 WORDS_d'art~1 129
999 WORDFREQ_81.49 129
999 WORDSALL_L'édition~0_d'art~1 129
999 COSIND_0.07 129
999 COSGEN_0.07 129
206 ESBackSacRegrLong-22-120 129
999 WORDS_d'art~1 93
999 WORDFREQ_81.49 93
999 WORDSALL_L'édition~0_d'art~1 93
999 COSIND_0.07 93
999 COSGEN_0.07 93
203 ESBackSacRefixation 93
999 WORDS_offre~2 184
999 WORDFREQ_29.8 184
999 WORDSALL_offre~2 184
999 COSIND_-0.00 184
999 COSGEN_-0.00 184
201 ESForwSacShort 184
999 WORDS_jeunes~4 158
999 WORDFREQ_30.14 158
999 WORDSALL_jeunes~4 158
999 COSIND_0.03 158
999 COSGEN_0.03 158
202 ESForwSacLong+2+5 158
999 WORDS_d'art~1 160
999 WORDFREQ_81.49 160
999 WORDSALL_L'édition~0_d'art~1 160
999 COSIND_0.07 160
999 COSGEN_0.07 160
206 ESBackSacRegrLong-3-11 160
200 ESRankN 160
199 ESRankNMinus1 158
198 ESRankNMinus2 184
197 ESRankNMinus3 93
196 ESRankNMinus4 129
195 ESRankNMinus5 155
194 ESRankNMinus6 111
193 ESRankNMinus7 168
192 ESRankNMinus8 130
191 ESRankNMinus9 216
190 ESRankNMinus10 153
