# 138 Fixation 1 (268.2,305.3): L'espace~0
# 139 Fixation 2 (412.9,293): dans~1 évoluent~3
# 189 Fixation 3 (541.4,276.9): lequel~2 évoluent~3
# 154 Fixation 4 (306.6,350.3): satellites~5
# 132 Fixation 5 (470.7,349.5): autour~6
# 186 Fixation 6 (591.9,352.2): notre~8 planète~9
# 164 Fixation 7 (337.9,410.4): jonché~11
# 189 Fixation 8 (609.3,415.2): débris~15
# 242 Fixation 9 (400.2,463.4): qui~19 inquiètent~20
# 121 Fixation 10 (496.9,462.8): inquiètent~20
# 164 Fixation 11 (669.1,458.8): professionnels~22
%%
# L'espace~0 Fixations= "1/"
# dans~1 Fixations= "2/"
# lequel~2 Fixations= "3/"
# évoluent~3 Fixations= "3/"
# les~4 Fixations= ""
# satellites~5 Fixations= "4/"
# autour~6 Fixations= "5/"
# de~7 Fixations= ""
# notre~8 Fixations= "6/"
# planète~9 Fixations= "6/"
# est~10 Fixations= ""
# jonché~11 Fixations= "7/"
# de~12 Fixations= ""
# milliers~13 Fixations= ""
# de~14 Fixations= ""
# débris~15 Fixations= "8/"
# de~16 Fixations= ""
# toutes~17 Fixations= ""
# sortes~18 Fixations= ""
# qui~19 Fixations= "9/"
# inquiètent~20 Fixations= "10/"
# les~21 Fixations= ""
# professionnels~22 Fixations= "11/"
%%
#  L'ESPACE[1] DANS[2] LEQUEL[3] éVOLUENT[3] les SATELLITES[4] AUTOUR[5] de NOTRE[6] PLANèTE[6] est JONCHé[7] de milliers de DéBRIS[8] de toutes sortes QUI[9] INQUIèTENT[10] les PROFESSIONNELS[11]
# s19 decollage_fusee-m2 PercentageOfWordsProcessed= 0.565217391304348 PercentageOfWordsReallyProcessed= 0.565217391304348
