# 153 Fixation 1 (289.9,262.2): Une~0 économie~1
# 199 Fixation 2 (442.6,265.5): New~2
# 186 Fixation 3 (605.2,268.9): est~4 économie~6
# 155 Fixation 4 (695.6,268.4): économie~6
# 182 Fixation 5 (270.3,353.5): laquelle~8
# 170 Fixation 6 (420.8,352): la~9 croissance~10
# 219 Fixation 7 (607.1,333.1): de~11 l'efficacité~12
# 167 Fixation 8 (688.6,344): l'efficacité~12
# 152 Fixation 9 (286.6,415): laquelle~14
# 172 Fixation 10 (416.6,418.5): nous~15 utilisons~16
# 199 Fixation 11 (620.6,413.3): les~17 ressources~18
# 131 Fixation 12 (331.9,477): productives~19
# 115 Fixation 13 (277.9,485.4): productives~19
# 186 Fixation 14 (515.7,488.2): trouve~21
# 138 Fixation 15 (290.2,553.8): accélérée~23
# 160 Fixation 16 (487.3,546.6): l'inflation~24
# 94 Fixation 17 (625.1,547.5): maîtrisée~25
%%
# Une~0 Fixations= "1/"
# économie~1 Fixations= "1/"
# New~2 Fixations= "2/"
# Age~3 Fixations= ""
# est~4 Fixations= "3/"
# une~5 Fixations= ""
# économie~6 Fixations= "4/"
# dans~7 Fixations= ""
# laquelle~8 Fixations= "5/"
# la~9 Fixations= "6/"
# croissance~10 Fixations= "6/"
# de~11 Fixations= "7/"
# l'efficacité~12 Fixations= "8/"
# avec~13 Fixations= ""
# laquelle~14 Fixations= "9/"
# nous~15 Fixations= "10/"
# utilisons~16 Fixations= "10/"
# les~17 Fixations= "11/"
# ressources~18 Fixations= "11/"
# productives~19 Fixations= "13/"
# se~20 Fixations= ""
# trouve~21 Fixations= "14/"
# durablement~22 Fixations= ""
# accélérée~23 Fixations= "15/"
# l'inflation~24 Fixations= "16/"
# maîtrisée~25 Fixations= "17/"
# et~26 Fixations= ""
# le~27 Fixations= ""
# cycle~28 Fixations= ""
# aboli~29 Fixations= ""
%%
#  UNE[1] éCONOMIE[1] NEW[2] Age EST[3] une éCONOMIE[4] dans LAQUELLE[5] LA[6] CROISSANCE[6] DE[7] L'EFFICACITé[8] avec LAQUELLE[9] NOUS[10] UTILISONS[10] LES[11] RESSOURCES[11] PRODUCTIVES[13] se TROUVE[14] durablement ACCéLéRéE[15] L'INFLATION[16] MAîTRISéE[17] et le cycle aboli
# s19 croissance_economie-f2 PercentageOfWordsProcessed= 0.666666666666667 PercentageOfWordsReallyProcessed= 0.769230769230769
