# 148 Fixation 1 (360.6,333.3): skippeur~1 pari~7
# 305 Fixation 2 (292.8,287.2): Le~0 skippeur~1
# 195 Fixation 3 (264.8,285.9): Le~0 skippeur~1
# 528 Fixation 4 (437.7,282.2): rend~2
# 301 Fixation 5 (606.5,270.5): aux~4 concepteurs~5
# 316 Fixation 6 (676,320.2): concepteurs~5 simplicité~14
# 280 Fixation 7 (313.5,424.2): était~15 osé~16
# 158 Fixation 8 (265.1,406.6): Le~6 pari~7 était~15
# 161 Fixation 9 (302.9,353.9): Le~6 pari~7
# 413 Fixation 10 (427,344): rend~2 légèreté~10
# 250 Fixation 11 (639.6,339.2): aux~4 concepteurs~5 simplicité~14
# 188 Fixation 12 (641.6,496.1): peuvent~28
# 218 Fixation 13 (405.8,474.5): osé~16 gens~18 projet~26
# 367 Fixation 14 (273.3,553.5): fiers~30
%%
# Le~0 Fixations= "3/"
# skippeur~1 Fixations= "3/"
# rend~2 Fixations= "10/"
# hommage~3 Fixations= ""
# aux~4 Fixations= "11/"
# concepteurs~5 Fixations= "11/"
# Le~6 Fixations= "9/"
# pari~7 Fixations= "9/"
# de~8 Fixations= ""
# la~9 Fixations= ""
# légèreté~10 Fixations= "10/"
# et~11 Fixations= ""
# de~12 Fixations= ""
# la~13 Fixations= ""
# simplicité~14 Fixations= "11/"
# était~15 Fixations= "8/"
# osé~16 Fixations= "13/"
# Les~17 Fixations= ""
# gens~18 Fixations= "13/"
# qui~19 Fixations= ""
# se~20 Fixations= ""
# sont~21 Fixations= ""
# investis~22 Fixations= ""
# pour~23 Fixations= ""
# que~24 Fixations= ""
# ce~25 Fixations= ""
# projet~26 Fixations= "13/"
# existe~27 Fixations= ""
# peuvent~28 Fixations= "12/"
# être~29 Fixations= ""
# fiers~30 Fixations= "14/"
%%
#  LE[3] SKIPPEUR[3] REND[10] hommage AUX[11] CONCEPTEURS[11] LE[9] PARI[9] de la LéGèRETé[10] et de la SIMPLICITé[11] éTAIT[8] OSé[13] Les GENS[13] qui se sont investis pour que ce PROJET[13] existe PEUVENT[12] être FIERS[14]
# s14 faiblesse_dollar-a2 PercentageOfWordsProcessed= 0.483870967741935 PercentageOfWordsReallyProcessed= 0.483870967741935
