# 145 Fixation 1 (314.7,274.5): Un~0 décret~1
# 161 Fixation 2 (421.1,273.7): a~2 été~3
# 119 Fixation 3 (480.3,275.7): été~3 émis~4
# 168 Fixation 4 (581.5,273.1): qui~5 modifie~6
# 138 Fixation 5 (717.3,257.9): le~7 code~8
# 102 Fixation 6 (348.8,320.6): construction~11
# 134 Fixation 7 (310.9,323.2): la~10 construction~11
# 143 Fixation 8 (514.6,330.6): et~12 l'habitation~14
# 178 Fixation 9 (576.2,336.8): l'habitation~14
# 136 Fixation 10 (735.7,332.7): Il~15
# 202 Fixation 11 (345.1,372.2): construction~11
# 182 Fixation 12 (447.4,383.1): subventions~19
# 232 Fixation 13 (603.5,394.7): et~20 prêts~21
# 205 Fixation 14 (340.5,420.3): relatif~17
# 205 Fixation 15 (493.8,436.1): subventions~19
# 99 Fixation 16 (553.9,444.9): l'acquisition~25
# 194 Fixation 17 (330.2,479.5): construction~24
# 200 Fixation 18 (527,491.8): l'acquisition~25
# 135 Fixation 19 (545.6,496.1): l'acquisition~25
# 127 Fixation 20 (662.4,504.4): et~26
%%
# Un~0 Fixations= "1/"
# décret~1 Fixations= "1/"
# a~2 Fixations= "2/"
# été~3 Fixations= "3/"
# émis~4 Fixations= "3/"
# qui~5 Fixations= "4/"
# modifie~6 Fixations= "4/"
# le~7 Fixations= "5/"
# code~8 Fixations= "5/"
# de~9 Fixations= ""
# la~10 Fixations= "7/"
# construction~11 Fixations= "11/"
# et~12 Fixations= "8/"
# de~13 Fixations= ""
# l'habitation~14 Fixations= "9/"
# Il~15 Fixations= "10/"
# est~16 Fixations= ""
# relatif~17 Fixations= "14/"
# aux~18 Fixations= ""
# subventions~19 Fixations= "15/"
# et~20 Fixations= "13/"
# prêts~21 Fixations= "13/"
# pour~22 Fixations= ""
# la~23 Fixations= ""
# construction~24 Fixations= "17/"
# l'acquisition~25 Fixations= "19/"
# et~26 Fixations= "20/"
# l'amélioration~27 Fixations= ""
# des~28 Fixations= ""
# logements~29 Fixations= ""
# locatifs~30 Fixations= ""
# aidés~31 Fixations= ""
%%
#  UN[1] DéCRET[1] A[2] éTé[3] éMIS[3] QUI[4] MODIFIE[4] LE[5] CODE[5] de LA[7] CONSTRUCTION[11] ET[8] de L'HABITATION[9] IL[10] est RELATIF[14] aux SUBVENTIONS[15] ET[13] PRêTS[13] pour la CONSTRUCTION[17] L'ACQUISITION[19] ET[20] l'amélioration des logements locatifs aidés
# s08 rehabilitation_logement-f2 PercentageOfWordsProcessed= 0.65625 PercentageOfWordsReallyProcessed= 0.777777777777778
