# 99 Fixation 1 (255.2,297.6): La~0 science~1 bienfaits~6
# 145 Fixation 2 (323.6,300.1): La~0 science~1
# 224 Fixation 3 (421.8,300.4): n'apporte~2
# 184 Fixation 4 (585.7,294.2): pas~3 apporté~9 armes~11
# 318 Fixation 5 (285.4,357.5): bienfaits~6
# 125 Fixation 6 (286,478.2): manipulation~19
# 145 Fixation 7 (309.5,476.2): destruction~13 manipulation~19
%%
# La~0 Fixations= "2/"
# science~1 Fixations= "2/"
# n'apporte~2 Fixations= "3/"
# pas~3 Fixations= "4/"
# seulement~4 Fixations= ""
# des~5 Fixations= ""
# bienfaits~6 Fixations= "5/"
# mais~7 Fixations= ""
# a~8 Fixations= ""
# apporté~9 Fixations= "4/"
# des~10 Fixations= ""
# armes~11 Fixations= "4/"
# de~12 Fixations= ""
# destruction~13 Fixations= "7/"
# massive~14 Fixations= ""
# et~15 Fixations= ""
# des~16 Fixations= ""
# possibilités~17 Fixations= ""
# de~18 Fixations= ""
# manipulation~19 Fixations= "7/"
# biologique~20 Fixations= ""
# La~21 Fixations= ""
# technique~22 Fixations= ""
# et~23 Fixations= ""
# l'économie~24 Fixations= ""
# concourent~25 Fixations= ""
# à~26 Fixations= ""
# la~27 Fixations= ""
# dégradation~28 Fixations= ""
# de~29 Fixations= ""
# la~30 Fixations= ""
# biosphère~31 Fixations= ""
%%
#  LA[2] SCIENCE[2] N'APPORTE[3] PAS[4] seulement des BIENFAITS[5] mais a APPORTé[4] des ARMES[4] de DESTRUCTION[7] massive et des possibilités de MANIPULATION[7] biologique La technique et l'économie concourent à la dégradation de la biosphère
# s02 reforme_justice-a1 PercentageOfWordsProcessed= 0.28125 PercentageOfWordsReallyProcessed= 0.45
