999 WORDS_Commission~1 166
999 WORDFREQ_10.81 166
999 WORDSALL_La~0_Commission~1 166
999 COSIND_0.06 166
999 COSGEN_0.06 166
101 ESRank1 166
999 WORDS_européenne~2 204
999 WORDFREQ_6.76 204
999 WORDSALL_européenne~2 204
999 COSIND_-0.05 204
999 COSGEN_-0.05 204
102 ESRank2 204
201 ESForwSacShort 204
999 WORDS_annonce~3 169
999 WORDFREQ_21.76 169
999 WORDSALL_annonce~3 169
999 COSIND_-0.03 169
999 COSGEN_-0.03 169
103 ESRank3 169
201 ESForwSacShort 169
999 WORDS_qu'elle~4 95
999 WORDFREQ_N/A 95
999 WORDSALL_annonce~3_qu'elle~4 95
999 COSIND_N/A 95
104 ESRank4 95
201 ESForwSacShort 95
999 WORDS_fera~5 137
999 WORDFREQ_59.66 137
999 WORDSALL_fera~5 137
999 COSIND_-0.02 137
999 COSGEN_-0.02 137
105 ESRank5 137
201 ESForwSacShort 137
999 WORDS_propositions~7 177
999 WORDFREQ_7.5 177
999 WORDSALL_Commission~1_propositions~7 177
999 COSIND_0.12 177
999 COSGEN_0.12 177
106 ESRank6 177
202 ESForwSacLong+2+5 177
999 WORDS_encourager~9 204
999 WORDFREQ_7.03 204
999 WORDSALL_annonce~3_encourager~9 204
999 COSIND_-0.09 204
999 COSGEN_-0.09 204
107 ESRank7 204
202 ESForwSacLong+2+6 204
999 WORDS_marché~11 246
999 WORDFREQ_57.36 246
999 WORDSALL_fera~5_marché~11 246
999 COSIND_-0.03 246
999 COSGEN_-0.03 246
108 ESRank8 246
202 ESForwSacLong+2+4 246
999 WORDS_commun~12 173
999 WORDFREQ_32.16 173
999 WORDSALL_propositions~7_commun~12 173
999 COSIND_0.09 173
999 COSGEN_0.09 173
109 ESRank9 173
201 ESForwSacShort 173
999 WORDS_secteur~14 131
999 WORDFREQ_18.45 131
999 WORDSALL_propositions~7_secteur~14 131
999 COSIND_0.05 131
999 COSGEN_0.05 131
110 ESRank10 131
202 ESForwSacLong+2+4 131
999 WORDS_musique~17 210
999 WORDFREQ_109.8 210
999 WORDSALL_encourager~9_musique~17 210
999 COSIND_0.02 210
999 COSGEN_0.02 210
111 ESRank11 210
202 ESForwSacLong+3+7 210
999 WORDS_musique~17 112
999 WORDFREQ_109.8 112
999 WORDSALL_un~10_musique~17 112
999 COSIND_0.02 112
999 COSGEN_0.02 112
112 ESRank12 112
203 ESBackSacRefixation 112
999 WORDS_commun~12 159
999 WORDFREQ_32.16 159
999 WORDSALL_marché~11_commun~12 159
999 COSIND_0.09 159
999 COSGEN_0.09 159
113 ESRank13 159
206 ESBackSacRegrLong-5-18 159
999 WORDS_internet~24 145
999 WORDFREQ_0 145
999 WORDSALL_sur~23_internet~24 145
999 COSIND_N/A 145
114 ESRank14 145
202 ESForwSacLong+12+52 145
200 ESRankN 145
199 ESRankNMinus1 159
198 ESRankNMinus2 112
197 ESRankNMinus3 210
196 ESRankNMinus4 131
195 ESRankNMinus5 173
194 ESRankNMinus6 246
193 ESRankNMinus7 204
192 ESRankNMinus8 177
191 ESRankNMinus9 137
190 ESRankNMinus10 95
