999 WORDS_Depuis~0 94
999 WORDFREQ_542.64 94
999 WORDSALL_Depuis~0 94
999 COSIND_N/A 94
101 ESRank1 94
999 WORDS_limogeage~2 213
999 WORDFREQ_0.07 213
999 WORDSALL_le~1_limogeage~2 213
999 COSIND_0.22 213
999 COSGEN_0.22 213
102 ESRank2 213
202 ESForwSacLong+2+4 213
999 WORDS_surprise~3 200
999 WORDFREQ_6.89 200
999 WORDSALL_surprise~3 200
999 COSIND_0.10 200
999 COSGEN_0.10 200
103 ESRank3 200
201 ESForwSacShort 200
999 WORDS_surprise~3 173
999 WORDFREQ_6.89 173
999 WORDSALL_limogeage~2_surprise~3 173
999 COSIND_0.10 173
999 COSGEN_0.10 173
104 ESRank4 173
203 ESBackSacRefixation 173
999 WORDS_limogeage~2 90
999 WORDFREQ_0.07 90
999 WORDSALL_limogeage~2 90
999 COSIND_0.22 90
999 COSGEN_0.22 90
105 ESRank5 90
205 ESBackSacRegrShort 90
999 WORDS_précédent~5 278
999 WORDFREQ_6.15 278
999 WORDSALL_surprise~3_précédent~5 278
999 COSIND_-0.00 278
999 COSGEN_-0.00 278
106 ESRank6 278
202 ESForwSacLong+3+13 278
999 WORDS_chef~6 401
999 WORDFREQ_172.57 401
999 WORDSALL_chef~6 401
999 COSIND_1.00 401
999 COSGEN_1.00 401
107 ESRank7 401
201 ESForwSacShort 401
999 WORDS_stabilité~14 216
999 WORDFREQ_3.18 216
999 WORDSALL_stabilité~14 216
999 COSIND_0.00 216
999 COSGEN_0.00 216
108 ESRank8 216
202 ESForwSacLong+8+42 216
999 WORDS_président~16 205
999 WORDFREQ_76.22 205
999 WORDSALL_président~16 205
999 COSIND_-0.00 205
999 COSGEN_-0.00 205
109 ESRank9 205
202 ESForwSacLong+2+4 205
999 WORDS_président~16 201
999 WORDFREQ_76.22 201
999 WORDSALL_le~15_président~16 201
999 COSIND_-0.00 201
999 COSGEN_-0.00 201
110 ESRank10 201
203 ESBackSacRefixation 201
999 WORDS_tente~17 169
999 WORDFREQ_13.04 169
999 WORDSALL_président~16_tente~17 169
999 COSIND_0.01 169
999 COSGEN_0.01 169
111 ESRank11 169
201 ESForwSacShort 169
999 WORDS_maîtriser~21 267
999 WORDFREQ_8.24 267
999 WORDSALL_succès~19_maîtriser~21 267
999 COSIND_0.10 267
999 COSGEN_0.10 267
112 ESRank12 267
202 ESForwSacLong+4+17 267
999 WORDS_succès~19 97
999 WORDFREQ_53.72 97
999 WORDSALL_succès~19 97
999 COSIND_-0.04 97
999 COSGEN_-0.04 97
113 ESRank13 97
206 ESBackSacRegrLong-2-4 97
999 WORDS_succession~23 245
999 WORDFREQ_11.01 245
999 WORDSALL_sa~22_succession~23 245
999 COSIND_-0.03 245
999 COSGEN_-0.03 245
114 ESRank14 245
202 ESForwSacLong+4+18 245
999 WORDS_prétendants~25 253
999 WORDFREQ_1.15 253
999 WORDSALL_prétendants~25 253
999 COSIND_0.04 253
999 COSGEN_0.04 253
115 ESRank15 253
202 ESForwSacLong+2+5 253
999 WORDS_sont~26 177
999 WORDFREQ_713.18 177
999 WORDSALL_sont~26 177
999 COSIND_0.02 177
999 COSGEN_0.02 177
116 ESRank16 177
201 ESForwSacShort 177
999 WORDS_prétendants~25 200
999 WORDFREQ_1.15 200
999 WORDSALL_prétendants~25 200
999 COSIND_0.04 200
999 COSGEN_0.04 200
117 ESRank17 200
205 ESBackSacRegrShort 200
200 ESRankN 200
199 ESRankNMinus1 177
198 ESRankNMinus2 253
197 ESRankNMinus3 245
196 ESRankNMinus4 97
195 ESRankNMinus5 267
194 ESRankNMinus6 169
193 ESRankNMinus7 201
192 ESRankNMinus8 205
191 ESRankNMinus9 216
190 ESRankNMinus10 401
