999 WORDS_refrain~8 122
999 WORDFREQ_8.24 122
999 WORDSALL_Les~0_labels~1_refrain~8 122
999 COSIND_0.04 122
999 COSGEN_0.04 122
101 ESRank1 122
999 WORDS_labels~1 280
999 WORDFREQ_0.07 280
999 WORDSALL_Les~0_labels~1 280
999 COSIND_0.02 280
999 COSGEN_0.02 280
102 ESRank2 280
206 ESBackSacRegrLong-7-34 280
999 WORDS_labels~1 318
999 WORDFREQ_0.07 318
999 WORDSALL_Les~0_labels~1 318
999 COSIND_0.02 318
999 COSGEN_0.02 318
103 ESRank3 318
203 ESBackSacRefixation 318
999 WORDS_refrain~8 454
999 WORDFREQ_8.24 454
999 WORDSALL_Les~0_labels~1_refrain~8 454
999 COSIND_0.04 454
999 COSGEN_0.04 454
104 ESRank4 454
202 ESForwSacLong+7+34 454
999 WORDS_alertent~2 223
999 WORDFREQ_0 223
999 WORDSALL_alertent~2 223
999 COSIND_-0.05 223
999 COSGEN_-0.05 223
105 ESRank5 223
206 ESBackSacRegrLong-6-25 223
999 WORDS_alertent~2 228
999 WORDFREQ_0 228
999 WORDSALL_labels~1_alertent~2 228
999 COSIND_-0.05 228
999 COSGEN_-0.05 228
106 ESRank6 228
203 ESBackSacRefixation 228
999 WORDS_public~4 326
999 WORDFREQ_37.91 326
999 WORDSALL_le~3_public~4 326
999 COSIND_-0.02 326
999 COSGEN_-0.02 326
107 ESRank7 326
202 ESForwSacLong+2+4 326
999 WORDS_même~7 255
999 WORDFREQ_705.81 255
999 WORDSALL_avec~5_même~7 255
999 COSIND_N/A 255
108 ESRank8 255
202 ESForwSacLong+3+9 255
999 WORDS_même~7 108
999 WORDFREQ_705.81 108
999 WORDSALL_avec~5_même~7 108
999 COSIND_N/A 108
109 ESRank9 108
203 ESBackSacRefixation 108
999 WORDS_refrain~8 385
999 WORDFREQ_8.24 385
999 WORDSALL_refrain~8 385
999 COSIND_0.04 385
999 COSGEN_0.04 385
110 ESRank10 385
201 ESForwSacShort 385
999 WORDS_plates-formes~10 163
999 WORDFREQ_2.7 163
999 WORDSALL_les~9_plates-formes~10 163
999 COSIND_N/A 163
111 ESRank11 163
202 ESForwSacLong+2+5 163
999 WORDS_plates-formes~10 253
999 WORDFREQ_2.7 253
999 WORDSALL_les~9_plates-formes~10 253
999 COSIND_N/A 253
112 ESRank12 253
203 ESBackSacRefixation 253
999 WORDS_plates-formes~10 263
999 WORDFREQ_2.7 263
999 WORDSALL_plates-formes~10 263
999 COSIND_N/A 263
113 ESRank13 263
203 ESBackSacRefixation 263
999 WORDS_plates-formes~10 115
999 WORDFREQ_2.7 115
999 WORDSALL_plates-formes~10 115
999 COSIND_N/A 115
114 ESRank14 115
203 ESBackSacRefixation 115
999 WORDS_tuent~14 122
999 WORDFREQ_3.31 122
999 WORDSALL_de~11_tuent~14 122
999 COSIND_-0.01 122
999 COSGEN_-0.01 122
115 ESRank15 122
202 ESForwSacLong+4+32 122
999 WORDS_téléchargement~12 262
999 WORDFREQ_0 262
999 WORDSALL_refrain~8_téléchargement~12 262
999 COSIND_N/A 262
116 ESRank16 262
206 ESBackSacRegrLong-2-12 262
999 WORDS_téléchargement~12 190
999 WORDFREQ_0 190
999 WORDSALL_refrain~8_téléchargement~12 190
999 COSIND_N/A 190
117 ESRank17 190
203 ESBackSacRefixation 190
999 WORDS_illégales~13 297
999 WORDFREQ_0.41 297
999 WORDSALL_plates-formes~10_illégales~13 297
999 COSIND_-0.09 297
999 COSGEN_-0.09 297
118 ESRank18 297
201 ESForwSacShort 297
999 WORDS_illégales~13 134
999 WORDFREQ_0.41 134
999 WORDSALL_plates-formes~10_illégales~13 134
999 COSIND_-0.09 134
999 COSGEN_-0.09 134
119 ESRank19 134
203 ESBackSacRefixation 134
999 WORDS_tuent~14 172
999 WORDFREQ_3.31 172
999 WORDSALL_tuent~14 172
999 COSIND_-0.01 172
999 COSGEN_-0.01 172
120 ESRank20 172
201 ESForwSacShort 172
999 WORDS_l'industrie~15 199
999 WORDFREQ_10.34 199
999 WORDSALL_l'industrie~15 199
999 COSIND_-0.02 199
999 COSGEN_-0.02 199
201 ESForwSacShort 199
200 ESRankN 199
199 ESRankNMinus1 172
198 ESRankNMinus2 134
197 ESRankNMinus3 297
196 ESRankNMinus4 190
195 ESRankNMinus5 262
194 ESRankNMinus6 122
193 ESRankNMinus7 115
192 ESRankNMinus8 263
191 ESRankNMinus9 253
190 ESRankNMinus10 163
