999 WORDS_l'instant~1 166
999 WORDFREQ_285.88 166
999 WORDSALL_Pour~0_l'instant~1 166
999 COSIND_-0.05 166
999 COSGEN_-0.05 166
101 ESRank1 166
999 WORDS_télécommunications~3 169
999 WORDFREQ_0.14 169
999 WORDSALL_les~2_télécommunications~3 169
999 COSIND_-0.04 169
999 COSGEN_-0.04 169
102 ESRank2 169
202 ESForwSacLong+2+5 169
999 WORDS_télécommunications~3 163
999 WORDFREQ_0.14 163
999 WORDSALL_télécommunications~3 163
999 COSIND_-0.04 163
999 COSGEN_-0.04 163
103 ESRank3 163
203 ESBackSacRefixation 163
999 WORDS_palestiniennes~4 202
999 WORDFREQ_N/A 202
999 WORDSALL_palestiniennes~4 202
999 COSIND_N/A 202
104 ESRank4 202
201 ESForwSacShort 202
999 WORDS_sous-traitent~5 137
999 WORDFREQ_0 137
999 WORDSALL_sous-traitent~5 137
999 COSIND_N/A 137
105 ESRank5 137
201 ESForwSacShort 137
999 WORDS_sous-traitent~5 158
999 WORDFREQ_0 158
999 WORDSALL_sous-traitent~5 158
999 COSIND_N/A 158
106 ESRank6 158
203 ESBackSacRefixation 158
999 WORDS_l'accès~6 137
999 WORDFREQ_23.78 137
999 WORDSALL_l'accès~6 137
999 COSIND_-0.00 137
999 COSGEN_-0.00 137
107 ESRank7 137
201 ESForwSacShort 137
999 WORDS_l'international~8 186
999 WORDFREQ_0.81 186
999 WORDSALL_l'international~8 186
999 COSIND_-0.02 186
999 COSGEN_-0.02 186
108 ESRank8 186
202 ESForwSacLong+2+4 186
999 WORDS_compagnie~11 223
999 WORDFREQ_90.88 223
999 WORDSALL_compagnie~11 223
999 COSIND_0.05 223
999 COSGEN_0.05 223
109 ESRank9 223
202 ESForwSacLong+3+8 223
200 ESRankN 223
199 ESRankNMinus1 186
198 ESRankNMinus2 137
197 ESRankNMinus3 158
196 ESRankNMinus4 137
195 ESRankNMinus5 202
194 ESRankNMinus6 163
193 ESRankNMinus7 169
192 ESRankNMinus8 166
