# 269 Fixation 1 (300.3,303.6): La~0 Commission~1
# 284 Fixation 2 (433.4,294.7): Commission~1 européenne~2 propositions~7
# 303 Fixation 3 (604.5,210): annonce~3
# 119 Fixation 4 (644,204.4): annonce~3
# 171 Fixation 5 (717.1,193.8): qu'elle~4
# 264 Fixation 6 (271.5,347.1): La~0 Commission~1 fera~5
# 283 Fixation 7 (410.5,338.4): Commission~1 européenne~2 propositions~7
# 260 Fixation 8 (627,330): annonce~3 encourager~9
# 213 Fixation 9 (304.9,385.8): fera~5 marché~11
# 82 Fixation 10 (279.2,388.9): fera~5 marché~11
# 267 Fixation 11 (488.2,398.1): propositions~7 secteur~14
# 206 Fixation 12 (613.7,408): pour~8 encourager~9 musique~17
# 176 Fixation 13 (642.7,414.7): de~15 musique~17
# 204 Fixation 14 (257.8,449.3): marché~11 films~19
# 172 Fixation 15 (396,490): et~20 jeux~22
%%
# La~0 Fixations= "6/"
# Commission~1 Fixations= "7/"
# européenne~2 Fixations= "7/"
# annonce~3 Fixations= "8/"
# qu'elle~4 Fixations= "5/"
# fera~5 Fixations= "10/"
# des~6 Fixations= ""
# propositions~7 Fixations= "11/"
# pour~8 Fixations= "12/"
# encourager~9 Fixations= "12/"
# un~10 Fixations= ""
# marché~11 Fixations= "14/"
# commun~12 Fixations= ""
# du~13 Fixations= ""
# secteur~14 Fixations= "11/"
# de~15 Fixations= "13/"
# la~16 Fixations= ""
# musique~17 Fixations= "13/"
# des~18 Fixations= ""
# films~19 Fixations= "14/"
# et~20 Fixations= "15/"
# des~21 Fixations= ""
# jeux~22 Fixations= "15/"
# sur~23 Fixations= ""
# internet~24 Fixations= ""
# La~25 Fixations= ""
# situation~26 Fixations= ""
# doit~27 Fixations= ""
# être~28 Fixations= ""
# maitrisée~29 Fixations= ""
%%
#  LA[6] COMMISSION[7] EUROPéENNE[7] ANNONCE[8] QU'ELLE[5] FERA[10] des PROPOSITIONS[11] POUR[12] ENCOURAGER[12] un MARCHé[14] commun du SECTEUR[11] DE[13] la MUSIQUE[13] des FILMS[14] ET[15] des JEUX[15] sur internet La situation doit être maitrisée
# s20 greve_cheminot-a1 PercentageOfWordsProcessed= 0.533333333333333 PercentageOfWordsReallyProcessed= 0.695652173913043
