# 157 Fixation 1 (260.5,271.9): Zinedine~0
# 89 Fixation 2 (312.2,275.9): Zinedine~0
# 138 Fixation 3 (397,281.8): Zidane~1
# 170 Fixation 4 (491.6,280.5): grand~2
# 187 Fixation 5 (589.1,289.1): artisan~3
# 100 Fixation 6 (620.7,294.5): artisan~3 finale~11
# 381 Fixation 7 (677.2,301): de~4 finale~11
# 101 Fixation 8 (311.4,346.4): Zinedine~0 victoire~6
# 109 Fixation 9 (272.1,342.5): Zinedine~0 victoire~6
# 113 Fixation 10 (427.8,340.2): Zidane~1 France~9
# 122 Fixation 11 (489.6,343.7): grand~2 France~9
# 146 Fixation 12 (578.8,347.1): artisan~3 finale~11
# 104 Fixation 13 (646.1,355.6): finale~11
# 89 Fixation 14 (711.2,358.8): de~12 a~20 été~21
# 107 Fixation 15 (256.7,407.4): victoire~6 coupe~14
# 106 Fixation 16 (318.3,398.6): victoire~6 coupe~14
# 127 Fixation 17 (517.2,408): France~9 Brésil~19
# 137 Fixation 18 (602.1,416.8): le~18 Brésil~19
# 211 Fixation 19 (711.6,411.1): de~12 a~20 été~21
# 122 Fixation 20 (270.4,458.3): coupe~14 champion~23
# 188 Fixation 21 (466.8,460.4): monde~16 champions~25
%%
# Zinedine~0 Fixations= "9/"
# Zidane~1 Fixations= "10/"
# grand~2 Fixations= "11/"
# artisan~3 Fixations= "12/"
# de~4 Fixations= "7/"
# la~5 Fixations= ""
# victoire~6 Fixations= "16/"
# de~7 Fixations= ""
# la~8 Fixations= ""
# France~9 Fixations= "17/"
# en~10 Fixations= ""
# finale~11 Fixations= "13/"
# de~12 Fixations= "19/"
# la~13 Fixations= ""
# coupe~14 Fixations= "20/"
# du~15 Fixations= ""
# monde~16 Fixations= "21/"
# contre~17 Fixations= ""
# le~18 Fixations= "18/"
# Brésil~19 Fixations= "18/"
# a~20 Fixations= "19/"
# été~21 Fixations= "19/"
# élu~22 Fixations= ""
# champion~23 Fixations= "20/"
# des~24 Fixations= ""
# champions~25 Fixations= "21/"
# du~26 Fixations= ""
# monde~27 Fixations= ""
%%
#  ZINEDINE[9] ZIDANE[10] GRAND[11] ARTISAN[12] DE[7] la VICTOIRE[16] de la FRANCE[17] en FINALE[13] DE[19] la COUPE[20] du MONDE[21] contre LE[18] BRéSIL[18] A[19] éTé[19] élu CHAMPION[20] des CHAMPIONS[21] du monde
# s06 decollage_fusee-a2 PercentageOfWordsProcessed= 0.607142857142857 PercentageOfWordsReallyProcessed= 0.653846153846154
