999 WORDS_l'interdiction~1 121
999 WORDFREQ_5.95 121
999 WORDSALL_Depuis~0_l'interdiction~1 121
999 COSIND_0.02 121
999 COSGEN_0.02 121
101 ESRank1 121
999 WORDS_l'interdiction~1 185
999 WORDFREQ_5.95 185
999 WORDSALL_l'interdiction~1 185
999 COSIND_0.02 185
999 COSGEN_0.02 185
102 ESRank2 185
203 ESBackSacRefixation 185
999 WORDS_fumer~3 161
999 WORDFREQ_20.88 161
999 WORDSALL_de~2_fumer~3 161
999 COSIND_-0.09 161
999 COSGEN_-0.09 161
103 ESRank3 161
202 ESForwSacLong+2+4 161
999 WORDS_l'affluence~5 176
999 WORDFREQ_2.64 176
999 WORDSALL_l'affluence~5 176
999 COSIND_0.03 176
999 COSGEN_0.03 176
104 ESRank4 176
202 ESForwSacLong+2+7 176
999 WORDS_dimanche~7 142
999 WORDFREQ_87.84 142
999 WORDSALL_l'interdiction~1_fumer~3_dimanche~7 142
999 COSIND_0.01 142
999 COSGEN_0.01 142
105 ESRank5 142
202 ESForwSacLong+2+6 142
999 WORDS_côté~9 180
999 WORDFREQ_497.43 180
999 WORDSALL_fumer~3_côté~9 180
999 COSIND_0.02 180
999 COSGEN_0.02 180
106 ESRank6 180
202 ESForwSacLong+2+6 180
999 WORDS_queue~13 185
999 WORDFREQ_51.49 185
999 WORDSALL_fait~11_queue~13 185
999 COSIND_-0.04 185
999 COSGEN_-0.04 185
107 ESRank7 185
202 ESForwSacLong+4+12 185
999 WORDS_cigarettes~17 139
999 WORDFREQ_37.36 139
999 WORDSALL_D'un~8_côté~9_cigarettes~17 139
999 COSIND_-0.06 139
999 COSGEN_-0.06 139
108 ESRank8 139
202 ESForwSacLong+4+18 139
200 ESRankN 139
199 ESRankNMinus1 185
198 ESRankNMinus2 180
197 ESRankNMinus3 142
196 ESRankNMinus4 176
195 ESRankNMinus5 161
194 ESRankNMinus6 185
193 ESRankNMinus7 121
