999 WORDS_navigateur~1 222
999 WORDFREQ_1.89 222
999 WORDSALL_Le~0_navigateur~1 222
999 COSIND_0.56 222
999 COSGEN_0.56 222
101 ESRank1 222
999 WORDS_navigateur~1 177
999 WORDFREQ_1.89 177
999 WORDSALL_navigateur~1 177
999 COSIND_0.56 177
999 COSGEN_0.56 177
102 ESRank2 177
203 ESBackSacRefixation 177
999 WORDS_solitaire~2 249
999 WORDFREQ_20.88 249
999 WORDSALL_solitaire~2 249
999 COSIND_0.57 249
999 COSGEN_0.57 249
103 ESRank3 249
201 ESForwSacShort 249
999 WORDS_voulait~3 234
999 WORDFREQ_225.34 234
999 WORDSALL_voulait~3 234
999 COSIND_0.03 234
999 COSGEN_0.03 234
104 ESRank4 234
201 ESForwSacShort 234
999 WORDS_gagner~4 254
999 WORDFREQ_64.59 254
999 WORDSALL_voulait~3_gagner~4 254
999 COSIND_0.31 254
999 COSGEN_0.31 254
105 ESRank5 254
201 ESForwSacShort 254
999 WORDS_gagner~4 192
999 WORDFREQ_64.59 192
999 WORDSALL_gagner~4 192
999 COSIND_0.31 192
999 COSGEN_0.31 192
106 ESRank6 192
203 ESBackSacRefixation 192
999 WORDS_l'honneur~6 168
999 WORDFREQ_87.64 168
999 WORDSALL_l'honneur~6 168
999 COSIND_0.00 168
999 COSGEN_0.00 168
107 ESRank7 168
202 ESForwSacLong+2+6 168
200 ESRankN 168
199 ESRankNMinus1 192
198 ESRankNMinus2 254
197 ESRankNMinus3 234
196 ESRankNMinus4 249
195 ESRankNMinus5 177
194 ESRankNMinus6 222
