# 210 Fixation 1 (286.7,279.6): A~0 Odense~1
# 311 Fixation 2 (254.1,282.9): A~0
# 390 Fixation 3 (276.3,286.8): A~0 Odense~1
# 260 Fixation 4 (293.1,290.2): A~0 Odense~1
# 241 Fixation 5 (378.1,283.8): Odense~1 Danemark~3
# 247 Fixation 6 (444.5,282.9): au~2 Danemark~3
# 247 Fixation 7 (548.4,276.5): Danemark~3
# 269 Fixation 8 (624.1,284.2): chaque~4 policier~5
# 213 Fixation 9 (722.6,281.5): policier~5 doit~6
# 339 Fixation 10 (266.7,356.1): rester~7
# 304 Fixation 11 (351.9,351.4): rester~7
# 410 Fixation 12 (473.3,355.7): moins~9 an~11
# 195 Fixation 13 (507.2,345.9): un~10 an~11
# 145 Fixation 14 (623.3,343.9): dans~12 quartier~14
# 166 Fixation 15 (474.3,355.8): moins~9 an~11
# 165 Fixation 16 (391.1,348): au~8 an~11
# 455 Fixation 17 (569.8,346.7): an~11
# 154 Fixation 18 (375,407.5): populaire~15
# 309 Fixation 19 (281.5,416.3): populaire~15
# 178 Fixation 20 (478.4,401.7): la~17 ville~18
# 228 Fixation 21 (563.4,423.3): Il~19 passe~20
# 252 Fixation 22 (653.7,416.3): passe~20
# 272 Fixation 23 (341,478.5): temps~25 à~26
%%
# A~0 Fixations= "4/"
# Odense~1 Fixations= "5/"
# au~2 Fixations= "6/"
# Danemark~3 Fixations= "7/"
# chaque~4 Fixations= "8/"
# policier~5 Fixations= "9/"
# doit~6 Fixations= "9/"
# rester~7 Fixations= "11/"
# au~8 Fixations= "16/"
# moins~9 Fixations= "15/"
# un~10 Fixations= "13/"
# an~11 Fixations= "17/"
# dans~12 Fixations= "14/"
# un~13 Fixations= ""
# quartier~14 Fixations= "14/"
# populaire~15 Fixations= "19/"
# de~16 Fixations= ""
# la~17 Fixations= "20/"
# ville~18 Fixations= "20/"
# Il~19 Fixations= "21/"
# passe~20 Fixations= "22/"
# un~21 Fixations= ""
# tiers~22 Fixations= ""
# de~23 Fixations= ""
# son~24 Fixations= ""
# temps~25 Fixations= "23/"
# à~26 Fixations= "23/"
# patrouiller~27 Fixations= ""
# à~28 Fixations= ""
# pied~29 Fixations= ""
%%
#  A[4] ODENSE[5] AU[6] DANEMARK[7] CHAQUE[8] POLICIER[9] DOIT[9] RESTER[11] AU[16] MOINS[15] UN[13] AN[17] DANS[14] un QUARTIER[14] POPULAIRE[19] de LA[20] VILLE[20] IL[21] PASSE[22] un tiers de son TEMPS[23] à[23] patrouiller à pied
# s14 delinquance_juvenile-m1 PercentageOfWordsProcessed= 0.7 PercentageOfWordsReallyProcessed= 0.777777777777778
