# 112 Fixation 1 (289.7,288): Avec~0 l'aide~1
# 210 Fixation 2 (353.6,282.3): l'aide~1
# 179 Fixation 3 (462.5,283.1): de~2 rabatteurs~4
# 103 Fixation 4 (525,287.1): leurs~3 rabatteurs~4
# 101 Fixation 5 (561.9,290): rabatteurs~4
# 223 Fixation 6 (319,353.5): déguenillés~5
# 199 Fixation 7 (288.4,349.5): déguenillés~5
# 222 Fixation 8 (524.8,352.9): pesaient~7
# 209 Fixation 9 (671.4,357.8): l'offre~8
# 207 Fixation 10 (320.5,423.9): demande~11
# 129 Fixation 11 (279.2,418.5): demande~11
# 207 Fixation 12 (409.5,422): Elles~12 savaient~13
# 185 Fixation 13 (479.8,425.1): savaient~13
# 142 Fixation 14 (548.4,363.5): pesaient~7
# 205 Fixation 15 (450.6,427.7): Elles~12 savaient~13
# 245 Fixation 16 (592.5,420.9): précisément~14
# 198 Fixation 17 (314.5,485.2): jour~16 mois~18
# 124 Fixation 18 (343.1,479.9): jour~16 mois~18
# 259 Fixation 19 (527.3,489.4): entreprises~20
# 203 Fixation 20 (678.4,485.8): chercheraient~21
# 332 Fixation 21 (362.4,539): la~23 monnaie~24
# 248 Fixation 22 (464.4,543.8): locale~25
# 290 Fixation 23 (586.3,543.2): pour~26 payer~27
# 106 Fixation 24 (624.6,545.3): payer~27
# 184 Fixation 25 (322.9,590.6): salariés~29
# 136 Fixation 26 (288.2,587): salariés~29
# 245 Fixation 27 (312.4,345): déguenillés~5
# 155 Fixation 28 (373.5,347.9): déguenillés~5
# 223 Fixation 29 (316.5,359.2): déguenillés~5
%%
# Avec~0 Fixations= "1/"
# l'aide~1 Fixations= "2/"
# de~2 Fixations= "3/"
# leurs~3 Fixations= "4/"
# rabatteurs~4 Fixations= "5/"
# déguenillés~5 Fixations= "29/"
# elles~6 Fixations= ""
# pesaient~7 Fixations= "14/"
# l'offre~8 Fixations= "9/"
# et~9 Fixations= ""
# la~10 Fixations= ""
# demande~11 Fixations= "11/"
# Elles~12 Fixations= "15/"
# savaient~13 Fixations= "15/"
# précisément~14 Fixations= "16/"
# quel~15 Fixations= ""
# jour~16 Fixations= "18/"
# du~17 Fixations= ""
# mois~18 Fixations= "18/"
# les~19 Fixations= ""
# entreprises~20 Fixations= "19/"
# chercheraient~21 Fixations= "20/"
# de~22 Fixations= ""
# la~23 Fixations= "21/"
# monnaie~24 Fixations= "21/"
# locale~25 Fixations= "22/"
# pour~26 Fixations= "23/"
# payer~27 Fixations= "24/"
# leurs~28 Fixations= ""
# salariés~29 Fixations= "26/"
%%
#  AVEC[1] L'AIDE[2] DE[3] LEURS[4] RABATTEURS[5] DéGUENILLéS[29] elles PESAIENT[14] L'OFFRE[9] et la DEMANDE[11] ELLES[15] SAVAIENT[15] PRéCISéMENT[16] quel JOUR[18] du MOIS[18] les ENTREPRISES[19] CHERCHERAIENT[20] de LA[21] MONNAIE[21] LOCALE[22] POUR[23] PAYER[24] leurs SALARIéS[26]
# s01 faiblesse_dollar-m1 PercentageOfWordsProcessed= 0.733333333333333 PercentageOfWordsReallyProcessed= 0.733333333333333
