999 WORDS_preuve~1 177
999 WORDFREQ_50.54 177
999 WORDSALL_Aucune~0_preuve~1 177
999 COSIND_0.17 177
999 COSGEN_0.17 177
101 ESRank1 177
999 WORDS_démontrer~7 191
999 WORDFREQ_5.61 191
999 WORDSALL_scientifique~2_démontrer~7 191
999 COSIND_0.02 191
999 COSGEN_0.02 191
102 ESRank2 191
202 ESForwSacLong+6+39 191
999 WORDS_l'utilisation~9 270
999 WORDFREQ_4.12 270
999 WORDSALL_que~8_l'utilisation~9 270
999 COSIND_0.10 270
999 COSGEN_0.10 270
103 ESRank3 270
202 ESForwSacLong+2+5 270
999 WORDS_risque~15 155
999 WORDFREQ_30.27 155
999 WORDSALL_présente~13_risque~15 155
999 COSIND_-0.02 155
999 COSGEN_-0.02 155
104 ESRank4 155
202 ESForwSacLong+6+39 155
999 WORDS_risque~15 127
999 WORDFREQ_30.27 127
999 WORDSALL_un~14_risque~15 127
999 COSIND_-0.02 127
999 COSGEN_-0.02 127
105 ESRank5 127
203 ESBackSacRefixation 127
999 WORDS_communiqué~21 270
999 WORDFREQ_7.03 270
999 WORDSALL_présente~13_communiqué~21 270
999 COSIND_-0.04 270
999 COSGEN_-0.04 270
106 ESRank6 270
202 ESForwSacLong+6+27 270
999 WORDS_communiqué~21 212
999 WORDFREQ_7.03 212
999 WORDSALL_communiqué~21 212
999 COSIND_-0.04 212
999 COSGEN_-0.04 212
107 ESRank7 212
203 ESBackSacRefixation 212
999 WORDS_place~26 133
999 WORDFREQ_437.97 133
999 WORDSALL_laisse~25_place~26 133
999 COSIND_0.03 133
999 COSGEN_0.03 133
108 ESRank8 133
202 ESForwSacLong+5+25 133
999 WORDS_laisse~25 161
999 WORDFREQ_143.31 161
999 WORDSALL_ministère~23_laisse~25 161
999 COSIND_0.05 161
999 COSGEN_0.05 161
109 ESRank9 161
205 ESBackSacRegrShort 161
999 WORDS_ministère~23 207
999 WORDFREQ_14.32 207
999 WORDSALL_ministère~23 207
999 COSIND_0.01 207
999 COSGEN_0.01 207
110 ESRank10 207
206 ESBackSacRegrLong-2-4 207
200 ESRankN 207
199 ESRankNMinus1 161
198 ESRankNMinus2 133
197 ESRankNMinus3 212
196 ESRankNMinus4 270
195 ESRankNMinus5 127
194 ESRankNMinus6 155
193 ESRankNMinus7 270
192 ESRankNMinus8 191
191 ESRankNMinus9 177
