999 WORDS_juge~1 224
999 WORDFREQ_11.15 224
999 WORDSALL_Le~0_juge~1 224
999 COSIND_0.03 224
999 COSGEN_0.03 224
101 ESRank1 224
999 WORDS_juge~1 318
999 WORDFREQ_11.15 318
999 WORDSALL_juge~1 318
999 COSIND_0.03 318
999 COSGEN_0.03 318
102 ESRank2 318
203 ESBackSacRefixation 318
999 WORDS_estime~3 140
999 WORDFREQ_8.92 140
999 WORDSALL_administratif~2_estime~3 140
999 COSIND_0.00 140
999 COSGEN_0.00 140
103 ESRank3 140
202 ESForwSacLong+2+15 140
999 WORDS_administratif~2 336
999 WORDFREQ_2.97 336
999 WORDSALL_administratif~2 336
999 COSIND_0.10 336
999 COSGEN_0.10 336
104 ESRank4 336
205 ESBackSacRegrShort 336
999 WORDS_estime~3 389
999 WORDFREQ_8.92 389
999 WORDSALL_estime~3 389
999 COSIND_0.00 389
999 COSGEN_0.00 389
105 ESRank5 389
201 ESForwSacShort 389
999 WORDS_système~8 200
999 WORDFREQ_42.23 200
999 WORDSALL_administratif~2_système~8 200
999 COSIND_-0.09 200
999 COSGEN_-0.09 200
106 ESRank6 200
202 ESForwSacLong+5+24 200
999 WORDS_estime~3 202
999 WORDFREQ_8.92 202
999 WORDSALL_estime~3 202
999 COSIND_0.00 202
999 COSGEN_0.00 202
107 ESRank7 202
206 ESBackSacRegrLong-5-24 202
999 WORDS_locations~10 128
999 WORDFREQ_0.34 128
999 WORDSALL_que~4_locations~10 128
999 COSIND_-0.05 128
999 COSGEN_-0.05 128
108 ESRank8 128
202 ESForwSacLong+7+36 128
999 WORDS_locations~10 190
999 WORDFREQ_0.34 190
999 WORDSALL_de~9_locations~10 190
999 COSIND_-0.05 190
999 COSGEN_-0.05 190
109 ESRank9 190
203 ESBackSacRefixation 190
999 WORDS_constitue~15 213
999 WORDFREQ_7.03 213
999 WORDSALL_libre-service~14_constitue~15 213
999 COSIND_0.01 213
999 COSGEN_0.01 213
110 ESRank10 213
202 ESForwSacLong+5+28 213
999 WORDS_fournit~20 236
999 WORDFREQ_6.55 236
999 WORDSALL_libre-service~14_fournit~20 236
999 COSIND_0.02 236
999 COSGEN_0.02 236
111 ESRank11 236
202 ESForwSacLong+5+23 236
999 WORDS_libre-service~14 185
999 WORDFREQ_0.34 185
999 WORDSALL_extension~6_libre-service~14 185
999 COSIND_N/A 185
112 ESRank12 185
206 ESBackSacRegrLong-6-33 185
999 WORDS_bicyclettes~28 200
999 WORDFREQ_5 200
999 WORDSALL_fournit~20_bicyclettes~28 200
999 COSIND_-0.05 200
999 COSGEN_-0.05 200
113 ESRank13 200
202 ESForwSacLong+14+79 200
200 ESRankN 200
199 ESRankNMinus1 185
198 ESRankNMinus2 236
197 ESRankNMinus3 213
196 ESRankNMinus4 190
195 ESRankNMinus5 128
194 ESRankNMinus6 202
193 ESRankNMinus7 200
192 ESRankNMinus8 389
191 ESRankNMinus9 336
190 ESRankNMinus10 140
