999 WORDS_l'aide~1 108
999 WORDFREQ_52.3 108
999 WORDSALL_Avec~0_l'aide~1 108
999 COSIND_0.07 108
999 COSGEN_0.07 108
101 ESRank1 108
999 WORDS_l'aide~1 122
999 WORDFREQ_52.3 122
999 WORDSALL_l'aide~1 122
999 COSIND_0.07 122
999 COSGEN_0.07 122
102 ESRank2 122
203 ESBackSacRefixation 122
999 WORDS_rabatteurs~4 149
999 WORDFREQ_0.95 149
999 WORDSALL_de~2_rabatteurs~4 149
999 COSIND_0.17 149
999 COSGEN_0.17 149
103 ESRank3 149
202 ESForwSacLong+3+10 149
999 WORDS_rabatteurs~4 126
999 WORDFREQ_0.95 126
999 WORDSALL_leurs~3_rabatteurs~4 126
999 COSIND_0.17 126
999 COSGEN_0.17 126
104 ESRank4 126
203 ESBackSacRefixation 126
999 WORDS_déguenillés~5 184
999 WORDFREQ_0.2 184
999 WORDSALL_déguenillés~5 184
999 COSIND_N/A 184
105 ESRank5 184
201 ESForwSacShort 184
999 WORDS_pesaient~7 151
999 WORDFREQ_3.99 151
999 WORDSALL_elles~6_pesaient~7 151
999 COSIND_0.06 151
999 COSGEN_0.06 151
106 ESRank6 151
202 ESForwSacLong+2+7 151
999 WORDS_pesaient~7 142
999 WORDFREQ_3.99 142
999 WORDSALL_elles~6_pesaient~7 142
999 COSIND_0.06 142
999 COSGEN_0.06 142
107 ESRank7 142
203 ESBackSacRefixation 142
999 WORDS_l'offre~8 138
999 WORDFREQ_8.78 138
999 WORDSALL_l'offre~8 138
999 COSIND_-0.00 138
999 COSGEN_-0.00 138
108 ESRank8 138
201 ESForwSacShort 138
999 WORDS_demande~11 132
999 WORDFREQ_35.27 132
999 WORDSALL_demande~11 132
999 COSIND_-0.02 132
999 COSGEN_-0.02 132
109 ESRank9 132
202 ESForwSacLong+3+7 132
999 WORDS_demande~11 159
999 WORDFREQ_35.27 159
999 WORDSALL_demande~11 159
999 COSIND_-0.02 159
999 COSGEN_-0.02 159
110 ESRank10 159
203 ESBackSacRefixation 159
999 WORDS_savaient~13 192
999 WORDFREQ_30.2 192
999 WORDSALL_savaient~13 192
999 COSIND_0.01 192
999 COSGEN_0.01 192
111 ESRank11 192
202 ESForwSacLong+2+7 192
999 WORDS_précisément~14 204
999 WORDFREQ_34.8 204
999 WORDSALL_précisément~14 204
999 COSIND_0.03 204
999 COSGEN_0.03 204
112 ESRank12 204
201 ESForwSacShort 204
999 WORDS_demande~11 163
999 WORDFREQ_35.27 163
999 WORDSALL_demande~11 163
999 COSIND_-0.02 163
999 COSGEN_-0.02 163
113 ESRank13 163
206 ESBackSacRegrLong-3-16 163
999 WORDS_savaient~13 113
999 WORDFREQ_30.2 113
999 WORDSALL_Elles~12_savaient~13 113
999 COSIND_0.01 113
999 COSGEN_0.01 113
114 ESRank14 113
202 ESForwSacLong+2+7 113
999 WORDS_entreprises~20 153
999 WORDFREQ_9.26 153
999 WORDSALL_les~19_entreprises~20 153
999 COSIND_-0.03 153
999 COSGEN_-0.03 153
115 ESRank15 153
202 ESForwSacLong+7+37 153
999 WORDS_entreprises~20 81
999 WORDFREQ_9.26 81
999 WORDSALL_entreprises~20 81
999 COSIND_-0.03 81
999 COSGEN_-0.03 81
116 ESRank16 81
203 ESBackSacRefixation 81
999 WORDS_chercheraient~21 183
999 WORDFREQ_0.47 183
999 WORDSALL_chercheraient~21 183
999 COSIND_-0.01 183
999 COSGEN_-0.01 183
117 ESRank17 183
201 ESForwSacShort 183
999 WORDS_mois~18 198
999 WORDFREQ_304.86 198
999 WORDSALL_jour~16_mois~18 198
999 COSIND_0.05 198
999 COSGEN_0.05 198
118 ESRank18 198
206 ESBackSacRegrLong-3-17 198
999 WORDS_entreprises~20 188
999 WORDFREQ_9.26 188
999 WORDSALL_les~19_entreprises~20 188
999 COSIND_-0.03 188
999 COSGEN_-0.03 188
119 ESRank19 188
202 ESForwSacLong+2+5 188
999 WORDS_payer~27 159
999 WORDFREQ_58.31 159
999 WORDSALL_pour~26_payer~27 159
999 COSIND_0.18 159
999 COSGEN_0.18 159
120 ESRank20 159
202 ESForwSacLong+7+41 159
999 WORDS_payer~27 136
999 WORDFREQ_58.31 136
999 WORDSALL_pour~26_payer~27 136
999 COSIND_0.18 136
999 COSGEN_0.18 136
203 ESBackSacRefixation 136
999 WORDS_payer~27 126
999 WORDFREQ_58.31 126
999 WORDSALL_payer~27 126
999 COSIND_0.18 126
999 COSGEN_0.18 126
203 ESBackSacRefixation 126
999 WORDS_monnaie~24 203
999 WORDFREQ_25.34 203
999 WORDSALL_de~22_monnaie~24 203
999 COSIND_0.43 203
999 COSGEN_0.43 203
206 ESBackSacRegrLong-3-13 203
999 WORDS_monnaie~24 155
999 WORDFREQ_25.34 155
999 WORDSALL_de~22_monnaie~24 155
999 COSIND_0.43 155
999 COSGEN_0.43 155
203 ESBackSacRefixation 155
999 WORDS_chercheraient~21 398
999 WORDFREQ_0.47 398
999 WORDSALL_chercheraient~21 398
999 COSIND_-0.01 398
999 COSGEN_-0.01 398
206 ESBackSacRegrLong-3-7 398
999 WORDS_entreprises~20 173
999 WORDFREQ_9.26 173
999 WORDSALL_entreprises~20 173
999 COSIND_-0.03 173
999 COSGEN_-0.03 173
205 ESBackSacRegrShort 173
999 WORDS_chercheraient~21 146
999 WORDFREQ_0.47 146
999 WORDSALL_chercheraient~21 146
999 COSIND_-0.01 146
999 COSGEN_-0.01 146
201 ESForwSacShort 146
999 WORDS_mois~18 123
999 WORDFREQ_304.86 123
999 WORDSALL_mois~18 123
999 COSIND_0.05 123
999 COSGEN_0.05 123
206 ESBackSacRegrLong-3-17 123
999 WORDS_payer~27 102
999 WORDFREQ_58.31 102
999 WORDSALL_payer~27 102
999 COSIND_0.18 102
999 COSGEN_0.18 102
202 ESForwSacLong+9+57 102
200 ESRankN 102
199 ESRankNMinus1 123
198 ESRankNMinus2 146
197 ESRankNMinus3 173
196 ESRankNMinus4 398
195 ESRankNMinus5 155
194 ESRankNMinus6 203
193 ESRankNMinus7 126
192 ESRankNMinus8 136
191 ESRankNMinus9 159
190 ESRankNMinus10 188
