999 WORDS_brûlons~2 93
999 WORDFREQ_0.27 93
999 WORDSALL_Quand~0_brûlons~2 93
999 COSIND_0.04 93
999 COSGEN_0.04 93
101 ESRank1 93
999 WORDS_brûlons~2 171
999 WORDFREQ_0.27 171
999 WORDSALL_brûlons~2 171
999 COSIND_0.04 171
999 COSGEN_0.04 171
102 ESRank2 171
203 ESBackSacRefixation 171
999 WORDS_combustibles~4 246
999 WORDFREQ_0.47 246
999 WORDSALL_des~3_combustibles~4 246
999 COSIND_0.20 246
999 COSGEN_0.20 246
103 ESRank3 246
202 ESForwSacLong+2+5 246
999 WORDS_fossiles~5 199
999 WORDFREQ_0.88 199
999 WORDSALL_fossiles~5 199
999 COSIND_0.53 199
999 COSGEN_0.53 199
104 ESRank4 199
201 ESForwSacShort 199
999 WORDS_émettons~7 120
999 WORDFREQ_0.07 120
999 WORDSALL_nous~6_émettons~7 120
999 COSIND_0.19 120
999 COSGEN_0.19 120
105 ESRank5 120
202 ESForwSacLong+2+6 120
999 WORDS_effet~11 136
999 WORDFREQ_173.18 136
999 WORDSALL_gaz~9_à~10_effet~11 136
999 COSIND_0.67 136
999 COSGEN_0.67 136
106 ESRank6 136
202 ESForwSacLong+4+12 136
999 WORDS_l'atmosphère~15 260
999 WORDFREQ_36.15 260
999 WORDSALL_l'atmosphère~15 260
999 COSIND_0.61 260
999 COSGEN_0.61 260
107 ESRank7 260
202 ESForwSacLong+4+15 260
999 WORDS_a~18 185
999 WORDFREQ_1669.39 185
999 WORDSALL_ce~16_a~18 185
999 COSIND_N/A 185
108 ESRank8 185
202 ESForwSacLong+3+8 185
999 WORDS_conséquence~20 155
999 WORDFREQ_16.89 155
999 WORDSALL_conséquence~20 155
999 COSIND_0.24 155
999 COSGEN_0.24 155
109 ESRank9 155
202 ESForwSacLong+2+6 155
999 WORDS_réchauffer~23 247
999 WORDFREQ_11.62 247
999 WORDSALL_réchauffer~23 247
999 COSIND_0.16 247
999 COSGEN_0.16 247
110 ESRank10 247
202 ESForwSacLong+3+7 247
999 WORDS_contribuer~26 178
999 WORDFREQ_2.84 178
999 WORDSALL_contribuer~26 178
999 COSIND_0.07 178
999 COSGEN_0.07 178
111 ESRank11 178
202 ESForwSacLong+3+7 178
999 WORDS_fonte~29 314
999 WORDFREQ_8.31 314
999 WORDSALL_la~28_fonte~29 314
999 COSIND_0.47 314
999 COSGEN_0.47 314
112 ESRank12 314
202 ESForwSacLong+3+7 314
999 WORDS_glaciers~31 171
999 WORDFREQ_1.55 171
999 WORDSALL_des~30_glaciers~31 171
999 COSIND_0.34 171
999 COSGEN_0.34 171
113 ESRank13 171
202 ESForwSacLong+2+5 171
200 ESRankN 171
199 ESRankNMinus1 314
198 ESRankNMinus2 178
197 ESRankNMinus3 247
196 ESRankNMinus4 155
195 ESRankNMinus5 185
194 ESRankNMinus6 260
193 ESRankNMinus7 136
192 ESRankNMinus8 120
191 ESRankNMinus9 199
190 ESRankNMinus10 246
