# 157 Fixation 1 (320.7,291.9): Ces~0 combats~1
# 84 Fixation 2 (426.7,293): qui~2 remettent~4
# 129 Fixation 3 (503.4,294.6): qui~2 remettent~4
# 97 Fixation 4 (570.3,301.2): remettent~4
# 136 Fixation 5 (695.7,288.2): pas~5 cause~7
# 179 Fixation 6 (327.4,330.5): la~8 suprématie~9
# 181 Fixation 7 (483.9,344.7): des~10 talibans~11
# 158 Fixation 8 (523.9,349.6): talibans~11
# 133 Fixation 9 (583.3,357.2): talibans~11
# 213 Fixation 10 (317.3,387.2): l'Afghanistan~13
# 96 Fixation 11 (426,397.9): prouvent~14
# 146 Fixation 12 (499.6,407.7): prouvent~14
# 195 Fixation 13 (641.9,420.2): que~15 l'état-major~16
# 205 Fixation 14 (698.1,414.8): l'état-major~16
# 152 Fixation 15 (352.7,431.6): l'Afghanistan~13
# 201 Fixation 16 (463.1,385.8): prouvent~14
# 180 Fixation 17 (611.7,401.1): que~15 l'état-major~16
# 165 Fixation 18 (642.2,410.8): que~15 l'état-major~16
# 120 Fixation 19 (701.6,413.4): l'état-major~16
# 178 Fixation 20 (366.7,434.3): l'Afghanistan~13
# 190 Fixation 21 (317.1,441.5): l'Afghanistan~13
# 155 Fixation 22 (417.2,452.3): peut~19 maintenir~20
# 94 Fixation 23 (466,454.2): maintenir~20
# 153 Fixation 24 (596,467.6): la~21 pression~22
# 167 Fixation 25 (460.5,450.8): maintenir~20
# 155 Fixation 26 (731.8,478.5): sur~23
# 203 Fixation 27 (302.8,482.1): veut~17
# 113 Fixation 28 (345.1,502.9): veut~17 peut~19
# 133 Fixation 29 (351.5,309.2): combats~1
# 141 Fixation 30 (446,287.2): qui~2 remettent~4
%%
# Ces~0 Fixations= "1/"
# combats~1 Fixations= "29/"
# qui~2 Fixations= "30/"
# ne~3 Fixations= ""
# remettent~4 Fixations= "30/"
# pas~5 Fixations= "5/"
# en~6 Fixations= ""
# cause~7 Fixations= "5/"
# la~8 Fixations= "6/"
# suprématie~9 Fixations= "6/"
# des~10 Fixations= "7/"
# talibans~11 Fixations= "9/"
# sur~12 Fixations= ""
# l'Afghanistan~13 Fixations= "21/"
# prouvent~14 Fixations= "16/"
# que~15 Fixations= "18/"
# l'état-major~16 Fixations= "19/"
# veut~17 Fixations= "28/"
# et~18 Fixations= ""
# peut~19 Fixations= "28/"
# maintenir~20 Fixations= "25/"
# la~21 Fixations= "24/"
# pression~22 Fixations= "24/"
# sur~23 Fixations= "26/"
# ses~24 Fixations= ""
# adversaires~25 Fixations= ""
%%
#  CES[1] COMBATS[29] QUI[30] ne REMETTENT[30] PAS[5] en CAUSE[5] LA[6] SUPRéMATIE[6] DES[7] TALIBANS[9] sur L'AFGHANISTAN[21] PROUVENT[16] QUE[18] L'éTAT-MAJOR[19] VEUT[28] et PEUT[28] MAINTENIR[25] LA[24] PRESSION[24] SUR[26] ses adversaires
# s08 chef_russie-m1 PercentageOfWordsProcessed= 0.769230769230769 PercentageOfWordsReallyProcessed= 0.833333333333333
