# 133 Fixation 1 (262,286.1): Le~0 président~1
# 149 Fixation 2 (317.5,289.4): Le~0 président~1
# 284 Fixation 3 (478.9,281.4): de~2 l'APM~3
# 133 Fixation 4 (542.6,286): l'APM~3 a~4
# 204 Fixation 5 (594.3,289.5): a~4 vilipendé~5
# 196 Fixation 6 (634,287.5): vilipendé~5
# 253 Fixation 7 (682.2,288.8): vilipendé~5
# 259 Fixation 8 (614.7,289): vilipendé~5
# 153 Fixation 9 (665,293.9): vilipendé~5
# 138 Fixation 10 (260.1,323.6): réforme~7
# 103 Fixation 11 (271.9,334.5): réforme~7
# 266 Fixation 12 (428.1,344): de~8 ministre~10
# 137 Fixation 13 (565.4,359.1): de~11 justice~13
# 290 Fixation 14 (640,355.3): la~12 justice~13
# 169 Fixation 15 (730.4,357.1): justice~13
# 156 Fixation 16 (258.5,393.3): il~15 a~16
# 141 Fixation 17 (316.9,400): il~15 a~16
# 204 Fixation 18 (429.1,401.1): surtout~17 mené~18
# 281 Fixation 19 (537.1,412.5): la~19 charge~20
# 243 Fixation 20 (586.3,412.3): charge~20
# 174 Fixation 21 (622.3,420.6): charge~20
# 271 Fixation 22 (250.6,452.1): élus~23
# 127 Fixation 23 (254.5,461.4): élus~23
# 249 Fixation 24 (333.8,461.6): élus~23 accusés~24
# 288 Fixation 25 (469.8,463.4): de~25 dresser~26
# 318 Fixation 26 (541.8,466.3): dresser~26
# 356 Fixation 27 (477.6,462.1): de~25 dresser~26
# 302 Fixation 28 (330.1,478.8): élus~23 accusés~24
# 103 Fixation 29 (318.5,463.1): élus~23 accusés~24
# 156 Fixation 30 (393.9,479.9): accusés~24
%%
# Le~0 Fixations= "2/"
# président~1 Fixations= "2/"
# de~2 Fixations= "3/"
# l'APM~3 Fixations= "4/"
# a~4 Fixations= "5/"
# vilipendé~5 Fixations= "9/"
# la~6 Fixations= ""
# réforme~7 Fixations= "11/"
# de~8 Fixations= "12/"
# la~9 Fixations= ""
# ministre~10 Fixations= "12/"
# de~11 Fixations= "13/"
# la~12 Fixations= "14/"
# justice~13 Fixations= "15/"
# mais~14 Fixations= ""
# il~15 Fixations= "17/"
# a~16 Fixations= "17/"
# surtout~17 Fixations= "18/"
# mené~18 Fixations= "18/"
# la~19 Fixations= "19/"
# charge~20 Fixations= "21/"
# contre~21 Fixations= ""
# les~22 Fixations= ""
# élus~23 Fixations= "29/"
# accusés~24 Fixations= "30/"
# de~25 Fixations= "27/"
# dresser~26 Fixations= "27/"
# le~27 Fixations= ""
# procès~28 Fixations= ""
# de~29 Fixations= ""
# la~30 Fixations= ""
# magistrature~31 Fixations= ""
%%
#  LE[2] PRéSIDENT[2] DE[3] L'APM[4] A[5] VILIPENDé[9] la RéFORME[11] DE[12] la MINISTRE[12] DE[13] LA[14] JUSTICE[15] mais IL[17] A[17] SURTOUT[18] MENé[18] LA[19] CHARGE[21] contre les éLUS[29] ACCUSéS[30] DE[27] DRESSER[27] le procès de la magistrature
# s06 reforme_justice-f1 PercentageOfWordsProcessed= 0.6875 PercentageOfWordsReallyProcessed= 0.814814814814815
