999 WORDS_souvient~2 157
999 WORDFREQ_15.68 157
999 WORDSALL_On~0_souvient~2 157
999 COSIND_-0.03 157
999 COSGEN_-0.03 157
101 ESRank1 157
999 WORDS_souvient~2 170
999 WORDFREQ_15.68 170
999 WORDSALL_On~0_souvient~2 170
999 COSIND_-0.03 170
999 COSGEN_-0.03 170
102 ESRank2 170
203 ESBackSacRefixation 170
999 WORDS_souvient~2 148
999 WORDFREQ_15.68 148
999 WORDSALL_On~0_souvient~2 148
999 COSIND_-0.03 148
999 COSGEN_-0.03 148
103 ESRank3 148
203 ESBackSacRefixation 148
999 WORDS_souvient~2 236
999 WORDFREQ_15.68 236
999 WORDSALL_se~1_souvient~2 236
999 COSIND_-0.03 236
999 COSGEN_-0.03 236
104 ESRank4 236
203 ESBackSacRefixation 236
999 WORDS_fameux~4 245
999 WORDFREQ_33.31 245
999 WORDSALL_du~3_fameux~4 245
999 COSIND_0.00 245
999 COSGEN_0.00 245
105 ESRank5 245
202 ESForwSacLong+2+4 245
999 WORDS_fameux~4 127
999 WORDFREQ_33.31 127
999 WORDSALL_du~3_fameux~4 127
999 COSIND_0.00 127
999 COSGEN_0.00 127
106 ESRank6 127
203 ESBackSacRefixation 127
999 WORDS_symbole~5 194
999 WORDFREQ_12.57 194
999 WORDSALL_symbole~5 194
999 COSIND_0.03 194
999 COSGEN_0.03 194
107 ESRank7 194
201 ESForwSacShort 194
999 WORDS_symbole~5 139
999 WORDFREQ_12.57 139
999 WORDSALL_fameux~4_symbole~5 139
999 COSIND_0.03 139
999 COSGEN_0.03 139
108 ESRank8 139
203 ESBackSacRefixation 139
999 WORDS_dollar~7 207
999 WORDFREQ_3.85 207
999 WORDSALL_du~6_dollar~7 207
999 COSIND_0.04 207
999 COSGEN_0.04 207
109 ESRank9 207
202 ESForwSacLong+2+4 207
999 WORDS_revu~8 238
999 WORDFREQ_0.68 238
999 WORDSALL_revu~8 238
999 COSIND_0.01 238
999 COSGEN_0.01 238
110 ESRank10 238
201 ESForwSacShort 238
999 WORDS_revu~8 207
999 WORDFREQ_0.68 207
999 WORDSALL_revu~8 207
999 COSIND_0.01 207
999 COSGEN_0.01 207
111 ESRank11 207
203 ESBackSacRefixation 207
999 WORDS_Andy~10 205
999 WORDFREQ_N/A 205
999 WORDSALL_par~9_Andy~10 205
999 COSIND_N/A 205
112 ESRank12 205
202 ESForwSacLong+2+5 205
999 WORDS_pop-artiste~13 383
999 WORDFREQ_N/A 383
999 WORDSALL_Le~12_pop-artiste~13 383
999 COSIND_N/A 383
113 ESRank13 383
202 ESForwSacLong+3+11 383
999 WORDS_l'art~20 133
999 WORDFREQ_81.49 133
999 WORDSALL_l'art~20 133
999 COSIND_1.00 133
999 COSGEN_1.00 133
114 ESRank14 133
202 ESForwSacLong+7+46 133
999 WORDS_américain~14 127
999 WORDFREQ_25.95 127
999 WORDSALL_américain~14 127
999 COSIND_0.02 127
999 COSGEN_0.02 127
115 ESRank15 127
206 ESBackSacRegrLong-6-35 127
999 WORDS_l'art~20 143
999 WORDFREQ_81.49 143
999 WORDSALL_l'art~20 143
999 COSIND_1.00 143
999 COSGEN_1.00 143
116 ESRank16 143
202 ESForwSacLong+6+35 143
200 ESRankN 143
199 ESRankNMinus1 127
198 ESRankNMinus2 133
197 ESRankNMinus3 383
196 ESRankNMinus4 205
195 ESRankNMinus5 207
194 ESRankNMinus6 238
193 ESRankNMinus7 207
192 ESRankNMinus8 139
191 ESRankNMinus9 194
190 ESRankNMinus10 127
