999 WORDS_Commission~1 139
999 WORDFREQ_10.81 139
999 WORDSALL_Commission~1 139
999 COSIND_0.06 139
999 COSGEN_0.06 139
101 ESRank1 139
999 WORDS_Commission~1 105
999 WORDFREQ_10.81 105
999 WORDSALL_La~0_Commission~1 105
999 COSIND_0.06 105
999 COSGEN_0.06 105
102 ESRank2 105
203 ESBackSacRefixation 105
999 WORDS_européenne~2 215
999 WORDFREQ_6.76 215
999 WORDSALL_européenne~2 215
999 COSIND_-0.05 215
999 COSGEN_-0.05 215
103 ESRank3 215
201 ESForwSacShort 215
999 WORDS_annonce~3 153
999 WORDFREQ_21.76 153
999 WORDSALL_annonce~3 153
999 COSIND_-0.03 153
999 COSGEN_-0.03 153
104 ESRank4 153
201 ESForwSacShort 153
999 WORDS_encourager~9 134
999 WORDFREQ_7.03 134
999 WORDSALL_annonce~3_encourager~9 134
999 COSIND_-0.09 134
999 COSGEN_-0.09 134
105 ESRank5 134
202 ESForwSacLong+6+36 134
999 WORDS_commun~12 151
999 WORDFREQ_32.16 151
999 WORDSALL_fera~5_marché~11_commun~12 151
999 COSIND_0.09 151
999 COSGEN_0.09 151
106 ESRank6 151
202 ESForwSacLong+3+12 151
999 WORDS_propositions~7 126
999 WORDFREQ_7.5 126
999 WORDSALL_propositions~7 126
999 COSIND_0.12 126
999 COSGEN_0.12 126
107 ESRank7 126
206 ESBackSacRegrLong-5-28 126
999 WORDS_fera~5 183
999 WORDFREQ_59.66 183
999 WORDSALL_fera~5 183
999 COSIND_-0.02 183
999 COSGEN_-0.02 183
108 ESRank8 183
206 ESBackSacRegrLong-2-5 183
999 WORDS_propositions~7 312
999 WORDFREQ_7.5 312
999 WORDSALL_propositions~7 312
999 COSIND_0.12 312
999 COSGEN_0.12 312
109 ESRank9 312
202 ESForwSacLong+2+5 312
999 WORDS_propositions~7 148
999 WORDFREQ_7.5 148
999 WORDSALL_des~6_propositions~7 148
999 COSIND_0.12 148
999 COSGEN_0.12 148
110 ESRank10 148
203 ESBackSacRefixation 148
999 WORDS_encourager~9 230
999 WORDFREQ_7.03 230
999 WORDSALL_pour~8_encourager~9 230
999 COSIND_-0.09 230
999 COSGEN_-0.09 230
111 ESRank11 230
202 ESForwSacLong+2+6 230
999 WORDS_encourager~9 131
999 WORDFREQ_7.03 131
999 WORDSALL_encourager~9 131
999 COSIND_-0.09 131
999 COSGEN_-0.09 131
112 ESRank12 131
203 ESBackSacRefixation 131
999 WORDS_commun~12 273
999 WORDFREQ_32.16 273
999 WORDSALL_fera~5_marché~11_commun~12 273
999 COSIND_0.09 273
999 COSGEN_0.09 273
113 ESRank13 273
202 ESForwSacLong+3+12 273
999 WORDS_secteur~14 123
999 WORDFREQ_18.45 123
999 WORDSALL_propositions~7_secteur~14 123
999 COSIND_0.05 123
999 COSGEN_0.05 123
114 ESRank14 123
202 ESForwSacLong+2+4 123
999 WORDS_secteur~14 319
999 WORDFREQ_18.45 319
999 WORDSALL_secteur~14 319
999 COSIND_0.05 319
999 COSGEN_0.05 319
115 ESRank15 319
203 ESBackSacRefixation 319
999 WORDS_musique~17 251
999 WORDFREQ_109.8 251
999 WORDSALL_de~15_musique~17 251
999 COSIND_0.02 251
999 COSGEN_0.02 251
116 ESRank16 251
202 ESForwSacLong+3+7 251
999 WORDS_musique~17 102
999 WORDFREQ_109.8 102
999 WORDSALL_musique~17 102
999 COSIND_0.02 102
999 COSGEN_0.02 102
117 ESRank17 102
203 ESBackSacRefixation 102
999 WORDS_jeux~22 167
999 WORDFREQ_42.64 167
999 WORDSALL_commun~12_jeux~22 167
999 COSIND_0.01 167
999 COSGEN_0.01 167
118 ESRank18 167
202 ESForwSacLong+5+18 167
999 WORDS_films~19 108
999 WORDFREQ_24.59 108
999 WORDSALL_marché~11_films~19 108
999 COSIND_0.04 108
999 COSGEN_0.04 108
119 ESRank19 108
206 ESBackSacRegrLong-3-8 108
999 WORDS_internet~24 200
999 WORDFREQ_0 200
999 WORDSALL_secteur~14_internet~24 200
999 COSIND_N/A 200
120 ESRank20 200
202 ESForwSacLong+5+17 200
999 WORDS_jeux~22 160
999 WORDFREQ_42.64 160
999 WORDSALL_commun~12_secteur~14_jeux~22 160
999 COSIND_0.01 160
999 COSGEN_0.01 160
206 ESBackSacRegrLong-2-5 160
999 WORDS_internet~24 286
999 WORDFREQ_0 286
999 WORDSALL_secteur~14_internet~24 286
999 COSIND_N/A 286
202 ESForwSacLong+2+5 286
999 WORDS_jeux~22 111
999 WORDFREQ_42.64 111
999 WORDSALL_du~13_secteur~14_jeux~22 111
999 COSIND_0.01 111
999 COSGEN_0.01 111
206 ESBackSacRegrLong-2-5 111
999 WORDS_secteur~14 162
999 WORDFREQ_18.45 162
999 WORDSALL_du~13_secteur~14 162
999 COSIND_0.05 162
999 COSGEN_0.05 162
206 ESBackSacRegrLong-8-32 162
999 WORDS_secteur~14 113
999 WORDFREQ_18.45 113
999 WORDSALL_propositions~7_secteur~14 113
999 COSIND_0.05 113
999 COSGEN_0.05 113
203 ESBackSacRefixation 113
999 WORDS_commun~12 197
999 WORDFREQ_32.16 197
999 WORDSALL_des~6_propositions~7_commun~12 197
999 COSIND_0.09 197
999 COSGEN_0.09 197
206 ESBackSacRegrLong-2-4 197
999 WORDS_encourager~9 494
999 WORDFREQ_7.03 494
999 WORDSALL_pour~8_encourager~9 494
999 COSIND_-0.09 494
999 COSGEN_-0.09 494
206 ESBackSacRegrLong-3-12 494
999 WORDS_commun~12 181
999 WORDFREQ_32.16 181
999 WORDSALL_fera~5_marché~11_commun~12 181
999 COSIND_0.09 181
999 COSGEN_0.09 181
202 ESForwSacLong+3+12 181
999 WORDS_marché~11 90
999 WORDFREQ_57.36 90
999 WORDSALL_fera~5_marché~11 90
999 COSIND_-0.03 90
999 COSGEN_-0.03 90
205 ESBackSacRegrShort 90
999 WORDS_secteur~14 207
999 WORDFREQ_18.45 207
999 WORDSALL_propositions~7_secteur~14 207
999 COSIND_0.05 207
999 COSGEN_0.05 207
202 ESForwSacLong+3+11 207
999 WORDS_musique~17 92
999 WORDFREQ_109.8 92
999 WORDSALL_pour~8_encourager~9_musique~17 92
999 COSIND_0.02 92
999 COSGEN_0.02 92
202 ESForwSacLong+3+7 92
999 WORDS_encourager~9 169
999 WORDFREQ_7.03 169
999 WORDSALL_pour~8_encourager~9 169
999 COSIND_-0.09 169
999 COSGEN_-0.09 169
206 ESBackSacRegrLong-8-36 169
999 WORDS_secteur~14 277
999 WORDFREQ_18.45 277
999 WORDSALL_propositions~7_secteur~14 277
999 COSIND_0.05 277
999 COSGEN_0.05 277
202 ESForwSacLong+5+22 277
999 WORDS_musique~17 137
999 WORDFREQ_109.8 137
999 WORDSALL_encourager~9_musique~17 137
999 COSIND_0.02 137
999 COSGEN_0.02 137
202 ESForwSacLong+3+7 137
999 WORDS_commun~12 214
999 WORDFREQ_32.16 214
999 WORDSALL_marché~11_commun~12 214
999 COSIND_0.09 214
999 COSGEN_0.09 214
206 ESBackSacRegrLong-5-18 214
999 WORDS_films~19 98
999 WORDFREQ_24.59 98
999 WORDSALL_marché~11_films~19 98
999 COSIND_0.04 98
999 COSGEN_0.04 98
202 ESForwSacLong+7+30 98
999 WORDS_secteur~14 300
999 WORDFREQ_18.45 300
999 WORDSALL_du~13_secteur~14 300
999 COSIND_0.05 300
999 COSGEN_0.05 300
206 ESBackSacRegrLong-5-19 300
999 WORDS_jeux~22 206
999 WORDFREQ_42.64 206
999 WORDSALL_commun~12_jeux~22 206
999 COSIND_0.01 206
999 COSGEN_0.01 206
202 ESForwSacLong+8+32 206
999 WORDS_jeux~22 95
999 WORDFREQ_42.64 95
999 WORDSALL_des~21_jeux~22 95
999 COSIND_0.01 95
999 COSGEN_0.01 95
203 ESBackSacRefixation 95
999 WORDS_situation~26 169
999 WORDFREQ_96.62 169
999 WORDSALL_films~19_situation~26 169
999 COSIND_0.02 169
999 COSGEN_0.02 169
202 ESForwSacLong+4+17 169
999 WORDS_être~28 148
999 WORDFREQ_505.61 148
999 WORDSALL_des~21_jeux~22_être~28 148
999 COSIND_0.01 148
999 COSGEN_0.01 148
202 ESForwSacLong+2+6 148
999 WORDS_maitrisée~29 309
999 WORDFREQ_N/A 309
999 WORDSALL_sur~23_internet~24_maitrisée~29 309
999 COSIND_N/A 309
201 ESForwSacShort 309
999 WORDS_doit~27 182
999 WORDFREQ_224.59 182
999 WORDSALL_des~21_jeux~22_doit~27 182
999 COSIND_-0.03 182
999 COSGEN_-0.03 182
206 ESBackSacRegrLong-2-7 182
999 WORDS_propositions~7 161
999 WORDFREQ_7.5 161
999 WORDSALL_propositions~7 161
999 COSIND_0.12 161
999 COSGEN_0.12 161
206 ESBackSacRegrLong-20-108 161
999 WORDS_Commission~1 250
999 WORDFREQ_10.81 250
999 WORDSALL_Commission~1 250
999 COSIND_0.06 250
999 COSGEN_0.06 250
206 ESBackSacRegrLong-6-38 250
999 WORDS_annonce~3 163
999 WORDFREQ_21.76 163
999 WORDSALL_européenne~2_annonce~3 163
999 COSIND_-0.03 163
999 COSGEN_-0.03 163
202 ESForwSacLong+2+13 163
999 WORDS_qu'elle~4 120
999 WORDFREQ_N/A 120
999 WORDSALL_annonce~3_qu'elle~4 120
999 COSIND_N/A 120
201 ESForwSacShort 120
200 ESRankN 120
199 ESRankNMinus1 163
198 ESRankNMinus2 250
197 ESRankNMinus3 161
196 ESRankNMinus4 182
195 ESRankNMinus5 309
194 ESRankNMinus6 148
193 ESRankNMinus7 169
192 ESRankNMinus8 95
191 ESRankNMinus9 206
190 ESRankNMinus10 300
