999 WORDS_sont~1 131
999 WORDFREQ_713.18 131
999 WORDSALL_Ils~0_sont~1 131
999 COSIND_0.07 131
999 COSGEN_0.07 131
101 ESRank1 131
999 WORDS_six~3 139
999 WORDFREQ_156.22 139
999 WORDSALL_encore~2_six~3 139
999 COSIND_-0.03 139
999 COSGEN_-0.03 139
102 ESRank2 139
202 ESForwSacLong+2+8 139
999 WORDS_six~3 122
999 WORDFREQ_156.22 122
999 WORDSALL_six~3 122
999 COSIND_-0.03 122
999 COSGEN_-0.03 122
103 ESRank3 122
203 ESBackSacRefixation 122
999 WORDS_candidats~4 131
999 WORDFREQ_3.99 131
999 WORDSALL_six~3_candidats~4 131
999 COSIND_0.03 131
999 COSGEN_0.03 131
104 ESRank4 131
201 ESForwSacShort 131
999 WORDS_vouloir~6 134
999 WORDFREQ_62.97 134
999 WORDSALL_à~5_vouloir~6 134
999 COSIND_-0.00 134
999 COSGEN_-0.00 134
105 ESRank5 134
202 ESForwSacLong+2+4 134
999 WORDS_tenter~7 171
999 WORDFREQ_32.43 171
999 WORDSALL_Ils~0_sont~1_tenter~7 171
999 COSIND_0.03 171
999 COSGEN_0.03 171
106 ESRank6 171
201 ESForwSacShort 171
999 WORDS_tour~9 120
999 WORDFREQ_280.27 120
999 WORDSALL_encore~2_six~3_tour~9 120
999 COSIND_0.05 120
999 COSGEN_0.05 120
107 ESRank7 120
202 ESForwSacLong+2+4 120
999 WORDS_monde~11 225
999 WORDFREQ_732.43 225
999 WORDSALL_du~10_monde~11 225
999 COSIND_0.03 225
999 COSGEN_0.03 225
108 ESRank8 225
202 ESForwSacLong+2+4 225
999 WORDS_tenter~7 171
999 WORDFREQ_32.43 171
999 WORDSALL_Ils~0_sont~1_tenter~7 171
999 COSIND_0.03 171
999 COSGEN_0.03 171
109 ESRank9 171
206 ESBackSacRegrLong-4-12 171
999 WORDS_ballon~13 242
999 WORDFREQ_17.16 242
999 WORDSALL_en~12_ballon~13 242
999 COSIND_0.06 242
999 COSGEN_0.06 242
110 ESRank10 242
202 ESForwSacLong+6+21 242
999 WORDS_tour~9 146
999 WORDFREQ_280.27 146
999 WORDSALL_le~8_tour~9 146
999 COSIND_0.05 146
999 COSGEN_0.05 146
111 ESRank11 146
206 ESBackSacRegrLong-4-13 146
999 WORDS_circumnavigation~17 266
999 WORDFREQ_0.27 266
999 WORDSALL_du~10_monde~11_circumnavigation~17 266
999 COSIND_-0.01 266
999 COSGEN_-0.01 266
112 ESRank12 266
202 ESForwSacLong+8+38 266
999 WORDS_aérienne~18 245
999 WORDFREQ_6.49 245
999 WORDSALL_aérienne~18 245
999 COSIND_-0.07 245
999 COSGEN_-0.07 245
113 ESRank13 245
201 ESForwSacShort 245
999 WORDS_d'audace~24 159
999 WORDFREQ_16.55 159
999 WORDSALL_circumnavigation~17_aérienne~18_d'audace~24 159
999 COSIND_0.07 159
999 COSGEN_0.07 159
114 ESRank14 159
202 ESForwSacLong+6+31 159
999 WORDS_d'audace~24 136
999 WORDFREQ_16.55 136
999 WORDSALL_et~23_d'audace~24 136
999 COSIND_0.07 136
999 COSGEN_0.07 136
115 ESRank15 136
203 ESBackSacRefixation 136
999 WORDS_connaissances~30 171
999 WORDFREQ_11.69 171
999 WORDSALL_courage~22_connaissances~30 171
999 COSIND_-0.05 171
999 COSGEN_-0.05 171
116 ESRank16 171
202 ESForwSacLong+6+21 171
999 WORDS_connaissances~30 87
999 WORDFREQ_11.69 87
999 WORDSALL_de~21_courage~22_connaissances~30 87
999 COSIND_-0.05 87
999 COSGEN_-0.05 87
117 ESRank17 87
203 ESBackSacRefixation 87
999 WORDS_techniques~31 107
999 WORDFREQ_4.73 107
999 WORDSALL_d'audace~24_techniques~31 107
999 COSIND_0.12 107
999 COSGEN_0.12 107
118 ESRank18 107
201 ESForwSacShort 107
999 WORDS_moyens~27 179
999 WORDFREQ_58.31 179
999 WORDSALL_réclame~19_moyens~27 179
999 COSIND_-0.01 179
999 COSGEN_-0.01 179
119 ESRank19 179
206 ESBackSacRegrLong-4-21 179
200 ESRankN 179
199 ESRankNMinus1 107
198 ESRankNMinus2 87
197 ESRankNMinus3 171
196 ESRankNMinus4 136
195 ESRankNMinus5 159
194 ESRankNMinus6 245
193 ESRankNMinus7 266
192 ESRankNMinus8 146
191 ESRankNMinus9 242
190 ESRankNMinus10 171
