999 WORDS_problème~1 158
999 WORDFREQ_55.2 158
999 WORDSALL_problème~1 158
999 COSIND_0.00 158
999 COSGEN_0.00 158
101 ESRank1 158
999 WORDS_problème~1 110
999 WORDFREQ_55.2 110
999 WORDSALL_Le~0_problème~1 110
999 COSIND_0.00 110
999 COSGEN_0.00 110
102 ESRank2 110
203 ESBackSacRefixation 110
999 WORDS_devra~3 126
999 WORDFREQ_8.04 126
999 WORDSALL_que~2_devra~3 126
999 COSIND_-0.00 126
999 COSGEN_-0.00 126
103 ESRank3 126
202 ESForwSacLong+2+5 126
999 WORDS_gérer~4 120
999 WORDFREQ_1.22 120
999 WORDSALL_gérer~4 120
999 COSIND_0.14 120
999 COSGEN_0.14 120
104 ESRank4 120
201 ESForwSacShort 120
999 WORDS_gouvernement~6 182
999 WORDFREQ_119.73 182
999 WORDSALL_le~5_gouvernement~6 182
999 COSIND_0.03 182
999 COSGEN_0.03 182
105 ESRank5 182
202 ESForwSacLong+2+4 182
999 WORDS_retour~11 136
999 WORDFREQ_153.31 136
999 WORDSALL_retour~11 136
999 COSIND_0.20 136
999 COSGEN_0.20 136
106 ESRank6 136
202 ESForwSacLong+5+21 136
999 WORDS_sinistrés~13 169
999 WORDFREQ_0.54 169
999 WORDSALL_des~12_sinistrés~13 169
999 COSIND_0.32 169
999 COSGEN_0.32 169
107 ESRank7 169
202 ESForwSacLong+2+5 169
999 WORDS_familles~16 195
999 WORDFREQ_32.7 195
999 WORDSALL_les~15_familles~16 195
999 COSIND_0.09 195
999 COSGEN_0.09 195
108 ESRank8 195
202 ESForwSacLong+3+10 195
999 WORDS_d'accueil~17 201
999 WORDFREQ_16.22 201
999 WORDSALL_d'accueil~17 201
999 COSIND_0.51 201
999 COSGEN_0.51 201
109 ESRank9 201
201 ESForwSacShort 201
999 WORDS_préalable~19 230
999 WORDFREQ_1.96 230
999 WORDSALL_Le~18_préalable~19 230
999 COSIND_-0.03 230
999 COSGEN_-0.03 230
110 ESRank10 230
202 ESForwSacLong+2+4 230
999 WORDS_identification~22 119
999 WORDFREQ_1.76 119
999 WORDSALL_identification~22 119
999 COSIND_0.06 119
999 COSGEN_0.06 119
111 ESRank11 119
202 ESForwSacLong+3+10 119
200 ESRankN 119
199 ESRankNMinus1 230
198 ESRankNMinus2 201
197 ESRankNMinus3 195
196 ESRankNMinus4 169
195 ESRankNMinus5 136
194 ESRankNMinus6 182
193 ESRankNMinus7 120
192 ESRankNMinus8 126
191 ESRankNMinus9 110
190 ESRankNMinus10 158
