999 WORDS_économie~1 101
999 WORDFREQ_15.74 101
999 WORDSALL_Une~0_économie~1 101
999 COSIND_0.88 101
999 COSGEN_0.88 101
101 ESRank1 101
999 WORDS_économie~1 147
999 WORDFREQ_15.74 147
999 WORDSALL_Une~0_économie~1 147
999 COSIND_0.88 147
999 COSGEN_0.88 147
102 ESRank2 147
203 ESBackSacRefixation 147
999 WORDS_New~2 154
999 WORDFREQ_3.51 154
999 WORDSALL_économie~1_New~2 154
999 COSIND_N/A 154
103 ESRank3 154
201 ESForwSacShort 154
999 WORDS_Age~3 229
999 WORDFREQ_0.47 229
999 WORDSALL_New~2_Age~3 229
999 COSIND_0.02 229
999 COSGEN_0.02 229
104 ESRank4 229
201 ESForwSacShort 229
999 WORDS_économie~6 434
999 WORDFREQ_15.74 434
999 WORDSALL_est~4_économie~6 434
999 COSIND_0.88 434
999 COSGEN_0.88 434
105 ESRank5 434
202 ESForwSacLong+3+9 434
999 WORDS_économie~6 226
999 WORDFREQ_15.74 226
999 WORDSALL_économie~6 226
999 COSIND_0.88 226
999 COSGEN_0.88 226
106 ESRank6 226
203 ESBackSacRefixation 226
999 WORDS_croissance~10 88
999 WORDFREQ_3.92 88
999 WORDSALL_laquelle~8_croissance~10 88
999 COSIND_0.79 88
999 COSGEN_0.79 88
107 ESRank7 88
202 ESForwSacLong+4+18 88
999 WORDS_laquelle~8 163
999 WORDFREQ_182.36 163
999 WORDSALL_laquelle~8 163
999 COSIND_N/A 163
108 ESRank8 163
206 ESBackSacRegrLong-2-4 163
999 WORDS_croissance~10 208
999 WORDFREQ_3.92 208
999 WORDSALL_croissance~10 208
999 COSIND_0.79 208
999 COSGEN_0.79 208
109 ESRank9 208
202 ESForwSacLong+2+4 208
999 WORDS_l'efficacité~12 232
999 WORDFREQ_8.51 232
999 WORDSALL_l'efficacité~12 232
999 COSIND_0.04 232
999 COSGEN_0.04 232
110 ESRank10 232
202 ESForwSacLong+2+4 232
999 WORDS_l'efficacité~12 168
999 WORDFREQ_8.51 168
999 WORDSALL_de~11_l'efficacité~12 168
999 COSIND_0.04 168
999 COSGEN_0.04 168
111 ESRank11 168
203 ESBackSacRefixation 168
999 WORDS_l'efficacité~12 84
999 WORDFREQ_8.51 84
999 WORDSALL_l'efficacité~12 84
999 COSIND_0.04 84
999 COSGEN_0.04 84
112 ESRank12 84
203 ESBackSacRefixation 84
999 WORDS_utilisons~16 152
999 WORDFREQ_0.07 152
999 WORDSALL_laquelle~14_utilisons~16 152
999 COSIND_-0.01 152
999 COSGEN_-0.01 152
113 ESRank13 152
202 ESForwSacLong+4+20 152
999 WORDS_laquelle~14 214
999 WORDFREQ_182.36 214
999 WORDSALL_laquelle~14 214
999 COSIND_N/A 214
114 ESRank14 214
206 ESBackSacRegrLong-2-6 214
999 WORDS_utilisons~16 194
999 WORDFREQ_0.07 194
999 WORDSALL_nous~15_utilisons~16 194
999 COSIND_-0.01 194
999 COSGEN_-0.01 194
115 ESRank15 194
202 ESForwSacLong+2+6 194
999 WORDS_trouve~21 217
999 WORDFREQ_163.78 217
999 WORDSALL_trouve~21 217
999 COSIND_0.00 217
999 COSGEN_0.00 217
116 ESRank16 217
202 ESForwSacLong+5+31 217
999 WORDS_durablement~22 207
999 WORDFREQ_0.74 207
999 WORDSALL_durablement~22 207
999 COSIND_0.33 207
999 COSGEN_0.33 207
117 ESRank17 207
201 ESForwSacShort 207
999 WORDS_accélérée~23 203
999 WORDFREQ_2.23 203
999 WORDSALL_accélérée~23 203
999 COSIND_0.32 203
999 COSGEN_0.32 203
118 ESRank18 203
201 ESForwSacShort 203
200 ESRankN 203
199 ESRankNMinus1 207
198 ESRankNMinus2 217
197 ESRankNMinus3 194
196 ESRankNMinus4 214
195 ESRankNMinus5 152
194 ESRankNMinus6 84
193 ESRankNMinus7 168
192 ESRankNMinus8 232
191 ESRankNMinus9 208
190 ESRankNMinus10 163
