999 WORDS_couple~1 241
999 WORDFREQ_47.23 241
999 WORDSALL_couple~1 241
999 COSIND_0.02 241
999 COSGEN_0.02 241
101 ESRank1 241
999 WORDS_quinquagénaires~3 266
999 WORDFREQ_0.27 266
999 WORDSALL_de~2_quinquagénaires~3 266
999 COSIND_-0.05 266
999 COSGEN_-0.05 266
102 ESRank2 266
202 ESForwSacLong+2+4 266
999 WORDS_quinquagénaires~3 203
999 WORDFREQ_0.27 203
999 WORDSALL_quinquagénaires~3 203
999 COSIND_-0.05 203
999 COSGEN_-0.05 203
103 ESRank3 203
203 ESBackSacRefixation 203
999 WORDS_mosellans~4 352
999 WORDFREQ_N/A 352
999 WORDSALL_mosellans~4 352
999 COSIND_N/A 352
104 ESRank4 352
201 ESForwSacShort 352
999 WORDS_mosellans~4 166
999 WORDFREQ_N/A 166
999 WORDSALL_mosellans~4 166
999 COSIND_N/A 166
105 ESRank5 166
203 ESBackSacRefixation 166
999 WORDS_quinquagénaires~3 238
999 WORDFREQ_0.27 238
999 WORDSALL_quinquagénaires~3 238
999 COSIND_-0.05 238
999 COSGEN_-0.05 238
106 ESRank6 238
205 ESBackSacRegrShort 238
999 WORDS_mosellans~4 404
999 WORDFREQ_N/A 404
999 WORDSALL_mosellans~4 404
999 COSIND_N/A 404
107 ESRank7 404
201 ESForwSacShort 404
999 WORDS_mosellans~4 109
999 WORDFREQ_N/A 109
999 WORDSALL_mosellans~4 109
999 COSIND_N/A 109
108 ESRank8 109
203 ESBackSacRefixation 109
999 WORDS_mosellans~4 122
999 WORDFREQ_N/A 122
999 WORDSALL_mosellans~4 122
999 COSIND_N/A 122
109 ESRank9 122
203 ESBackSacRefixation 122
999 WORDS_sera~5 85
999 WORDFREQ_66.69 85
999 WORDSALL_mosellans~4_sera~5 85
999 COSIND_0.04 85
999 COSGEN_0.04 85
110 ESRank10 85
201 ESForwSacShort 85
999 WORDS_mardi~7 283
999 WORDFREQ_15.47 283
999 WORDSALL_jugé~6_mardi~7 283
999 COSIND_0.01 283
999 COSGEN_0.01 283
111 ESRank11 283
202 ESForwSacLong+2+7 283
999 WORDS_correctionnel~9 496
999 WORDFREQ_0 496
999 WORDSALL_en~8_correctionnel~9 496
999 COSIND_0.58 496
999 COSGEN_0.58 496
112 ESRank12 496
202 ESForwSacLong+2+4 496
999 WORDS_correctionnel~9 178
999 WORDFREQ_0 178
999 WORDSALL_mardi~7_correctionnel~9 178
999 COSIND_0.58 178
999 COSGEN_0.58 178
113 ESRank13 178
203 ESBackSacRefixation 178
999 WORDS_correctionnel~9 352
999 WORDFREQ_0 352
999 WORDSALL_correctionnel~9 352
999 COSIND_0.58 352
999 COSGEN_0.58 352
114 ESRank14 352
203 ESBackSacRefixation 352
999 WORDS_correctionnel~9 146
999 WORDFREQ_0 146
999 WORDSALL_en~8_correctionnel~9 146
999 COSIND_0.58 146
999 COSGEN_0.58 146
115 ESRank15 146
203 ESBackSacRefixation 146
999 WORDS_détention~11 150
999 WORDFREQ_2.84 150
999 WORDSALL_pour~10_détention~11 150
999 COSIND_0.20 150
999 COSGEN_0.20 150
116 ESRank16 150
202 ESForwSacLong+2+6 150
999 WORDS_détention~11 229
999 WORDFREQ_2.84 229
999 WORDSALL_pour~10_détention~11 229
999 COSIND_0.20 229
999 COSGEN_0.20 229
117 ESRank17 229
203 ESBackSacRefixation 229
999 WORDS_personnel~14 162
999 WORDFREQ_18.38 162
999 WORDSALL_personnel~14 162
999 COSIND_0.01 162
999 COSGEN_0.01 162
118 ESRank18 162
202 ESForwSacLong+3+10 162
999 WORDS_usage~13 446
999 WORDFREQ_42.3 446
999 WORDSALL_usage~13 446
999 COSIND_0.20 446
999 COSGEN_0.20 446
119 ESRank19 446
205 ESBackSacRegrShort 446
999 WORDS_personnel~14 147
999 WORDFREQ_18.38 147
999 WORDSALL_usage~13_personnel~14 147
999 COSIND_0.01 147
999 COSGEN_0.01 147
120 ESRank20 147
201 ESForwSacShort 147
999 WORDS_stupéfiants~16 280
999 WORDFREQ_0.47 280
999 WORDSALL_de~15_stupéfiants~16 280
999 COSIND_0.21 280
999 COSGEN_0.21 280
202 ESForwSacLong+2+4 280
999 WORDS_stupéfiants~16 183
999 WORDFREQ_0.47 183
999 WORDSALL_de~15_stupéfiants~16 183
999 COSIND_0.21 183
999 COSGEN_0.21 183
203 ESBackSacRefixation 183
999 WORDS_stupéfiants~16 144
999 WORDFREQ_0.47 144
999 WORDSALL_stupéfiants~16 144
999 COSIND_0.21 144
999 COSGEN_0.21 144
203 ESBackSacRefixation 144
999 WORDS_pots~20 154
999 WORDFREQ_15.74 154
999 WORDSALL_leurs~19_pots~20 154
999 COSIND_0.23 154
999 COSGEN_0.23 154
202 ESForwSacLong+4+22 154
999 WORDS_arrosaient~18 284
999 WORDFREQ_0.68 284
999 WORDSALL_arrosaient~18 284
999 COSIND_0.01 284
999 COSGEN_0.01 284
206 ESBackSacRegrLong-2-7 284
999 WORDS_pots~20 231
999 WORDFREQ_15.74 231
999 WORDSALL_leurs~19_pots~20 231
999 COSIND_0.23 231
999 COSGEN_0.23 231
202 ESForwSacLong+2+7 231
999 WORDS_pots~20 224
999 WORDFREQ_15.74 224
999 WORDSALL_leurs~19_pots~20 224
999 COSIND_0.23 224
999 COSGEN_0.23 224
203 ESBackSacRefixation 224
999 WORDS_cannabis~22 192
999 WORDFREQ_0.14 192
999 WORDSALL_de~21_cannabis~22 192
999 COSIND_N/A 192
202 ESForwSacLong+2+4 192
999 WORDS_pots~20 152
999 WORDFREQ_15.74 152
999 WORDSALL_pots~20 152
999 COSIND_0.23 152
999 COSGEN_0.23 152
206 ESBackSacRegrLong-2-4 152
999 WORDS_cannabis~22 147
999 WORDFREQ_0.14 147
999 WORDSALL_de~21_cannabis~22 147
999 COSIND_N/A 147
202 ESForwSacLong+2+4 147
999 WORDS_cannabis~22 171
999 WORDFREQ_0.14 171
999 WORDSALL_cannabis~22 171
999 COSIND_N/A 171
203 ESBackSacRefixation 171
999 WORDS_arrosaient~18 170
999 WORDFREQ_0.68 170
999 WORDSALL_arrosaient~18 170
999 COSIND_0.01 170
999 COSGEN_0.01 170
206 ESBackSacRegrLong-4-15 170
999 WORDS_arrosaient~18 193
999 WORDFREQ_0.68 193
999 WORDSALL_arrosaient~18 193
999 COSIND_0.01 193
999 COSGEN_0.01 193
203 ESBackSacRefixation 193
999 WORDS_fenêtre~28 177
999 WORDFREQ_199.39 177
999 WORDSALL_leur~27_fenêtre~28 177
999 COSIND_-0.05 177
999 COSGEN_-0.05 177
202 ESForwSacLong+10+46 177
999 WORDS_fenêtre~28 362
999 WORDFREQ_199.39 362
999 WORDSALL_de~26_fenêtre~28 362
999 COSIND_-0.05 362
999 COSGEN_-0.05 362
203 ESBackSacRefixation 362
999 WORDS_arrosaient~18 316
999 WORDFREQ_0.68 316
999 WORDSALL_arrosaient~18 316
999 COSIND_0.01 316
999 COSGEN_0.01 316
206 ESBackSacRegrLong-10-46 316
999 WORDS_pots~20 152
999 WORDFREQ_15.74 152
999 WORDSALL_leurs~19_pots~20 152
999 COSIND_0.23 152
999 COSGEN_0.23 152
202 ESForwSacLong+2+7 152
999 WORDS_stupéfiants~16 184
999 WORDFREQ_0.47 184
999 WORDSALL_de~15_stupéfiants~16 184
999 COSIND_0.21 184
999 COSGEN_0.21 184
206 ESBackSacRegrLong-4-22 184
999 WORDS_quinquagénaires~3 213
999 WORDFREQ_0.27 213
999 WORDSALL_quinquagénaires~3 213
999 COSIND_-0.05 213
999 COSGEN_-0.05 213
206 ESBackSacRegrLong-13-83 213
999 WORDS_couple~1 184
999 WORDFREQ_47.23 184
999 WORDSALL_couple~1 184
999 COSIND_0.02 184
999 COSGEN_0.02 184
206 ESBackSacRegrLong-2-4 184
200 ESRankN 184
199 ESRankNMinus1 213
198 ESRankNMinus2 184
197 ESRankNMinus3 152
196 ESRankNMinus4 316
195 ESRankNMinus5 362
194 ESRankNMinus6 177
193 ESRankNMinus7 193
192 ESRankNMinus8 170
191 ESRankNMinus9 171
190 ESRankNMinus10 147
