999 WORDS_contexte~2 193
999 WORDFREQ_2.16 193
999 WORDSALL_Dans~0_contexte~2 193
999 COSIND_-0.07 193
999 COSGEN_-0.07 193
101 ESRank1 193
999 WORDS_contexte~2 231
999 WORDFREQ_2.16 231
999 WORDSALL_contexte~2 231
999 COSIND_-0.07 231
999 COSGEN_-0.07 231
102 ESRank2 231
203 ESBackSacRefixation 231
999 WORDS_relevé~3 271
999 WORDFREQ_4.19 271
999 WORDSALL_relevé~3 271
999 COSIND_0.07 271
999 COSGEN_0.07 271
103 ESRank3 271
201 ESForwSacShort 271
999 WORDS_joueurs~5 234
999 WORDFREQ_9.53 234
999 WORDSALL_les~4_joueurs~5 234
999 COSIND_0.30 234
999 COSGEN_0.30 234
104 ESRank4 234
202 ESForwSacLong+2+5 234
999 WORDS_marseillais~6 424
999 WORDFREQ_0.88 424
999 WORDSALL_marseillais~6 424
999 COSIND_0.43 424
999 COSGEN_0.43 424
105 ESRank5 424
201 ESForwSacShort 424
999 WORDS_voulaient~7 270
999 WORDFREQ_30.2 270
999 WORDSALL_voulaient~7 270
999 COSIND_0.01 270
999 COSGEN_0.01 270
106 ESRank6 270
201 ESForwSacShort 270
999 WORDS_public~11 190
999 WORDFREQ_37.91 190
999 WORDSALL_public~11 190
999 COSIND_0.03 190
999 COSGEN_0.03 190
107 ESRank7 190
202 ESForwSacLong+4+25 190
999 WORDS_satisfaire~9 262
999 WORDFREQ_12.36 262
999 WORDSALL_surtout~8_satisfaire~9 262
999 COSIND_0.08 262
999 COSGEN_0.08 262
108 ESRank8 262
206 ESBackSacRegrLong-2-6 262
999 WORDS_satisfaire~9 204
999 WORDFREQ_12.36 204
999 WORDSALL_surtout~8_satisfaire~9 204
999 COSIND_0.08 204
999 COSGEN_0.08 204
109 ESRank9 204
203 ESBackSacRefixation 204
999 WORDS_gagnée~15 214
999 WORDFREQ_0.81 214
999 WORDSALL_finale~14_gagnée~15 214
999 COSIND_0.44 214
999 COSGEN_0.44 214
110 ESRank10 214
202 ESForwSacLong+6+31 214
999 WORDS_satisfaire~9 240
999 WORDFREQ_12.36 240
999 WORDSALL_satisfaire~9 240
999 COSIND_0.08 240
999 COSGEN_0.08 240
111 ESRank11 240
206 ESBackSacRegrLong-6-31 240
999 WORDS_satisfaire~9 89
999 WORDFREQ_12.36 89
999 WORDSALL_surtout~8_satisfaire~9 89
999 COSIND_0.08 89
999 COSGEN_0.08 89
112 ESRank12 89
203 ESBackSacRefixation 89
999 WORDS_public~11 193
999 WORDFREQ_37.91 193
999 WORDSALL_leur~10_public~11 193
999 COSIND_0.03 193
999 COSGEN_0.03 193
113 ESRank13 193
202 ESForwSacLong+2+6 193
999 WORDS_public~11 138
999 WORDFREQ_37.91 138
999 WORDSALL_leur~10_public~11 138
999 COSIND_0.03 138
999 COSGEN_0.03 138
114 ESRank14 138
203 ESBackSacRefixation 138
999 WORDS_public~11 161
999 WORDFREQ_37.91 161
999 WORDSALL_public~11 161
999 COSIND_0.03 161
999 COSGEN_0.03 161
115 ESRank15 161
203 ESBackSacRefixation 161
999 WORDS_finale~14 310
999 WORDFREQ_2.5 310
999 WORDSALL_cette~13_finale~14 310
999 COSIND_0.74 310
999 COSGEN_0.74 310
116 ESRank16 310
202 ESForwSacLong+3+12 310
999 WORDS_finale~14 164
999 WORDFREQ_2.5 164
999 WORDSALL_cette~13_finale~14 164
999 COSIND_0.74 164
999 COSGEN_0.74 164
117 ESRank17 164
203 ESBackSacRefixation 164
999 WORDS_gagnée~15 297
999 WORDFREQ_0.81 297
999 WORDSALL_finale~14_gagnée~15 297
999 COSIND_0.44 297
999 COSGEN_0.44 297
118 ESRank18 297
201 ESForwSacShort 297
999 WORDS_l'équipe~16 180
999 WORDFREQ_26.28 180
999 WORDSALL_l'équipe~16 180
999 COSIND_0.18 180
999 COSGEN_0.18 180
119 ESRank19 180
201 ESForwSacShort 180
999 WORDS_l'équipe~16 327
999 WORDFREQ_26.28 327
999 WORDSALL_l'équipe~16 327
999 COSIND_0.18 327
999 COSGEN_0.18 327
120 ESRank20 327
203 ESBackSacRefixation 327
999 WORDS_phocéenne~17 227
999 WORDFREQ_0.07 227
999 WORDSALL_l'équipe~16_phocéenne~17 227
999 COSIND_-0.02 227
999 COSGEN_-0.02 227
201 ESForwSacShort 227
999 WORDS_l'élite~24 252
999 WORDFREQ_8.65 252
999 WORDSALL_parmi~23_l'élite~24 252
999 COSIND_0.07 252
999 COSGEN_0.07 252
202 ESForwSacLong+7+46 252
999 WORDS_l'élite~24 151
999 WORDFREQ_8.65 151
999 WORDSALL_parmi~23_l'élite~24 151
999 COSIND_0.07 151
999 COSGEN_0.07 151
203 ESBackSacRefixation 151
999 WORDS_l'élite~24 264
999 WORDFREQ_8.65 264
999 WORDSALL_l'élite~24 264
999 COSIND_0.07 264
999 COSGEN_0.07 264
203 ESBackSacRefixation 264
999 WORDS_football~26 136
999 WORDFREQ_6.28 136
999 WORDSALL_du~25_football~26 136
999 COSIND_0.09 136
999 COSGEN_0.09 136
202 ESForwSacLong+2+4 136
200 ESRankN 136
199 ESRankNMinus1 264
198 ESRankNMinus2 151
197 ESRankNMinus3 252
196 ESRankNMinus4 227
195 ESRankNMinus5 327
194 ESRankNMinus6 180
193 ESRankNMinus7 297
192 ESRankNMinus8 164
191 ESRankNMinus9 310
190 ESRankNMinus10 161
