999 WORDS_Zinedine~0 157
999 WORDFREQ_N/A 157
999 WORDSALL_Zinedine~0 157
999 COSIND_N/A 157
101 ESRank1 157
999 WORDS_Zinedine~0 89
999 WORDFREQ_N/A 89
999 WORDSALL_Zinedine~0 89
999 COSIND_N/A 89
102 ESRank2 89
203 ESBackSacRefixation 89
999 WORDS_Zidane~1 138
999 WORDFREQ_N/A 138
999 WORDSALL_Zidane~1 138
999 COSIND_N/A 138
103 ESRank3 138
201 ESForwSacShort 138
999 WORDS_grand~2 170
999 WORDFREQ_537.97 170
999 WORDSALL_grand~2 170
999 COSIND_-0.01 170
999 COSGEN_-0.01 170
104 ESRank4 170
201 ESForwSacShort 170
999 WORDS_artisan~3 187
999 WORDFREQ_5 187
999 WORDSALL_artisan~3 187
999 COSIND_-0.08 187
999 COSGEN_-0.08 187
105 ESRank5 187
201 ESForwSacShort 187
999 WORDS_finale~11 100
999 WORDFREQ_2.5 100
999 WORDSALL_artisan~3_finale~11 100
999 COSIND_-0.01 100
999 COSGEN_-0.01 100
106 ESRank6 100
202 ESForwSacLong+8+32 100
999 WORDS_finale~11 381
999 WORDFREQ_2.5 381
999 WORDSALL_de~4_finale~11 381
999 COSIND_-0.01 381
999 COSGEN_-0.01 381
107 ESRank7 381
203 ESBackSacRefixation 381
999 WORDS_victoire~6 101
999 WORDFREQ_57.23 101
999 WORDSALL_Zinedine~0_victoire~6 101
999 COSIND_-0.09 101
999 COSGEN_-0.09 101
108 ESRank8 101
206 ESBackSacRegrLong-5-17 101
999 WORDS_victoire~6 109
999 WORDFREQ_57.23 109
999 WORDSALL_Zinedine~0_victoire~6 109
999 COSIND_-0.09 109
999 COSGEN_-0.09 109
109 ESRank9 109
203 ESBackSacRefixation 109
999 WORDS_France~9 113
999 WORDFREQ_N/A 113
999 WORDSALL_Zidane~1_France~9 113
999 COSIND_N/A 113
110 ESRank10 113
202 ESForwSacLong+3+7 113
999 WORDS_France~9 122
999 WORDFREQ_N/A 122
999 WORDSALL_grand~2_France~9 122
999 COSIND_N/A 122
111 ESRank11 122
203 ESBackSacRefixation 122
999 WORDS_finale~11 146
999 WORDFREQ_2.5 146
999 WORDSALL_artisan~3_finale~11 146
999 COSIND_-0.01 146
999 COSGEN_-0.01 146
112 ESRank12 146
202 ESForwSacLong+2+4 146
999 WORDS_finale~11 104
999 WORDFREQ_2.5 104
999 WORDSALL_finale~11 104
999 COSIND_-0.01 104
999 COSGEN_-0.01 104
113 ESRank13 104
203 ESBackSacRefixation 104
999 WORDS_été~21 89
999 WORDFREQ_40.2 89
999 WORDSALL_de~12_a~20_été~21 89
999 COSIND_0.01 89
999 COSGEN_0.01 89
114 ESRank14 89
202 ESForwSacLong+10+42 89
999 WORDS_coupe~14 107
999 WORDFREQ_33.58 107
999 WORDSALL_victoire~6_coupe~14 107
999 COSIND_-0.07 107
999 COSGEN_-0.07 107
115 ESRank15 107
206 ESBackSacRegrLong-7-30 107
999 WORDS_coupe~14 106
999 WORDFREQ_33.58 106
999 WORDSALL_victoire~6_coupe~14 106
999 COSIND_-0.07 106
999 COSGEN_-0.07 106
116 ESRank16 106
203 ESBackSacRefixation 106
999 WORDS_Brésil~19 127
999 WORDFREQ_0.07 127
999 WORDSALL_France~9_Brésil~19 127
999 COSIND_-0.01 127
999 COSGEN_-0.01 127
117 ESRank17 127
202 ESForwSacLong+5+20 127
999 WORDS_Brésil~19 137
999 WORDFREQ_0.07 137
999 WORDSALL_le~18_Brésil~19 137
999 COSIND_-0.01 137
999 COSGEN_-0.01 137
118 ESRank18 137
203 ESBackSacRefixation 137
999 WORDS_été~21 211
999 WORDFREQ_40.2 211
999 WORDSALL_de~12_a~20_été~21 211
999 COSIND_0.01 211
999 COSGEN_0.01 211
119 ESRank19 211
202 ESForwSacLong+2+3 211
999 WORDS_champion~23 122
999 WORDFREQ_10.81 122
999 WORDSALL_coupe~14_champion~23 122
999 COSIND_0.01 122
999 COSGEN_0.01 122
120 ESRank20 122
202 ESForwSacLong+2+6 122
999 WORDS_champions~25 188
999 WORDFREQ_2.97 188
999 WORDSALL_monde~16_champions~25 188
999 COSIND_0.01 188
999 COSGEN_0.01 188
202 ESForwSacLong+2+5 188
200 ESRankN 188
199 ESRankNMinus1 122
198 ESRankNMinus2 211
197 ESRankNMinus3 137
196 ESRankNMinus4 127
195 ESRankNMinus5 106
194 ESRankNMinus6 107
193 ESRankNMinus7 89
192 ESRankNMinus8 104
191 ESRankNMinus9 146
190 ESRankNMinus10 122
