# 128 Fixation 1 (284.3,249.9): Plusieurs~0
# 183 Fixation 2 (418,257.3): tribunaux~1
# 213 Fixation 3 (541.4,249.7): administratifs~2
# 119 Fixation 4 (613.6,254.5): administratifs~2
# 102 Fixation 5 (706.5,256.9): ont~3
# 166 Fixation 6 (294.6,338.4): sommé~4
# 153 Fixation 7 (413.3,311.8): tribunaux~1
# 169 Fixation 8 (284.2,340.8): sommé~4
# 206 Fixation 9 (363.9,341.8): les~5 préfets~6
# 248 Fixation 10 (568.9,303): administratifs~2
# 173 Fixation 11 (667.7,318.3): départements~9
# 88 Fixation 12 (762.9,316.8): départements~9
# 189 Fixation 13 (317.2,395.5): prendre~11
# 124 Fixation 14 (403.4,402.6): des~12 arrêtés~13
# 254 Fixation 15 (278.5,399.4): prendre~11
# 214 Fixation 16 (399.8,406.4): des~12 arrêtés~13
# 401 Fixation 17 (369,404.2): prendre~11 arrêtés~13
# 236 Fixation 18 (428.2,406.2): des~12 arrêtés~13
# 205 Fixation 19 (584,398): de~14 fermeture~15
# 131 Fixation 20 (687.9,405.7): de~16
# 182 Fixation 21 (306.6,442.5): prendre~11
# 188 Fixation 22 (403.3,453.5): aux~19 oiseaux~20
# 263 Fixation 23 (533,463.8): migrateurs~21
# 136 Fixation 24 (666.8,455.7): au~22 31~23
# 141 Fixation 25 (360.6,513.9): janvier~24 réduisant~25
# 164 Fixation 26 (617.3,516.8): trois~27 semaines~28
%%
# Plusieurs~0 Fixations= "1/"
# tribunaux~1 Fixations= "7/"
# administratifs~2 Fixations= "10/"
# ont~3 Fixations= "5/"
# sommé~4 Fixations= "8/"
# les~5 Fixations= "9/"
# préfets~6 Fixations= "9/"
# de~7 Fixations= ""
# treize~8 Fixations= ""
# départements~9 Fixations= "12/"
# de~10 Fixations= ""
# prendre~11 Fixations= "21/"
# des~12 Fixations= "18/"
# arrêtés~13 Fixations= "18/"
# de~14 Fixations= "19/"
# fermeture~15 Fixations= "19/"
# de~16 Fixations= "20/"
# la~17 Fixations= ""
# chasse~18 Fixations= ""
# aux~19 Fixations= "22/"
# oiseaux~20 Fixations= "22/"
# migrateurs~21 Fixations= "23/"
# au~22 Fixations= "24/"
# 31~23 Fixations= "24/"
# janvier~24 Fixations= "25/"
# réduisant~25 Fixations= "25/"
# de~26 Fixations= ""
# trois~27 Fixations= "26/"
# semaines~28 Fixations= "26/"
# la~29 Fixations= ""
# durée~30 Fixations= ""
# de~31 Fixations= ""
# la~32 Fixations= ""
# chasse~33 Fixations= ""
%%
#  PLUSIEURS[1] TRIBUNAUX[7] ADMINISTRATIFS[10] ONT[5] SOMMé[8] LES[9] PRéFETS[9] de treize DéPARTEMENTS[12] de PRENDRE[21] DES[18] ARRêTéS[18] DE[19] FERMETURE[19] DE[20] la chasse AUX[22] OISEAUX[22] MIGRATEURS[23] AU[24] 31[24] JANVIER[25] RéDUISANT[25] de TROIS[26] SEMAINES[26] la durée de la chasse
# s17 chasse_oiseaux-f2 PercentageOfWordsProcessed= 0.676470588235294 PercentageOfWordsReallyProcessed= 0.793103448275862
