# 161 Fixation 1 (386.3,293.8): plainte~1 avait~2
# 132 Fixation 2 (319.9,288.2): La~0 plainte~1
# 183 Fixation 3 (485.4,287.3): avait~2 été~3
# 102 Fixation 4 (520.1,282.3): été~3 déposée~4
# 213 Fixation 5 (416.5,288.6): avait~2
# 202 Fixation 6 (316.7,334.9): La~0 plainte~1 l'entreprise~6
# 157 Fixation 7 (464.4,339.7): avait~2 été~3 portait~8
# 143 Fixation 8 (585.7,341.2): déposée~4
# 110 Fixation 9 (655.3,341.8): par~5 mobilier~11
# 101 Fixation 10 (467.2,340.6): avait~2 été~3 portait~8
# 263 Fixation 11 (620.3,345.4): déposée~4 mobilier~11
# 198 Fixation 12 (496.5,340.5): été~3 portait~8
# 181 Fixation 13 (626.2,344): déposée~4 mobilier~11
# 148 Fixation 14 (344.3,383.4): l'entreprise~6
# 192 Fixation 15 (280.8,390.4): l'entreprise~6 urbain~12
# 105 Fixation 16 (420.9,395.8): et~7 portait~8 service~15
# 136 Fixation 17 (370.6,396.2): l'entreprise~6 service~15
# 101 Fixation 18 (543.7,402.9): portait~8 location~17
# 131 Fixation 19 (581.9,402.8): sur~9 mobilier~11 location~17
# 214 Fixation 20 (697.2,406.4): mobilier~11 vélos~19
# 173 Fixation 21 (627.3,400): sur~9 mobilier~11 location~17
# 234 Fixation 22 (323.6,443): urbain~12 libre~21
# 156 Fixation 23 (388.7,452.2): et~13 service~15 service~22
# 157 Fixation 24 (263.8,454.5): urbain~12
# 95 Fixation 25 (517.4,458.6): service~15 groupe~24
# 202 Fixation 26 (601.3,466.6): location~17 américain~25
# 103 Fixation 27 (641.4,472.4): location~17 américain~25
# 205 Fixation 28 (330.2,518.7): libre~21
# 151 Fixation 29 (273.6,510.5): en~20 libre~21
# 254 Fixation 30 (389.7,514): libre~21 service~22
# 184 Fixation 31 (309,515.8): en~20 libre~21
# 158 Fixation 32 (532.7,428.4): service~15 location~17 groupe~24
# 166 Fixation 33 (422,294.2): avait~2
# 211 Fixation 34 (333,293.4): plainte~1
# 200 Fixation 35 (371,347.6): plainte~1 avait~2 l'entreprise~6
# 211 Fixation 36 (504.1,348.1): été~3 portait~8
# 173 Fixation 37 (629.5,360): sur~9 mobilier~11
%%
# La~0 Fixations= "6/"
# plainte~1 Fixations= "35/"
# avait~2 Fixations= "35/"
# été~3 Fixations= "36/"
# déposée~4 Fixations= "13/"
# par~5 Fixations= "9/"
# l'entreprise~6 Fixations= "35/"
# et~7 Fixations= "16/"
# portait~8 Fixations= "36/"
# sur~9 Fixations= "37/"
# le~10 Fixations= ""
# mobilier~11 Fixations= "37/"
# urbain~12 Fixations= "24/"
# et~13 Fixations= "23/"
# le~14 Fixations= ""
# service~15 Fixations= "32/"
# de~16 Fixations= ""
# location~17 Fixations= "32/"
# de~18 Fixations= ""
# vélos~19 Fixations= "20/"
# en~20 Fixations= "31/"
# libre~21 Fixations= "31/"
# service~22 Fixations= "30/"
# Le~23 Fixations= ""
# groupe~24 Fixations= "32/"
# américain~25 Fixations= "27/"
# a~26 Fixations= ""
# déposé~27 Fixations= ""
# un~28 Fixations= ""
# recours~29 Fixations= ""
%%
#  LA[6] PLAINTE[35] AVAIT[35] éTé[36] DéPOSéE[13] PAR[9] L'ENTREPRISE[35] ET[16] PORTAIT[36] SUR[37] le MOBILIER[37] URBAIN[24] ET[23] le SERVICE[32] de LOCATION[32] de VéLOS[20] EN[31] LIBRE[31] SERVICE[30] Le GROUPE[32] AMéRICAIN[27] a déposé un recours
# s04 observation_planetes-a1 PercentageOfWordsProcessed= 0.7 PercentageOfWordsReallyProcessed= 0.807692307692308
