999 WORDS_transports~1 142
999 WORDFREQ_8.04 142
999 WORDSALL_Les~0_transports~1 142
999 COSIND_0.24 142
999 COSGEN_0.24 142
101 ESRank1 142
999 WORDS_transports~1 220
999 WORDFREQ_8.04 220
999 WORDSALL_transports~1 220
999 COSIND_0.24 220
999 COSGEN_0.24 220
102 ESRank2 220
203 ESBackSacRefixation 220
999 WORDS_connaissaient~2 251
999 WORDFREQ_16.08 251
999 WORDSALL_connaissaient~2 251
999 COSIND_0.03 251
999 COSGEN_0.03 251
103 ESRank3 251
201 ESForwSacShort 251
999 WORDS_connaissaient~2 329
999 WORDFREQ_16.08 329
999 WORDSALL_connaissaient~2 329
999 COSIND_0.03 329
999 COSGEN_0.03 329
104 ESRank4 329
203 ESBackSacRefixation 329
999 WORDS_toujours~3 158
999 WORDFREQ_1093.78 158
999 WORDSALL_toujours~3 158
999 COSIND_N/A 158
105 ESRank5 158
201 ESForwSacShort 158
999 WORDS_connaissaient~2 348
999 WORDFREQ_16.08 348
999 WORDSALL_connaissaient~2 348
999 COSIND_0.03 348
999 COSGEN_0.03 348
106 ESRank6 348
205 ESBackSacRegrShort 348
999 WORDS_transports~1 271
999 WORDFREQ_8.04 271
999 WORDSALL_transports~1 271
999 COSIND_0.24 271
999 COSGEN_0.24 271
107 ESRank7 271
205 ESBackSacRegrShort 271
999 WORDS_connaissaient~2 276
999 WORDFREQ_16.08 276
999 WORDSALL_connaissaient~2 276
999 COSIND_0.03 276
999 COSGEN_0.03 276
108 ESRank8 276
201 ESForwSacShort 276
999 WORDS_toujours~3 223
999 WORDFREQ_1093.78 223
999 WORDSALL_toujours~3 223
999 COSIND_N/A 223
109 ESRank9 223
201 ESForwSacShort 223
999 WORDS_d'importantes~4 385
999 WORDFREQ_8.99 385
999 WORDSALL_d'importantes~4 385
999 COSIND_0.03 385
999 COSGEN_0.03 385
110 ESRank10 385
201 ESForwSacShort 385
999 WORDS_perturbations~5 225
999 WORDFREQ_1.08 225
999 WORDSALL_perturbations~5 225
999 COSIND_0.46 225
999 COSGEN_0.46 225
111 ESRank11 225
201 ESForwSacShort 225
999 WORDS_quatrième~7 252
999 WORDFREQ_15.74 252
999 WORDSALL_au~6_quatrième~7 252
999 COSIND_0.00 252
999 COSGEN_0.00 252
112 ESRank12 252
202 ESForwSacLong+2+4 252
999 WORDS_grève~10 202
999 WORDFREQ_22.36 202
999 WORDSALL_jour~8_grève~10 202
999 COSIND_1.00 202
999 COSGEN_1.00 202
113 ESRank13 202
202 ESForwSacLong+3+12 202
999 WORDS_jour~8 150
999 WORDFREQ_826.35 150
999 WORDSALL_jour~8 150
999 COSIND_0.09 150
999 COSGEN_0.09 150
114 ESRank14 150
206 ESBackSacRegrLong-2-7 150
999 WORDS_grève~10 290
999 WORDFREQ_22.36 290
999 WORDSALL_grève~10 290
999 COSIND_1.00 290
999 COSGEN_1.00 290
115 ESRank15 290
202 ESForwSacLong+2+7 290
999 WORDS_syndicats~14 124
999 WORDFREQ_3.24 124
999 WORDSALL_par~12_syndicats~14 124
999 COSIND_0.69 124
999 COSGEN_0.69 124
116 ESRank16 124
202 ESForwSacLong+4+17 124
999 WORDS_projet~19 191
999 WORDFREQ_39.86 191
999 WORDSALL_contre~17_projet~19 191
999 COSIND_0.05 191
999 COSGEN_0.05 191
117 ESRank17 191
202 ESForwSacLong+5+26 191
999 WORDS_temps~23 254
999 WORDFREQ_1289.39 254
999 WORDSALL_réduction~21_temps~23 254
999 COSIND_-0.04 254
999 COSGEN_-0.04 254
118 ESRank18 254
202 ESForwSacLong+4+18 254
999 WORDS_travail~25 178
999 WORDFREQ_223.99 178
999 WORDSALL_de~24_travail~25 178
999 COSIND_0.05 178
999 COSGEN_0.05 178
119 ESRank19 178
202 ESForwSacLong+2+4 178
999 WORDS_présenté~26 149
999 WORDFREQ_11.42 149
999 WORDSALL_travail~25_présenté~26 149
999 COSIND_0.05 149
999 COSGEN_0.05 149
120 ESRank20 149
201 ESForwSacShort 149
200 ESRankN 149
199 ESRankNMinus1 178
198 ESRankNMinus2 254
197 ESRankNMinus3 191
196 ESRankNMinus4 124
195 ESRankNMinus5 290
194 ESRankNMinus6 150
193 ESRankNMinus7 202
192 ESRankNMinus8 252
191 ESRankNMinus9 225
190 ESRankNMinus10 385
