999 WORDS_a~1 191
999 WORDFREQ_2926.69 191
999 WORDSALL_L'Irak~0_a~1 191
999 COSIND_N/A 191
101 ESRank1 191
999 WORDS_demandé~2 154
999 WORDFREQ_128.92 154
999 WORDSALL_a~1_demandé~2 154
999 COSIND_-0.04 154
999 COSGEN_-0.04 154
102 ESRank2 154
201 ESForwSacShort 154
999 WORDS_l'ONU~4 183
999 WORDFREQ_N/A 183
999 WORDSALL_à~3_l'ONU~4 183
999 COSIND_N/A 183
103 ESRank3 183
202 ESForwSacLong+2+4 183
999 WORDS_d'empêcher~5 204
999 WORDFREQ_70.2 204
999 WORDSALL_l'ONU~4_d'empêcher~5 204
999 COSIND_0.11 204
999 COSGEN_0.11 204
104 ESRank4 204
201 ESForwSacShort 204
999 WORDS_survols~7 179
999 WORDFREQ_0 179
999 WORDSALL_survols~7 179
999 COSIND_-0.04 179
999 COSGEN_-0.04 179
105 ESRank5 179
202 ESForwSacLong+2+5 179
999 WORDS_américains~8 173
999 WORDFREQ_18.78 173
999 WORDSALL_américains~8 173
999 COSIND_0.00 173
999 COSGEN_0.00 173
106 ESRank6 173
201 ESForwSacShort 173
999 WORDS_britanniques~10 219
999 WORDFREQ_20.74 219
999 WORDSALL_et~9_britanniques~10 219
999 COSIND_-0.08 219
999 COSGEN_-0.08 219
107 ESRank7 219
202 ESForwSacLong+2+4 219
999 WORDS_et~11 112
999 WORDFREQ_20879.73 112
999 WORDSALL_et~11 112
999 COSIND_N/A 112
108 ESRank8 112
201 ESForwSacShort 112
999 WORDS_à~14 188
999 WORDFREQ_19209.05 188
999 WORDSALL_permettre~13_à~14 188
999 COSIND_N/A 188
109 ESRank9 188
202 ESForwSacLong+3+14 188
999 WORDS_avions~16 183
999 WORDFREQ_31.22 183
999 WORDSALL_avions~16 183
999 COSIND_0.01 183
999 COSGEN_0.01 183
110 ESRank10 183
202 ESForwSacLong+2+5 183
999 WORDS_à~14 152
999 WORDFREQ_19209.05 152
999 WORDSALL_permettre~13_à~14 152
999 COSIND_N/A 152
111 ESRank11 152
206 ESBackSacRegrLong-2-5 152
999 WORDS_scientifiques~21 154
999 WORDFREQ_0.74 154
999 WORDSALL_scientifiques~21 154
999 COSIND_-0.05 154
999 COSGEN_-0.05 154
112 ESRank12 154
202 ESForwSacLong+7+38 154
999 WORDS_étrangers~22 137
999 WORDFREQ_14.86 137
999 WORDSALL_étrangers~22 137
999 COSIND_-0.01 137
999 COSGEN_-0.01 137
113 ESRank13 137
201 ESForwSacShort 137
999 WORDS_soumis~25 162
999 WORDFREQ_3.38 162
999 WORDSALL_L'Irak~23_soumis~25 162
999 COSIND_-0.02 162
999 COSGEN_-0.02 162
114 ESRank14 162
202 ESForwSacLong+3+12 162
999 WORDS_scientifiques~21 133
999 WORDFREQ_0.74 133
999 WORDSALL_scientifiques~21 133
999 COSIND_-0.05 133
999 COSGEN_-0.05 133
115 ESRank15 133
206 ESBackSacRegrLong-4-23 133
999 WORDS_embargo~28 127
999 WORDFREQ_0.07 127
999 WORDSALL_embargo~28 127
999 COSIND_0.01 127
999 COSGEN_0.01 127
116 ESRank16 127
202 ESForwSacLong+7+36 127
999 WORDS_L'Irak~23 192
999 WORDFREQ_N/A 192
999 WORDSALL_L'Irak~23 192
999 COSIND_N/A 192
117 ESRank17 192
206 ESBackSacRegrLong-5-18 192
999 WORDS_transporter~19 137
999 WORDFREQ_10.34 137
999 WORDSALL_transporter~19 137
999 COSIND_0.02 137
999 COSGEN_0.02 137
118 ESRank18 137
206 ESBackSacRegrLong-4-30 137
999 WORDS_à~14 235
999 WORDFREQ_19209.05 235
999 WORDSALL_permettre~13_à~14 235
999 COSIND_N/A 235
119 ESRank19 235
206 ESBackSacRegrLong-5-22 235
999 WORDS_avions~16 166
999 WORDFREQ_31.22 166
999 WORDSALL_ses~15_avions~16 166
999 COSIND_0.01 166
999 COSGEN_0.01 166
120 ESRank20 166
202 ESForwSacLong+2+5 166
999 WORDS_civils~17 90
999 WORDFREQ_5.41 90
999 WORDSALL_avions~16_civils~17 90
999 COSIND_0.24 90
999 COSGEN_0.24 90
201 ESForwSacShort 90
999 WORDS_permettre~13 165
999 WORDFREQ_25.81 165
999 WORDSALL_permettre~13 165
999 COSIND_0.03 165
999 COSGEN_0.03 165
206 ESBackSacRegrLong-4-15 165
999 WORDS_scientifiques~21 211
999 WORDFREQ_0.74 211
999 WORDSALL_scientifiques~21 211
999 COSIND_-0.05 211
999 COSGEN_-0.05 211
202 ESForwSacLong+8+41 211
999 WORDS_étrangers~22 152
999 WORDFREQ_14.86 152
999 WORDSALL_étrangers~22 152
999 COSIND_-0.01 152
999 COSGEN_-0.01 152
201 ESForwSacShort 152
999 WORDS_transporter~19 156
999 WORDFREQ_10.34 156
999 WORDSALL_transporter~19 156
999 COSIND_0.02 156
999 COSGEN_0.02 156
206 ESBackSacRegrLong-3-19 156
999 WORDS_scientifiques~21 196
999 WORDFREQ_0.74 196
999 WORDSALL_des~20_scientifiques~21 196
999 COSIND_-0.05 196
999 COSGEN_-0.05 196
202 ESForwSacLong+2+5 196
200 ESRankN 196
199 ESRankNMinus1 156
198 ESRankNMinus2 152
197 ESRankNMinus3 211
196 ESRankNMinus4 165
195 ESRankNMinus5 90
194 ESRankNMinus6 166
193 ESRankNMinus7 235
192 ESRankNMinus8 137
191 ESRankNMinus9 192
190 ESRankNMinus10 127
