# 133 Fixation 1 (288.5,266.8): Le~0 fondateur~1
# 140 Fixation 2 (452.7,260.7): de~2 guérilla~4
# 136 Fixation 3 (698.4,267.6): en~5 rébellion~6
# 85 Fixation 4 (654.7,267.1): en~5 rébellion~6
# 177 Fixation 5 (367,335.1): fondateur~1 autorités~9
# 92 Fixation 6 (505.5,380.6): autorités~9 fait~11 l'opération~15
# 93 Fixation 7 (502.5,415.5): l'opération~15
# 114 Fixation 8 (756.9,414.2): visant~17 à~18
# 205 Fixation 9 (429.8,487.3): trois~20 otages~21
# 147 Fixation 10 (323.1,526.8): remettre~19 semaine~28
%%
# Le~0 Fixations= "1/"
# fondateur~1 Fixations= "5/"
# de~2 Fixations= "2/"
# la~3 Fixations= ""
# guérilla~4 Fixations= "2/"
# en~5 Fixations= "4/"
# rébellion~6 Fixations= "4/"
# contre~7 Fixations= ""
# les~8 Fixations= ""
# autorités~9 Fixations= "6/"
# ne~10 Fixations= ""
# fait~11 Fixations= "6/"
# aucune~12 Fixations= ""
# allusion~13 Fixations= ""
# à~14 Fixations= ""
# l'opération~15 Fixations= "7/"
# humanitaire~16 Fixations= ""
# visant~17 Fixations= "8/"
# à~18 Fixations= "8/"
# remettre~19 Fixations= "10/"
# trois~20 Fixations= "9/"
# otages~21 Fixations= "9/"
# qui~22 Fixations= ""
# a~23 Fixations= ""
# capoté~24 Fixations= ""
# en~25 Fixations= ""
# début~26 Fixations= ""
# de~27 Fixations= ""
# semaine~28 Fixations= "10/"
# dernière~29 Fixations= ""
%%
#  LE[1] FONDATEUR[5] DE[2] la GUéRILLA[2] EN[4] RéBELLION[4] contre les AUTORITéS[6] ne FAIT[6] aucune allusion à L'OPéRATION[7] humanitaire VISANT[8] à[8] REMETTRE[10] TROIS[9] OTAGES[9] qui a capoté en début de SEMAINE[10] dernière
# s19 course_voiliers-a2 PercentageOfWordsProcessed= 0.5 PercentageOfWordsReallyProcessed= 0.517241379310345
