# 314 Fixation 1 (287.8,287): A~0 Moscou~1
# 225 Fixation 2 (425.7,276.1): les~2 communiqués~3
# 147 Fixation 3 (487.3,275): communiqués~3
# 267 Fixation 4 (625.4,277.7): triomphants~4
# 160 Fixation 5 (607.6,280.3): triomphants~4
# 200 Fixation 6 (722.7,286.3): triomphants~4
# 179 Fixation 7 (740.2,289.5): triomphants~4
# 162 Fixation 8 (309.1,338.8): succèdent~6
# 223 Fixation 9 (288.9,339.3): succèdent~6
# 206 Fixation 10 (421.7,343): Dans~7 Daghestan~9
# 327 Fixation 11 (505.9,347.5): le~8 Daghestan~9
# 190 Fixation 12 (718.2,349.3): les~10 rebelles~11
# 121 Fixation 13 (687.3,355.9): les~10 rebelles~11
# 220 Fixation 14 (276,431.3): sont~12
# 156 Fixation 15 (269.8,408.7): sont~12
# 223 Fixation 16 (373.6,404): complètement~13
%%
# A~0 Fixations= "1/"
# Moscou~1 Fixations= "1/"
# les~2 Fixations= "2/"
# communiqués~3 Fixations= "3/"
# triomphants~4 Fixations= "7/"
# se~5 Fixations= ""
# succèdent~6 Fixations= "9/"
# Dans~7 Fixations= "10/"
# le~8 Fixations= "11/"
# Daghestan~9 Fixations= "11/"
# les~10 Fixations= "13/"
# rebelles~11 Fixations= "13/"
# sont~12 Fixations= "15/"
# complètement~13 Fixations= "16/"
# encerclés~14 Fixations= ""
# leur~15 Fixations= ""
# chef~16 Fixations= ""
# militaire~17 Fixations= ""
# est~18 Fixations= ""
# blessé~19 Fixations= ""
# les~20 Fixations= ""
# islamistes~21 Fixations= ""
# ont~22 Fixations= ""
# subi~23 Fixations= ""
# de~24 Fixations= ""
# lourdes~25 Fixations= ""
# pertes~26 Fixations= ""
%%
#  A[1] MOSCOU[1] LES[2] COMMUNIQUéS[3] TRIOMPHANTS[7] se SUCCèDENT[9] DANS[10] LE[11] DAGHESTAN[11] LES[13] REBELLES[13] SONT[15] COMPLèTEMENT[16] encerclés leur chef militaire est blessé les islamistes ont subi de lourdes pertes
# s13 chef_russie-f1 PercentageOfWordsProcessed= 0.481481481481481 PercentageOfWordsReallyProcessed= 0.928571428571429
