999 WORDS_révision~1 172
999 WORDFREQ_3.11 172
999 WORDSALL_La~0_révision~1 172
999 COSIND_-0.01 172
999 COSGEN_-0.01 172
101 ESRank1 172
999 WORDS_révision~1 191
999 WORDFREQ_3.11 191
999 WORDSALL_La~0_révision~1 191
999 COSIND_-0.01 191
999 COSGEN_-0.01 191
102 ESRank2 191
203 ESBackSacRefixation 191
999 WORDS_Commission~4 208
999 WORDFREQ_10.81 208
999 WORDSALL_par~2_Commission~4 208
999 COSIND_-0.01 208
999 COSGEN_-0.01 208
103 ESRank3 208
202 ESForwSacLong+3+8 208
999 WORDS_Commission~4 323
999 WORDFREQ_10.81 323
999 WORDSALL_la~3_Commission~4 323
999 COSIND_-0.01 323
999 COSGEN_-0.01 323
104 ESRank4 323
203 ESBackSacRefixation 323
999 WORDS_Commission~4 128
999 WORDFREQ_10.81 128
999 WORDSALL_Commission~4 128
999 COSIND_-0.01 128
999 COSGEN_-0.01 128
105 ESRank5 128
203 ESBackSacRefixation 128
999 WORDS_prévisions~6 291
999 WORDFREQ_3.45 291
999 WORDSALL_prévisions~6 291
999 COSIND_-0.04 291
999 COSGEN_-0.04 291
106 ESRank6 291
202 ESForwSacLong+2+5 291
999 WORDS_l'année~8 262
999 WORDFREQ_128.99 262
999 WORDSALL_pour~7_l'année~8 262
999 COSIND_0.00 262
999 COSGEN_0.00 262
107 ESRank7 262
202 ESForwSacLong+2+6 262
999 WORDS_confirme~9 190
999 WORDFREQ_3.92 190
999 WORDSALL_confirme~9 190
999 COSIND_-0.04 190
999 COSGEN_-0.04 190
108 ESRank8 190
201 ESForwSacShort 190
999 WORDS_en~10 86
999 WORDFREQ_8732.57 86
999 WORDSALL_en~10 86
999 COSIND_N/A 86
109 ESRank9 86
201 ESForwSacShort 86
999 WORDS_qu'il~13 212
999 WORDFREQ_N/A 212
999 WORDSALL_qu'il~13 212
999 COSIND_N/A 212
110 ESRank10 212
202 ESForwSacLong+3+10 212
999 WORDS_bien~16 120
999 WORDFREQ_2535.14 120
999 WORDSALL_y~14_a~15_bien~16 120
999 COSIND_-0.02 120
999 COSGEN_-0.02 120
111 ESRank11 120
202 ESForwSacLong+3+5 120
999 WORDS_Cette~19 198
999 WORDFREQ_2320.68 198
999 WORDSALL_Cette~19 198
999 COSIND_N/A 198
112 ESRank12 198
202 ESForwSacLong+3+14 198
999 WORDS_être~29 245
999 WORDFREQ_505.61 245
999 WORDSALL_être~29 245
999 COSIND_0.06 245
999 COSGEN_0.06 245
113 ESRank13 245
202 ESForwSacLong+10+49 245
999 WORDS_légèrement~31 246
999 WORDFREQ_65.2 246
999 WORDSALL_légèrement~31 246
999 COSIND_0.18 246
999 COSGEN_0.18 246
114 ESRank14 246
202 ESForwSacLong+2+5 246
200 ESRankN 246
199 ESRankNMinus1 245
198 ESRankNMinus2 198
197 ESRankNMinus3 120
196 ESRankNMinus4 212
195 ESRankNMinus5 86
194 ESRankNMinus6 190
193 ESRankNMinus7 262
192 ESRankNMinus8 291
191 ESRankNMinus9 128
190 ESRankNMinus10 323
