# 88 Fixation 1 (252.5,285.7): Le~0 chef~1
# 124 Fixation 2 (315.5,288.8): Le~0 chef~1
# 114 Fixation 3 (372.9,288): chef~1 gouvernement~3
# 114 Fixation 4 (441,289.5): gouvernement~3
# 211 Fixation 5 (574.3,278.2): a~4
# 137 Fixation 6 (292.2,371): croissance~8
# 127 Fixation 7 (312.4,400.9): croissance~8 bonne~16
# 82 Fixation 8 (363.6,406.2): croissance~8 bonne~16
# 169 Fixation 9 (438.4,406.7): économique~9 voie~17
# 227 Fixation 10 (515.9,412.1): économique~9 contrairement~18
# 136 Fixation 11 (633.1,416): contrairement~18 croissance~24
# 148 Fixation 12 (340,464): la~15 bonne~16 prévisions~20
# 198 Fixation 13 (300.1,472.1): sur~14 bonne~16 prévisions~20
# 208 Fixation 14 (468.1,471): voie~17 experts~22
# 175 Fixation 15 (553.9,361.7): de~10 France~12 contrairement~18
# 203 Fixation 16 (411.8,347.5): du~2 gouvernement~3 économique~9
# 139 Fixation 17 (599.6,528.3): La~23 croissance~24 étonnante~30
# 110 Fixation 18 (644,539.4): croissance~24 étonnante~30
# 88 Fixation 19 (358.4,528.7): prévisions~20 intérieur~27
%%
# Le~0 Fixations= "2/"
# chef~1 Fixations= "3/"
# du~2 Fixations= "16/"
# gouvernement~3 Fixations= "16/"
# a~4 Fixations= "5/"
# estimé~5 Fixations= ""
# que~6 Fixations= ""
# la~7 Fixations= ""
# croissance~8 Fixations= "8/"
# économique~9 Fixations= "16/"
# de~10 Fixations= "15/"
# la~11 Fixations= ""
# France~12 Fixations= "15/"
# était~13 Fixations= ""
# sur~14 Fixations= "13/"
# la~15 Fixations= "12/"
# bonne~16 Fixations= "13/"
# voie~17 Fixations= "14/"
# contrairement~18 Fixations= "15/"
# aux~19 Fixations= ""
# prévisions~20 Fixations= "19/"
# des~21 Fixations= ""
# experts~22 Fixations= "14/"
# La~23 Fixations= "17/"
# croissance~24 Fixations= "18/"
# du~25 Fixations= ""
# produit~26 Fixations= ""
# intérieur~27 Fixations= "19/"
# brut~28 Fixations= ""
# est~29 Fixations= ""
# étonnante~30 Fixations= "18/"
%%
#  LE[2] CHEF[3] DU[16] GOUVERNEMENT[16] A[5] estimé que la CROISSANCE[8] éCONOMIQUE[16] DE[15] la FRANCE[15] était SUR[13] LA[12] BONNE[13] VOIE[14] CONTRAIREMENT[15] aux PRéVISIONS[19] des EXPERTS[14] LA[17] CROISSANCE[18] du produit INTéRIEUR[19] brut est éTONNANTE[18]
# s02 aide_refugies-a2 PercentageOfWordsProcessed= 0.645161290322581 PercentageOfWordsReallyProcessed= 0.645161290322581
