999 WORDS_cigarette~8 153
999 WORDFREQ_77.57 153
999 WORDSALL_Comment~0_France~2_cigarette~8 153
999 COSIND_0.09 153
999 COSGEN_0.09 153
101 ESRank1 153
999 WORDS_France~2 175
999 WORDFREQ_N/A 175
999 WORDSALL_la~1_France~2 175
999 COSIND_N/A 175
102 ESRank2 175
206 ESBackSacRegrLong-6-31 175
999 WORDS_pourra-t-elle~3 188
999 WORDFREQ_N/A 188
999 WORDSALL_pourra-t-elle~3 188
999 COSIND_N/A 188
103 ESRank3 188
201 ESForwSacShort 188
999 WORDS_pourra-t-elle~3 84
999 WORDFREQ_N/A 84
999 WORDSALL_pourra-t-elle~3 84
999 COSIND_N/A 84
104 ESRank4 84
203 ESBackSacRefixation 84
999 WORDS_passer~5 132
999 WORDFREQ_288.78 132
999 WORDSALL_se~4_passer~5 132
999 COSIND_-0.02 132
999 COSGEN_-0.02 132
105 ESRank5 132
202 ESForwSacLong+2+4 132
999 WORDS_cigarette~8 265
999 WORDFREQ_77.57 265
999 WORDSALL_Comment~0_France~2_cigarette~8 265
999 COSIND_0.09 265
999 COSGEN_0.09 265
106 ESRank6 265
202 ESForwSacLong+3+7 265
999 WORDS_cigarette~8 155
999 WORDFREQ_77.57 155
999 WORDSALL_Comment~0_cigarette~8 155
999 COSIND_0.09 155
999 COSGEN_0.09 155
107 ESRank7 155
203 ESBackSacRefixation 155
999 WORDS_Comment~0 121
999 WORDFREQ_164.93 121
999 WORDSALL_Comment~0 121
999 COSIND_N/A 121
108 ESRank8 121
206 ESBackSacRegrLong-8-41 121
999 WORDS_L'interdiction~9 223
999 WORDFREQ_5.95 223
999 WORDSALL_pourra-t-elle~3_L'interdiction~9 223
999 COSIND_-0.04 223
999 COSGEN_-0.04 223
109 ESRank9 223
202 ESForwSacLong+9+51 223
999 WORDS_L'interdiction~9 107
999 WORDFREQ_5.95 107
999 WORDSALL_pourra-t-elle~3_L'interdiction~9 107
999 COSIND_-0.04 107
999 COSGEN_-0.04 107
110 ESRank10 107
203 ESBackSacRefixation 107
999 WORDS_fumer~11 130
999 WORDFREQ_20.88 130
999 WORDSALL_se~4_passer~5_fumer~11 130
999 COSIND_-0.01 130
999 COSGEN_-0.01 130
111 ESRank11 130
202 ESForwSacLong+2+4 130
999 WORDS_lieux~14 174
999 WORDFREQ_54.12 174
999 WORDSALL_la~7_cigarette~8_lieux~14 174
999 COSIND_-0.01 174
999 COSGEN_-0.01 174
112 ESRank12 174
202 ESForwSacLong+3+10 174
999 WORDS_cigarette~8 160
999 WORDFREQ_77.57 160
999 WORDSALL_de~6_cigarette~8 160
999 COSIND_0.09 160
999 COSGEN_0.09 160
113 ESRank13 160
206 ESBackSacRegrLong-6-34 160
999 WORDS_publics~15 242
999 WORDFREQ_14.46 242
999 WORDSALL_cigarette~8_lieux~14_publics~15 242
999 COSIND_0.02 242
999 COSGEN_0.02 242
114 ESRank14 242
202 ESForwSacLong+7+40 242
999 WORDS_largement~17 388
999 WORDFREQ_26.76 388
999 WORDSALL_L'interdiction~9_largement~17 388
999 COSIND_-0.07 388
999 COSGEN_-0.07 388
115 ESRank15 388
202 ESForwSacLong+2+5 388
999 WORDS_perçue~18 165
999 WORDFREQ_0.81 165
999 WORDSALL_de~10_fumer~11_perçue~18 165
999 COSIND_-0.06 165
999 COSGEN_-0.06 165
116 ESRank16 165
201 ESForwSacShort 165
999 WORDS_presse~21 183
999 WORDFREQ_40.68 183
999 WORDSALL_les~13_lieux~14_presse~21 183
999 COSIND_-0.04 183
999 COSGEN_-0.04 183
117 ESRank17 183
202 ESForwSacLong+3+8 183
999 WORDS_presse~21 166
999 WORDFREQ_40.68 166
999 WORDSALL_dans~12_lieux~14_presse~21 166
999 COSIND_-0.04 166
999 COSGEN_-0.04 166
118 ESRank18 166
203 ESBackSacRefixation 166
999 WORDS_étrangère~22 249
999 WORDFREQ_20.47 249
999 WORDSALL_lieux~14_publics~15_étrangère~22 249
999 COSIND_0.08 249
999 COSGEN_0.08 249
119 ESRank19 249
201 ESForwSacShort 249
999 WORDS_presse~21 92
999 WORDFREQ_40.68 92
999 WORDSALL_dans~12_lieux~14_presse~21 92
999 COSIND_-0.04 92
999 COSGEN_-0.04 92
120 ESRank20 92
205 ESBackSacRegrShort 92
999 WORDS_largement~17 169
999 WORDFREQ_26.76 169
999 WORDSALL_largement~17 169
999 COSIND_-0.07 169
999 COSGEN_-0.07 169
206 ESBackSacRegrLong-4-16 169
999 WORDS_atteinte~25 155
999 WORDFREQ_5.95 155
999 WORDSALL_une~24_atteinte~25 155
999 COSIND_0.07 155
999 COSGEN_0.07 155
202 ESForwSacLong+8+45 155
999 WORDS_culture~28 244
999 WORDFREQ_24.32 244
999 WORDSALL_la~20_presse~21_culture~28 244
999 COSIND_-0.01 244
999 COSGEN_-0.01 244
202 ESForwSacLong+3+7 244
999 WORDS_française~29 182
999 WORDFREQ_105.07 182
999 WORDSALL_française~29 182
999 COSIND_0.01 182
999 COSGEN_0.01 182
201 ESForwSacShort 182
999 WORDS_publics~15 406
999 WORDFREQ_14.46 406
999 WORDSALL_cigarette~8_lieux~14_publics~15 406
999 COSIND_0.02 406
999 COSGEN_0.02 406
206 ESBackSacRegrLong-14-82 406
999 WORDS_publics~15 231
999 WORDFREQ_14.46 231
999 WORDSALL_L'interdiction~9_publics~15 231
999 COSIND_0.02 231
999 COSGEN_0.02 231
203 ESBackSacRefixation 231
200 ESRankN 231
199 ESRankNMinus1 406
198 ESRankNMinus2 182
197 ESRankNMinus3 244
196 ESRankNMinus4 155
195 ESRankNMinus5 169
194 ESRankNMinus6 92
193 ESRankNMinus7 249
192 ESRankNMinus8 166
191 ESRankNMinus9 183
190 ESRankNMinus10 165
