999 WORDS_L'Irak~0 149
999 WORDFREQ_N/A 149
999 WORDSALL_L'Irak~0 149
999 COSIND_N/A 149
101 ESRank1 149
999 WORDS_demandé~2 151
999 WORDFREQ_128.92 151
999 WORDSALL_a~1_demandé~2 151
999 COSIND_-0.04 151
999 COSGEN_-0.04 151
102 ESRank2 151
202 ESForwSacLong+2+3 151
999 WORDS_l'ONU~4 211
999 WORDFREQ_N/A 211
999 WORDSALL_à~3_l'ONU~4 211
999 COSIND_N/A 211
103 ESRank3 211
202 ESForwSacLong+2+4 211
999 WORDS_d'empêcher~5 234
999 WORDFREQ_70.2 234
999 WORDSALL_l'ONU~4_d'empêcher~5 234
999 COSIND_0.11 234
999 COSGEN_0.11 234
104 ESRank4 234
201 ESForwSacShort 234
999 WORDS_d'empêcher~5 149
999 WORDFREQ_70.2 149
999 WORDSALL_d'empêcher~5 149
999 COSIND_0.11 149
999 COSGEN_0.11 149
105 ESRank5 149
203 ESBackSacRefixation 149
999 WORDS_d'empêcher~5 83
999 WORDFREQ_70.2 83
999 WORDSALL_d'empêcher~5 83
999 COSIND_0.11 83
999 COSGEN_0.11 83
106 ESRank6 83
203 ESBackSacRefixation 83
999 WORDS_survols~7 439
999 WORDFREQ_0 439
999 WORDSALL_survols~7 439
999 COSIND_-0.04 439
999 COSGEN_-0.04 439
107 ESRank7 439
202 ESForwSacLong+2+5 439
999 WORDS_américains~8 294
999 WORDFREQ_18.78 294
999 WORDSALL_américains~8 294
999 COSIND_0.00 294
999 COSGEN_0.00 294
108 ESRank8 294
201 ESForwSacShort 294
999 WORDS_britanniques~10 214
999 WORDFREQ_20.74 214
999 WORDSALL_et~9_britanniques~10 214
999 COSIND_-0.08 214
999 COSGEN_-0.08 214
109 ESRank9 214
202 ESForwSacLong+2+4 214
999 WORDS_britanniques~10 210
999 WORDFREQ_20.74 210
999 WORDSALL_britanniques~10 210
999 COSIND_-0.08 210
999 COSGEN_-0.08 210
110 ESRank10 210
203 ESBackSacRefixation 210
999 WORDS_britanniques~10 190
999 WORDFREQ_20.74 190
999 WORDSALL_britanniques~10 190
999 COSIND_-0.08 190
999 COSGEN_-0.08 190
111 ESRank11 190
203 ESBackSacRefixation 190
999 WORDS_permettre~13 167
999 WORDFREQ_25.81 167
999 WORDSALL_permettre~13 167
999 COSIND_0.03 167
999 COSGEN_0.03 167
112 ESRank12 167
202 ESForwSacLong+3+7 167
999 WORDS_permettre~13 186
999 WORDFREQ_25.81 186
999 WORDSALL_permettre~13 186
999 COSIND_0.03 186
999 COSGEN_0.03 186
113 ESRank13 186
203 ESBackSacRefixation 186
999 WORDS_à~14 213
999 WORDFREQ_19209.05 213
999 WORDSALL_à~14 213
999 COSIND_N/A 213
114 ESRank14 213
201 ESForwSacShort 213
999 WORDS_avions~16 259
999 WORDFREQ_31.22 259
999 WORDSALL_ses~15_avions~16 259
999 COSIND_0.01 259
999 COSGEN_0.01 259
115 ESRank15 259
202 ESForwSacLong+2+5 259
999 WORDS_civils~17 201
999 WORDFREQ_5.41 201
999 WORDSALL_avions~16_civils~17 201
999 COSIND_0.24 201
999 COSGEN_0.24 201
116 ESRank16 201
201 ESForwSacShort 201
200 ESRankN 201
199 ESRankNMinus1 259
198 ESRankNMinus2 213
197 ESRankNMinus3 186
196 ESRankNMinus4 167
195 ESRankNMinus5 190
194 ESRankNMinus6 210
193 ESRankNMinus7 214
192 ESRankNMinus8 294
191 ESRankNMinus9 439
190 ESRankNMinus10 83
