# 165 Fixation 1 (323.3,303.2): Mme~0 aubry~1
# 150 Fixation 2 (276,277.1): Mme~0
# 167 Fixation 3 (244.7,273.1): Mme~0
# 181 Fixation 4 (296.6,273.1): Mme~0 aubry~1
# 177 Fixation 5 (260,272.4): Mme~0
# 204 Fixation 6 (385.9,274.1): aubry~1 a~2
# 285 Fixation 7 (364.1,278.7): aubry~1 a~2
# 254 Fixation 8 (482.9,278.9): annoncé~3
# 223 Fixation 9 (542.5,279.2): que~4 l'objectif~5
# 318 Fixation 10 (668,275): l'objectif~5
# 293 Fixation 11 (279.9,346.6): des~7 dépenses~8
# 143 Fixation 12 (252.2,346.1): des~7 dépenses~8
# 286 Fixation 13 (431.4,343.5): dépenses~8 d'assurance~9
# 237 Fixation 14 (568.5,342.6): d'assurance~9 maladie~10
# 237 Fixation 15 (445.9,338.4): d'assurance~9
# 346 Fixation 16 (320.1,336.6): des~7 dépenses~8
# 315 Fixation 17 (446.9,342.3): d'assurance~9
# 272 Fixation 18 (569.8,342.4): d'assurance~9 maladie~10
# 198 Fixation 19 (651.2,345.6): maladie~10 voté~11
# 285 Fixation 20 (294.8,398.4): le~13 parlement~14
# 234 Fixation 21 (440.1,406.3): sera~15
# 214 Fixation 22 (405.4,475.6): d'euros~20
# 131 Fixation 23 (632.3,413.8): d'environ~17
%%
# Mme~0 Fixations= "5/"
# aubry~1 Fixations= "7/"
# a~2 Fixations= "7/"
# annoncé~3 Fixations= "8/"
# que~4 Fixations= "9/"
# l'objectif~5 Fixations= "10/"
# national~6 Fixations= ""
# des~7 Fixations= "16/"
# dépenses~8 Fixations= "16/"
# d'assurance~9 Fixations= "18/"
# maladie~10 Fixations= "19/"
# voté~11 Fixations= "19/"
# par~12 Fixations= ""
# le~13 Fixations= "20/"
# parlement~14 Fixations= "20/"
# sera~15 Fixations= "21/"
# dépassé~16 Fixations= ""
# d'environ~17 Fixations= "23/"
# 2~18 Fixations= ""
# milliards~19 Fixations= ""
# d'euros~20 Fixations= "22/"
%%
#  MME[5] AUBRY[7] A[7] ANNONCé[8] QUE[9] L'OBJECTIF[10] national DES[16] DéPENSES[16] D'ASSURANCE[18] MALADIE[19] VOTé[19] par LE[20] PARLEMENT[20] SERA[21] dépassé D'ENVIRON[23] 2 milliards D'EUROS[22]
# s14 allocation_familiale-m2 PercentageOfWordsProcessed= 0.761904761904762 PercentageOfWordsReallyProcessed= 0.761904761904762
