999 WORDS_Afin~0 146
999 WORDFREQ_0.95 146
999 WORDSALL_Afin~0 146
999 COSIND_N/A 146
101 ESRank1 146
999 WORDS_d'apprendre~1 130
999 WORDFREQ_71.22 130
999 WORDSALL_d'apprendre~1 130
999 COSIND_-0.02 130
999 COSGEN_-0.02 130
102 ESRank2 130
201 ESForwSacShort 130
999 WORDS_langue~3 203
999 WORDFREQ_103.78 203
999 WORDSALL_une~2_langue~3 203
999 COSIND_0.05 203
999 COSGEN_0.05 203
103 ESRank3 203
202 ESForwSacLong+2+5 203
999 WORDS_étrangère~4 187
999 WORDFREQ_20.47 187
999 WORDSALL_étrangère~4 187
999 COSIND_-0.10 187
999 COSGEN_-0.10 187
104 ESRank4 187
201 ESForwSacShort 187
999 WORDS_langue~3 150
999 WORDFREQ_103.78 150
999 WORDSALL_une~2_langue~3 150
999 COSIND_0.05 150
999 COSGEN_0.05 150
105 ESRank5 150
205 ESBackSacRegrShort 150
999 WORDS_ministère~6 196
999 WORDFREQ_14.32 196
999 WORDSALL_ministère~6 196
999 COSIND_0.02 196
999 COSGEN_0.02 196
106 ESRank6 196
202 ESForwSacLong+3+16 196
999 WORDS_entend~7 166
999 WORDFREQ_63.11 166
999 WORDSALL_entend~7 166
999 COSIND_0.06 166
999 COSGEN_0.06 166
107 ESRank7 166
201 ESForwSacShort 166
999 WORDS_embaucher~8 133
999 WORDFREQ_1.69 133
999 WORDSALL_embaucher~8 133
999 COSIND_-0.07 133
999 COSGEN_-0.07 133
108 ESRank8 133
201 ESForwSacShort 133
999 WORDS_locuteurs~10 209
999 WORDFREQ_N/A 209
999 WORDSALL_des~9_locuteurs~10 209
999 COSIND_N/A 209
109 ESRank9 209
202 ESForwSacLong+2+5 209
999 WORDS_natifs~11 175
999 WORDFREQ_0.34 175
999 WORDSALL_natifs~11 175
999 COSIND_0.14 175
999 COSGEN_0.14 175
110 ESRank10 175
201 ESForwSacShort 175
999 WORDS_faire~13 151
999 WORDFREQ_1555.14 151
999 WORDSALL_faire~13 151
999 COSIND_0.04 151
999 COSGEN_0.04 151
111 ESRank11 151
202 ESForwSacLong+2+6 151
999 WORDS_pratiquer~14 156
999 WORDFREQ_4.53 156
999 WORDSALL_pratiquer~14 156
999 COSIND_-0.05 156
999 COSGEN_-0.05 156
112 ESRank12 156
201 ESForwSacShort 156
999 WORDS_l'oral~15 187
999 WORDFREQ_2.7 187
999 WORDSALL_l'oral~15 187
999 COSIND_0.21 187
999 COSGEN_0.21 187
113 ESRank13 187
201 ESForwSacShort 187
999 WORDS_élèves~17 176
999 WORDFREQ_36.08 176
999 WORDSALL_élèves~17 176
999 COSIND_-0.11 176
999 COSGEN_-0.11 176
114 ESRank14 176
202 ESForwSacLong+2+5 176
999 WORDS_politique~19 183
999 WORDFREQ_65.88 183
999 WORDSALL_politique~19 183
999 COSIND_-0.00 183
999 COSGEN_-0.00 183
115 ESRank15 183
202 ESForwSacLong+2+7 183
999 WORDS_généralisée~21 180
999 WORDFREQ_0.14 180
999 WORDSALL_est~20_généralisée~21 180
999 COSIND_0.15 180
999 COSGEN_0.15 180
116 ESRank16 180
202 ESForwSacLong+2+5 180
999 WORDS_enseignements~24 164
999 WORDFREQ_1.55 164
999 WORDSALL_pour~22_enseignements~24 164
999 COSIND_0.55 164
999 COSGEN_0.55 164
117 ESRank17 164
202 ESForwSacLong+3+10 164
999 WORDS_enseignements~24 142
999 WORDFREQ_1.55 142
999 WORDSALL_enseignements~24 142
999 COSIND_0.55 142
999 COSGEN_0.55 142
118 ESRank18 142
203 ESBackSacRefixation 142
999 WORDS_communs~25 158
999 WORDFREQ_10.81 158
999 WORDSALL_communs~25 158
999 COSIND_0.02 158
999 COSGEN_0.02 158
119 ESRank19 158
201 ESForwSacShort 158
999 WORDS_options~27 217
999 WORDFREQ_1.01 217
999 WORDSALL_les~26_options~27 217
999 COSIND_-0.03 217
999 COSGEN_-0.03 217
120 ESRank20 217
202 ESForwSacLong+2+5 217
999 WORDS_obligatoires~28 199
999 WORDFREQ_1.49 199
999 WORDSALL_obligatoires~28 199
999 COSIND_0.15 199
999 COSGEN_0.15 199
201 ESForwSacShort 199
999 WORDS_facultatives~30 238
999 WORDFREQ_N/A 238
999 WORDSALL_et~29_facultatives~30 238
999 COSIND_N/A 238
202 ESForwSacLong+2+4 238
200 ESRankN 238
199 ESRankNMinus1 199
198 ESRankNMinus2 217
197 ESRankNMinus3 158
196 ESRankNMinus4 142
195 ESRankNMinus5 164
194 ESRankNMinus6 180
193 ESRankNMinus7 183
192 ESRankNMinus8 176
191 ESRankNMinus9 187
190 ESRankNMinus10 156
