# 81 Fixation 1 (281,290.9): L'allocation~0
# 210 Fixation 2 (477.4,299.2): de~1 rentrée~2
# 235 Fixation 3 (570.8,292.1): rentrée~2 scolaire~3
# 168 Fixation 4 (671.8,294.6): scolaire~3 concerne~4
# 215 Fixation 5 (358.4,356.7): 000~6 familles~7
# 185 Fixation 6 (491.7,361.9): modestes~8
# 219 Fixation 7 (485.7,413.5): Cette~13 prestation~14
# 117 Fixation 8 (625.5,418.8): pourrait~15
%%
# L'allocation~0 Fixations= "1/"
# de~1 Fixations= "2/"
# rentrée~2 Fixations= "3/"
# scolaire~3 Fixations= "4/"
# concerne~4 Fixations= "4/"
# 350~5 Fixations= ""
# 000~6 Fixations= "5/"
# familles~7 Fixations= "5/"
# modestes~8 Fixations= "6/"
# ayant~9 Fixations= ""
# un~10 Fixations= ""
# enfant~11 Fixations= ""
# scolarisé~12 Fixations= ""
# Cette~13 Fixations= "7/"
# prestation~14 Fixations= "7/"
# pourrait~15 Fixations= "8/"
# être~16 Fixations= ""
# prochainement~17 Fixations= ""
# étendue~18 Fixations= ""
%%
#  L'ALLOCATION[1] DE[2] RENTRéE[3] SCOLAIRE[4] CONCERNE[4] 350 000[5] FAMILLES[5] MODESTES[6] ayant un enfant scolarisé CETTE[7] PRESTATION[7] POURRAIT[8] être prochainement étendue
# s18 allocation_familiale-f2 PercentageOfWordsProcessed= 0.578947368421053 PercentageOfWordsReallyProcessed= 0.6875
