999 WORDS_vague~2 134
999 WORDFREQ_38.18 134
999 WORDSALL_Lorsque~0_vague~2 134
999 COSIND_0.03 134
999 COSGEN_0.03 134
101 ESRank1 134
999 WORDS_vague~2 155
999 WORDFREQ_38.18 155
999 WORDSALL_la~1_vague~2 155
999 COSIND_0.03 155
999 COSGEN_0.03 155
102 ESRank2 155
203 ESBackSacRefixation 155
999 WORDS_réfugiés~4 170
999 WORDFREQ_8.18 170
999 WORDSALL_des~3_réfugiés~4 170
999 COSIND_0.06 170
999 COSGEN_0.06 170
103 ESRank3 170
202 ESForwSacLong+2+5 170
999 WORDS_réfugiés~4 118
999 WORDFREQ_8.18 118
999 WORDSALL_réfugiés~4 118
999 COSIND_0.06 118
999 COSGEN_0.06 118
104 ESRank4 118
203 ESBackSacRefixation 118
999 WORDS_déferlait~5 182
999 WORDFREQ_2.36 182
999 WORDSALL_déferlait~5 182
999 COSIND_0.01 182
999 COSGEN_0.01 182
105 ESRank5 182
201 ESForwSacShort 182
999 WORDS_déferlait~5 103
999 WORDFREQ_2.36 103
999 WORDSALL_déferlait~5 103
999 COSIND_0.01 103
999 COSGEN_0.01 103
106 ESRank6 103
203 ESBackSacRefixation 103
999 WORDS_camp~8 183
999 WORDFREQ_75.61 183
999 WORDSALL_le~7_camp~8 183
999 COSIND_0.20 183
999 COSGEN_0.20 183
107 ESRank7 183
202 ESForwSacLong+3+8 183
999 WORDS_improvisé~9 207
999 WORDFREQ_2.5 207
999 WORDSALL_improvisé~9 207
999 COSIND_0.09 207
999 COSGEN_0.09 207
108 ESRank8 207
201 ESForwSacShort 207
999 WORDS_microbus~11 224
999 WORDFREQ_0 224
999 WORDSALL_les~10_microbus~11 224
999 COSIND_N/A 224
109 ESRank9 224
202 ESForwSacLong+2+5 224
999 WORDS_et~12 109
999 WORDFREQ_20879.73 109
999 WORDSALL_et~12 109
999 COSIND_N/A 109
110 ESRank10 109
201 ESForwSacShort 109
999 WORDS_mobilisés~15 119
999 WORDFREQ_2.23 119
999 WORDSALL_mobilisés~15 119
999 COSIND_0.17 119
999 COSGEN_0.17 119
111 ESRank11 119
202 ESForwSacLong+3+15 119
999 WORDS_tracteurs~14 191
999 WORDFREQ_1.55 191
999 WORDSALL_tracteurs~14 191
999 COSIND_0.08 191
999 COSGEN_0.08 191
112 ESRank12 191
205 ESBackSacRegrShort 191
999 WORDS_mobilisés~15 179
999 WORDFREQ_2.23 179
999 WORDSALL_mobilisés~15 179
999 COSIND_0.17 179
999 COSGEN_0.17 179
113 ESRank13 179
201 ESForwSacShort 179
999 WORDS_humanitaire~24 140
999 WORDFREQ_1.22 140
999 WORDSALL_humanitaire~24 140
999 COSIND_0.52 140
999 COSGEN_0.52 140
114 ESRank14 140
202 ESForwSacLong+9+67 140
999 WORDS_permettait~26 144
999 WORDFREQ_26.22 144
999 WORDSALL_qui~25_permettait~26 144
999 COSIND_-0.02 144
999 COSGEN_-0.02 144
115 ESRank15 144
202 ESForwSacLong+2+5 144
999 WORDS_permettait~26 124
999 WORDFREQ_26.22 124
999 WORDSALL_qui~25_permettait~26 124
999 COSIND_-0.02 124
999 COSGEN_-0.02 124
116 ESRank16 124
203 ESBackSacRefixation 124
200 ESRankN 124
199 ESRankNMinus1 144
198 ESRankNMinus2 140
197 ESRankNMinus3 179
196 ESRankNMinus4 191
195 ESRankNMinus5 119
194 ESRankNMinus6 109
193 ESRankNMinus7 224
192 ESRankNMinus8 207
191 ESRankNMinus9 183
190 ESRankNMinus10 103
