# 141 Fixation 1 (285.2,273.1): L'édition~0
# 194 Fixation 2 (503.5,298.9): offre~2
# 303 Fixation 3 (570.2,357.7): satisfactions~9
# 320 Fixation 4 (413.1,414.2): avoir~13
# 159 Fixation 5 (408.1,474.4): avoir~13 A~21 à~22 Z~23
# 120 Fixation 6 (530.5,467.2): sentiment~15
# 127 Fixation 7 (642.1,469): de~16 faire~17 producteur~26
# 150 Fixation 8 (366.6,531.5): de~20 A~21
%%
# L'édition~0 Fixations= "1/"
# d'art~1 Fixations= ""
# offre~2 Fixations= "2/"
# aux~3 Fixations= ""
# jeunes~4 Fixations= ""
# éditeurs~5 Fixations= ""
# ambitieux~6 Fixations= ""
# de~7 Fixations= ""
# grandes~8 Fixations= ""
# satisfactions~9 Fixations= "3/"
# on~10 Fixations= ""
# peut~11 Fixations= ""
# y~12 Fixations= ""
# avoir~13 Fixations= "5/"
# le~14 Fixations= ""
# sentiment~15 Fixations= "6/"
# de~16 Fixations= "7/"
# faire~17 Fixations= "7/"
# les~18 Fixations= ""
# livres~19 Fixations= ""
# de~20 Fixations= "8/"
# A~21 Fixations= "8/"
# à~22 Fixations= "5/"
# Z~23 Fixations= "5/"
# comme~24 Fixations= ""
# un~25 Fixations= ""
# producteur~26 Fixations= "7/"
# de~27 Fixations= ""
# Hollywood~28 Fixations= ""
# ses~29 Fixations= ""
# films~30 Fixations= ""
%%
#  L'éDITION[1] d'art OFFRE[2] aux jeunes éditeurs ambitieux de grandes SATISFACTIONS[3] on peut y AVOIR[5] le SENTIMENT[6] DE[7] FAIRE[7] les livres DE[8] A[8] à[5] Z[5] comme un PRODUCTEUR[7] de Hollywood ses films
# s21 chasse_oiseaux-a2 PercentageOfWordsProcessed= 0.387096774193548 PercentageOfWordsReallyProcessed= 0.444444444444444
