# 201 Fixation 1 (293.4,298.8): Une~0 soixantaine~1
# 98 Fixation 2 (372.2,325.7): incendié~8
# 174 Fixation 3 (530.4,253.2): de~2 jeunes~3
# 174 Fixation 4 (697.6,195.8):
# 89 Fixation 5 (731.8,195.8):
# 292 Fixation 6 (325.3,358.9): ont~7 incendié~8
# 299 Fixation 7 (479.8,366): des~9 voitures~10
# 110 Fixation 8 (613.9,331.3): brisé~11
%%
# Une~0 Fixations= "1/"
# soixantaine~1 Fixations= "1/"
# de~2 Fixations= "3/"
# jeunes~3 Fixations= "3/"
# de~4 Fixations= ""
# la~5 Fixations= ""
# Courneuve~6 Fixations= ""
# ont~7 Fixations= "6/"
# incendié~8 Fixations= "6/"
# des~9 Fixations= "7/"
# voitures~10 Fixations= "7/"
# brisé~11 Fixations= "8/"
# des~12 Fixations= ""
# vitrines~13 Fixations= ""
# et~14 Fixations= ""
# s'en~15 Fixations= ""
# sont~16 Fixations= ""
# pris~17 Fixations= ""
# aux~18 Fixations= ""
# policiers~19 Fixations= ""
# auxquels~20 Fixations= ""
# ils~21 Fixations= ""
# attribuent~22 Fixations= ""
# la~23 Fixations= ""
# responsabilité~24 Fixations= ""
# de~25 Fixations= ""
# la~26 Fixations= ""
# mort~27 Fixations= ""
# d'un~28 Fixations= ""
# des~29 Fixations= ""
# leurs~30 Fixations= ""
%%
#  UNE[1] SOIXANTAINE[1] DE[3] JEUNES[3] de la Courneuve ONT[6] INCENDIé[6] DES[7] VOITURES[7] BRISé[8] des vitrines et s'en sont pris aux policiers auxquels ils attribuent la responsabilité de la mort d'un des leurs
# s20 delinquance_juvenile-f2 PercentageOfWordsProcessed= 0.290322580645161 PercentageOfWordsReallyProcessed= 0.75
