# 133 Fixation 1 (302.4,300.7): La~0 Russie~1
# 122 Fixation 2 (423.6,294.7): a~2 menacé~3
# 116 Fixation 3 (523.8,292.1): de~4 sortir~5
# 120 Fixation 4 (602.1,287.1): sortir~5
# 126 Fixation 5 (699.2,285.7): du~6 traité~7
# 159 Fixation 6 (327.9,341.7): La~0 Russie~1 forces~10
# 237 Fixation 7 (484.8,346.8): menacé~3 nucléaires~11
# 160 Fixation 8 (589.9,348.1): sortir~5 autres~19
# 134 Fixation 9 (627.5,360.7): elle~13 autres~19
# 116 Fixation 10 (582.5,421.7): l'attitude~17 autres~19
# 177 Fixation 11 (658.4,425.1): des~18 autres~19
# 137 Fixation 12 (359.9,464.2): courroucée~15 vis-à-vis~21
# 94 Fixation 13 (295,465.4): courroucée~15 vis-à-vis~21
# 193 Fixation 14 (497.3,470.3): l'attitude~17 politique~24
# 92 Fixation 15 (616.6,475.5): des~18 autres~19 défense~26
%%
# La~0 Fixations= "6/"
# Russie~1 Fixations= "6/"
# a~2 Fixations= "2/"
# menacé~3 Fixations= "7/"
# de~4 Fixations= "3/"
# sortir~5 Fixations= "8/"
# du~6 Fixations= "5/"
# traité~7 Fixations= "5/"
# sur~8 Fixations= ""
# les~9 Fixations= ""
# forces~10 Fixations= "6/"
# nucléaires~11 Fixations= "7/"
# car~12 Fixations= ""
# elle~13 Fixations= "9/"
# est~14 Fixations= ""
# courroucée~15 Fixations= "13/"
# par~16 Fixations= ""
# l'attitude~17 Fixations= "14/"
# des~18 Fixations= "15/"
# autres~19 Fixations= "15/"
# pays~20 Fixations= ""
# vis-à-vis~21 Fixations= "13/"
# de~22 Fixations= ""
# sa~23 Fixations= ""
# politique~24 Fixations= "14/"
# de~25 Fixations= ""
# défense~26 Fixations= "15/"
# nationale~27 Fixations= ""
%%
#  LA[6] RUSSIE[6] A[2] MENACé[7] DE[3] SORTIR[8] DU[5] TRAITé[5] sur les FORCES[6] NUCLéAIRES[7] car ELLE[9] est COURROUCéE[13] par L'ATTITUDE[14] DES[15] AUTRES[15] pays VIS-à-VIS[13] de sa POLITIQUE[14] de DéFENSE[15] nationale
# s10 rechauffement_climatique-a2 PercentageOfWordsProcessed= 0.642857142857143 PercentageOfWordsReallyProcessed= 0.666666666666667
