# 138 Fixation 1 (315.9,290.1): Trois~0 jours~1
# 208 Fixation 2 (609.1,272.4): tir~4 missile~6
# 124 Fixation 3 (696.1,272.2): missile~6 indien~7
# 189 Fixation 4 (465.1,284.6): après~2
# 142 Fixation 5 (527,283.4): le~3 tir~4
# 119 Fixation 6 (644.1,273.8): du~5 missile~6
# 124 Fixation 7 (342.4,345.8): Trois~0 jours~1 Agni-2~8
# 121 Fixation 8 (463.5,356): Pakistan~10 a~11
# 246 Fixation 9 (615.4,351.5): répliqué~12
# 124 Fixation 10 (587.7,415.4): son~19 missile~20
%%
# Trois~0 Fixations= "7/"
# jours~1 Fixations= "7/"
# après~2 Fixations= "4/"
# le~3 Fixations= "5/"
# tir~4 Fixations= "5/"
# du~5 Fixations= "6/"
# missile~6 Fixations= "6/"
# indien~7 Fixations= "3/"
# Agni-2~8 Fixations= "7/"
# le~9 Fixations= ""
# Pakistan~10 Fixations= "8/"
# a~11 Fixations= "8/"
# répliqué~12 Fixations= "9/"
# en~13 Fixations= ""
# tirant~14 Fixations= ""
# une~15 Fixations= ""
# version~16 Fixations= ""
# améliorée~17 Fixations= ""
# de~18 Fixations= ""
# son~19 Fixations= "10/"
# missile~20 Fixations= "10/"
# balistique~21 Fixations= ""
# de~22 Fixations= ""
# moyenne~23 Fixations= ""
# portée~24 Fixations= ""
# le~25 Fixations= ""
# Ghauri~26 Fixations= ""
# depuis~27 Fixations= ""
# le~28 Fixations= ""
# centre~29 Fixations= ""
# d'essai~30 Fixations= ""
# de~31 Fixations= ""
# Jhelum~32 Fixations= ""
%%
#  TROIS[7] JOURS[7] APRèS[4] LE[5] TIR[5] DU[6] MISSILE[6] INDIEN[3] AGNI-2[7] le PAKISTAN[8] A[8] RéPLIQUé[9] en tirant une version améliorée de SON[10] MISSILE[10] balistique de moyenne portée le Ghauri depuis le centre d'essai de Jhelum
# s19 plantation_fleurs-a2 PercentageOfWordsProcessed= 0.424242424242424 PercentageOfWordsReallyProcessed= 0.666666666666667
