# 187 Fixation 1 (262.6,277.3): Un~0 millier~1
# 289 Fixation 2 (418.4,266.8): d'agriculteurs~2
# 181 Fixation 3 (295.7,272.8): Un~0 millier~1
# 136 Fixation 4 (461.8,263.3): d'agriculteurs~2
# 256 Fixation 5 (665,212.8): ont~3 paralysé~4
# 132 Fixation 6 (596.6,225.2): ont~3
# 230 Fixation 7 (278.8,335.7): centre~6
# 259 Fixation 8 (362.7,331.8): centre~6 d'Auch~7
# 252 Fixation 9 (249.4,341.6): centre~6
# 190 Fixation 10 (533,340.9): exprimer~9
# 337 Fixation 11 (713,280.2): paralysé~4
# 198 Fixation 12 (310.3,407.4): sur~12 réforme~14
# 140 Fixation 13 (354.8,413.3): la~13 réforme~14
# 194 Fixation 14 (522.9,413.2): la~16 politique~17
# 208 Fixation 15 (644.5,414.4): politique~17 agricole~18
# 202 Fixation 16 (298.6,467.5): commune~19
# 164 Fixation 17 (436.8,470): l'appel~21
# 200 Fixation 18 (570.8,489.8): de~22 Fédération~24
# 179 Fixation 19 (301,530.3): Départementale~25
# 132 Fixation 20 (282.8,539.2): Départementale~25
# 263 Fixation 21 (530.1,553): des~26 Syndicats~27
%%
# Un~0 Fixations= "3/"
# millier~1 Fixations= "3/"
# d'agriculteurs~2 Fixations= "4/"
# ont~3 Fixations= "6/"
# paralysé~4 Fixations= "11/"
# le~5 Fixations= ""
# centre~6 Fixations= "9/"
# d'Auch~7 Fixations= "8/"
# pour~8 Fixations= ""
# exprimer~9 Fixations= "10/"
# leur~10 Fixations= ""
# inquiétude~11 Fixations= ""
# sur~12 Fixations= "12/"
# la~13 Fixations= "13/"
# réforme~14 Fixations= "13/"
# de~15 Fixations= ""
# la~16 Fixations= "14/"
# politique~17 Fixations= "15/"
# agricole~18 Fixations= "15/"
# commune~19 Fixations= "16/"
# à~20 Fixations= ""
# l'appel~21 Fixations= "17/"
# de~22 Fixations= "18/"
# la~23 Fixations= ""
# Fédération~24 Fixations= "18/"
# Départementale~25 Fixations= "20/"
# des~26 Fixations= "21/"
# Syndicats~27 Fixations= "21/"
# d'Exploitants~28 Fixations= ""
# Agricoles~29 Fixations= ""
%%
#  UN[3] MILLIER[3] D'AGRICULTEURS[4] ONT[6] PARALYSé[11] le CENTRE[9] D'AUCH[8] pour EXPRIMER[10] leur inquiétude SUR[12] LA[13] RéFORME[13] de LA[14] POLITIQUE[15] AGRICOLE[15] COMMUNE[16] à L'APPEL[17] DE[18] la FéDéRATION[18] DéPARTEMENTALE[20] DES[21] SYNDICATS[21] d'Exploitants Agricoles
# s20 syndicat_agricole-f1 PercentageOfWordsProcessed= 0.7 PercentageOfWordsReallyProcessed= 0.75
