# 85 Fixation 1 (305.7,288.9): Les~0 transports~1
# 119 Fixation 2 (367.9,293.5): transports~1
# 162 Fixation 3 (456.8,296.7): connaissaient~2
# 145 Fixation 4 (651,300.9): toujours~3
# 218 Fixation 5 (299.2,346.9): d'importantes~4
# 171 Fixation 6 (456.4,356.3): perturbations~5
# 85 Fixation 7 (532.4,355.7): perturbations~5
# 256 Fixation 8 (659.9,358.8): au~6 quatrième~7
# 209 Fixation 9 (299.6,392.8): jour~8
# 206 Fixation 10 (393.1,401.6): d'une~9 grève~10
# 238 Fixation 11 (489.2,408.7): grève~10 lancée~11
# 174 Fixation 12 (635.8,419): par~12 syndicats~14
# 131 Fixation 13 (671.4,418.7): les~13 syndicats~14
# 122 Fixation 14 (344.1,461.9): pour~15 protester~16
%%
# Les~0 Fixations= "1/"
# transports~1 Fixations= "2/"
# connaissaient~2 Fixations= "3/"
# toujours~3 Fixations= "4/"
# d'importantes~4 Fixations= "5/"
# perturbations~5 Fixations= "7/"
# au~6 Fixations= "8/"
# quatrième~7 Fixations= "8/"
# jour~8 Fixations= "9/"
# d'une~9 Fixations= "10/"
# grève~10 Fixations= "11/"
# lancée~11 Fixations= "11/"
# par~12 Fixations= "12/"
# les~13 Fixations= "13/"
# syndicats~14 Fixations= "13/"
# pour~15 Fixations= "14/"
# protester~16 Fixations= "14/"
# contre~17 Fixations= ""
# le~18 Fixations= ""
# projet~19 Fixations= ""
# de~20 Fixations= ""
# réduction~21 Fixations= ""
# du~22 Fixations= ""
# temps~23 Fixations= ""
# de~24 Fixations= ""
# travail~25 Fixations= ""
# présenté~26 Fixations= ""
# par~27 Fixations= ""
# la~28 Fixations= ""
# direction~29 Fixations= ""
%%
#  LES[1] TRANSPORTS[2] CONNAISSAIENT[3] TOUJOURS[4] D'IMPORTANTES[5] PERTURBATIONS[7] AU[8] QUATRIèME[8] JOUR[9] D'UNE[10] GRèVE[11] LANCéE[11] PAR[12] LES[13] SYNDICATS[13] POUR[14] PROTESTER[14] contre le projet de réduction du temps de travail présenté par la direction
# s02 greve_cheminot-f2 PercentageOfWordsProcessed= 0.566666666666667 PercentageOfWordsReallyProcessed= 1
