# 288 Fixation 1 (278.5,288.4): Les~0 États-Unis~1
# 101 Fixation 2 (350.9,282.9): États-Unis~1
# 391 Fixation 3 (447.8,274.6): États-Unis~1
# 234 Fixation 4 (510,271.6): et~2 nombreuses~4
# 234 Fixation 5 (497.3,282.5): et~2 nombreuses~4
# 210 Fixation 6 (543,267.6): de~3 nombreuses~4
# 174 Fixation 7 (639.4,265.6): nombreuses~4 ONG~5
# 290 Fixation 8 (335.8,329.5): préparent~6
# 264 Fixation 9 (289.9,333.5): préparent~6
# 329 Fixation 10 (398,325.4): juridiquement~7
# 398 Fixation 11 (571.3,333.7): une~8 mise~9
# 161 Fixation 12 (645.9,328.6): une~8 mise~9
# 262 Fixation 13 (274.9,385): accusation~11
# 521 Fixation 14 (452.9,406.3): pour~12 crimes~13
# 190 Fixation 15 (493.8,456.9): Tribunal~18 pénal~19
# 220 Fixation 16 (702,407.2): l'humanité~15
# 231 Fixation 17 (681.3,470.4): international~20
# 204 Fixation 18 (563.4,493.2): pénal~19
%%
# Les~0 Fixations= "1/"
# États-Unis~1 Fixations= "3/"
# et~2 Fixations= "5/"
# de~3 Fixations= "6/"
# nombreuses~4 Fixations= "7/"
# ONG~5 Fixations= "7/"
# préparent~6 Fixations= "9/"
# juridiquement~7 Fixations= "10/"
# une~8 Fixations= "12/"
# mise~9 Fixations= "12/"
# en~10 Fixations= ""
# accusation~11 Fixations= "13/"
# pour~12 Fixations= "14/"
# crimes~13 Fixations= "14/"
# contre~14 Fixations= ""
# l'humanité~15 Fixations= "16/"
# devant~16 Fixations= ""
# le~17 Fixations= ""
# Tribunal~18 Fixations= "15/"
# pénal~19 Fixations= "18/"
# international~20 Fixations= "17/"
# des~21 Fixations= ""
# dirigeants~22 Fixations= ""
# civils~23 Fixations= ""
# militaires~24 Fixations= ""
# et~25 Fixations= ""
# paramilitaires~26 Fixations= ""
# de~27 Fixations= ""
# Belgrade~28 Fixations= ""
%%
#  LES[1] ÉTATS-UNIS[3] ET[5] DE[6] NOMBREUSES[7] ONG[7] PRéPARENT[9] JURIDIQUEMENT[10] UNE[12] MISE[12] en ACCUSATION[13] POUR[14] CRIMES[14] contre L'HUMANITé[16] devant le TRIBUNAL[15] PéNAL[18] INTERNATIONAL[17] des dirigeants civils militaires et paramilitaires de Belgrade
# s14 tribunal_international-f1 PercentageOfWordsProcessed= 0.586206896551724 PercentageOfWordsReallyProcessed= 0.80952380952381
