999 WORDS_chef~1 131
999 WORDFREQ_172.57 131
999 WORDSALL_Le~0_chef~1 131
999 COSIND_0.02 131
999 COSGEN_0.02 131
101 ESRank1 131
999 WORDS_gouvernement~3 142
999 WORDFREQ_119.73 142
999 WORDSALL_du~2_gouvernement~3 142
999 COSIND_-0.00 142
999 COSGEN_-0.00 142
102 ESRank2 142
202 ESForwSacLong+2+4 142
999 WORDS_accusé~5 216
999 WORDFREQ_1.01 216
999 WORDSALL_est~4_accusé~5 216
999 COSIND_-0.06 216
999 COSGEN_-0.06 216
103 ESRank3 216
202 ESForwSacLong+2+5 216
999 WORDS_relations~7 195
999 WORDFREQ_42.16 195
999 WORDSALL_relations~7 195
999 COSIND_0.15 195
999 COSGEN_0.15 195
104 ESRank4 195
202 ESForwSacLong+2+5 195
999 WORDS_tendues~8 204
999 WORDFREQ_3.45 204
999 WORDSALL_tendues~8 204
999 COSIND_0.01 204
999 COSGEN_0.01 204
105 ESRank5 204
201 ESForwSacShort 204
999 WORDS_États-Unis~11 139
999 WORDFREQ_N/A 139
999 WORDSALL_avec~9_États-Unis~11 139
999 COSIND_N/A 139
106 ESRank6 139
202 ESForwSacLong+3+10 139
999 WORDS_États-Unis~11 168
999 WORDFREQ_N/A 168
999 WORDSALL_les~10_États-Unis~11 168
999 COSIND_N/A 168
107 ESRank7 168
203 ESBackSacRefixation 168
999 WORDS_États-Unis~11 99
999 WORDFREQ_N/A 99
999 WORDSALL_États-Unis~11 99
999 COSIND_N/A 99
108 ESRank8 99
203 ESBackSacRefixation 99
999 WORDS_tendues~8 105
999 WORDFREQ_3.45 105
999 WORDSALL_relations~7_tendues~8 105
999 COSIND_0.01 105
999 COSGEN_0.01 105
109 ESRank9 105
206 ESBackSacRegrLong-3-10 105
999 WORDS_relations~7 159
999 WORDFREQ_42.16 159
999 WORDSALL_relations~7 159
999 COSIND_0.15 159
999 COSGEN_0.15 159
110 ESRank10 159
205 ESBackSacRegrShort 159
999 WORDS_d'Israël~14 168
999 WORDFREQ_N/A 168
999 WORDSALL_d'Israël~14 168
999 COSIND_N/A 168
111 ESRank11 168
202 ESForwSacLong+7+45 168
999 WORDS_monde~17 117
999 WORDFREQ_732.43 117
999 WORDSALL_dans~15_monde~17 117
999 COSIND_-0.01 117
999 COSGEN_-0.01 117
112 ESRank12 117
202 ESForwSacLong+3+9 117
999 WORDS_monde~17 142
999 WORDFREQ_732.43 142
999 WORDSALL_dans~15_monde~17 142
999 COSIND_-0.01 142
999 COSGEN_-0.01 142
113 ESRank13 142
203 ESBackSacRefixation 142
999 WORDS_monde~17 160
999 WORDFREQ_732.43 160
999 WORDSALL_monde~17 160
999 COSIND_-0.01 160
999 COSGEN_-0.01 160
114 ESRank14 160
203 ESBackSacRefixation 160
999 WORDS_vertigineuse~22 116
999 WORDFREQ_4.86 116
999 WORDSALL_vertigineuse~22 116
999 COSIND_-0.11 116
999 COSGEN_-0.11 116
115 ESRank15 116
202 ESForwSacLong+5+24 116
999 WORDS_l'isolement~13 108
999 WORDFREQ_7.91 108
999 WORDSALL_l'isolement~13 108
999 COSIND_-0.01 108
999 COSGEN_-0.01 108
116 ESRank16 108
206 ESBackSacRegrLong-9-48 108
999 WORDS_l'isolement~13 178
999 WORDFREQ_7.91 178
999 WORDSALL_l'isolement~13 178
999 COSIND_-0.01 178
999 COSGEN_-0.01 178
117 ESRank17 178
203 ESBackSacRefixation 178
999 WORDS_d'Israël~14 155
999 WORDFREQ_N/A 155
999 WORDSALL_d'Israël~14 155
999 COSIND_N/A 155
118 ESRank18 155
201 ESForwSacShort 155
999 WORDS_montée~21 112
999 WORDFREQ_14.39 112
999 WORDSALL_en~20_montée~21 112
999 COSIND_0.04 112
999 COSGEN_0.04 112
119 ESRank19 112
202 ESForwSacLong+7+30 112
999 WORDS_vertigineuse~22 153
999 WORDFREQ_4.86 153
999 WORDSALL_montée~21_vertigineuse~22 153
999 COSIND_-0.11 153
999 COSGEN_-0.11 153
120 ESRank20 153
201 ESForwSacShort 153
999 WORDS_normes~30 161
999 WORDFREQ_2.64 161
999 WORDSALL_les~29_normes~30 161
999 COSIND_0.01 161
999 COSGEN_0.01 161
202 ESForwSacLong+8+40 161
999 WORDS_détérioration~26 188
999 WORDFREQ_0.54 188
999 WORDSALL_détérioration~26 188
999 COSIND_0.10 188
999 COSGEN_0.10 188
206 ESBackSacRegrLong-4-15 188
999 WORDS_toutes~28 189
999 WORDFREQ_50.47 189
999 WORDSALL_de~27_toutes~28 189
999 COSIND_0.02 189
999 COSGEN_0.02 189
202 ESForwSacLong+2+4 189
999 WORDS_États-Unis~11 160
999 WORDFREQ_N/A 160
999 WORDSALL_avec~9_États-Unis~11 160
999 COSIND_N/A 160
206 ESBackSacRegrLong-17-104 160
999 WORDS_États-Unis~11 169
999 WORDFREQ_N/A 169
999 WORDSALL_les~10_États-Unis~11 169
999 COSIND_N/A 169
203 ESBackSacRefixation 169
999 WORDS_États-Unis~11 212
999 WORDFREQ_N/A 212
999 WORDSALL_États-Unis~11 212
999 COSIND_N/A 212
203 ESBackSacRefixation 212
200 ESRankN 212
199 ESRankNMinus1 169
198 ESRankNMinus2 160
197 ESRankNMinus3 189
196 ESRankNMinus4 188
195 ESRankNMinus5 161
194 ESRankNMinus6 153
193 ESRankNMinus7 112
192 ESRankNMinus8 155
191 ESRankNMinus9 178
190 ESRankNMinus10 108
