# 167 Fixation 1 (254.3,282.2): La~0 révision~1
# 157 Fixation 2 (436.4,280.8): par~2 Commission~4
# 184 Fixation 3 (518.2,282.4): la~3 Commission~4
# 224 Fixation 4 (287.1,309.3): La~0 révision~1
# 186 Fixation 5 (451.4,316.7): pour~7 l'année~8
# 190 Fixation 6 (615.3,326.2): confirme~9
# 128 Fixation 7 (705.3,341.1): en~10
# 236 Fixation 8 (287.2,352.9): prévisions~6
# 143 Fixation 9 (450.3,372.4): pour~7 l'année~8
# 193 Fixation 10 (576.1,366.7): l'année~8 confirme~9
# 163 Fixation 11 (673.9,376): confirme~9
# 147 Fixation 12 (296.6,419.4): cas~12 qu'il~13
# 112 Fixation 13 (255.8,438.1): cas~12
# 190 Fixation 14 (399.7,440.6): qu'il~13 a~15
# 194 Fixation 15 (576.6,425.1): problème~18
# 155 Fixation 16 (689.6,421.9): Cette~19
# 241 Fixation 17 (286.9,522.1): devrait~28
# 248 Fixation 18 (454,530.3): que~30 légèrement~31
# 268 Fixation 19 (644.1,514.2): au-dessus~32
# 261 Fixation 20 (240.7,601.6): 2%~34
# 138 Fixation 21 (222.3,605.6): 2%~34
# 150 Fixation 22 (286.8,534.5): devrait~28
# 168 Fixation 23 (368.9,529.2): devrait~28 être~29
# 270 Fixation 24 (485.1,526.1): que~30 légèrement~31
# 232 Fixation 25 (625.3,518.9): au-dessus~32
# 118 Fixation 26 (697.6,503.1): euro~26
%%
# La~0 Fixations= "4/"
# révision~1 Fixations= "4/"
# par~2 Fixations= "2/"
# la~3 Fixations= "3/"
# Commission~4 Fixations= "3/"
# des~5 Fixations= ""
# prévisions~6 Fixations= "8/"
# pour~7 Fixations= "9/"
# l'année~8 Fixations= "10/"
# confirme~9 Fixations= "11/"
# en~10 Fixations= "7/"
# tout~11 Fixations= ""
# cas~12 Fixations= "13/"
# qu'il~13 Fixations= "14/"
# y~14 Fixations= ""
# a~15 Fixations= "14/"
# bien~16 Fixations= ""
# un~17 Fixations= ""
# problème~18 Fixations= "15/"
# Cette~19 Fixations= "16/"
# année~20 Fixations= ""
# la~21 Fixations= ""
# croissance~22 Fixations= ""
# de~23 Fixations= ""
# la~24 Fixations= ""
# zone~25 Fixations= ""
# euro~26 Fixations= "26/"
# ne~27 Fixations= ""
# devrait~28 Fixations= "23/"
# être~29 Fixations= "23/"
# que~30 Fixations= "24/"
# légèrement~31 Fixations= "24/"
# au-dessus~32 Fixations= "25/"
# de~33 Fixations= ""
# 2%~34 Fixations= "21/"
%%
#  LA[4] RéVISION[4] PAR[2] LA[3] COMMISSION[3] des PRéVISIONS[8] POUR[9] L'ANNéE[10] CONFIRME[11] EN[7] tout CAS[13] QU'IL[14] y A[14] bien un PROBLèME[15] CETTE[16] année la croissance de la zone EURO[26] ne DEVRAIT[23] êTRE[23] QUE[24] LéGèREMENT[24] AU-DESSUS[25] de 2%[21]
# s21 faiblesse_dollar-m2 PercentageOfWordsProcessed= 0.628571428571429 PercentageOfWordsReallyProcessed= 0.628571428571429
