# 186 Fixation 1 (427.3,277.1): administratif~2
# 177 Fixation 2 (559.3,288.3): administratif~2 Paris~4 Paris~12
# 184 Fixation 3 (718.1,307.1): Paris~4 a~5 d'étendre~13
# 135 Fixation 4 (303.1,344.1): Le~0 tribunal~1 décision~8
# 177 Fixation 5 (435.8,362.8): du~9 Conseil~10
# 142 Fixation 6 (584.6,363.9): de~11 Paris~12
# 178 Fixation 7 (713.9,354): d'étendre~13
# 194 Fixation 8 (289.3,361.7): la~7 décision~8
# 228 Fixation 9 (473,405.1): du~9 Conseil~10 banlieue~18
# 221 Fixation 10 (592.1,399.2): de~11 Paris~12 système~20
# 124 Fixation 11 (659,394.3): Paris~12 d'étendre~13 système~20
# 170 Fixation 12 (312.5,445.2): des~15 communes~16
# 231 Fixation 13 (274.3,457.2): des~15 communes~16 vélos~22
# 237 Fixation 14 (367.3,460.5): communes~16
# 225 Fixation 15 (259.3,473.1): des~15 communes~16 vélos~22
# 403 Fixation 16 (358.7,460.5): communes~16
# 313 Fixation 17 (453.8,373.8): du~9 Conseil~10
%%
# Le~0 Fixations= "4/"
# tribunal~1 Fixations= "4/"
# administratif~2 Fixations= "2/"
# de~3 Fixations= ""
# Paris~4 Fixations= "3/"
# a~5 Fixations= "3/"
# annulé~6 Fixations= ""
# la~7 Fixations= "8/"
# décision~8 Fixations= "8/"
# du~9 Fixations= "17/"
# Conseil~10 Fixations= "17/"
# de~11 Fixations= "10/"
# Paris~12 Fixations= "11/"
# d'étendre~13 Fixations= "11/"
# à~14 Fixations= ""
# des~15 Fixations= "15/"
# communes~16 Fixations= "16/"
# de~17 Fixations= ""
# banlieue~18 Fixations= "9/"
# le~19 Fixations= ""
# système~20 Fixations= "11/"
# de~21 Fixations= ""
# vélos~22 Fixations= "15/"
# en~23 Fixations= ""
# libre-service~24 Fixations= ""
%%
#  LE[4] TRIBUNAL[4] ADMINISTRATIF[2] de PARIS[3] A[3] annulé LA[8] DéCISION[8] DU[17] CONSEIL[17] DE[10] PARIS[11] D'éTENDRE[11] à DES[15] COMMUNES[16] de BANLIEUE[9] le SYSTèME[11] de VéLOS[15] en libre-service
# s07 chef_russie-a2 PercentageOfWordsProcessed= 0.68 PercentageOfWordsReallyProcessed= 0.739130434782609
