999 WORDS_L'étude~0 111
999 WORDFREQ_19.66 111
999 WORDSALL_L'étude~0 111
999 COSIND_0.08 111
999 COSGEN_0.08 111
101 ESRank1 111
999 WORDS_dynamique~3 170
999 WORDFREQ_0.61 170
999 WORDSALL_la~2_dynamique~3 170
999 COSIND_0.05 170
999 COSGEN_0.05 170
102 ESRank2 170
202 ESForwSacLong+3+7 170
999 WORDS_anneaux~5 205
999 WORDFREQ_7.97 205
999 WORDSALL_des~4_anneaux~5 205
999 COSIND_0.47 205
999 COSGEN_0.47 205
103 ESRank3 205
202 ESForwSacLong+2+5 205
999 WORDS_entourent~7 88
999 WORDFREQ_7.91 88
999 WORDSALL_entourent~7 88
999 COSIND_0.19 88
999 COSGEN_0.19 88
104 ESRank4 88
202 ESForwSacLong+2+5 88
999 WORDS_entourent~7 140
999 WORDFREQ_7.91 140
999 WORDSALL_entourent~7 140
999 COSIND_0.19 140
999 COSGEN_0.19 140
105 ESRank5 140
203 ESBackSacRefixation 140
999 WORDS_toutes~8 150
999 WORDFREQ_24.19 150
999 WORDSALL_toutes~8 150
999 COSIND_0.05 150
999 COSGEN_0.05 150
106 ESRank6 150
201 ESForwSacShort 150
999 WORDS_planètes~10 129
999 WORDFREQ_3.04 129
999 WORDSALL_les~9_planètes~10 129
999 COSIND_0.97 129
999 COSGEN_0.97 129
107 ESRank7 129
202 ESForwSacLong+2+5 129
999 WORDS_géantes~11 215
999 WORDFREQ_2.97 215
999 WORDSALL_géantes~11 215
999 COSIND_0.20 215
999 COSGEN_0.20 215
108 ESRank8 215
201 ESForwSacShort 215
999 WORDS_orbite~13 112
999 WORDFREQ_2.64 112
999 WORDSALL_orbite~13 112
999 COSIND_0.76 112
999 COSGEN_0.76 112
109 ESRank9 112
202 ESForwSacLong+2+4 112
999 WORDS_aide~17 145
999 WORDFREQ_18.38 145
999 WORDSALL_Soleil~16_aide~17 145
999 COSIND_0.01 145
999 COSGEN_0.01 145
110 ESRank10 145
202 ESForwSacLong+4+18 145
200 ESRankN 145
199 ESRankNMinus1 112
198 ESRankNMinus2 215
197 ESRankNMinus3 129
196 ESRankNMinus4 150
195 ESRankNMinus5 140
194 ESRankNMinus6 88
193 ESRankNMinus7 205
192 ESRankNMinus8 170
191 ESRankNMinus9 111
