999 WORDS_moitié~1 131
999 WORDFREQ_76.96 131
999 WORDSALL_La~0_moitié~1 131
999 COSIND_0.12 131
999 COSGEN_0.12 131
101 ESRank1 131
999 WORDS_tout-petits~3 132
999 WORDFREQ_0.41 132
999 WORDSALL_des~2_tout-petits~3 132
999 COSIND_N/A 132
102 ESRank2 132
202 ESForwSacLong+2+5 132
999 WORDS_tout-petits~3 144
999 WORDFREQ_0.41 144
999 WORDSALL_tout-petits~3 144
999 COSIND_N/A 144
103 ESRank3 144
203 ESBackSacRefixation 144
999 WORDS_sont~4 122
999 WORDFREQ_386.35 122
999 WORDSALL_sont~4 122
999 COSIND_0.09 122
999 COSGEN_0.09 122
104 ESRank4 122
201 ESForwSacShort 122
999 WORDS_gardés~5 163
999 WORDFREQ_2.77 163
999 WORDSALL_sont~4_gardés~5 163
999 COSIND_0.10 163
999 COSGEN_0.10 163
105 ESRank5 163
201 ESForwSacShort 163
999 WORDS_foyer~7 171
999 WORDFREQ_25.81 171
999 WORDSALL_foyer~7 171
999 COSIND_0.40 171
999 COSGEN_0.40 171
106 ESRank6 171
202 ESForwSacLong+2+4 171
999 WORDS_parent~10 213
999 WORDFREQ_4.53 213
999 WORDSALL_un~9_parent~10 213
999 COSIND_0.31 213
999 COSGEN_0.31 213
107 ESRank7 213
202 ESForwSacLong+3+8 213
999 WORDS_maman~12 351
999 WORDFREQ_140.2 351
999 WORDSALL_la~11_maman~12 351
999 COSIND_0.13 351
999 COSGEN_0.13 351
108 ESRank8 351
202 ESForwSacLong+2+4 351
999 WORDS_parent~10 241
999 WORDFREQ_4.53 241
999 WORDSALL_un~9_parent~10 241
999 COSIND_0.31 241
999 COSGEN_0.31 241
109 ESRank9 241
206 ESBackSacRegrLong-2-4 241
999 WORDS_maman~12 133
999 WORDFREQ_140.2 133
999 WORDSALL_la~11_maman~12 133
999 COSIND_0.13 133
999 COSGEN_0.13 133
110 ESRank10 133
202 ESForwSacLong+2+4 133
999 WORDS_maman~12 144
999 WORDFREQ_140.2 144
999 WORDSALL_maman~12 144
999 COSIND_0.13 144
999 COSGEN_0.13 144
111 ESRank11 144
203 ESBackSacRefixation 144
999 WORDS_quasi-totalité~15 193
999 WORDFREQ_0.88 193
999 WORDSALL_quasi-totalité~15 193
999 COSIND_N/A 193
112 ESRank12 193
202 ESForwSacLong+3+9 193
999 WORDS_cas~17 147
999 WORDFREQ_217.36 147
999 WORDSALL_des~16_cas~17 147
999 COSIND_0.08 147
999 COSGEN_0.08 147
113 ESRank13 147
202 ESForwSacLong+2+5 147
999 WORDS_Seuls~18 188
999 WORDFREQ_8.38 188
999 WORDSALL_Seuls~18 188
999 COSIND_0.02 188
999 COSGEN_0.02 188
114 ESRank14 188
201 ESForwSacShort 188
999 WORDS_8%~19 143
999 WORDFREQ_N/A 143
999 WORDSALL_Seuls~18_8%~19 143
999 COSIND_N/A 143
115 ESRank15 143
201 ESForwSacShort 143
999 WORDS_ont~20 146
999 WORDFREQ_240.61 146
999 WORDSALL_8%~19_ont~20 146
999 COSIND_0.09 146
999 COSGEN_0.09 146
116 ESRank16 146
201 ESForwSacShort 146
999 WORDS_crèche~24 144
999 WORDFREQ_8.31 144
999 WORDSALL_une~23_crèche~24 144
999 COSIND_0.43 144
999 COSGEN_0.43 144
117 ESRank17 144
202 ESForwSacLong+4+15 144
999 WORDS_collective~25 130
999 WORDFREQ_7.91 130
999 WORDSALL_collective~25 130
999 COSIND_0.05 130
999 COSGEN_0.05 130
118 ESRank18 130
201 ESForwSacShort 130
999 WORDS_collective~25 100
999 WORDFREQ_7.91 100
999 WORDSALL_collective~25 100
999 COSIND_0.05 100
999 COSGEN_0.05 100
119 ESRank19 100
203 ESBackSacRefixation 100
999 WORDS_parentale~27 216
999 WORDFREQ_0.61 216
999 WORDSALL_ou~26_parentale~27 216
999 COSIND_0.44 216
999 COSGEN_0.44 216
120 ESRank20 216
202 ESForwSacLong+2+4 216
999 WORDS_quasi-totalité~15 279
999 WORDFREQ_0.88 279
999 WORDSALL_quasi-totalité~15 279
999 COSIND_N/A 279
206 ESBackSacRegrLong-12-58 279
200 ESRankN 279
199 ESRankNMinus1 216
198 ESRankNMinus2 100
197 ESRankNMinus3 130
196 ESRankNMinus4 144
195 ESRankNMinus5 146
194 ESRankNMinus6 143
193 ESRankNMinus7 188
192 ESRankNMinus8 147
191 ESRankNMinus9 193
190 ESRankNMinus10 144
