999 WORDS_3e~1 159
999 WORDFREQ_N/A 159
999 WORDSALL_Le~0_3e~1 159
999 COSIND_N/A 159
101 ESRank1 159
999 WORDS_3e~1 144
999 WORDFREQ_N/A 144
999 WORDSALL_Le~0_3e~1 144
999 COSIND_N/A 144
102 ESRank2 144
203 ESBackSacRefixation 144
999 WORDS_ligne~2 177
999 WORDFREQ_101.01 177
999 WORDSALL_Le~0_3e~1_ligne~2 177
999 COSIND_0.13 177
999 COSGEN_0.13 177
103 ESRank3 177
201 ESForwSacShort 177
999 WORDS_XV~4 192
999 WORDFREQ_N/A 192
999 WORDSALL_ligne~2_XV~4 192
999 COSIND_N/A 192
104 ESRank4 192
202 ESForwSacLong+2+4 192
999 WORDS_d'Angleterre~5 198
999 WORDFREQ_0.47 198
999 WORDSALL_XV~4_d'Angleterre~5 198
999 COSIND_0.05 198
999 COSGEN_0.05 198
105 ESRank5 198
201 ESForwSacShort 198
999 WORDS_retraite~12 164
999 WORDFREQ_38.78 164
999 WORDSALL_d'Angleterre~5_retraite~12 164
999 COSIND_-0.00 164
999 COSGEN_-0.00 164
106 ESRank6 164
202 ESForwSacLong+7+34 164
999 WORDS_85~7 188
999 WORDFREQ_N/A 188
999 WORDSALL_d'Angleterre~5_85~7 188
999 COSIND_N/A 188
107 ESRank7 188
206 ESBackSacRegrLong-5-27 188
999 WORDS_85~7 182
999 WORDFREQ_N/A 182
999 WORDSALL_aux~6_85~7 182
999 COSIND_N/A 182
108 ESRank8 182
203 ESBackSacRefixation 182
999 WORDS_sélections~8 144
999 WORDFREQ_0.27 144
999 WORDSALL_sélections~8 144
999 COSIND_-0.04 144
999 COSGEN_-0.04 144
109 ESRank9 144
201 ESForwSacShort 144
999 WORDS_sélections~8 96
999 WORDFREQ_0.27 96
999 WORDSALL_sélections~8 96
999 COSIND_-0.04 96
999 COSGEN_-0.04 96
110 ESRank10 96
203 ESBackSacRefixation 96
999 WORDS_annoncé~10 250
999 WORDFREQ_15.68 250
999 WORDSALL_a~9_annoncé~10 250
999 COSIND_0.04 250
999 COSGEN_0.04 250
111 ESRank11 250
202 ESForwSacLong+2+3 250
999 WORDS_retraite~12 152
999 WORDFREQ_38.78 152
999 WORDSALL_sa~11_retraite~12 152
999 COSIND_-0.00 152
999 COSGEN_-0.00 152
112 ESRank12 152
202 ESForwSacLong+2+4 152
999 WORDS_retraite~12 151
999 WORDFREQ_38.78 151
999 WORDSALL_sa~11_retraite~12 151
999 COSIND_-0.00 151
999 COSGEN_-0.00 151
113 ESRank13 151
203 ESBackSacRefixation 151
200 ESRankN 151
199 ESRankNMinus1 152
198 ESRankNMinus2 250
197 ESRankNMinus3 96
196 ESRankNMinus4 144
195 ESRankNMinus5 182
194 ESRankNMinus6 188
193 ESRankNMinus7 164
192 ESRankNMinus8 198
191 ESRankNMinus9 192
190 ESRankNMinus10 177
