999 WORDS_Toute~0 193
999 WORDFREQ_5.2 193
999 WORDSALL_Toute~0 193
999 COSIND_0.01 193
999 COSGEN_0.01 193
101 ESRank1 193
999 WORDS_Toute~0 130
999 WORDFREQ_5.2 130
999 WORDSALL_Toute~0 130
999 COSIND_0.01 130
999 COSGEN_0.01 130
102 ESRank2 130
203 ESBackSacRefixation 130
999 WORDS_magie~2 393
999 WORDFREQ_15.14 393
999 WORDSALL_la~1_magie~2 393
999 COSIND_0.19 393
999 COSGEN_0.19 393
103 ESRank3 393
202 ESForwSacLong+2+4 393
999 WORDS_hauts~4 226
999 WORDFREQ_29.26 226
999 WORDSALL_des~3_hauts~4 226
999 COSIND_0.10 226
999 COSGEN_0.10 226
104 ESRank4 226
202 ESForwSacLong+2+5 226
999 WORDS_plateaux~5 154
999 WORDFREQ_8.78 154
999 WORDSALL_hauts~4_plateaux~5 154
999 COSIND_0.23 154
999 COSGEN_0.23 154
105 ESRank5 154
201 ESForwSacShort 154
999 WORDS_Toute~0 157
999 WORDFREQ_5.2 157
999 WORDSALL_Toute~0 157
999 COSIND_0.01 157
999 COSGEN_0.01 157
106 ESRank6 157
206 ESBackSacRegrLong-5-20 157
999 WORDS_basaltiques~6 758
999 WORDFREQ_N/A 758
999 WORDSALL_basaltiques~6 758
999 COSIND_N/A 758
107 ESRank7 758
202 ESForwSacLong+6+29 758
999 WORDS_basaltiques~6 157
999 WORDFREQ_N/A 157
999 WORDSALL_basaltiques~6 157
999 COSIND_N/A 157
108 ESRank8 157
203 ESBackSacRefixation 157
200 ESRankN 157
199 ESRankNMinus1 758
198 ESRankNMinus2 157
197 ESRankNMinus3 154
196 ESRankNMinus4 226
195 ESRankNMinus5 393
194 ESRankNMinus6 130
193 ESRankNMinus7 193
