# 83 Fixation 1 (270.1,285.4): Le~0 fondateur~1
# 189 Fixation 2 (313.4,282.9): Le~0 fondateur~1
# 139 Fixation 3 (444.6,286.3): de~2 guérilla~4 autorités~9
# 231 Fixation 4 (518.8,278.5): la~3 guérilla~4
# 91 Fixation 5 (624.4,274.4): guérilla~4 rébellion~6
# 139 Fixation 6 (686,282.5): en~5 rébellion~6
# 198 Fixation 7 (287.3,334.3): Le~0 fondateur~1
%%
# Le~0 Fixations= "7/"
# fondateur~1 Fixations= "7/"
# de~2 Fixations= "3/"
# la~3 Fixations= "4/"
# guérilla~4 Fixations= "5/"
# en~5 Fixations= "6/"
# rébellion~6 Fixations= "6/"
# contre~7 Fixations= ""
# les~8 Fixations= ""
# autorités~9 Fixations= "3/"
# ne~10 Fixations= ""
# fait~11 Fixations= ""
# aucune~12 Fixations= ""
# allusion~13 Fixations= ""
# à~14 Fixations= ""
# l'opération~15 Fixations= ""
# humanitaire~16 Fixations= ""
# visant~17 Fixations= ""
# à~18 Fixations= ""
# remettre~19 Fixations= ""
# trois~20 Fixations= ""
# otages~21 Fixations= ""
# qui~22 Fixations= ""
# a~23 Fixations= ""
# capoté~24 Fixations= ""
# en~25 Fixations= ""
# début~26 Fixations= ""
# de~27 Fixations= ""
# semaine~28 Fixations= ""
# dernière~29 Fixations= ""
%%
#  LE[7] FONDATEUR[7] DE[3] LA[4] GUéRILLA[5] EN[6] RéBELLION[6] contre les AUTORITéS[3] ne fait aucune allusion à l'opération humanitaire visant à remettre trois otages qui a capoté en début de semaine dernière
# s02 course_voiliers-a2 PercentageOfWordsProcessed= 0.266666666666667 PercentageOfWordsReallyProcessed= 0.8
