# 132 Fixation 1 (322,268.5): Un~0 couple~1
# 164 Fixation 2 (462.6,264.8): quinquagénaires~3
# 170 Fixation 3 (569.9,269.9): quinquagénaires~3
# 174 Fixation 4 (644.9,265.5): mosellans~4
# 197 Fixation 5 (335.4,323.7): jugé~6 mardi~7
# 192 Fixation 6 (480.2,332.9): correctionnel~9
# 308 Fixation 7 (662.1,335.6): pour~10 détention~11
# 176 Fixation 8 (342.8,361.2): jugé~6 mardi~7
# 304 Fixation 9 (413.3,376): mardi~7 correctionnel~9
# 239 Fixation 10 (545.8,391.7): de~15 stupéfiants~16
# 138 Fixation 11 (615.2,397.6): stupéfiants~16
# 166 Fixation 12 (681.7,402.1): stupéfiants~16
# 155 Fixation 13 (641.5,447.3): cannabis~22
# 196 Fixation 14 (328.1,421.7): et~12 usage~13
# 160 Fixation 15 (468,425.2): personnel~14
# 96 Fixation 16 (512.1,429.6): de~15 stupéfiants~16
# 166 Fixation 17 (589.5,433.3): stupéfiants~16
# 118 Fixation 18 (689.3,451.5): cannabis~22
# 95 Fixation 19 (364.5,455): arrosaient~18
# 113 Fixation 20 (310.4,463.9): arrosaient~18
# 110 Fixation 21 (503,481.2): pots~20
# 144 Fixation 22 (583.8,300.2): quinquagénaires~3 mosellans~4
%%
# Un~0 Fixations= "1/"
# couple~1 Fixations= "1/"
# de~2 Fixations= ""
# quinquagénaires~3 Fixations= "22/"
# mosellans~4 Fixations= "22/"
# sera~5 Fixations= ""
# jugé~6 Fixations= "8/"
# mardi~7 Fixations= "9/"
# en~8 Fixations= ""
# correctionnel~9 Fixations= "9/"
# pour~10 Fixations= "7/"
# détention~11 Fixations= "7/"
# et~12 Fixations= "14/"
# usage~13 Fixations= "14/"
# personnel~14 Fixations= "15/"
# de~15 Fixations= "16/"
# stupéfiants~16 Fixations= "17/"
# Ils~17 Fixations= ""
# arrosaient~18 Fixations= "20/"
# leurs~19 Fixations= ""
# pots~20 Fixations= "21/"
# de~21 Fixations= ""
# cannabis~22 Fixations= "18/"
# sur~23 Fixations= ""
# le~24 Fixations= ""
# rebord~25 Fixations= ""
# de~26 Fixations= ""
# leur~27 Fixations= ""
# fenêtre~28 Fixations= ""
%%
#  UN[1] COUPLE[1] de QUINQUAGéNAIRES[22] MOSELLANS[22] sera JUGé[8] MARDI[9] en CORRECTIONNEL[9] POUR[7] DéTENTION[7] ET[14] USAGE[14] PERSONNEL[15] DE[16] STUPéFIANTS[17] Ils ARROSAIENT[20] leurs POTS[21] de CANNABIS[18] sur le rebord de leur fenêtre
# s08 tribunal_international-m2 PercentageOfWordsProcessed= 0.586206896551724 PercentageOfWordsReallyProcessed= 0.739130434782609
