999 WORDS_à~1 160
999 WORDFREQ_19209.05 160
999 WORDSALL_Destiné~0_à~1 160
999 COSIND_N/A 160
101 ESRank1 160
999 WORDS_inédite~7 237
999 WORDFREQ_2.5 237
999 WORDSALL_inédite~7 237
999 COSIND_0.07 237
999 COSGEN_0.07 237
102 ESRank2 237
202 ESForwSacLong+6+36 237
999 WORDS_à~1 92
999 WORDFREQ_19209.05 92
999 WORDSALL_à~1 92
999 COSIND_N/A 92
103 ESRank3 92
206 ESBackSacRegrLong-6-36 92
999 WORDS_récompenser~2 163
999 WORDFREQ_2.77 163
999 WORDSALL_récompenser~2 163
999 COSIND_0.74 163
999 COSGEN_0.74 163
104 ESRank4 163
201 ESForwSacShort 163
999 WORDS_oeuvre~4 211
999 WORDFREQ_68.11 211
999 WORDSALL_une~3_oeuvre~4 211
999 COSIND_0.05 211
999 COSGEN_0.05 211
105 ESRank5 211
202 ESForwSacLong+2+5 211
999 WORDS_ 184
999 WORDFREQ_ 184
999 WORDSALL_ 184
106 ESRank6 184
999 WORDS_vingt-cinq~17 372
999 WORDFREQ_28.18 372
999 WORDSALL_moins~15_vingt-cinq~17 372
999 COSIND_N/A 372
107 ESRank7 372
200 ESRankN 372
199 ESRankNMinus1 184
198 ESRankNMinus2 211
197 ESRankNMinus3 163
196 ESRankNMinus4 92
195 ESRankNMinus5 237
194 ESRankNMinus6 160
