# 128 Fixation 1 (460.5,272.9): a~2
# 153 Fixation 2 (606.4,273.4): officiellement~3 déposé~4
# 82 Fixation 3 (662.4,276.2): déposé~4
# 187 Fixation 4 (332.1,353.8): plainte~5
# 159 Fixation 5 (454,348.6): a~2 gouvernement~8 avoir~12
# 176 Fixation 6 (531,344.6): officiellement~3 gouvernement~8
# 126 Fixation 7 (292.6,401): plainte~5 États-Unis~10
# 161 Fixation 8 (454.7,405.1): contre~6 gouvernement~8 avoir~12
# 132 Fixation 9 (572,405): gouvernement~8 empêché~13
# 133 Fixation 10 (707.1,395.9): des~9 l'application~14
# 161 Fixation 11 (319.9,475.4): États-Unis~10 loi~17
# 179 Fixation 12 (459.6,472.5): pour~11 avoir~12 réduction~19
# 158 Fixation 13 (631.7,474.1): empêché~13 émissions~21
# 105 Fixation 14 (741.7,463.4): l'application~14 gaz~23
# 184 Fixation 15 (299.5,533.8): de~15 loi~17 effet~25
# 116 Fixation 16 (422.8,530.3): de~18 réduction~19 serre~27
%%
# La~0 Fixations= ""
# Californie~1 Fixations= ""
# a~2 Fixations= "5/"
# officiellement~3 Fixations= "6/"
# déposé~4 Fixations= "3/"
# plainte~5 Fixations= "7/"
# contre~6 Fixations= "8/"
# le~7 Fixations= ""
# gouvernement~8 Fixations= "9/"
# des~9 Fixations= "10/"
# États-Unis~10 Fixations= "11/"
# pour~11 Fixations= "12/"
# avoir~12 Fixations= "12/"
# empêché~13 Fixations= "13/"
# l'application~14 Fixations= "14/"
# de~15 Fixations= "15/"
# sa~16 Fixations= ""
# loi~17 Fixations= "15/"
# de~18 Fixations= "16/"
# réduction~19 Fixations= "16/"
# des~20 Fixations= ""
# émissions~21 Fixations= "13/"
# de~22 Fixations= ""
# gaz~23 Fixations= "14/"
# à~24 Fixations= ""
# effet~25 Fixations= "15/"
# de~26 Fixations= ""
# serre~27 Fixations= "16/"
# des~28 Fixations= ""
# automobiles~29 Fixations= ""
%%
#  La Californie A[5] OFFICIELLEMENT[6] DéPOSé[3] PLAINTE[7] CONTRE[8] le GOUVERNEMENT[9] DES[10] ÉTATS-UNIS[11] POUR[12] AVOIR[12] EMPêCHé[13] L'APPLICATION[14] DE[15] sa LOI[15] DE[16] RéDUCTION[16] des éMISSIONS[13] de GAZ[14] à EFFET[15] de SERRE[16] des automobiles
# s19 prix_petrole-a2 PercentageOfWordsProcessed= 0.666666666666667 PercentageOfWordsReallyProcessed= 0.714285714285714
