999 WORDS_Chine~1 117
999 WORDFREQ_0.54 117
999 WORDSALL_La~0_Chine~1 117
999 COSIND_0.08 117
999 COSGEN_0.08 117
101 ESRank1 117
999 WORDS_souhaite~2 113
999 WORDFREQ_17.3 113
999 WORDSALL_Chine~1_souhaite~2 113
999 COSIND_-0.01 113
999 COSGEN_-0.01 113
102 ESRank2 113
201 ESForwSacShort 113
999 WORDS_souhaite~2 117
999 WORDFREQ_17.3 117
999 WORDSALL_souhaite~2 117
999 COSIND_-0.01 117
999 COSGEN_-0.01 117
103 ESRank3 117
203 ESBackSacRefixation 117
999 WORDS_généraliser~3 166
999 WORDFREQ_0.34 166
999 WORDSALL_généraliser~3 166
999 COSIND_0.02 166
999 COSGEN_0.02 166
104 ESRank4 166
201 ESForwSacShort 166
999 WORDS_l'usage~4 152
999 WORDFREQ_42.3 152
999 WORDSALL_l'usage~4 152
999 COSIND_0.12 152
999 COSGEN_0.12 152
105 ESRank5 152
201 ESForwSacShort 152
999 WORDS_l'injection~6 178
999 WORDFREQ_0.95 178
999 WORDSALL_La~0_Chine~1_l'injection~6 178
999 COSIND_0.10 178
999 COSGEN_0.10 178
106 ESRank6 178
202 ESForwSacLong+2+4 178
999 WORDS_mortelle~7 150
999 WORDFREQ_6.69 150
999 WORDSALL_souhaite~2_généraliser~3_mortelle~7 150
999 COSIND_-0.01 150
999 COSGEN_-0.01 150
107 ESRank7 150
201 ESForwSacShort 150
999 WORDS_mortelle~7 186
999 WORDFREQ_6.69 186
999 WORDSALL_souhaite~2_mortelle~7 186
999 COSIND_-0.01 186
999 COSGEN_-0.01 186
108 ESRank8 186
203 ESBackSacRefixation 186
999 WORDS_peines~10 175
999 WORDFREQ_11.28 175
999 WORDSALL_généraliser~3_l'usage~4_peines~10 175
999 COSIND_-0.06 175
999 COSGEN_-0.06 175
109 ESRank9 175
202 ESForwSacLong+3+10 175
999 WORDS_juridictions~26 144
999 WORDFREQ_0.34 144
999 WORDSALL_comme~20_plus~21_juridictions~26 144
999 COSIND_-0.01 144
999 COSGEN_-0.01 144
110 ESRank10 144
202 ESForwSacLong+16+103 144
999 WORDS_juridictions~26 147
999 WORDFREQ_0.34 147
999 WORDSALL_juridictions~26 147
999 COSIND_-0.01 147
999 COSGEN_-0.01 147
111 ESRank11 147
203 ESBackSacRefixation 147
999 WORDS_toutes~24 110
999 WORDFREQ_24.19 110
999 WORDSALL_toutes~24 110
999 COSIND_0.04 110
999 COSGEN_0.04 110
112 ESRank12 110
206 ESBackSacRegrLong-2-5 110
999 WORDS_intermédiaires~27 146
999 WORDFREQ_0.88 146
999 WORDSALL_dans~23_toutes~24_intermédiaires~27 146
999 COSIND_-0.07 146
999 COSGEN_-0.07 146
113 ESRank13 146
202 ESForwSacLong+3+18 146
200 ESRankN 146
199 ESRankNMinus1 110
198 ESRankNMinus2 147
197 ESRankNMinus3 144
196 ESRankNMinus4 175
195 ESRankNMinus5 186
194 ESRankNMinus6 150
193 ESRankNMinus7 178
192 ESRankNMinus8 152
191 ESRankNMinus9 166
190 ESRankNMinus10 117
