999 WORDS_habitants~1 154
999 WORDFREQ_25 154
999 WORDSALL_Les~0_habitants~1 154
999 COSIND_-0.06 154
999 COSGEN_-0.06 154
101 ESRank1 154
999 WORDS_Tirana~3 167
999 WORDFREQ_N/A 167
999 WORDSALL_de~2_Tirana~3 167
999 COSIND_N/A 167
102 ESRank2 167
202 ESForwSacLong+2+4 167
999 WORDS_compatissent~4 212
999 WORDFREQ_0.14 212
999 WORDSALL_compatissent~4 212
999 COSIND_0.04 212
999 COSGEN_0.04 212
103 ESRank3 212
201 ESForwSacShort 212
999 WORDS_malheurs~6 100
999 WORDFREQ_19.8 100
999 WORDSALL_malheurs~6 100
999 COSIND_0.06 100
999 COSGEN_0.06 100
104 ESRank4 100
202 ESForwSacLong+2+5 100
999 WORDS_malheurs~6 130
999 WORDFREQ_19.8 130
999 WORDSALL_malheurs~6 130
999 COSIND_0.06 130
999 COSGEN_0.06 130
105 ESRank5 130
203 ESBackSacRefixation 130
999 WORDS_frères~9 139
999 WORDFREQ_73.99 139
999 WORDSALL_leurs~8_frères~9 139
999 COSIND_0.05 139
999 COSGEN_0.05 139
106 ESRank6 139
202 ESForwSacLong+3+10 139
999 WORDS_kosovars~10 195
999 WORDFREQ_N/A 195
999 WORDSALL_frères~9_kosovars~10 195
999 COSIND_N/A 195
107 ESRank7 195
201 ESForwSacShort 195
999 WORDS_Ils~11 196
999 WORDFREQ_2809.53 196
999 WORDSALL_Ils~11 196
999 COSIND_N/A 196
108 ESRank8 196
201 ESForwSacShort 196
200 ESRankN 196
199 ESRankNMinus1 195
198 ESRankNMinus2 139
197 ESRankNMinus3 130
196 ESRankNMinus4 100
195 ESRankNMinus5 212
194 ESRankNMinus6 167
193 ESRankNMinus7 154
