999 WORDS_laboratoires~1 183
999 WORDFREQ_1.08 183
999 WORDSALL_Les~0_laboratoires~1 183
999 COSIND_-0.00 183
999 COSGEN_-0.00 183
101 ESRank1 183
999 WORDS_ont~2 292
999 WORDFREQ_553.31 292
999 WORDSALL_laboratoires~1_ont~2 292
999 COSIND_-0.02 292
999 COSGEN_-0.02 292
102 ESRank2 292
201 ESForwSacShort 292
999 WORDS_réalisé~4 193
999 WORDFREQ_6.22 193
999 WORDSALL_ainsi~3_réalisé~4 193
999 COSIND_0.02 193
999 COSGEN_0.02 193
103 ESRank3 193
202 ESForwSacLong+2+7 193
999 WORDS_réalisé~4 155
999 WORDFREQ_6.22 155
999 WORDSALL_ainsi~3_réalisé~4 155
999 COSIND_0.02 155
999 COSGEN_0.02 155
104 ESRank4 155
203 ESBackSacRefixation 155
999 WORDS_qu'au~5 251
999 WORDFREQ_N/A 251
999 WORDSALL_réalisé~4_qu'au~5 251
999 COSIND_N/A 251
105 ESRank5 251
201 ESForwSacShort 251
999 WORDS_premier~6 233
999 WORDFREQ_237.91 233
999 WORDSALL_Les~0_laboratoires~1_premier~6 233
999 COSIND_0.09 233
999 COSGEN_0.09 233
106 ESRank6 233
201 ESForwSacShort 233
999 WORDS_dur~8 411
999 WORDFREQ_80.68 411
999 WORDSALL_ont~2_dur~8 411
999 COSIND_-0.03 411
999 COSGEN_-0.03 411
107 ESRank7 411
202 ESForwSacLong+2+6 411
999 WORDS_même~11 468
999 WORDFREQ_705.81 468
999 WORDSALL_réalisé~4_qu'au~5_même~11 468
999 COSIND_N/A 468
108 ESRank8 468
202 ESForwSacLong+3+16 468
999 WORDS_nombreux~20 533
999 WORDFREQ_37.03 533
999 WORDSALL_Les~14_médicaments~15_nombreux~20 533
999 COSIND_0.04 533
999 COSGEN_0.04 533
109 ESRank9 533
202 ESForwSacLong+9+65 533
999 WORDS_nouveaux~16 432
999 WORDFREQ_47.3 432
999 WORDSALL_médicaments~15_nouveaux~16 432
999 COSIND_0.03 432
999 COSGEN_0.03 432
110 ESRank10 432
206 ESBackSacRegrLong-4-23 432
200 ESRankN 432
199 ESRankNMinus1 533
198 ESRankNMinus2 468
197 ESRankNMinus3 411
196 ESRankNMinus4 233
195 ESRankNMinus5 251
194 ESRankNMinus6 155
193 ESRankNMinus7 193
192 ESRankNMinus8 292
191 ESRankNMinus9 183
