999 WORDS_chef~1 152
999 WORDFREQ_172.57 152
999 WORDSALL_Le~0_chef~1 152
999 COSIND_0.02 152
999 COSGEN_0.02 152
101 ESRank1 152
999 WORDS_gouvernement~3 167
999 WORDFREQ_119.73 167
999 WORDSALL_chef~1_gouvernement~3 167
999 COSIND_-0.00 167
999 COSGEN_-0.00 167
102 ESRank2 167
202 ESForwSacLong+2+4 167
999 WORDS_ 160
999 WORDFREQ_ 160
999 WORDSALL_ 160
103 ESRank3 160
999 WORDS_ 134
999 WORDFREQ_ 134
999 WORDSALL_ 134
104 ESRank4 134
999 WORDS_relations~7 276
999 WORDFREQ_42.16 276
999 WORDSALL_relations~7 276
999 COSIND_0.15 276
999 COSGEN_0.15 276
105 ESRank5 276
999 WORDS_tendues~8 172
999 WORDFREQ_3.45 172
999 WORDSALL_tendues~8 172
999 COSIND_0.01 172
999 COSGEN_0.01 172
106 ESRank6 172
201 ESForwSacShort 172
999 WORDS_tendues~8 234
999 WORDFREQ_3.45 234
999 WORDSALL_tendues~8 234
999 COSIND_0.01 234
999 COSGEN_0.01 234
107 ESRank7 234
203 ESBackSacRefixation 234
999 WORDS_accusé~5 156
999 WORDFREQ_1.01 156
999 WORDSALL_est~4_accusé~5 156
999 COSIND_-0.06 156
999 COSGEN_-0.06 156
108 ESRank8 156
206 ESBackSacRegrLong-3-15 156
999 WORDS_l'isolement~13 243
999 WORDFREQ_7.91 243
999 WORDSALL_l'isolement~13 243
999 COSIND_-0.01 243
999 COSGEN_-0.01 243
109 ESRank9 243
202 ESForwSacLong+8+47 243
999 WORDS_d'Israël~14 206
999 WORDFREQ_N/A 206
999 WORDSALL_d'Israël~14 206
999 COSIND_N/A 206
110 ESRank10 206
201 ESForwSacShort 206
999 WORDS_d'Israël~14 143
999 WORDFREQ_N/A 143
999 WORDSALL_d'Israël~14 143
999 COSIND_N/A 143
111 ESRank11 143
203 ESBackSacRefixation 143
999 WORDS_monde~17 444
999 WORDFREQ_732.43 444
999 WORDSALL_dans~15_monde~17 444
999 COSIND_-0.01 444
999 COSGEN_-0.01 444
112 ESRank12 444
202 ESForwSacLong+3+9 444
999 WORDS_vertigineuse~22 166
999 WORDFREQ_4.86 166
999 WORDSALL_montée~21_vertigineuse~22 166
999 COSIND_-0.11 166
999 COSGEN_-0.11 166
113 ESRank13 166
202 ESForwSacLong+5+24 166
999 WORDS_montée~21 187
999 WORDFREQ_14.39 187
999 WORDSALL_chômage~19_montée~21 187
999 COSIND_0.04 187
999 COSGEN_0.04 187
114 ESRank14 187
205 ESBackSacRegrShort 187
999 WORDS_chômage~19 354
999 WORDFREQ_5.41 354
999 WORDSALL_chômage~19 354
999 COSIND_-0.03 354
999 COSGEN_-0.03 354
115 ESRank15 354
206 ESBackSacRegrLong-2-4 354
999 WORDS_vertigineuse~22 258
999 WORDFREQ_4.86 258
999 WORDSALL_montée~21_vertigineuse~22 258
999 COSIND_-0.11 258
999 COSGEN_-0.11 258
116 ESRank16 258
202 ESForwSacLong+3+12 258
999 WORDS_montée~21 254
999 WORDFREQ_14.39 254
999 WORDSALL_en~20_montée~21 254
999 COSIND_0.04 254
999 COSGEN_0.04 254
117 ESRank17 254
205 ESBackSacRegrShort 254
999 WORDS_vertigineuse~22 216
999 WORDFREQ_4.86 216
999 WORDSALL_vertigineuse~22 216
999 COSIND_-0.11 216
999 COSGEN_-0.11 216
118 ESRank18 216
201 ESForwSacShort 216
999 WORDS_et~23 216
999 WORDFREQ_20879.73 216
999 WORDSALL_et~23 216
999 COSIND_N/A 216
119 ESRank19 216
201 ESForwSacShort 216
999 WORDS_chômage~19 200
999 WORDFREQ_5.41 200
999 WORDSALL_chômage~19 200
999 COSIND_-0.03 200
999 COSGEN_-0.03 200
120 ESRank20 200
206 ESBackSacRegrLong-4-25 200
999 WORDS_détérioration~26 150
999 WORDFREQ_0.54 150
999 WORDSALL_détérioration~26 150
999 COSIND_0.10 150
999 COSGEN_0.10 150
202 ESForwSacLong+7+34 150
999 WORDS_toutes~28 209
999 WORDFREQ_50.47 209
999 WORDSALL_de~27_toutes~28 209
999 COSIND_0.02 209
999 COSGEN_0.02 209
202 ESForwSacLong+2+4 209
999 WORDS_normes~30 235
999 WORDFREQ_2.64 235
999 WORDSALL_les~29_normes~30 235
999 COSIND_0.01 235
999 COSGEN_0.01 235
202 ESForwSacLong+2+5 235
999 WORDS_gouvernement~32 200
999 WORDFREQ_119.73 200
999 WORDSALL_gouvernement~32 200
999 COSIND_-0.00 200
999 COSGEN_-0.00 200
202 ESForwSacLong+2+4 200
999 WORDS_gouvernement~32 155
999 WORDFREQ_119.73 155
999 WORDSALL_gouvernement~32 155
999 COSIND_-0.00 155
999 COSGEN_-0.00 155
203 ESBackSacRefixation 155
999 WORDS_démocratique~33 392
999 WORDFREQ_4.12 392
999 WORDSALL_démocratique~33 392
999 COSIND_0.04 392
999 COSGEN_0.04 392
201 ESForwSacShort 392
999 WORDS_gouvernement~32 286
999 WORDFREQ_119.73 286
999 WORDSALL_gouvernement~32 286
999 COSIND_-0.00 286
999 COSGEN_-0.00 286
205 ESBackSacRegrShort 286
999 WORDS_gouvernement~32 362
999 WORDFREQ_119.73 362
999 WORDSALL_gouvernement~32 362
999 COSIND_-0.00 362
999 COSGEN_-0.00 362
203 ESBackSacRefixation 362
999 WORDS_normes~30 292
999 WORDFREQ_2.64 292
999 WORDSALL_les~29_normes~30 292
999 COSIND_0.01 292
999 COSGEN_0.01 292
206 ESBackSacRegrLong-2-4 292
999 WORDS_normes~30 152
999 WORDFREQ_2.64 152
999 WORDSALL_les~29_normes~30 152
999 COSIND_0.01 152
999 COSGEN_0.01 152
203 ESBackSacRefixation 152
999 WORDS_démocratique~33 187
999 WORDFREQ_4.12 187
999 WORDSALL_démocratique~33 187
999 COSIND_0.04 187
999 COSGEN_0.04 187
202 ESForwSacLong+3+17 187
999 WORDS_démocratique~33 334
999 WORDFREQ_4.12 334
999 WORDSALL_démocratique~33 334
999 COSIND_0.04 334
999 COSGEN_0.04 334
203 ESBackSacRefixation 334
200 ESRankN 334
199 ESRankNMinus1 187
198 ESRankNMinus2 152
197 ESRankNMinus3 292
196 ESRankNMinus4 362
195 ESRankNMinus5 286
194 ESRankNMinus6 392
193 ESRankNMinus7 155
192 ESRankNMinus8 200
191 ESRankNMinus9 235
190 ESRankNMinus10 209
