999 WORDS_L'artillerie~0 108
999 WORDFREQ_17.36 108
999 WORDSALL_L'artillerie~0 108
999 COSIND_-0.03 108
999 COSGEN_-0.03 108
101 ESRank1 108
999 WORDS_israélienne~1 205
999 WORDFREQ_0.07 205
999 WORDSALL_israélienne~1 205
999 COSIND_0.11 205
999 COSGEN_0.11 205
102 ESRank2 205
201 ESForwSacShort 205
999 WORDS_massivement~3 293
999 WORDFREQ_1.01 293
999 WORDSALL_a~2_massivement~3 293
999 COSIND_0.08 293
999 COSGEN_0.08 293
103 ESRank3 293
202 ESForwSacLong+2+3 293
999 WORDS_bombardé~4 260
999 WORDFREQ_1.42 260
999 WORDSALL_bombardé~4 260
999 COSIND_0.10 260
999 COSGEN_0.10 260
104 ESRank4 260
201 ESForwSacShort 260
999 WORDS_régions~6 168
999 WORDFREQ_14.26 168
999 WORDSALL_régions~6 168
999 COSIND_0.12 168
999 COSGEN_0.12 168
105 ESRank5 168
202 ESForwSacLong+2+5 168
999 WORDS_supposées~7 179
999 WORDFREQ_0.54 179
999 WORDSALL_supposées~7 179
999 COSIND_0.00 179
999 COSGEN_0.00 179
106 ESRank6 179
201 ESForwSacShort 179
999 WORDS_Liban~14 202
999 WORDFREQ_N/A 202
999 WORDSALL_Liban~14 202
999 COSIND_N/A 202
107 ESRank7 202
202 ESForwSacLong+7+36 202
999 WORDS_Hezbollah~12 187
999 WORDFREQ_N/A 187
999 WORDSALL_Hezbollah~12 187
999 COSIND_N/A 187
108 ESRank8 187
206 ESBackSacRegrLong-2-4 187
999 WORDS_Hezbollah~12 307
999 WORDFREQ_N/A 307
999 WORDSALL_du~11_Hezbollah~12 307
999 COSIND_N/A 307
109 ESRank9 307
203 ESBackSacRefixation 307
999 WORDS_tirs~16 154
999 WORDFREQ_2.84 154
999 WORDSALL_Ces~15_tirs~16 154
999 COSIND_-0.09 154
999 COSGEN_-0.09 154
110 ESRank10 154
202 ESForwSacLong+4+14 154
999 WORDS_riposte~19 262
999 WORDFREQ_2.64 262
999 WORDSALL_sont~17_riposte~19 262
999 COSIND_-0.02 262
999 COSGEN_-0.02 262
111 ESRank11 262
202 ESForwSacLong+3+10 262
999 WORDS_milice~27 148
999 WORDFREQ_2.43 148
999 WORDSALL_la~26_milice~27 148
999 COSIND_-0.10 148
999 COSGEN_-0.10 148
112 ESRank12 148
202 ESForwSacLong+8+45 148
999 WORDS_milice~27 182
999 WORDFREQ_2.43 182
999 WORDSALL_milice~27 182
999 COSIND_-0.10 182
999 COSGEN_-0.10 182
113 ESRank13 182
203 ESBackSacRefixation 182
999 WORDS_intégriste~28 154
999 WORDFREQ_0 154
999 WORDSALL_intégriste~28 154
999 COSIND_0.05 154
999 COSGEN_0.05 154
114 ESRank14 154
201 ESForwSacShort 154
999 WORDS_Chiite~29 131
999 WORDFREQ_N/A 131
999 WORDSALL_Chiite~29 131
999 COSIND_N/A 131
115 ESRank15 131
201 ESForwSacShort 131
200 ESRankN 131
199 ESRankNMinus1 154
198 ESRankNMinus2 182
197 ESRankNMinus3 148
196 ESRankNMinus4 262
195 ESRankNMinus5 154
194 ESRankNMinus6 307
193 ESRankNMinus7 187
192 ESRankNMinus8 202
191 ESRankNMinus9 179
190 ESRankNMinus10 168
