# 130 Fixation 1 (249,274.2): Il~0 faut~1
# 153 Fixation 2 (393.2,277.6): distinguer~2
# 146 Fixation 3 (422.9,278.5): distinguer~2
# 172 Fixation 4 (514.1,270.8): culture~3
# 521 Fixation 5 (648.5,280.9): et~4 civilisation~5
# 121 Fixation 6 (277.9,329.5): Il~0 faut~1 culture~7
# 97 Fixation 7 (236.8,332.3): Il~0 faut~1 culture~7
# 152 Fixation 8 (382.4,339.8): faut~1 distinguer~2 culture~7
# 140 Fixation 9 (473.3,346.4): distinguer~2 culture~3 l'ensemble~9
# 154 Fixation 10 (620.7,351.4): des~10 croyances~11
# 170 Fixation 11 (670.6,351.9): des~10 croyances~11
# 142 Fixation 12 (319.6,398.7): La~6 culture~7 valeurs~13
# 97 Fixation 13 (297.4,397): La~6 culture~7 valeurs~13
# 252 Fixation 14 (431.1,405.4): est~8 l'ensemble~9 propres~14
# 99 Fixation 15 (545.1,497.9): civilisation~20
# 111 Fixation 16 (558.2,475.8): à~15 civilisation~20
%%
# Il~0 Fixations= "7/"
# faut~1 Fixations= "8/"
# distinguer~2 Fixations= "9/"
# culture~3 Fixations= "9/"
# et~4 Fixations= "5/"
# civilisation~5 Fixations= "5/"
# La~6 Fixations= "13/"
# culture~7 Fixations= "13/"
# est~8 Fixations= "14/"
# l'ensemble~9 Fixations= "14/"
# des~10 Fixations= "11/"
# croyances~11 Fixations= "11/"
# des~12 Fixations= ""
# valeurs~13 Fixations= "13/"
# propres~14 Fixations= "14/"
# à~15 Fixations= "16/"
# une~16 Fixations= ""
# communauté~17 Fixations= ""
# particulière~18 Fixations= ""
# La~19 Fixations= ""
# civilisation~20 Fixations= "16/"
# c'est~21 Fixations= ""
# ce~22 Fixations= ""
# qui~23 Fixations= ""
# est~24 Fixations= ""
# transmis~25 Fixations= ""
# d'une~26 Fixations= ""
# communauté~27 Fixations= ""
# à~28 Fixations= ""
# une~29 Fixations= ""
# autre~30 Fixations= ""
%%
#  IL[7] FAUT[8] DISTINGUER[9] CULTURE[9] ET[5] CIVILISATION[5] LA[13] CULTURE[13] EST[14] L'ENSEMBLE[14] DES[11] CROYANCES[11] des VALEURS[13] PROPRES[14] à[16] une communauté particulière La CIVILISATION[16] c'est ce qui est transmis d'une communauté à une autre
# s06 hausse_bourse-a1 PercentageOfWordsProcessed= 0.516129032258065 PercentageOfWordsReallyProcessed= 0.761904761904762
