999 WORDS_L'arsenal~0 151
999 WORDFREQ_4.86 151
999 WORDSALL_L'arsenal~0 151
999 COSIND_-0.01 151
999 COSGEN_-0.01 151
101 ESRank1 151
999 WORDS_L'arsenal~0 144
999 WORDFREQ_4.86 144
999 WORDSALL_L'arsenal~0 144
999 COSIND_-0.01 144
999 COSGEN_-0.01 144
102 ESRank2 144
203 ESBackSacRefixation 144
999 WORDS_militaire~1 207
999 WORDFREQ_69.19 207
999 WORDSALL_militaire~1 207
999 COSIND_0.17 207
999 COSGEN_0.17 207
103 ESRank3 207
201 ESForwSacShort 207
999 WORDS_pays~3 166
999 WORDFREQ_241.55 166
999 WORDSALL_du~2_pays~3 166
999 COSIND_0.04 166
999 COSGEN_0.04 166
104 ESRank4 166
202 ESForwSacLong+2+4 166
999 WORDS_enrichi~5 145
999 WORDFREQ_2.03 145
999 WORDSALL_pays~3_enrichi~5 145
999 COSIND_N/A 145
105 ESRank5 145
202 ESForwSacLong+2+7 145
999 WORDS_enrichi~5 82
999 WORDFREQ_2.03 82
999 WORDSALL_s'est~4_enrichi~5 82
999 COSIND_N/A 82
106 ESRank6 82
203 ESBackSacRefixation 82
999 WORDS_à~7 245
999 WORDFREQ_19209.05 245
999 WORDSALL_à~7 245
999 COSIND_N/A 245
107 ESRank7 245
202 ESForwSacLong+2+9 245
999 WORDS_micro-ondes~8 143
999 WORDFREQ_0.14 143
999 WORDSALL_micro-ondes~8 143
999 COSIND_N/A 143
108 ESRank8 143
201 ESForwSacShort 143
999 WORDS_susceptibles~9 158
999 WORDFREQ_4.12 158
999 WORDSALL_susceptibles~9 158
999 COSIND_-0.02 158
999 COSGEN_-0.02 158
109 ESRank9 158
201 ESForwSacShort 158
999 WORDS_susceptibles~9 133
999 WORDFREQ_4.12 133
999 WORDSALL_susceptibles~9 133
999 COSIND_-0.02 133
999 COSGEN_-0.02 133
110 ESRank10 133
203 ESBackSacRefixation 133
999 WORDS_circuits~13 238
999 WORDFREQ_1.82 238
999 WORDSALL_les~12_circuits~13 238
999 COSIND_-0.08 238
999 COSGEN_-0.08 238
111 ESRank11 238
202 ESForwSacLong+4+18 238
999 WORDS_télécommunications~19 126
999 WORDFREQ_0.14 126
999 WORDSALL_de~18_télécommunications~19 126
999 COSIND_-0.04 126
999 COSGEN_-0.04 126
112 ESRank12 126
202 ESForwSacLong+6+38 126
999 WORDS_télécommunications~19 222
999 WORDFREQ_0.14 222
999 WORDSALL_télécommunications~19 222
999 COSIND_-0.04 222
999 COSGEN_-0.04 222
113 ESRank13 222
203 ESBackSacRefixation 222
999 WORDS_télécommunications~19 89
999 WORDFREQ_0.14 89
999 WORDSALL_télécommunications~19 89
999 COSIND_-0.04 89
999 COSGEN_-0.04 89
114 ESRank14 89
203 ESBackSacRefixation 89
999 WORDS_veulent~22 126
999 WORDFREQ_39.05 126
999 WORDSALL_militaires~21_veulent~22 126
999 COSIND_0.00 126
999 COSGEN_0.00 126
115 ESRank15 126
202 ESForwSacLong+3+16 126
999 WORDS_militaires~21 171
999 WORDFREQ_11.96 171
999 WORDSALL_militaires~21 171
999 COSIND_0.17 171
999 COSGEN_0.17 171
116 ESRank16 171
205 ESBackSacRegrShort 171
999 WORDS_veulent~22 202
999 WORDFREQ_39.05 202
999 WORDSALL_veulent~22 202
999 COSIND_0.00 202
999 COSGEN_0.00 202
117 ESRank17 202
201 ESForwSacShort 202
999 WORDS_garder~24 321
999 WORDFREQ_68.31 321
999 WORDSALL_garder~24 321
999 COSIND_-0.08 321
999 COSGEN_-0.08 321
118 ESRank18 321
202 ESForwSacLong+2+5 321
999 WORDS_pour~25 88
999 WORDFREQ_6198.24 88
999 WORDSALL_pour~25 88
999 COSIND_N/A 88
119 ESRank19 88
201 ESForwSacShort 88
999 WORDS_servir~27 227
999 WORDFREQ_74.59 227
999 WORDSALL_servir~27 227
999 COSIND_0.12 227
999 COSGEN_0.12 227
120 ESRank20 227
202 ESForwSacLong+2+6 227
999 WORDS_servir~27 141
999 WORDFREQ_74.59 141
999 WORDSALL_servir~27 141
999 COSIND_0.12 141
999 COSGEN_0.12 141
203 ESBackSacRefixation 141
999 WORDS_infrastructures~30 223
999 WORDFREQ_0.07 223
999 WORDSALL_infrastructures~30 223
999 COSIND_0.08 223
999 COSGEN_0.08 223
202 ESForwSacLong+3+12 223
999 WORDS_ennemies~31 111
999 WORDFREQ_4.53 111
999 WORDSALL_ennemies~31 111
999 COSIND_0.13 111
999 COSGEN_0.13 111
201 ESForwSacShort 111
999 WORDS_ennemies~31 117
999 WORDFREQ_4.53 117
999 WORDSALL_ennemies~31 117
999 COSIND_0.13 117
999 COSGEN_0.13 117
203 ESBackSacRefixation 117
999 WORDS_circuits~13 240
999 WORDFREQ_1.82 240
999 WORDSALL_circuits~13 240
999 COSIND_-0.08 240
999 COSGEN_-0.08 240
206 ESBackSacRegrLong-18-137 240
200 ESRankN 240
199 ESRankNMinus1 117
198 ESRankNMinus2 111
197 ESRankNMinus3 223
196 ESRankNMinus4 141
195 ESRankNMinus5 227
194 ESRankNMinus6 88
193 ESRankNMinus7 321
192 ESRankNMinus8 202
191 ESRankNMinus9 171
190 ESRankNMinus10 126
