# 128 Fixation 1 (281.5,263.7): C'est~0 modistes~2
# 207 Fixation 2 (358.7,264.4): aux~1 modistes~2
# 203 Fixation 3 (523.6,269.7): parisiennes~3
# 215 Fixation 4 (510,271.8): modistes~2 parisiennes~3
# 309 Fixation 5 (644.3,275.5): parisiennes~3
# 175 Fixation 6 (306.1,341.3): printemps~6
# 95 Fixation 7 (273.8,346.5): printemps~6
# 204 Fixation 8 (389.9,337.9): fait~7
# 207 Fixation 9 (490.4,353.5): ses~8 premières~9
# 195 Fixation 10 (648.5,360.9): confidences~10
# 169 Fixation 11 (315.9,412.8): Il~11 offre~13
# 159 Fixation 12 (533.6,413.8): premiers~15
# 181 Fixation 13 (608.9,419.2): premiers~15 bouquets~16
# 146 Fixation 14 (328.2,483.8): pailles~18
%%
# C'est~0 Fixations= "1/"
# aux~1 Fixations= "2/"
# modistes~2 Fixations= "4/"
# parisiennes~3 Fixations= "5/"
# que~4 Fixations= ""
# le~5 Fixations= ""
# printemps~6 Fixations= "7/"
# fait~7 Fixations= "8/"
# ses~8 Fixations= "9/"
# premières~9 Fixations= "9/"
# confidences~10 Fixations= "10/"
# Il~11 Fixations= "11/"
# leur~12 Fixations= ""
# offre~13 Fixations= "11/"
# ses~14 Fixations= ""
# premiers~15 Fixations= "13/"
# bouquets~16 Fixations= "13/"
# ses~17 Fixations= ""
# pailles~18 Fixations= "14/"
# ses~19 Fixations= ""
# rubans~20 Fixations= ""
# ses~21 Fixations= ""
# petits~22 Fixations= ""
# canotiers~23 Fixations= ""
# car~24 Fixations= ""
# il~25 Fixations= ""
# ne~26 Fixations= ""
# saurait~27 Fixations= ""
# y~28 Fixations= ""
# avoir~29 Fixations= ""
# de~30 Fixations= ""
# printemps~31 Fixations= ""
# sans~32 Fixations= ""
# canotier~33 Fixations= ""
%%
#  C'EST[1] AUX[2] MODISTES[4] PARISIENNES[5] que le PRINTEMPS[7] FAIT[8] SES[9] PREMIèRES[9] CONFIDENCES[10] IL[11] leur OFFRE[11] ses PREMIERS[13] BOUQUETS[13] ses PAILLES[14] ses rubans ses petits canotiers car il ne saurait y avoir de printemps sans canotier
# s17 plantation_fleurs-m2 PercentageOfWordsProcessed= 0.411764705882353 PercentageOfWordsReallyProcessed= 0.736842105263158
