999 WORDS_économie~1 153
999 WORDFREQ_15.74 153
999 WORDSALL_Une~0_économie~1 153
999 COSIND_0.88 153
999 COSGEN_0.88 153
101 ESRank1 153
999 WORDS_New~2 199
999 WORDFREQ_3.51 199
999 WORDSALL_New~2 199
999 COSIND_N/A 199
102 ESRank2 199
201 ESForwSacShort 199
999 WORDS_économie~6 186
999 WORDFREQ_15.74 186
999 WORDSALL_est~4_économie~6 186
999 COSIND_0.88 186
999 COSGEN_0.88 186
103 ESRank3 186
202 ESForwSacLong+4+13 186
999 WORDS_économie~6 155
999 WORDFREQ_15.74 155
999 WORDSALL_économie~6 155
999 COSIND_0.88 155
999 COSGEN_0.88 155
104 ESRank4 155
203 ESBackSacRefixation 155
999 WORDS_laquelle~8 182
999 WORDFREQ_182.36 182
999 WORDSALL_laquelle~8 182
999 COSIND_N/A 182
105 ESRank5 182
202 ESForwSacLong+2+6 182
999 WORDS_croissance~10 170
999 WORDFREQ_3.92 170
999 WORDSALL_la~9_croissance~10 170
999 COSIND_0.79 170
999 COSGEN_0.79 170
106 ESRank6 170
202 ESForwSacLong+2+4 170
999 WORDS_l'efficacité~12 219
999 WORDFREQ_8.51 219
999 WORDSALL_de~11_l'efficacité~12 219
999 COSIND_0.04 219
999 COSGEN_0.04 219
107 ESRank7 219
202 ESForwSacLong+2+4 219
999 WORDS_l'efficacité~12 167
999 WORDFREQ_8.51 167
999 WORDSALL_l'efficacité~12 167
999 COSIND_0.04 167
999 COSGEN_0.04 167
108 ESRank8 167
203 ESBackSacRefixation 167
999 WORDS_laquelle~14 152
999 WORDFREQ_182.36 152
999 WORDSALL_laquelle~14 152
999 COSIND_N/A 152
109 ESRank9 152
202 ESForwSacLong+2+6 152
999 WORDS_utilisons~16 172
999 WORDFREQ_0.07 172
999 WORDSALL_nous~15_utilisons~16 172
999 COSIND_-0.01 172
999 COSGEN_-0.01 172
110 ESRank10 172
202 ESForwSacLong+2+6 172
999 WORDS_ressources~18 199
999 WORDFREQ_16.55 199
999 WORDSALL_les~17_ressources~18 199
999 COSIND_0.04 199
999 COSGEN_0.04 199
111 ESRank11 199
202 ESForwSacLong+2+5 199
999 WORDS_productives~19 131
999 WORDFREQ_0.14 131
999 WORDSALL_productives~19 131
999 COSIND_0.31 131
999 COSGEN_0.31 131
112 ESRank12 131
201 ESForwSacShort 131
999 WORDS_productives~19 115
999 WORDFREQ_0.14 115
999 WORDSALL_productives~19 115
999 COSIND_0.31 115
999 COSGEN_0.31 115
113 ESRank13 115
203 ESBackSacRefixation 115
999 WORDS_trouve~21 186
999 WORDFREQ_163.78 186
999 WORDSALL_trouve~21 186
999 COSIND_0.00 186
999 COSGEN_0.00 186
114 ESRank14 186
202 ESForwSacLong+2+4 186
999 WORDS_accélérée~23 138
999 WORDFREQ_2.23 138
999 WORDSALL_accélérée~23 138
999 COSIND_0.32 138
999 COSGEN_0.32 138
115 ESRank15 138
202 ESForwSacLong+2+13 138
999 WORDS_l'inflation~24 160
999 WORDFREQ_2.3 160
999 WORDSALL_l'inflation~24 160
999 COSIND_0.40 160
999 COSGEN_0.40 160
116 ESRank16 160
201 ESForwSacShort 160
999 WORDS_maîtrisée~25 94
999 WORDFREQ_0.68 94
999 WORDSALL_maîtrisée~25 94
999 COSIND_0.22 94
999 COSGEN_0.22 94
117 ESRank17 94
201 ESForwSacShort 94
200 ESRankN 94
199 ESRankNMinus1 160
198 ESRankNMinus2 138
197 ESRankNMinus3 186
196 ESRankNMinus4 115
195 ESRankNMinus5 131
194 ESRankNMinus6 199
193 ESRankNMinus7 172
192 ESRankNMinus8 152
191 ESRankNMinus9 167
190 ESRankNMinus10 219
