# 154 Fixation 1 (205.4,295.4): A~0
# 233 Fixation 2 (281.2,294.1): A~0 Moscou~1
# 347 Fixation 3 (449.4,265.2): les~2 communiqués~3
# 233 Fixation 4 (609.6,206.2): triomphants~4
# 134 Fixation 5 (604.8,218.4): triomphants~4
# 164 Fixation 6 (445.8,335): Dans~7 Daghestan~9
# 284 Fixation 7 (507.4,349.8): le~8 Daghestan~9
# 284 Fixation 8 (408.5,356): Dans~7 Daghestan~9
# 186 Fixation 9 (680.4,303.2): triomphants~4
# 107 Fixation 10 (718.2,296.6): triomphants~4
# 189 Fixation 11 (294.7,431.2): sont~12
# 151 Fixation 12 (359.5,442.2): complètement~13
# 239 Fixation 13 (279.7,496.7): militaire~17
# 202 Fixation 14 (459.4,515.4): lourdes~25 pertes~26
# 279 Fixation 15 (589.8,513.3):
%%
# A~0 Fixations= "2/"
# Moscou~1 Fixations= "2/"
# les~2 Fixations= "3/"
# communiqués~3 Fixations= "3/"
# triomphants~4 Fixations= "10/"
# se~5 Fixations= ""
# succèdent~6 Fixations= ""
# Dans~7 Fixations= "8/"
# le~8 Fixations= "7/"
# Daghestan~9 Fixations= "8/"
# les~10 Fixations= ""
# rebelles~11 Fixations= ""
# sont~12 Fixations= "11/"
# complètement~13 Fixations= "12/"
# encerclés~14 Fixations= ""
# leur~15 Fixations= ""
# chef~16 Fixations= ""
# militaire~17 Fixations= "13/"
# est~18 Fixations= ""
# blessé~19 Fixations= ""
# les~20 Fixations= ""
# islamistes~21 Fixations= ""
# ont~22 Fixations= ""
# subi~23 Fixations= ""
# de~24 Fixations= ""
# lourdes~25 Fixations= "14/"
# pertes~26 Fixations= "14/"
%%
#  A[2] MOSCOU[2] LES[3] COMMUNIQUéS[3] TRIOMPHANTS[10] se succèdent DANS[8] LE[7] DAGHESTAN[8] les rebelles SONT[11] COMPLèTEMENT[12] encerclés leur chef MILITAIRE[13] est blessé les islamistes ont subi de LOURDES[14] PERTES[14]
# s20 chef_russie-f1 PercentageOfWordsProcessed= 0.481481481481481 PercentageOfWordsReallyProcessed= 0.481481481481481
