999 WORDS_citoyens~4 241
999 WORDFREQ_8.65 241
999 WORDSALL_de~2_citoyens~4 241
999 COSIND_-0.03 241
999 COSGEN_-0.03 241
101 ESRank1 241
999 WORDS_citoyens~4 193
999 WORDFREQ_8.65 193
999 WORDSALL_nos~3_citoyens~4 193
999 COSIND_-0.03 193
999 COSGEN_-0.03 193
102 ESRank2 193
203 ESBackSacRefixation 193
999 WORDS_citoyens~4 182
999 WORDFREQ_8.65 182
999 WORDSALL_de~2_citoyens~4 182
999 COSIND_-0.03 182
999 COSGEN_-0.03 182
103 ESRank3 182
203 ESBackSacRefixation 182
999 WORDS_s'agit~1 247
999 WORDFREQ_73.72 247
999 WORDSALL_s'agit~1 247
999 COSIND_0.05 247
999 COSGEN_0.05 247
104 ESRank4 247
206 ESBackSacRegrLong-3-8 247
999 WORDS_citoyens~4 97
999 WORDFREQ_8.65 97
999 WORDSALL_citoyens~4 97
999 COSIND_-0.03 97
999 COSGEN_-0.03 97
105 ESRank5 97
202 ESForwSacLong+3+8 97
999 WORDS_devoir~7 505
999 WORDFREQ_33.04 505
999 WORDSALL_et~5_devoir~7 505
999 COSIND_-0.00 505
999 COSGEN_-0.00 505
106 ESRank6 505
202 ESForwSacLong+3+7 505
999 WORDS_n'importe~9 226
999 WORDFREQ_151.08 226
999 WORDSALL_n'importe~9 226
999 COSIND_-0.03 226
999 COSGEN_-0.03 226
107 ESRank7 226
202 ESForwSacLong+2+4 226
999 WORDS_n'importe~9 325
999 WORDFREQ_151.08 325
999 WORDSALL_n'importe~9 325
999 COSIND_-0.03 325
999 COSGEN_-0.03 325
108 ESRank8 325
203 ESBackSacRefixation 325
999 WORDS_gouvernement~11 229
999 WORDFREQ_119.73 229
999 WORDSALL_quel~10_gouvernement~11 229
999 COSIND_0.03 229
999 COSGEN_0.03 229
109 ESRank9 229
202 ESForwSacLong+2+6 229
999 WORDS_citoyens~19 225
999 WORDFREQ_8.65 225
999 WORDSALL_ses~18_citoyens~19 225
999 COSIND_-0.03 225
999 COSGEN_-0.03 225
110 ESRank10 225
202 ESForwSacLong+8+40 225
999 WORDS_mesures~21 303
999 WORDFREQ_20.68 303
999 WORDSALL_citoyens~19_mesures~21 303
999 COSIND_-0.05 303
999 COSGEN_-0.05 303
111 ESRank11 303
202 ESForwSacLong+2+5 303
999 WORDS_prises~23 266
999 WORDFREQ_12.16 266
999 WORDSALL_sont~22_prises~23 266
999 COSIND_0.02 266
999 COSGEN_0.02 266
112 ESRank12 266
202 ESForwSacLong+2+6 266
999 WORDS_sont~22 196
999 WORDFREQ_386.35 196
999 WORDSALL_sont~22 196
999 COSIND_0.01 196
999 COSGEN_0.01 196
113 ESRank13 196
205 ESBackSacRegrShort 196
999 WORDS_également~25 365
999 WORDFREQ_71.01 365
999 WORDSALL_mais~24_également~25 365
999 COSIND_0.03 365
999 COSGEN_0.03 365
114 ESRank14 365
202 ESForwSacLong+3+13 365
999 WORDS_organisations~30 212
999 WORDFREQ_4.8 212
999 WORDSALL_organisations~30 212
999 COSIND_0.35 212
999 COSGEN_0.35 212
115 ESRank15 212
202 ESForwSacLong+5+27 212
999 WORDS_internationales~31 229
999 WORDFREQ_3.99 229
999 WORDSALL_internationales~31 229
999 COSIND_0.08 229
999 COSGEN_0.08 229
116 ESRank16 229
201 ESForwSacShort 229
200 ESRankN 229
199 ESRankNMinus1 212
198 ESRankNMinus2 365
197 ESRankNMinus3 196
196 ESRankNMinus4 266
195 ESRankNMinus5 303
194 ESRankNMinus6 225
193 ESRankNMinus7 229
192 ESRankNMinus8 325
191 ESRankNMinus9 226
190 ESRankNMinus10 505
