# 89 Fixation 1 (255.1,293.8): Le~0 premier~1
# 150 Fixation 2 (307.1,294.2): Le~0 premier~1
# 159 Fixation 3 (404.3,291.1): premier~1 tir~2
# 168 Fixation 4 (492.6,293.1): de~3 l'année~4
# 137 Fixation 5 (631.7,289.5): de~5 fusée~7
# 348 Fixation 6 (269.1,345.8): Ariane-4~8
# 160 Fixation 7 (374.4,349.5): Ariane-4~8
# 116 Fixation 8 (428.8,351.5): depuis~9 centre~11
%%
# Le~0 Fixations= "2/"
# premier~1 Fixations= "3/"
# tir~2 Fixations= "3/"
# de~3 Fixations= "4/"
# l'année~4 Fixations= "4/"
# de~5 Fixations= "5/"
# la~6 Fixations= ""
# fusée~7 Fixations= "5/"
# Ariane-4~8 Fixations= "7/"
# depuis~9 Fixations= "8/"
# le~10 Fixations= ""
# centre~11 Fixations= "8/"
# spatial~12 Fixations= ""
# guyanais~13 Fixations= ""
# de~14 Fixations= ""
# Kourou~15 Fixations= ""
# a~16 Fixations= ""
# été~17 Fixations= ""
# un~18 Fixations= ""
# succès~19 Fixations= ""
# le~20 Fixations= ""
# lanceur~21 Fixations= ""
# européen~22 Fixations= ""
# a~23 Fixations= ""
# mis~24 Fixations= ""
# sur~25 Fixations= ""
# orbite~26 Fixations= ""
# un~27 Fixations= ""
# satellite~28 Fixations= ""
# de~29 Fixations= ""
# télécommunications~30 Fixations= ""
%%
#  LE[2] PREMIER[3] TIR[3] DE[4] L'ANNéE[4] DE[5] la FUSéE[5] ARIANE-4[7] DEPUIS[8] le CENTRE[8] spatial guyanais de Kourou a été un succès le lanceur européen a mis sur orbite un satellite de télécommunications
# s02 decollage_fusee-f1 PercentageOfWordsProcessed= 0.32258064516129 PercentageOfWordsReallyProcessed= 0.833333333333333
