# 192 Fixation 1 (313,279): Les~0 habitants~1
# 86 Fixation 2 (298.8,284.2): Les~0 habitants~1
# 183 Fixation 3 (514.4,245): Tirana~3
# 158 Fixation 4 (468.9,273.4): de~2 Tirana~3
# 247 Fixation 5 (604.4,191.7):
# 245 Fixation 6 (253.4,338.7): malheurs~6
# 199 Fixation 7 (461.4,344.9): leurs~8 frères~9
# 267 Fixation 8 (567.6,343.2): frères~9 kosovars~10
# 164 Fixation 9 (738.6,244): aux~5
# 158 Fixation 10 (316.8,399.2): déclarent~13
# 120 Fixation 11 (271.1,409.2): déclarent~13
# 187 Fixation 12 (294.6,412.3): déclarent~13
# 234 Fixation 13 (261.7,408.3): déclarent~13
# 214 Fixation 14 (373,410.8): déclarent~13 ulcérés~14
# 274 Fixation 15 (544.9,408.6): par~15 l'enchaînement~16
# 289 Fixation 16 (270.8,459.4): d'événements~17
# 205 Fixation 17 (478.4,481.7): qu'ils~18
# 158 Fixation 18 (347.3,527.5): profonde~22 injustice~23
# 188 Fixation 19 (268.6,534.2): profonde~22
# 268 Fixation 20 (378.5,542.4): profonde~22 injustice~23
# 207 Fixation 21 (573.3,559.4): et~24 reprochent~25
# 181 Fixation 22 (540,566.4): et~24 reprochent~25
# 152 Fixation 23 (676.6,576.9): armées~32
# 270 Fixation 24 (257.6,610.3): d'avoir~28
# 218 Fixation 25 (369,619.9): d'avoir~28 lancé~29
%%
# Les~0 Fixations= "2/"
# habitants~1 Fixations= "2/"
# de~2 Fixations= "4/"
# Tirana~3 Fixations= "4/"
# compatissent~4 Fixations= ""
# aux~5 Fixations= "9/"
# malheurs~6 Fixations= "6/"
# de~7 Fixations= ""
# leurs~8 Fixations= "7/"
# frères~9 Fixations= "8/"
# kosovars~10 Fixations= "8/"
# Ils~11 Fixations= ""
# se~12 Fixations= ""
# déclarent~13 Fixations= "14/"
# ulcérés~14 Fixations= "14/"
# par~15 Fixations= "15/"
# l'enchaînement~16 Fixations= "15/"
# d'événements~17 Fixations= "16/"
# qu'ils~18 Fixations= "17/"
# ressentent~19 Fixations= ""
# comme~20 Fixations= ""
# une~21 Fixations= ""
# profonde~22 Fixations= "20/"
# injustice~23 Fixations= "20/"
# et~24 Fixations= "22/"
# reprochent~25 Fixations= "22/"
# à~26 Fixations= ""
# l'UCK~27 Fixations= ""
# d'avoir~28 Fixations= "25/"
# lancé~29 Fixations= "25/"
# des~30 Fixations= ""
# opérations~31 Fixations= ""
# armées~32 Fixations= "23/"
%%
#  LES[2] HABITANTS[2] DE[4] TIRANA[4] compatissent AUX[9] MALHEURS[6] de LEURS[7] FRèRES[8] KOSOVARS[8] Ils se DéCLARENT[14] ULCéRéS[14] PAR[15] L'ENCHAîNEMENT[15] D'éVéNEMENTS[16] QU'ILS[17] ressentent comme une PROFONDE[20] INJUSTICE[20] ET[22] REPROCHENT[22] à l'UCK D'AVOIR[25] LANCé[25] des opérations ARMéES[23]
# s20 aide_refugies-m2 PercentageOfWordsProcessed= 0.666666666666667 PercentageOfWordsReallyProcessed= 0.666666666666667
