# 166 Fixation 1 (361.5,299.5): la~1 fête~2
# 171 Fixation 2 (472.4,297.5): du~3 vin~4
# 178 Fixation 3 (564.2,287.7): à~5 Luri~6
# 185 Fixation 4 (535.7,290.4): vin~4 à~5 Luri~6
# 269 Fixation 5 (647.7,290.3): en~7 Haute-corse~8
# 131 Fixation 6 (703.2,297.2): Haute-corse~8
# 178 Fixation 7 (337.1,348.1): C'est~0 fête~2 jour~10 d'été~11
# 139 Fixation 8 (301.3,349.3): un~9 jour~10
# 155 Fixation 9 (480.1,358.4): entre~12 vendeurs~13 gâteaux~19
# 163 Fixation 10 (541,356.7): entre~12 vendeurs~13
# 139 Fixation 11 (675.3,345.9): en~7 Haute-corse~8 beignets~15
# 172 Fixation 12 (349.7,419.8): bruccio~17
# 187 Fixation 13 (297,414.4): au~16 bruccio~17
# 205 Fixation 14 (471.9,412.1): entre~12 vendeurs~13 gâteaux~19
# 197 Fixation 15 (593.6,411.7): vendeurs~13 à~20 farine~22
# 228 Fixation 16 (337.1,466.2): bruccio~17
# 117 Fixation 17 (276.5,466): au~16 bruccio~17 châtaigne~24
%%
# C'est~0 Fixations= "7/"
# la~1 Fixations= "1/"
# fête~2 Fixations= "7/"
# du~3 Fixations= "2/"
# vin~4 Fixations= "4/"
# à~5 Fixations= "4/"
# Luri~6 Fixations= "4/"
# en~7 Fixations= "11/"
# Haute-corse~8 Fixations= "11/"
# un~9 Fixations= "8/"
# jour~10 Fixations= "8/"
# d'été~11 Fixations= "7/"
# entre~12 Fixations= "14/"
# vendeurs~13 Fixations= "15/"
# de~14 Fixations= ""
# beignets~15 Fixations= "11/"
# au~16 Fixations= "17/"
# bruccio~17 Fixations= "17/"
# de~18 Fixations= ""
# gâteaux~19 Fixations= "14/"
# à~20 Fixations= "15/"
# la~21 Fixations= ""
# farine~22 Fixations= "15/"
# de~23 Fixations= ""
# châtaigne~24 Fixations= "17/"
# et~25 Fixations= ""
# de~26 Fixations= ""
# charcuterie~27 Fixations= ""
# locale~28 Fixations= ""
%%
#  C'EST[7] LA[1] FêTE[7] DU[2] VIN[4] à[4] LURI[4] EN[11] HAUTE-CORSE[11] UN[8] JOUR[8] D'éTé[7] ENTRE[14] VENDEURS[15] de BEIGNETS[11] AU[17] BRUCCIO[17] de GâTEAUX[14] à[15] la FARINE[15] de CHâTAIGNE[17] et de charcuterie locale
# s04 dechets_nucleaires-a1 PercentageOfWordsProcessed= 0.724137931034483 PercentageOfWordsReallyProcessed= 0.84
