999 WORDS_plainte~1 179
999 WORDFREQ_17.09 179
999 WORDSALL_La~0_plainte~1 179
999 COSIND_-0.04 179
999 COSGEN_-0.04 179
101 ESRank1 179
999 WORDS_avait~2 172
999 WORDFREQ_3116.42 172
999 WORDSALL_avait~2 172
999 COSIND_-0.02 172
999 COSGEN_-0.02 172
102 ESRank2 172
201 ESForwSacShort 172
999 WORDS_déposée~4 140
999 WORDFREQ_3.58 140
999 WORDSALL_été~3_déposée~4 140
999 COSIND_-0.02 140
999 COSGEN_-0.02 140
103 ESRank3 140
202 ESForwSacLong+2+7 140
999 WORDS_déposée~4 106
999 WORDFREQ_3.58 106
999 WORDSALL_déposée~4 106
999 COSIND_-0.02 106
999 COSGEN_-0.02 106
104 ESRank4 106
203 ESBackSacRefixation 106
999 WORDS_l'entreprise~6 203
999 WORDFREQ_29.05 203
999 WORDSALL_La~0_plainte~1_l'entreprise~6 203
999 COSIND_-0.03 203
999 COSGEN_-0.03 203
105 ESRank5 203
202 ESForwSacLong+2+5 203
999 WORDS_portait~8 192
999 WORDFREQ_113.85 192
999 WORDSALL_avait~2_été~3_portait~8 192
999 COSIND_-0.07 192
999 COSGEN_-0.07 192
106 ESRank6 192
202 ESForwSacLong+2+4 192
999 WORDS_mobilier~11 239
999 WORDFREQ_5.27 239
999 WORDSALL_déposée~4_mobilier~11 239
999 COSIND_-0.13 239
999 COSGEN_-0.13 239
107 ESRank7 239
202 ESForwSacLong+3+8 239
999 WORDS_l'entreprise~6 172
999 WORDFREQ_29.05 172
999 WORDSALL_l'entreprise~6 172
999 COSIND_-0.03 172
999 COSGEN_-0.03 172
108 ESRank8 172
206 ESBackSacRegrLong-5-19 172
999 WORDS_urbain~12 206
999 WORDFREQ_1.89 206
999 WORDSALL_l'entreprise~6_urbain~12 206
999 COSIND_-0.03 206
999 COSGEN_-0.03 206
109 ESRank9 206
202 ESForwSacLong+6+28 206
999 WORDS_service~15 206
999 WORDFREQ_106.28 206
999 WORDSALL_l'entreprise~6_portait~8_service~15 206
999 COSIND_0.05 206
999 COSGEN_0.05 206
110 ESRank10 206
202 ESForwSacLong+3+7 206
999 WORDS_location~17 198
999 WORDFREQ_5 198
999 WORDSALL_sur~9_mobilier~11_location~17 198
999 COSIND_-0.05 198
999 COSGEN_-0.05 198
111 ESRank11 198
202 ESForwSacLong+2+4 198
999 WORDS_vélos~19 122
999 WORDFREQ_4.12 122
999 WORDSALL_mobilier~11_vélos~19 122
999 COSIND_-0.11 122
999 COSGEN_-0.11 122
112 ESRank12 122
202 ESForwSacLong+2+4 122
999 WORDS_libre~21 249
999 WORDFREQ_130.14 249
999 WORDSALL_urbain~12_libre~21 249
999 COSIND_0.01 249
999 COSGEN_0.01 249
113 ESRank13 249
202 ESForwSacLong+2+4 249
999 WORDS_groupe~24 307
999 WORDFREQ_85.88 307
999 WORDSALL_de~16_location~17_groupe~24 307
999 COSIND_-0.00 307
999 COSGEN_-0.00 307
114 ESRank14 307
202 ESForwSacLong+3+12 307
200 ESRankN 307
199 ESRankNMinus1 249
198 ESRankNMinus2 122
197 ESRankNMinus3 198
196 ESRankNMinus4 206
195 ESRankNMinus5 206
194 ESRankNMinus6 172
193 ESRankNMinus7 239
192 ESRankNMinus8 192
191 ESRankNMinus9 203
190 ESRankNMinus10 106
