999 WORDS_L'Irak~0 382
999 WORDFREQ_N/A 382
999 WORDSALL_L'Irak~0 382
999 COSIND_N/A 382
101 ESRank1 382
999 WORDS_demandé~2 223
999 WORDFREQ_128.92 223
999 WORDSALL_L'Irak~0_a~1_demandé~2 223
999 COSIND_-0.04 223
999 COSGEN_-0.04 223
102 ESRank2 223
202 ESForwSacLong+2+3 223
999 WORDS_demandé~2 144
999 WORDFREQ_128.92 144
999 WORDSALL_a~1_demandé~2 144
999 COSIND_-0.04 144
999 COSGEN_-0.04 144
103 ESRank3 144
203 ESBackSacRefixation 144
999 WORDS_l'ONU~4 257
999 WORDFREQ_N/A 257
999 WORDSALL_à~3_l'ONU~4 257
999 COSIND_N/A 257
104 ESRank4 257
202 ESForwSacLong+2+4 257
999 WORDS_l'ONU~4 199
999 WORDFREQ_N/A 199
999 WORDSALL_à~3_l'ONU~4 199
999 COSIND_N/A 199
105 ESRank5 199
203 ESBackSacRefixation 199
200 ESRankN 199
199 ESRankNMinus1 257
198 ESRankNMinus2 144
197 ESRankNMinus3 223
196 ESRankNMinus4 382
