# 163 Fixation 1 (268.2,278.6): Le~0 navigateur~1
# 256 Fixation 2 (406.3,276.8): navigateur~1 solitaire~2
# 235 Fixation 3 (473.2,284): solitaire~2
# 252 Fixation 4 (463.3,275.6): solitaire~2
# 222 Fixation 5 (448.2,264): solitaire~2
# 730 Fixation 6 (548.4,266.8): solitaire~2 voulait~3
# 183 Fixation 7 (569.4,268.9): voulait~3
# 175 Fixation 8 (621.1,269.8): voulait~3
# 305 Fixation 9 (665.5,279.7): voulait~3 gagner~4
# 353 Fixation 10 (284,343.8): l'honneur~6
%%
# Le~0 Fixations= "1/"
# navigateur~1 Fixations= "2/"
# solitaire~2 Fixations= "6/"
# voulait~3 Fixations= "9/"
# gagner~4 Fixations= "9/"
# pour~5 Fixations= ""
# l'honneur~6 Fixations= "10/"
# Un~7 Fixations= ""
# choix~8 Fixations= ""
# météo~9 Fixations= ""
# décevant~10 Fixations= ""
# et~11 Fixations= ""
# une~12 Fixations= ""
# grosse~13 Fixations= ""
# avarie~14 Fixations= ""
# dans~15 Fixations= ""
# le~16 Fixations= ""
# Pacifique~17 Fixations= ""
# ont~18 Fixations= ""
# eu~19 Fixations= ""
# raison~20 Fixations= ""
# de~21 Fixations= ""
# ses~22 Fixations= ""
# chances~23 Fixations= ""
# Il~24 Fixations= ""
# a~25 Fixations= ""
# vécu~26 Fixations= ""
# un~27 Fixations= ""
# drôle~28 Fixations= ""
# de~29 Fixations= ""
# tour~30 Fixations= ""
# du~31 Fixations= ""
# monde~32 Fixations= ""
%%
#  LE[1] NAVIGATEUR[2] SOLITAIRE[6] VOULAIT[9] GAGNER[9] pour L'HONNEUR[10] Un choix météo décevant et une grosse avarie dans le Pacifique ont eu raison de ses chances Il a vécu un drôle de tour du monde
# s14 course_voiliers-f2 PercentageOfWordsProcessed= 0.181818181818182 PercentageOfWordsReallyProcessed= 0.857142857142857
