999 WORDS_gouvernements~1 180
999 WORDFREQ_12.3 180
999 WORDSALL_Nos~0_gouvernements~1 180
999 COSIND_0.03 180
999 COSGEN_0.03 180
101 ESRank1 180
999 WORDS_gouvernements~1 109
999 WORDFREQ_12.3 109
999 WORDSALL_gouvernements~1 109
999 COSIND_0.03 109
999 COSGEN_0.03 109
102 ESRank2 109
203 ESBackSacRefixation 109
999 WORDS_coopéreront~2 338
999 WORDFREQ_0 338
999 WORDSALL_coopéreront~2 338
999 COSIND_0.16 338
999 COSGEN_0.16 338
103 ESRank3 338
201 ESForwSacShort 338
999 WORDS_gouvernements~1 282
999 WORDFREQ_12.3 282
999 WORDSALL_gouvernements~1 282
999 COSIND_0.03 282
999 COSGEN_0.03 282
104 ESRank4 282
205 ESBackSacRegrShort 282
999 WORDS_coopéreront~2 164
999 WORDFREQ_0 164
999 WORDSALL_coopéreront~2 164
999 COSIND_0.16 164
999 COSGEN_0.16 164
105 ESRank5 164
201 ESForwSacShort 164
999 WORDS_Tribunal~5 228
999 WORDFREQ_15 228
999 WORDSALL_Tribunal~5 228
999 COSIND_0.81 228
999 COSGEN_0.81 228
106 ESRank6 228
202 ESForwSacLong+3+9 228
999 WORDS_pénal~6 410
999 WORDFREQ_2.91 410
999 WORDSALL_pénal~6 410
999 COSIND_0.53 410
999 COSGEN_0.53 410
107 ESRank7 410
201 ESForwSacShort 410
999 WORDS_international~7 197
999 WORDFREQ_9.12 197
999 WORDSALL_international~7 197
999 COSIND_0.87 197
999 COSGEN_0.87 197
108 ESRank8 197
201 ESForwSacShort 197
999 WORDS_international~7 172
999 WORDFREQ_9.12 172
999 WORDSALL_pénal~6_international~7 172
999 COSIND_0.87 172
999 COSGEN_0.87 172
109 ESRank9 172
203 ESBackSacRefixation 172
999 WORDS_l'ex-Yougoslavie~9 245
999 WORDFREQ_N/A 245
999 WORDSALL_l'ex-Yougoslavie~9 245
999 COSIND_N/A 245
110 ESRank10 245
202 ESForwSacLong+2+6 245
999 WORDS_l'ex-Yougoslavie~9 230
999 WORDFREQ_N/A 230
999 WORDSALL_l'ex-Yougoslavie~9 230
999 COSIND_N/A 230
111 ESRank11 230
203 ESBackSacRefixation 230
200 ESRankN 230
199 ESRankNMinus1 245
198 ESRankNMinus2 172
197 ESRankNMinus3 197
196 ESRankNMinus4 410
195 ESRankNMinus5 228
194 ESRankNMinus6 164
193 ESRankNMinus7 282
192 ESRankNMinus8 338
191 ESRankNMinus9 109
190 ESRankNMinus10 180
