# 165 Fixation 1 (274.6,286.7): Une~0 soixantaine~1
# 124 Fixation 2 (343,288.2): soixantaine~1
# 213 Fixation 3 (489.6,295.3): de~2 jeunes~3
# 186 Fixation 4 (623.6,294.4): de~4 Courneuve~6
# 111 Fixation 5 (652.4,295.4): de~4 Courneuve~6
# 333 Fixation 6 (335.5,351.3): ont~7 incendié~8
# 259 Fixation 7 (468.7,355.8): des~9 voitures~10
%%
# Une~0 Fixations= "1/"
# soixantaine~1 Fixations= "2/"
# de~2 Fixations= "3/"
# jeunes~3 Fixations= "3/"
# de~4 Fixations= "5/"
# la~5 Fixations= ""
# Courneuve~6 Fixations= "5/"
# ont~7 Fixations= "6/"
# incendié~8 Fixations= "6/"
# des~9 Fixations= "7/"
# voitures~10 Fixations= "7/"
# brisé~11 Fixations= ""
# des~12 Fixations= ""
# vitrines~13 Fixations= ""
# et~14 Fixations= ""
# s'en~15 Fixations= ""
# sont~16 Fixations= ""
# pris~17 Fixations= ""
# aux~18 Fixations= ""
# policiers~19 Fixations= ""
# auxquels~20 Fixations= ""
# ils~21 Fixations= ""
# attribuent~22 Fixations= ""
# la~23 Fixations= ""
# responsabilité~24 Fixations= ""
# de~25 Fixations= ""
# la~26 Fixations= ""
# mort~27 Fixations= ""
# d'un~28 Fixations= ""
# des~29 Fixations= ""
# leurs~30 Fixations= ""
%%
#  UNE[1] SOIXANTAINE[2] DE[3] JEUNES[3] DE[5] la COURNEUVE[5] ONT[6] INCENDIé[6] DES[7] VOITURES[7] brisé des vitrines et s'en sont pris aux policiers auxquels ils attribuent la responsabilité de la mort d'un des leurs
# s18 delinquance_juvenile-f2 PercentageOfWordsProcessed= 0.32258064516129 PercentageOfWordsReallyProcessed= 0.909090909090909
