999 WORDS_critique~1 236
999 WORDFREQ_11.15 236
999 WORDSALL_critique~1 236
999 COSIND_0.03 236
999 COSGEN_0.03 236
101 ESRank1 236
999 WORDS_exprimée~3 110
999 WORDFREQ_1.96 110
999 WORDSALL_s'est~2_exprimée~3 110
999 COSIND_0.01 110
999 COSGEN_0.01 110
102 ESRank2 110
202 ESForwSacLong+2+7 110
999 WORDS_critique~1 129
999 WORDFREQ_11.15 129
999 WORDSALL_La~0_critique~1 129
999 COSIND_0.03 129
999 COSGEN_0.03 129
103 ESRank3 129
206 ESBackSacRegrLong-2-7 129
999 WORDS_exprimée~3 217
999 WORDFREQ_1.96 217
999 WORDSALL_s'est~2_exprimée~3 217
999 COSIND_0.01 217
999 COSGEN_0.01 217
104 ESRank4 217
202 ESForwSacLong+2+7 217
999 WORDS_plus~4 140
999 WORDFREQ_5014.53 140
999 WORDSALL_exprimée~3_plus~4 140
999 COSIND_-0.04 140
999 COSGEN_-0.04 140
105 ESRank5 140
201 ESForwSacShort 140
999 WORDS_radicalement~5 297
999 WORDFREQ_3.65 297
999 WORDSALL_radicalement~5 297
999 COSIND_0.11 297
999 COSGEN_0.11 297
106 ESRank6 297
201 ESForwSacShort 297
999 WORDS_nature~8 164
999 WORDFREQ_93.45 164
999 WORDSALL_sur~6_nature~8 164
999 COSIND_-0.02 164
999 COSGEN_-0.02 164
107 ESRank7 164
202 ESForwSacLong+3+8 164
999 WORDS_nature~8 125
999 WORDFREQ_93.45 125
999 WORDSALL_la~7_nature~8 125
999 COSIND_-0.02 125
999 COSGEN_-0.02 125
108 ESRank8 125
203 ESBackSacRefixation 125
999 WORDS_l'idéologie~10 85
999 WORDFREQ_2.97 85
999 WORDSALL_et~9_l'idéologie~10 85
999 COSIND_-0.03 85
999 COSGEN_-0.03 85
109 ESRank9 85
202 ESForwSacLong+2+4 85
999 WORDS_l'idéologie~10 152
999 WORDFREQ_2.97 152
999 WORDSALL_l'idéologie~10 152
999 COSIND_-0.03 152
999 COSGEN_-0.03 152
110 ESRank10 152
203 ESBackSacRefixation 152
999 WORDS_projet~12 272
999 WORDFREQ_39.86 272
999 WORDSALL_projet~12 272
999 COSIND_0.07 272
999 COSGEN_0.07 272
111 ESRank11 272
202 ESForwSacLong+2+4 272
999 WORDS_éducatif~13 190
999 WORDFREQ_0.34 190
999 WORDSALL_éducatif~13 190
999 COSIND_0.41 190
999 COSGEN_0.41 190
112 ESRank12 190
201 ESForwSacShort 190
999 WORDS_débat~16 137
999 WORDFREQ_9.46 137
999 WORDSALL_Dans~14_débat~16 137
999 COSIND_0.10 137
999 COSGEN_0.10 137
113 ESRank13 137
202 ESForwSacLong+3+9 137
999 WORDS_débat~16 125
999 WORDFREQ_9.46 125
999 WORDSALL_ce~15_débat~16 125
999 COSIND_0.10 125
999 COSGEN_0.10 125
114 ESRank14 125
203 ESBackSacRefixation 125
999 WORDS_déclenché~17 206
999 WORDFREQ_3.65 206
999 WORDSALL_déclenché~17 206
999 COSIND_-0.08 206
999 COSGEN_-0.08 206
115 ESRank15 206
201 ESForwSacShort 206
999 WORDS_dehors~19 257
999 WORDFREQ_109.05 257
999 WORDSALL_en~18_dehors~19 257
999 COSIND_-0.06 257
999 COSGEN_-0.06 257
116 ESRank16 257
202 ESForwSacLong+2+4 257
999 WORDS_organisations~21 247
999 WORDFREQ_4.8 247
999 WORDSALL_des~20_organisations~21 247
999 COSIND_0.00 247
999 COSGEN_0.00 247
117 ESRank17 247
202 ESForwSacLong+2+5 247
999 WORDS_syndicales~22 269
999 WORDFREQ_0.41 269
999 WORDSALL_syndicales~22 269
999 COSIND_0.11 269
999 COSGEN_0.11 269
118 ESRank18 269
201 ESForwSacShort 269
999 WORDS_enseignants~24 248
999 WORDFREQ_0.81 248
999 WORDSALL_les~23_enseignants~24 248
999 COSIND_0.52 248
999 COSGEN_0.52 248
119 ESRank19 248
202 ESForwSacLong+2+5 248
999 WORDS_prennent~26 242
999 WORDFREQ_29.12 242
999 WORDSALL_s'en~25_prennent~26 242
999 COSIND_-0.02 242
999 COSGEN_-0.02 242
120 ESRank20 242
202 ESForwSacLong+2+6 242
999 WORDS_orientations~28 209
999 WORDFREQ_0.27 209
999 WORDSALL_aux~27_orientations~28 209
999 COSIND_0.21 209
999 COSGEN_0.21 209
202 ESForwSacLong+2+5 209
999 WORDS_fondamentales~29 201
999 WORDFREQ_1.28 201
999 WORDSALL_fondamentales~29 201
999 COSIND_0.06 201
999 COSGEN_0.06 201
201 ESForwSacShort 201
999 WORDS_orientations~28 122
999 WORDFREQ_0.27 122
999 WORDSALL_orientations~28 122
999 COSIND_0.21 122
999 COSGEN_0.21 122
205 ESBackSacRegrShort 122
999 WORDS_fondamentales~29 273
999 WORDFREQ_1.28 273
999 WORDSALL_fondamentales~29 273
999 COSIND_0.06 273
999 COSGEN_0.06 273
201 ESForwSacShort 273
999 WORDS_orientations~28 458
999 WORDFREQ_0.27 458
999 WORDSALL_orientations~28 458
999 COSIND_0.21 458
999 COSGEN_0.21 458
205 ESBackSacRegrShort 458
999 WORDS_éducatif~13 290
999 WORDFREQ_0.34 290
999 WORDSALL_éducatif~13 290
999 COSIND_0.41 290
999 COSGEN_0.41 290
206 ESBackSacRegrLong-15-101 290
999 WORDS_l'idéologie~10 334
999 WORDFREQ_2.97 334
999 WORDSALL_et~9_l'idéologie~10 334
999 COSIND_-0.03 334
999 COSGEN_-0.03 334
206 ESBackSacRegrLong-3-11 334
999 WORDS_l'idéologie~10 170
999 WORDFREQ_2.97 170
999 WORDSALL_l'idéologie~10 170
999 COSIND_-0.03 170
999 COSGEN_-0.03 170
203 ESBackSacRefixation 170
999 WORDS_nature~8 205
999 WORDFREQ_93.45 205
999 WORDSALL_la~7_nature~8 205
999 COSIND_-0.02 205
999 COSGEN_-0.02 205
206 ESBackSacRegrLong-2-4 205
999 WORDS_critique~1 252
999 WORDFREQ_11.15 252
999 WORDSALL_critique~1 252
999 COSIND_0.03 252
999 COSGEN_0.03 252
206 ESBackSacRegrLong-7-42 252
999 WORDS_enseignants~24 119
999 WORDFREQ_0.81 119
999 WORDSALL_enseignants~24 119
999 COSIND_0.52 119
999 COSGEN_0.52 119
202 ESForwSacLong+23+155 119
999 WORDS_organisations~21 174
999 WORDFREQ_4.8 174
999 WORDSALL_des~20_organisations~21 174
999 COSIND_0.00 174
999 COSGEN_0.00 174
206 ESBackSacRegrLong-3-16 174
200 ESRankN 174
199 ESRankNMinus1 119
198 ESRankNMinus2 252
197 ESRankNMinus3 205
196 ESRankNMinus4 170
195 ESRankNMinus5 334
194 ESRankNMinus6 290
193 ESRankNMinus7 458
192 ESRankNMinus8 273
191 ESRankNMinus9 122
190 ESRankNMinus10 201
