# 160 Fixation 1 (274.8,270): Les~0 petits~1
# 218 Fixation 2 (443.8,269.7): boules~2
# 225 Fixation 3 (602,334.2): très~10 appréciées~11
# 196 Fixation 4 (533.8,336.8): sont~9 très~10
# 202 Fixation 5 (525.5,409.1): prennent~16
# 163 Fixation 6 (600.4,419.1): d'assaut~17
# 163 Fixation 7 (316.2,477.1): premières~19
# 112 Fixation 8 (273.7,477.1): premières~19
# 167 Fixation 9 (419,477.2): rigueurs~20
# 224 Fixation 10 (529.1,471.6): de~21 l'hiver~22
# 329 Fixation 11 (486.1,319.6): sont~9
# 199 Fixation 12 (613,340.7): très~10 appréciées~11
# 164 Fixation 13 (709.3,299.1): enrobées~5
# 126 Fixation 14 (296.6,398.4): mésanges~13
# 208 Fixation 15 (267.4,432.4): mésanges~13
# 228 Fixation 16 (458.2,268): boules~2
# 149 Fixation 17 (414.1,268.6): boules~2
# 204 Fixation 18 (520.6,276.8): de~3 graisse~4
%%
# Les~0 Fixations= "1/"
# petits~1 Fixations= "1/"
# boules~2 Fixations= "17/"
# de~3 Fixations= "18/"
# graisse~4 Fixations= "18/"
# enrobées~5 Fixations= "13/"
# de~6 Fixations= ""
# graines~7 Fixations= ""
# diverses~8 Fixations= ""
# sont~9 Fixations= "11/"
# très~10 Fixations= "12/"
# appréciées~11 Fixations= "12/"
# des~12 Fixations= ""
# mésanges~13 Fixations= "15/"
# qui~14 Fixations= ""
# les~15 Fixations= ""
# prennent~16 Fixations= "5/"
# d'assaut~17 Fixations= "6/"
# aux~18 Fixations= ""
# premières~19 Fixations= "8/"
# rigueurs~20 Fixations= "9/"
# de~21 Fixations= "10/"
# l'hiver~22 Fixations= "10/"
%%
#  LES[1] PETITS[1] BOULES[17] DE[18] GRAISSE[18] ENROBéES[13] de graines diverses SONT[11] TRèS[12] APPRéCIéES[12] des MéSANGES[15] qui les PRENNENT[5] D'ASSAUT[6] aux PREMIèRES[8] RIGUEURS[9] DE[10] L'HIVER[10]
# s21 chasse_oiseaux-m2 PercentageOfWordsProcessed= 0.695652173913043 PercentageOfWordsReallyProcessed= 0.695652173913043
