# 163 Fixation 1 (318.7,279.5): Un~0 miraculé~1
# 308 Fixation 2 (301.5,277): Un~0 miraculé~1
# 159 Fixation 3 (327,278.8): Un~0 miraculé~1
# 257 Fixation 4 (449.1,284.1): de~2 l'aviation~3
# 366 Fixation 5 (478.4,283.8): de~2 l'aviation~3
# 85 Fixation 6 (501.8,280.7): l'aviation~3
# 224 Fixation 7 (602.8,289.4): un~4 jeune~5
# 133 Fixation 8 (640.2,294.8): un~4 jeune~5
# 288 Fixation 9 (286.2,334): passager~6
# 282 Fixation 10 (438.2,353.4): clandestin~7
# 301 Fixation 11 (645.8,360.7): le~10 trajet~11
%%
# Un~0 Fixations= "3/"
# miraculé~1 Fixations= "3/"
# de~2 Fixations= "5/"
# l'aviation~3 Fixations= "6/"
# un~4 Fixations= "8/"
# jeune~5 Fixations= "8/"
# passager~6 Fixations= "9/"
# clandestin~7 Fixations= "10/"
# a~8 Fixations= ""
# fait~9 Fixations= ""
# le~10 Fixations= "11/"
# trajet~11 Fixations= "11/"
# Dakar-Lyon~12 Fixations= ""
# mardi~13 Fixations= ""
# dernier~14 Fixations= ""
# dans~15 Fixations= ""
# le~16 Fixations= ""
# train~17 Fixations= ""
# d'atterrissage~18 Fixations= ""
# d'un~19 Fixations= ""
# Airbus~20 Fixations= ""
# A300~21 Fixations= ""
%%
#  UN[3] MIRACULé[3] DE[5] L'AVIATION[6] UN[8] JEUNE[8] PASSAGER[9] CLANDESTIN[10] a fait LE[11] TRAJET[11] Dakar-Lyon mardi dernier dans le train d'atterrissage d'un Airbus A300
# s13 salon_aeronautique-m2 PercentageOfWordsProcessed= 0.454545454545455 PercentageOfWordsReallyProcessed= 0.833333333333333
