# 291 Fixation 1 (280.7,286): Il~0 pleut~1
# 181 Fixation 2 (386.9,282): pleut~1
# 262 Fixation 3 (451.4,282.8): sur~2 Haute-Saône~4
# 202 Fixation 4 (530.8,282.1): Haute-Saône~4
# 344 Fixation 5 (665.6,288.5): il~5 fait~6
# 109 Fixation 6 (721.2,289.9): fait~6 froid~7
# 202 Fixation 7 (280.5,363.4): les~8 jours~9
# 183 Fixation 8 (296.6,353.5): les~8 jours~9
# 189 Fixation 9 (405.8,346.9): sont~10
# 137 Fixation 10 (468,345.8): sont~10
# 190 Fixation 11 (548.4,347.2): encore~11 courts~12
# 153 Fixation 12 (659.5,356.4): A~13 part~14
# 196 Fixation 13 (272.9,457.1): sont~20
# 114 Fixation 14 (298.2,487.4): sont~20 nus~21
# 282 Fixation 15 (424.2,479.3): le~22 printemps~23
# 84 Fixation 16 (474.2,474): printemps~23
%%
# Il~0 Fixations= "1/"
# pleut~1 Fixations= "2/"
# sur~2 Fixations= "3/"
# la~3 Fixations= ""
# Haute-Saône~4 Fixations= "4/"
# il~5 Fixations= "5/"
# fait~6 Fixations= "6/"
# froid~7 Fixations= "6/"
# les~8 Fixations= "8/"
# jours~9 Fixations= "8/"
# sont~10 Fixations= "10/"
# encore~11 Fixations= "11/"
# courts~12 Fixations= "11/"
# A~13 Fixations= "12/"
# part~14 Fixations= "12/"
# quelques~15 Fixations= ""
# forsythias~16 Fixations= ""
# héroïques~17 Fixations= ""
# les~18 Fixations= ""
# arbustes~19 Fixations= ""
# sont~20 Fixations= "14/"
# nus~21 Fixations= "14/"
# le~22 Fixations= "15/"
# printemps~23 Fixations= "16/"
# rase~24 Fixations= ""
# les~25 Fixations= ""
# murs~26 Fixations= ""
%%
#  IL[1] PLEUT[2] SUR[3] la HAUTE-SAôNE[4] IL[5] FAIT[6] FROID[6] LES[8] JOURS[8] SONT[10] ENCORE[11] COURTS[11] A[12] PART[12] quelques forsythias héroïques les arbustes SONT[14] NUS[14] LE[15] PRINTEMPS[16] rase les murs
# s13 plantation_fleurs-m1 PercentageOfWordsProcessed= 0.666666666666667 PercentageOfWordsReallyProcessed= 0.75
