# 225 Fixation 1 (294.2,274.6): L'édition~0
# 189 Fixation 2 (400.3,266.7): d'art~1
# 276 Fixation 3 (476.2,268.9): d'art~1 offre~2
# 87 Fixation 4 (464.7,268.3): d'art~1 offre~2
# 161 Fixation 5 (629.1,274.2): jeunes~4
# 217 Fixation 6 (676.2,268.3): jeunes~4 éditeurs~5
# 217 Fixation 7 (305,312.6): L'édition~0 ambitieux~6
# 130 Fixation 8 (300.7,337.2): L'édition~0 ambitieux~6
# 250 Fixation 9 (417,336.3): d'art~1 grandes~8
# 192 Fixation 10 (495.2,337.6): offre~2 grandes~8
# 149 Fixation 11 (634.6,359.1): satisfactions~9
# 178 Fixation 12 (701,323.6): éditeurs~5
# 202 Fixation 13 (291.5,392.6): ambitieux~6 peut~11
# 131 Fixation 14 (289.5,403.5): ambitieux~6 peut~11
# 144 Fixation 15 (355,407.2): ambitieux~6 avoir~13
# 389 Fixation 16 (435,404.6): de~7 grandes~8
# 553 Fixation 17 (592.7,425.2): sentiment~15 faire~17
# 356 Fixation 18 (493.9,516.2): Z~23 films~30
# 129 Fixation 19 (460.9,644.4): ses~29 films~30
# 936 Fixation 20 (423.7,437.9): avoir~13 A~21 à~22 Z~23
%%
# L'édition~0 Fixations= "8/"
# d'art~1 Fixations= "9/"
# offre~2 Fixations= "10/"
# aux~3 Fixations= ""
# jeunes~4 Fixations= "6/"
# éditeurs~5 Fixations= "12/"
# ambitieux~6 Fixations= "15/"
# de~7 Fixations= "16/"
# grandes~8 Fixations= "16/"
# satisfactions~9 Fixations= "11/"
# on~10 Fixations= ""
# peut~11 Fixations= "14/"
# y~12 Fixations= ""
# avoir~13 Fixations= "20/"
# le~14 Fixations= ""
# sentiment~15 Fixations= "17/"
# de~16 Fixations= ""
# faire~17 Fixations= "17/"
# les~18 Fixations= ""
# livres~19 Fixations= ""
# de~20 Fixations= ""
# A~21 Fixations= "20/"
# à~22 Fixations= "20/"
# Z~23 Fixations= "20/"
# comme~24 Fixations= ""
# un~25 Fixations= ""
# producteur~26 Fixations= ""
# de~27 Fixations= ""
# Hollywood~28 Fixations= ""
# ses~29 Fixations= "19/"
# films~30 Fixations= "19/"
%%
#  L'éDITION[8] D'ART[9] OFFRE[10] aux JEUNES[6] éDITEURS[12] AMBITIEUX[15] DE[16] GRANDES[16] SATISFACTIONS[11] on PEUT[14] y AVOIR[20] le SENTIMENT[17] de FAIRE[17] les livres de A[20] à[20] Z[20] comme un producteur de Hollywood SES[19] FILMS[19]
# s14 chasse_oiseaux-a2 PercentageOfWordsProcessed= 0.580645161290323 PercentageOfWordsReallyProcessed= 0.580645161290323
