999 WORDS_abords~1 153
999 WORDFREQ_11.76 153
999 WORDSALL_abords~1 153
999 COSIND_0.07 153
999 COSGEN_0.07 153
101 ESRank1 153
999 WORDS_gare~4 178
999 WORDFREQ_78.58 178
999 WORDSALL_de~2_gare~4 178
999 COSIND_0.17 178
999 COSGEN_0.17 178
102 ESRank2 178
202 ESForwSacLong+3+7 178
999 WORDS_nulle~5 187
999 WORDFREQ_32.7 187
999 WORDSALL_nulle~5 187
999 COSIND_-0.06 187
999 COSGEN_-0.06 187
103 ESRank3 187
201 ESForwSacShort 187
999 WORDS_barre~6 127
999 WORDFREQ_23.18 127
999 WORDSALL_nulle~5_barre~6 127
999 COSIND_0.11 127
999 COSGEN_0.11 127
104 ESRank4 127
201 ESForwSacShort 127
999 WORDS_logements~8 215
999 WORDFREQ_2.57 215
999 WORDSALL_logements~8 215
999 COSIND_1.00 215
999 COSGEN_1.00 215
105 ESRank5 215
202 ESForwSacLong+2+4 215
999 WORDS_cabine~10 140
999 WORDFREQ_29.86 140
999 WORDSALL_ni~9_cabine~10 140
999 COSIND_0.13 140
999 COSGEN_0.13 140
106 ESRank6 140
202 ESForwSacLong+2+4 140
999 WORDS_téléphonique~11 138
999 WORDFREQ_7.7 138
999 WORDSALL_cabine~10_téléphonique~11 138
999 COSIND_0.01 138
999 COSGEN_0.01 138
107 ESRank7 138
201 ESForwSacShort 138
999 WORDS_téléphonique~11 134
999 WORDFREQ_7.7 134
999 WORDSALL_téléphonique~11 134
999 COSIND_0.01 134
999 COSGEN_0.01 134
108 ESRank8 134
203 ESBackSacRefixation 134
999 WORDS_dévastée~12 141
999 WORDFREQ_0.47 141
999 WORDSALL_dévastée~12 141
999 COSIND_0.18 141
999 COSGEN_0.18 141
109 ESRank9 141
201 ESForwSacShort 141
999 WORDS_habitat~15 192
999 WORDFREQ_0.88 192
999 WORDSALL_un~14_habitat~15 192
999 COSIND_0.70 192
999 COSGEN_0.70 192
110 ESRank10 192
202 ESForwSacLong+3+9 192
999 WORDS_constitué~16 149
999 WORDFREQ_6.82 149
999 WORDSALL_habitat~15_constitué~16 149
999 COSIND_-0.06 149
999 COSGEN_-0.06 149
111 ESRank11 149
201 ESForwSacShort 149
999 WORDS_constitué~16 136
999 WORDFREQ_6.82 136
999 WORDSALL_constitué~16 136
999 COSIND_-0.06 136
999 COSGEN_-0.06 136
112 ESRank12 136
203 ESBackSacRefixation 136
999 WORDS_d'immeubles~17 163
999 WORDFREQ_17.91 163
999 WORDSALL_d'immeubles~17 163
999 COSIND_0.50 163
999 COSGEN_0.50 163
113 ESRank13 163
201 ESForwSacShort 163
999 WORDS_maisons~21 176
999 WORDFREQ_113.78 176
999 WORDSALL_et~19_maisons~21 176
999 COSIND_0.04 176
999 COSGEN_0.04 176
114 ESRank14 176
202 ESForwSacLong+4+21 176
999 WORDS_maisons~21 161
999 WORDFREQ_113.78 161
999 WORDSALL_de~20_maisons~21 161
999 COSIND_0.04 161
999 COSGEN_0.04 161
115 ESRank15 161
203 ESBackSacRefixation 161
999 WORDS_pierre~23 135
999 WORDFREQ_119.39 135
999 WORDSALL_en~22_pierre~23 135
999 COSIND_0.03 135
999 COSGEN_0.03 135
116 ESRank16 135
202 ESForwSacLong+2+4 135
999 WORDS_réhabilités~18 198
999 WORDFREQ_0.07 198
999 WORDSALL_réhabilités~18 198
999 COSIND_0.15 198
999 COSGEN_0.15 198
117 ESRank17 198
206 ESBackSacRegrLong-5-18 198
999 WORDS_maisons~21 167
999 WORDFREQ_113.78 167
999 WORDSALL_et~19_maisons~21 167
999 COSIND_0.04 167
999 COSGEN_0.04 167
118 ESRank18 167
202 ESForwSacLong+3+7 167
999 WORDS_ornées~27 187
999 WORDFREQ_2.77 187
999 WORDSALL_et~26_ornées~27 187
999 COSIND_0.08 187
999 COSGEN_0.08 187
119 ESRank19 187
202 ESForwSacLong+6+36 187
999 WORDS_charmants~29 152
999 WORDFREQ_3.58 152
999 WORDSALL_de~28_charmants~29 152
999 COSIND_-0.04 152
999 COSGEN_-0.04 152
120 ESRank20 152
202 ESForwSacLong+2+4 152
200 ESRankN 152
199 ESRankNMinus1 187
198 ESRankNMinus2 167
197 ESRankNMinus3 198
196 ESRankNMinus4 135
195 ESRankNMinus5 161
194 ESRankNMinus6 176
193 ESRankNMinus7 163
192 ESRankNMinus8 136
191 ESRankNMinus9 149
190 ESRankNMinus10 192
