999 WORDS_critique~1 176
999 WORDFREQ_11.15 176
999 WORDSALL_La~0_critique~1 176
999 COSIND_0.03 176
999 COSGEN_0.03 176
101 ESRank1 176
999 WORDS_critique~1 287
999 WORDFREQ_11.15 287
999 WORDSALL_La~0_critique~1 287
999 COSIND_0.03 287
999 COSGEN_0.03 287
102 ESRank2 287
203 ESBackSacRefixation 287
999 WORDS_critique~1 190
999 WORDFREQ_11.15 190
999 WORDSALL_critique~1 190
999 COSIND_0.03 190
999 COSGEN_0.03 190
103 ESRank3 190
203 ESBackSacRefixation 190
999 WORDS_exprimée~3 302
999 WORDFREQ_1.96 302
999 WORDSALL_s'est~2_exprimée~3 302
999 COSIND_0.01 302
999 COSGEN_0.01 302
104 ESRank4 302
202 ESForwSacLong+2+7 302
999 WORDS_exprimée~3 217
999 WORDFREQ_1.96 217
999 WORDSALL_s'est~2_exprimée~3 217
999 COSIND_0.01 217
999 COSGEN_0.01 217
105 ESRank5 217
203 ESBackSacRefixation 217
999 WORDS_plus~4 183
999 WORDFREQ_5014.53 183
999 WORDSALL_exprimée~3_plus~4 183
999 COSIND_-0.04 183
999 COSGEN_-0.04 183
106 ESRank6 183
201 ESForwSacShort 183
999 WORDS_radicalement~5 369
999 WORDFREQ_3.65 369
999 WORDSALL_radicalement~5 369
999 COSIND_0.11 369
999 COSGEN_0.11 369
107 ESRank7 369
201 ESForwSacShort 369
999 WORDS_nature~8 178
999 WORDFREQ_93.45 178
999 WORDSALL_sur~6_nature~8 178
999 COSIND_-0.02 178
999 COSGEN_-0.02 178
108 ESRank8 178
202 ESForwSacLong+3+8 178
999 WORDS_nature~8 248
999 WORDFREQ_93.45 248
999 WORDSALL_la~7_nature~8 248
999 COSIND_-0.02 248
999 COSGEN_-0.02 248
109 ESRank9 248
203 ESBackSacRefixation 248
999 WORDS_l'idéologie~10 308
999 WORDFREQ_2.97 308
999 WORDSALL_et~9_l'idéologie~10 308
999 COSIND_-0.03 308
999 COSGEN_-0.03 308
110 ESRank10 308
202 ESForwSacLong+2+4 308
999 WORDS_l'idéologie~10 155
999 WORDFREQ_2.97 155
999 WORDSALL_et~9_l'idéologie~10 155
999 COSIND_-0.03 155
999 COSGEN_-0.03 155
111 ESRank11 155
203 ESBackSacRefixation 155
999 WORDS_projet~12 378
999 WORDFREQ_39.86 378
999 WORDSALL_du~11_projet~12 378
999 COSIND_0.07 378
999 COSGEN_0.07 378
112 ESRank12 378
202 ESForwSacLong+2+4 378
999 WORDS_éducatif~13 257
999 WORDFREQ_0.34 257
999 WORDSALL_éducatif~13 257
999 COSIND_0.41 257
999 COSGEN_0.41 257
113 ESRank13 257
201 ESForwSacShort 257
999 WORDS_éducatif~13 132
999 WORDFREQ_0.34 132
999 WORDSALL_projet~12_éducatif~13 132
999 COSIND_0.41 132
999 COSGEN_0.41 132
114 ESRank14 132
203 ESBackSacRefixation 132
999 WORDS_débat~16 198
999 WORDFREQ_9.46 198
999 WORDSALL_Dans~14_débat~16 198
999 COSIND_0.10 198
999 COSGEN_0.10 198
115 ESRank15 198
202 ESForwSacLong+3+9 198
999 WORDS_débat~16 170
999 WORDFREQ_9.46 170
999 WORDSALL_ce~15_débat~16 170
999 COSIND_0.10 170
999 COSGEN_0.10 170
116 ESRank16 170
203 ESBackSacRefixation 170
999 WORDS_dehors~19 189
999 WORDFREQ_109.05 189
999 WORDSALL_en~18_dehors~19 189
999 COSIND_-0.06 189
999 COSGEN_-0.06 189
117 ESRank17 189
202 ESForwSacLong+3+16 189
999 WORDS_enseignants~24 132
999 WORDFREQ_0.81 132
999 WORDSALL_les~23_enseignants~24 132
999 COSIND_0.52 132
999 COSGEN_0.52 132
118 ESRank18 132
202 ESForwSacLong+5+34 132
999 WORDS_orientations~28 139
999 WORDFREQ_0.27 139
999 WORDSALL_orientations~28 139
999 COSIND_0.21 139
999 COSGEN_0.21 139
119 ESRank19 139
202 ESForwSacLong+4+19 139
999 WORDS_fondamentales~29 179
999 WORDFREQ_1.28 179
999 WORDSALL_fondamentales~29 179
999 COSIND_0.06 179
999 COSGEN_0.06 179
120 ESRank20 179
201 ESForwSacShort 179
999 WORDS_fondamentales~29 190
999 WORDFREQ_1.28 190
999 WORDSALL_fondamentales~29 190
999 COSIND_0.06 190
999 COSGEN_0.06 190
203 ESBackSacRefixation 190
999 WORDS_orientations~28 239
999 WORDFREQ_0.27 239
999 WORDSALL_orientations~28 239
999 COSIND_0.21 239
999 COSGEN_0.21 239
205 ESBackSacRegrShort 239
999 WORDS_orientations~28 263
999 WORDFREQ_0.27 263
999 WORDSALL_aux~27_orientations~28 263
999 COSIND_0.21 263
999 COSGEN_0.21 263
203 ESBackSacRefixation 263
200 ESRankN 263
199 ESRankNMinus1 239
198 ESRankNMinus2 190
197 ESRankNMinus3 179
196 ESRankNMinus4 139
195 ESRankNMinus5 132
194 ESRankNMinus6 189
193 ESRankNMinus7 170
192 ESRankNMinus8 198
191 ESRankNMinus9 132
190 ESRankNMinus10 257
