999 WORDS_a~1 163
999 WORDFREQ_2926.69 163
999 WORDSALL_Il~0_a~1 163
999 COSIND_N/A 163
101 ESRank1 163
999 WORDS_forme~4 157
999 WORDFREQ_137.91 157
999 WORDSALL_inventé~2_forme~4 157
999 COSIND_-0.01 157
999 COSGEN_-0.01 157
102 ESRank2 157
202 ESForwSacLong+3+14 157
999 WORDS_tennis~6 242
999 WORDFREQ_13.24 242
999 WORDSALL_de~5_tennis~6 242
999 COSIND_0.46 242
999 COSGEN_0.46 242
103 ESRank3 242
202 ESForwSacLong+2+4 242
999 WORDS_forme~4 163
999 WORDFREQ_137.91 163
999 WORDSALL_une~3_forme~4 163
999 COSIND_-0.01 163
999 COSGEN_-0.01 163
104 ESRank4 163
206 ESBackSacRegrLong-2-4 163
999 WORDS_parfaitement~10 181
999 WORDFREQ_71.08 181
999 WORDSALL_parfaitement~10 181
999 COSIND_0.00 181
999 COSGEN_0.00 181
105 ESRank5 181
202 ESForwSacLong+6+28 181
999 WORDS_façon~18 208
999 WORDFREQ_259.26 208
999 WORDSALL_cette~17_façon~18 208
999 COSIND_0.00 208
999 COSGEN_0.00 208
106 ESRank6 208
202 ESForwSacLong+8+42 208
200 ESRankN 208
199 ESRankNMinus1 181
198 ESRankNMinus2 163
197 ESRankNMinus3 242
196 ESRankNMinus4 157
195 ESRankNMinus5 163
