999 WORDS_Proche-orient~0 297
999 WORDFREQ_N/A 297
999 WORDSALL_Proche-orient~0 297
999 COSIND_N/A 297
101 ESRank1 297
999 WORDS_Proche-orient~0 295
999 WORDFREQ_N/A 295
999 WORDSALL_Proche-orient~0 295
999 COSIND_N/A 295
102 ESRank2 295
203 ESBackSacRefixation 295
999 WORDS_chef~2 196
999 WORDFREQ_172.57 196
999 WORDSALL_le~1_chef~2 196
999 COSIND_0.02 196
999 COSGEN_0.02 196
103 ESRank3 196
202 ESForwSacLong+2+4 196
999 WORDS_chef~2 161
999 WORDFREQ_172.57 161
999 WORDSALL_le~1_chef~2 161
999 COSIND_0.02 161
999 COSGEN_0.02 161
104 ESRank4 161
203 ESBackSacRefixation 161
999 WORDS_gouvernement~4 287
999 WORDFREQ_119.73 287
999 WORDSALL_du~3_gouvernement~4 287
999 COSIND_-0.00 287
999 COSGEN_-0.00 287
105 ESRank5 287
202 ESForwSacLong+2+4 287
999 WORDS_a~5 107
999 WORDFREQ_2926.69 107
999 WORDSALL_gouvernement~4_a~5 107
999 COSIND_N/A 107
106 ESRank6 107
201 ESForwSacShort 107
999 WORDS_Proche-orient~0 193
999 WORDFREQ_N/A 193
999 WORDSALL_Proche-orient~0 193
999 COSIND_N/A 193
107 ESRank7 193
206 ESBackSacRegrLong-5-25 193
999 WORDS_promis~6 132
999 WORDFREQ_42.43 132
999 WORDSALL_promis~6 132
999 COSIND_0.01 132
999 COSGEN_0.01 132
108 ESRank8 132
202 ESForwSacLong+6+27 132
999 WORDS_retirer~8 241
999 WORDFREQ_21.96 241
999 WORDSALL_de~7_retirer~8 241
999 COSIND_-0.07 241
999 COSGEN_-0.07 241
109 ESRank9 241
202 ESForwSacLong+2+4 241
999 WORDS_retirer~8 232
999 WORDFREQ_21.96 232
999 WORDSALL_retirer~8 232
999 COSIND_-0.07 232
999 COSGEN_-0.07 232
110 ESRank10 232
203 ESBackSacRefixation 232
999 WORDS_l'armée~9 260
999 WORDFREQ_114.46 260
999 WORDSALL_l'armée~9 260
999 COSIND_-0.04 260
999 COSGEN_-0.04 260
111 ESRank11 260
201 ESForwSacShort 260
999 WORDS_israélienne~10 264
999 WORDFREQ_0.07 264
999 WORDSALL_israélienne~10 264
999 COSIND_0.11 264
999 COSGEN_0.11 264
112 ESRank12 264
201 ESForwSacShort 264
999 WORDS_israélienne~10 167
999 WORDFREQ_0.07 167
999 WORDSALL_l'armée~9_israélienne~10 167
999 COSIND_0.11 167
999 COSGEN_0.11 167
113 ESRank13 167
203 ESBackSacRefixation 167
999 WORDS_Liban~12 178
999 WORDFREQ_N/A 178
999 WORDSALL_Liban~12 178
999 COSIND_N/A 178
114 ESRank14 178
202 ESForwSacLong+2+4 178
200 ESRankN 178
199 ESRankNMinus1 167
198 ESRankNMinus2 264
197 ESRankNMinus3 260
196 ESRankNMinus4 232
195 ESRankNMinus5 241
194 ESRankNMinus6 132
193 ESRankNMinus7 193
192 ESRankNMinus8 107
191 ESRankNMinus9 287
190 ESRankNMinus10 161
