999 WORDS_Odense~1 123
999 WORDFREQ_N/A 123
999 WORDSALL_A~0_Odense~1 123
999 COSIND_N/A 123
101 ESRank1 123
999 WORDS_Danemark~3 195
999 WORDFREQ_N/A 195
999 WORDSALL_au~2_Danemark~3 195
999 COSIND_N/A 195
102 ESRank2 195
202 ESForwSacLong+2+4 195
999 WORDS_Danemark~3 122
999 WORDFREQ_N/A 122
999 WORDSALL_au~2_Danemark~3 122
999 COSIND_N/A 122
103 ESRank3 122
203 ESBackSacRefixation 122
999 WORDS_policier~5 192
999 WORDFREQ_10 192
999 WORDSALL_chaque~4_policier~5 192
999 COSIND_0.48 192
999 COSGEN_0.48 192
104 ESRank4 192
202 ESForwSacLong+2+8 192
999 WORDS_policier~5 157
999 WORDFREQ_10 157
999 WORDSALL_chaque~4_policier~5 157
999 COSIND_0.48 157
999 COSGEN_0.48 157
105 ESRank5 157
203 ESBackSacRefixation 157
999 WORDS_policier~5 94
999 WORDFREQ_10 94
999 WORDSALL_policier~5 94
999 COSIND_0.48 94
999 COSGEN_0.48 94
106 ESRank6 94
203 ESBackSacRefixation 94
999 WORDS_rester~7 208
999 WORDFREQ_123.78 208
999 WORDSALL_rester~7 208
999 COSIND_-0.03 208
999 COSGEN_-0.03 208
107 ESRank7 208
202 ESForwSacLong+2+6 208
999 WORDS_an~11 170
999 WORDFREQ_76.76 170
999 WORDSALL_au~8_an~11 170
999 COSIND_0.07 170
999 COSGEN_0.07 170
108 ESRank8 170
202 ESForwSacLong+4+13 170
999 WORDS_an~11 206
999 WORDFREQ_76.76 206
999 WORDSALL_un~10_an~11 206
999 COSIND_0.07 206
999 COSGEN_0.07 206
109 ESRank9 206
203 ESBackSacRefixation 206
999 WORDS_quartier~14 246
999 WORDFREQ_89.86 246
999 WORDSALL_dans~12_quartier~14 246
999 COSIND_0.47 246
999 COSGEN_0.47 246
110 ESRank10 246
202 ESForwSacLong+3+9 246
999 WORDS_populaire~15 233
999 WORDFREQ_23.45 233
999 WORDSALL_populaire~15 233
999 COSIND_0.10 233
999 COSGEN_0.10 233
111 ESRank11 233
201 ESForwSacShort 233
999 WORDS_ville~18 273
999 WORDFREQ_311.69 273
999 WORDSALL_de~16_ville~18 273
999 COSIND_0.08 273
999 COSGEN_0.08 273
112 ESRank12 273
202 ESForwSacLong+3+7 273
999 WORDS_passe~20 112
999 WORDFREQ_185.61 112
999 WORDSALL_Il~19_passe~20 112
999 COSIND_-0.00 112
999 COSGEN_-0.00 112
113 ESRank13 112
202 ESForwSacLong+2+4 112
999 WORDS_quartier~14 160
999 WORDFREQ_89.86 160
999 WORDSALL_dans~12_quartier~14 160
999 COSIND_0.47 160
999 COSGEN_0.47 160
114 ESRank14 160
206 ESBackSacRegrLong-6-26 160
999 WORDS_an~11 167
999 WORDFREQ_76.76 167
999 WORDSALL_un~10_an~11 167
999 COSIND_0.07 167
999 COSGEN_0.07 167
115 ESRank15 167
206 ESBackSacRegrLong-3-9 167
999 WORDS_passe~20 174
999 WORDFREQ_185.61 174
999 WORDSALL_Il~19_passe~20 174
999 COSIND_-0.00 174
999 COSGEN_-0.00 174
116 ESRank16 174
202 ESForwSacLong+9+43 174
999 WORDS_tiers~22 149
999 WORDFREQ_2.43 149
999 WORDSALL_passe~20_tiers~22 149
999 COSIND_0.01 149
999 COSGEN_0.01 149
117 ESRank17 149
202 ESForwSacLong+2+4 149
999 WORDS_temps~25 202
999 WORDFREQ_1289.39 202
999 WORDSALL_son~24_temps~25 202
999 COSIND_0.03 202
999 COSGEN_0.03 202
118 ESRank18 202
202 ESForwSacLong+3+8 202
999 WORDS_patrouiller~27 189
999 WORDFREQ_0.41 189
999 WORDSALL_à~26_patrouiller~27 189
999 COSIND_0.24 189
999 COSGEN_0.24 189
119 ESRank19 189
202 ESForwSacLong+2+4 189
200 ESRankN 189
199 ESRankNMinus1 202
198 ESRankNMinus2 149
197 ESRankNMinus3 174
196 ESRankNMinus4 167
195 ESRankNMinus5 160
194 ESRankNMinus6 112
193 ESRankNMinus7 273
192 ESRankNMinus8 233
191 ESRankNMinus9 246
190 ESRankNMinus10 206
