# 179 Fixation 1 (291,296.1): Un~0 groupe~1
# 247 Fixation 2 (424.4,290.6): d'ingénieurs~2
# 310 Fixation 3 (561.5,298): météorologistes~3
# 205 Fixation 4 (432.6,352.9): prix~7 Nobel~8
# 172 Fixation 5 (319.4,356.3): obtenu~5
# 349 Fixation 6 (277.6,361.3): obtenu~5
# 157 Fixation 7 (304.8,427.7): relatifs~12
# 211 Fixation 8 (448.6,421.2): la~14 prévision~15
# 150 Fixation 9 (595.3,421.2): des~16 évènements~17
# 234 Fixation 10 (293.6,486.2): climatiques~18
# 197 Fixation 11 (482.1,483.3): long~20 terme~21
# 179 Fixation 12 (603.1,486.7): et~22 effets~24
# 133 Fixation 13 (637.3,482.9): et~22 effets~24
# 245 Fixation 14 (370.6,529.4): pollution~27
%%
# Un~0 Fixations= "1/"
# groupe~1 Fixations= "1/"
# d'ingénieurs~2 Fixations= "2/"
# météorologistes~3 Fixations= "3/"
# a~4 Fixations= ""
# obtenu~5 Fixations= "6/"
# le~6 Fixations= ""
# prix~7 Fixations= "4/"
# Nobel~8 Fixations= "4/"
# pour~9 Fixations= ""
# ses~10 Fixations= ""
# travaux~11 Fixations= ""
# relatifs~12 Fixations= "7/"
# à~13 Fixations= ""
# la~14 Fixations= "8/"
# prévision~15 Fixations= "8/"
# des~16 Fixations= "9/"
# évènements~17 Fixations= "9/"
# climatiques~18 Fixations= "10/"
# à~19 Fixations= ""
# long~20 Fixations= "11/"
# terme~21 Fixations= "11/"
# et~22 Fixations= "13/"
# aux~23 Fixations= ""
# effets~24 Fixations= "13/"
# de~25 Fixations= ""
# la~26 Fixations= ""
# pollution~27 Fixations= "14/"
# de~28 Fixations= ""
# l'atmosphère~29 Fixations= ""
%%
#  UN[1] GROUPE[1] D'INGéNIEURS[2] MéTéOROLOGISTES[3] a OBTENU[6] le PRIX[4] NOBEL[4] pour ses travaux RELATIFS[7] à LA[8] PRéVISION[8] DES[9] éVèNEMENTS[9] CLIMATIQUES[10] à LONG[11] TERME[11] ET[13] aux EFFETS[13] de la POLLUTION[14] de l'atmosphère
# s18 rechauffement_climatique-m2 PercentageOfWordsProcessed= 0.6 PercentageOfWordsReallyProcessed= 0.642857142857143
