# 109 Fixation 1 (257.3,300): Une~0 équipe~1
# 175 Fixation 2 (298.4,300.4): Une~0 équipe~1
# 194 Fixation 3 (429.2,297.6): d'un~2 laboratoire~3
# 237 Fixation 4 (479.2,293.5): d'un~2 laboratoire~3
# 322 Fixation 5 (631.7,287.4): japonais~4
# 185 Fixation 6 (738.9,289.6): japonais~4 a~5 mis~6
# 198 Fixation 7 (279.1,366.8): au~7 point~8
# 120 Fixation 8 (304.7,356.2): au~7 point~8
# 228 Fixation 9 (411,349.9): un~9 logiciel~10
# 93 Fixation 10 (463.7,349.6): logiciel~10
# 267 Fixation 11 (585.9,354.5): de~11 traitement~12
# 214 Fixation 12 (722.6,355.7): d'images~13
# 210 Fixation 13 (303.1,408.3): capable~14
# 173 Fixation 14 (290.2,412.4): capable~14
# 251 Fixation 15 (420.2,420.5): de~15 deviner~16
# 265 Fixation 16 (556.5,419.4): la~17 présence~18
# 427 Fixation 17 (684.2,415.7): de~19 mines~20
# 125 Fixation 18 (753.7,418.4): mines~20 à~21
# 232 Fixation 19 (302.1,481.8): partir~22
# 374 Fixation 20 (274,483.7): partir~22
# 351 Fixation 21 (401.8,477.6): de~23 photographies~24
# 102 Fixation 22 (494.6,466.1): photographies~24
# 105 Fixation 23 (635.1,469.9): aériennes~25
# 167 Fixation 24 (728.6,411.9): mines~20
# 165 Fixation 25 (676.1,415.5): de~19 mines~20
%%
# Une~0 Fixations= "2/"
# équipe~1 Fixations= "2/"
# d'un~2 Fixations= "4/"
# laboratoire~3 Fixations= "4/"
# japonais~4 Fixations= "6/"
# a~5 Fixations= "6/"
# mis~6 Fixations= "6/"
# au~7 Fixations= "8/"
# point~8 Fixations= "8/"
# un~9 Fixations= "9/"
# logiciel~10 Fixations= "10/"
# de~11 Fixations= "11/"
# traitement~12 Fixations= "11/"
# d'images~13 Fixations= "12/"
# capable~14 Fixations= "14/"
# de~15 Fixations= "15/"
# deviner~16 Fixations= "15/"
# la~17 Fixations= "16/"
# présence~18 Fixations= "16/"
# de~19 Fixations= "25/"
# mines~20 Fixations= "25/"
# à~21 Fixations= "18/"
# partir~22 Fixations= "20/"
# de~23 Fixations= "21/"
# photographies~24 Fixations= "22/"
# aériennes~25 Fixations= "23/"
# et~26 Fixations= ""
# d'un~27 Fixations= ""
# dispositif~28 Fixations= ""
# de~29 Fixations= ""
# filtrage~30 Fixations= ""
%%
#  UNE[2] éQUIPE[2] D'UN[4] LABORATOIRE[4] JAPONAIS[6] A[6] MIS[6] AU[8] POINT[8] UN[9] LOGICIEL[10] DE[11] TRAITEMENT[11] D'IMAGES[12] CAPABLE[14] DE[15] DEVINER[15] LA[16] PRéSENCE[16] DE[25] MINES[25] à[18] PARTIR[20] DE[21] PHOTOGRAPHIES[22] AéRIENNES[23] et d'un dispositif de filtrage
# s13 observation_planetes-m2 PercentageOfWordsProcessed= 0.838709677419355 PercentageOfWordsReallyProcessed= 1
