999 WORDS_décret~1 145
999 WORDFREQ_6.42 145
999 WORDSALL_Un~0_décret~1 145
999 COSIND_0.08 145
999 COSGEN_0.08 145
101 ESRank1 145
999 WORDS_été~3 161
999 WORDFREQ_40.2 161
999 WORDSALL_a~2_été~3 161
999 COSIND_0.02 161
999 COSGEN_0.02 161
102 ESRank2 161
202 ESForwSacLong+2+3 161
999 WORDS_émis~4 119
999 WORDFREQ_2.3 119
999 WORDSALL_été~3_émis~4 119
999 COSIND_0.11 119
999 COSGEN_0.11 119
103 ESRank3 119
201 ESForwSacShort 119
999 WORDS_modifie~6 168
999 WORDFREQ_1.76 168
999 WORDSALL_qui~5_modifie~6 168
999 COSIND_-0.06 168
999 COSGEN_-0.06 168
104 ESRank4 168
202 ESForwSacLong+2+5 168
999 WORDS_code~8 138
999 WORDFREQ_13.58 138
999 WORDSALL_le~7_code~8 138
999 COSIND_0.02 138
999 COSGEN_0.02 138
105 ESRank5 138
202 ESForwSacLong+2+4 138
999 WORDS_construction~11 102
999 WORDFREQ_18.24 102
999 WORDSALL_construction~11 102
999 COSIND_0.46 102
999 COSGEN_0.46 102
106 ESRank6 102
202 ESForwSacLong+3+7 102
999 WORDS_construction~11 134
999 WORDFREQ_18.24 134
999 WORDSALL_la~10_construction~11 134
999 COSIND_0.46 134
999 COSGEN_0.46 134
107 ESRank7 134
203 ESBackSacRefixation 134
999 WORDS_l'habitation~14 143
999 WORDFREQ_3.58 143
999 WORDSALL_et~12_l'habitation~14 143
999 COSIND_0.46 143
999 COSGEN_0.46 143
108 ESRank8 143
202 ESForwSacLong+3+7 143
999 WORDS_l'habitation~14 178
999 WORDFREQ_3.58 178
999 WORDSALL_l'habitation~14 178
999 COSIND_0.46 178
999 COSGEN_0.46 178
109 ESRank9 178
203 ESBackSacRefixation 178
999 WORDS_Il~15 136
999 WORDFREQ_15832.09 136
999 WORDSALL_Il~15 136
999 COSIND_N/A 136
110 ESRank10 136
201 ESForwSacShort 136
999 WORDS_construction~11 202
999 WORDFREQ_18.24 202
999 WORDSALL_construction~11 202
999 COSIND_0.46 202
999 COSGEN_0.46 202
111 ESRank11 202
206 ESBackSacRegrLong-4-20 202
999 WORDS_subventions~19 182
999 WORDFREQ_0.34 182
999 WORDSALL_subventions~19 182
999 COSIND_0.24 182
999 COSGEN_0.24 182
112 ESRank12 182
202 ESForwSacLong+8+39 182
999 WORDS_prêts~21 232
999 WORDFREQ_1.55 232
999 WORDSALL_et~20_prêts~21 232
999 COSIND_0.18 232
999 COSGEN_0.18 232
113 ESRank13 232
202 ESForwSacLong+2+4 232
999 WORDS_relatif~17 205
999 WORDFREQ_3.78 205
999 WORDSALL_relatif~17 205
999 COSIND_-0.01 205
999 COSGEN_-0.01 205
114 ESRank14 205
206 ESBackSacRegrLong-4-20 205
999 WORDS_subventions~19 205
999 WORDFREQ_0.34 205
999 WORDSALL_subventions~19 205
999 COSIND_0.24 205
999 COSGEN_0.24 205
115 ESRank15 205
202 ESForwSacLong+2+5 205
999 WORDS_l'acquisition~25 99
999 WORDFREQ_2.84 99
999 WORDSALL_l'acquisition~25 99
999 COSIND_0.08 99
999 COSGEN_0.08 99
116 ESRank16 99
202 ESForwSacLong+6+32 99
999 WORDS_construction~24 194
999 WORDFREQ_18.24 194
999 WORDSALL_construction~24 194
999 COSIND_0.46 194
999 COSGEN_0.46 194
117 ESRank17 194
205 ESBackSacRegrShort 194
999 WORDS_l'acquisition~25 200
999 WORDFREQ_2.84 200
999 WORDSALL_l'acquisition~25 200
999 COSIND_0.08 200
999 COSGEN_0.08 200
118 ESRank18 200
201 ESForwSacShort 200
999 WORDS_l'acquisition~25 135
999 WORDFREQ_2.84 135
999 WORDSALL_l'acquisition~25 135
999 COSIND_0.08 135
999 COSGEN_0.08 135
119 ESRank19 135
203 ESBackSacRefixation 135
999 WORDS_et~26 127
999 WORDFREQ_20879.73 127
999 WORDSALL_et~26 127
999 COSIND_N/A 127
120 ESRank20 127
201 ESForwSacShort 127
200 ESRankN 127
199 ESRankNMinus1 135
198 ESRankNMinus2 200
197 ESRankNMinus3 194
196 ESRankNMinus4 99
195 ESRankNMinus5 205
194 ESRankNMinus6 205
193 ESRankNMinus7 232
192 ESRankNMinus8 182
191 ESRankNMinus9 202
190 ESRankNMinus10 136
