999 WORDS_L'entraîneur~0 163
999 WORDFREQ_2.77 163
999 WORDSALL_L'entraîneur~0 163
999 COSIND_-0.01 163
999 COSGEN_-0.01 163
101 ESRank1 163
999 WORDS_dirige~1 241
999 WORDFREQ_12.77 241
999 WORDSALL_dirige~1 241
999 COSIND_0.04 241
999 COSGEN_0.04 241
102 ESRank2 241
201 ESForwSacShort 241
999 WORDS_l'équipe~2 181
999 WORDFREQ_26.28 181
999 WORDSALL_l'équipe~2 181
999 COSIND_0.05 181
999 COSGEN_0.05 181
103 ESRank3 181
201 ESForwSacShort 181
999 WORDS_féminine~3 210
999 WORDFREQ_13.38 210
999 WORDSALL_l'équipe~2_féminine~3 210
999 COSIND_-0.06 210
999 COSGEN_-0.06 210
104 ESRank4 210
201 ESForwSacShort 210
999 WORDS_cinq~5 179
999 WORDFREQ_220.61 179
999 WORDSALL_cinq~5 179
999 COSIND_0.03 179
999 COSGEN_0.03 179
105 ESRank5 179
202 ESForwSacLong+2+11 179
200 ESRankN 179
199 ESRankNMinus1 210
198 ESRankNMinus2 181
197 ESRankNMinus3 241
196 ESRankNMinus4 163
