# 189 Fixation 1 (307.6,275.8): Le~0 6e~1
# 210 Fixation 2 (283,286.9): Le~0 6e~1
# 422 Fixation 3 (487.2,258.3): de~3 Gérardmer~4
# 407 Fixation 4 (672.1,185.2):
# 319 Fixation 5 (326.4,348.1): genre~7 fantastique~8
# 116 Fixation 6 (271.4,357.4): genre~7
# 179 Fixation 7 (550.3,340.4): présente~9
# 135 Fixation 8 (518.2,357.1): présente~9
%%
# Le~0 Fixations= "2/"
# 6e~1 Fixations= "2/"
# festival~2 Fixations= ""
# de~3 Fixations= "3/"
# Gérardmer~4 Fixations= "3/"
# consacré~5 Fixations= ""
# au~6 Fixations= ""
# genre~7 Fixations= "6/"
# fantastique~8 Fixations= "5/"
# présente~9 Fixations= "8/"
# une~10 Fixations= ""
# quinzaine~11 Fixations= ""
# de~12 Fixations= ""
# longs~13 Fixations= ""
# métrages~14 Fixations= ""
# inédits~15 Fixations= ""
# En~16 Fixations= ""
# ouverture~17 Fixations= ""
# hors~18 Fixations= ""
# compétition~19 Fixations= ""
# Psycho~20 Fixations= ""
# de~21 Fixations= ""
# Gus~22 Fixations= ""
# van~23 Fixations= ""
# Sant~24 Fixations= ""
# revisite~25 Fixations= ""
# le~26 Fixations= ""
# classique~27 Fixations= ""
# d'Hitchcock~28 Fixations= ""
%%
#  LE[2] 6E[2] festival DE[3] GéRARDMER[3] consacré au GENRE[6] FANTASTIQUE[5] PRéSENTE[8] une quinzaine de longs métrages inédits En ouverture hors compétition Psycho de Gus van Sant revisite le classique d'Hitchcock
# s20 prix_litteraire-m2 PercentageOfWordsProcessed= 0.241379310344828 PercentageOfWordsReallyProcessed= 0.7
