999 WORDS_direction~1 150
999 WORDFREQ_103.04 150
999 WORDSALL_direction~1 150
999 COSIND_0.55 150
999 COSGEN_0.55 150
101 ESRank1 150
999 WORDS_l'entreprise~3 262
999 WORDFREQ_29.05 262
999 WORDSALL_l'entreprise~3 262
999 COSIND_-0.07 262
999 COSGEN_-0.07 262
102 ESRank2 262
202 ESForwSacLong+2+4 262
999 WORDS_confirme~4 120
999 WORDFREQ_3.92 120
999 WORDSALL_l'entreprise~3_confirme~4 120
999 COSIND_-0.03 120
999 COSGEN_-0.03 120
103 ESRank3 120
201 ESForwSacShort 120
999 WORDS_l'existence~5 238
999 WORDFREQ_93.85 238
999 WORDSALL_l'existence~5 238
999 COSIND_-0.04 238
999 COSGEN_-0.04 238
104 ESRank4 238
201 ESForwSacShort 238
999 WORDS_l'initiative~11 259
999 WORDFREQ_14.46 259
999 WORDSALL_l'initiative~11 259
999 COSIND_0.12 259
999 COSGEN_0.12 259
105 ESRank5 259
202 ESForwSacLong+6+36 259
999 WORDS_collaborateur~13 340
999 WORDFREQ_3.78 340
999 WORDSALL_d'un~12_collaborateur~13 340
999 COSIND_-0.02 340
999 COSGEN_-0.02 340
106 ESRank6 340
202 ESForwSacLong+2+6 340
999 WORDS_processus~16 231
999 WORDFREQ_5.47 231
999 WORDSALL_processus~16 231
999 COSIND_0.00 231
999 COSGEN_0.00 231
107 ESRank7 231
202 ESForwSacLong+3+12 231
999 WORDS_inadmissible~20 210
999 WORDFREQ_2.64 210
999 WORDSALL_inadmissible~20 210
999 COSIND_0.19 210
999 COSGEN_0.19 210
108 ESRank8 210
202 ESForwSacLong+4+20 210
999 WORDS_cautionne~23 165
999 WORDFREQ_0 165
999 WORDSALL_Elle~21_cautionne~23 165
999 COSIND_0.08 165
999 COSGEN_0.08 165
109 ESRank9 165
202 ESForwSacLong+3+9 165
999 WORDS_cautionne~23 209
999 WORDFREQ_0 209
999 WORDSALL_ne~22_cautionne~23 209
999 COSIND_0.08 209
999 COSGEN_0.08 209
110 ESRank10 209
203 ESBackSacRefixation 209
999 WORDS_action~27 155
999 WORDFREQ_72.91 155
999 WORDSALL_cette~26_action~27 155
999 COSIND_0.02 155
999 COSGEN_0.02 155
111 ESRank11 155
202 ESForwSacLong+4+22 155
999 WORDS_action~27 100
999 WORDFREQ_72.91 100
999 WORDSALL_pas~25_action~27 100
999 COSIND_0.02 100
999 COSGEN_0.02 100
112 ESRank12 100
203 ESBackSacRefixation 100
200 ESRankN 100
199 ESRankNMinus1 155
198 ESRankNMinus2 209
197 ESRankNMinus3 165
196 ESRankNMinus4 210
195 ESRankNMinus5 231
194 ESRankNMinus6 340
193 ESRankNMinus7 259
192 ESRankNMinus8 238
191 ESRankNMinus9 120
190 ESRankNMinus10 262
