999 WORDS_ministre~1 119
999 WORDFREQ_61.01 119
999 WORDSALL_Le~0_ministre~1 119
999 COSIND_0.02 119
999 COSGEN_0.02 119
101 ESRank1 119
999 WORDS_ministre~1 123
999 WORDFREQ_61.01 123
999 WORDSALL_ministre~1 123
999 COSIND_0.02 123
999 COSGEN_0.02 123
102 ESRank2 123
203 ESBackSacRefixation 123
999 WORDS_irakien~2 163
999 WORDFREQ_0.07 163
999 WORDSALL_irakien~2 163
999 COSIND_N/A 163
103 ESRank3 163
201 ESForwSacShort 163
999 WORDS_pétrole~4 166
999 WORDFREQ_14.73 166
999 WORDSALL_du~3_pétrole~4 166
999 COSIND_0.55 166
999 COSGEN_0.55 166
104 ESRank4 166
202 ESForwSacLong+2+4 166
999 WORDS_a~5 112
999 WORDFREQ_2926.69 112
999 WORDSALL_pétrole~4_a~5 112
999 COSIND_N/A 112
105 ESRank5 112
201 ESForwSacShort 112
999 WORDS_accusé~6 189
999 WORDFREQ_5.2 189
999 WORDSALL_a~5_accusé~6 189
999 COSIND_0.04 189
999 COSGEN_0.04 189
106 ESRank6 189
201 ESForwSacShort 189
999 WORDS_production~23 138
999 WORDFREQ_12.3 138
999 WORDSALL_production~23 138
999 COSIND_0.19 138
999 COSGEN_0.19 138
107 ESRank7 138
202 ESForwSacLong+17+103 138
999 WORDS_a~17 129
999 WORDFREQ_2926.69 129
999 WORDSALL_Il~16_a~17 129
999 COSIND_N/A 129
108 ESRank8 129
206 ESBackSacRegrLong-6-32 129
999 WORDS_réclamé~18 96
999 WORDFREQ_2.64 96
999 WORDSALL_réclamé~18 96
999 COSIND_-0.02 96
999 COSGEN_-0.02 96
109 ESRank9 96
201 ESForwSacShort 96
999 WORDS_réduction~20 148
999 WORDFREQ_2.91 148
999 WORDSALL_réduction~20 148
999 COSIND_0.10 148
999 COSGEN_0.10 148
110 ESRank10 148
202 ESForwSacLong+2+5 148
999 WORDS_production~23 174
999 WORDFREQ_12.3 174
999 WORDSALL_la~22_production~23 174
999 COSIND_0.19 174
999 COSGEN_0.19 174
111 ESRank11 174
202 ESForwSacLong+3+7 174
999 WORDS_saoudienne~24 191
999 WORDFREQ_0 191
999 WORDSALL_saoudienne~24 191
999 COSIND_N/A 191
112 ESRank12 191
201 ESForwSacShort 191
999 WORDS_irakien~2 107
999 WORDFREQ_0.07 107
999 WORDSALL_irakien~2 107
999 COSIND_N/A 107
113 ESRank13 107
206 ESBackSacRegrLong-22-136 107
999 WORDS_remontent~29 130
999 WORDFREQ_5.61 130
999 WORDSALL_prix~28_remontent~29 130
999 COSIND_0.09 130
999 COSGEN_0.09 130
114 ESRank14 130
202 ESForwSacLong+27+165 130
200 ESRankN 130
199 ESRankNMinus1 107
198 ESRankNMinus2 191
197 ESRankNMinus3 174
196 ESRankNMinus4 148
195 ESRankNMinus5 96
194 ESRankNMinus6 129
193 ESRankNMinus7 138
192 ESRankNMinus8 189
191 ESRankNMinus9 112
190 ESRankNMinus10 166
