999 WORDS_filiale~1 137
999 WORDFREQ_0.54 137
999 WORDSALL_La~0_filiale~1 137
999 COSIND_0.07 137
999 COSGEN_0.07 137
101 ESRank1 137
999 WORDS_déchets~2 142
999 WORDFREQ_4.46 142
999 WORDSALL_filiale~1_déchets~2 142
999 COSIND_0.92 142
999 COSGEN_0.92 142
102 ESRank2 142
201 ESForwSacShort 142
999 WORDS_déchets~2 120
999 WORDFREQ_4.46 120
999 WORDSALL_déchets~2 120
999 COSIND_0.92 120
999 COSGEN_0.92 120
103 ESRank3 120
203 ESBackSacRefixation 120
999 WORDS_Suez~4 196
999 WORDFREQ_0.07 196
999 WORDSALL_de~3_Suez~4 196
999 COSIND_0.14 196
999 COSGEN_0.14 196
104 ESRank4 196
202 ESForwSacLong+2+4 196
999 WORDS_filiale~1 149
999 WORDFREQ_0.54 149
999 WORDSALL_filiale~1 149
999 COSIND_0.07 149
999 COSGEN_0.07 149
105 ESRank5 149
206 ESBackSacRegrLong-3-13 149
999 WORDS_filiale~1 176
999 WORDFREQ_0.54 176
999 WORDSALL_La~0_filiale~1 176
999 COSIND_0.07 176
999 COSGEN_0.07 176
106 ESRank6 176
203 ESBackSacRefixation 176
999 WORDS_déchets~2 193
999 WORDFREQ_4.46 193
999 WORDSALL_déchets~2 193
999 COSIND_0.92 193
999 COSGEN_0.92 193
107 ESRank7 193
201 ESForwSacShort 193
999 WORDS_Suez~4 175
999 WORDFREQ_0.07 175
999 WORDSALL_de~3_Suez~4 175
999 COSIND_0.14 175
999 COSGEN_0.14 175
108 ESRank8 175
202 ESForwSacLong+2+4 175
999 WORDS_Lyonnaise~5 160
999 WORDFREQ_0.2 160
999 WORDSALL_Suez~4_Lyonnaise~5 160
999 COSIND_0.10 160
999 COSGEN_0.10 160
109 ESRank9 160
201 ESForwSacShort 160
999 WORDS_Lyonnaise~5 126
999 WORDFREQ_0.2 126
999 WORDSALL_Lyonnaise~5 126
999 COSIND_0.10 126
999 COSGEN_0.10 126
110 ESRank10 126
203 ESBackSacRefixation 126
999 WORDS_a~8 284
999 WORDFREQ_2926.69 284
999 WORDSALL_eaux~7_a~8 284
999 COSIND_N/A 284
111 ESRank11 284
202 ESForwSacLong+3+10 284
999 WORDS_garde~11 166
999 WORDFREQ_89.86 166
999 WORDSALL_en~10_garde~11 166
999 COSIND_-0.02 166
999 COSGEN_-0.02 166
112 ESRank12 166
202 ESForwSacLong+3+8 166
999 WORDS_mercredi~12 120
999 WORDFREQ_11.82 120
999 WORDSALL_garde~11_mercredi~12 120
999 COSIND_0.02 120
999 COSGEN_0.02 120
113 ESRank13 120
201 ESForwSacShort 120
999 WORDS_janvier~14 196
999 WORDFREQ_30.61 196
999 WORDSALL_27~13_janvier~14 196
999 COSIND_0.12 196
999 COSGEN_0.12 196
114 ESRank14 196
202 ESForwSacLong+2+4 196
999 WORDS_mis~9 102
999 WORDFREQ_245.68 102
999 WORDSALL_a~8_mis~9 102
999 COSIND_0.03 102
999 COSGEN_0.03 102
115 ESRank15 102
206 ESBackSacRegrLong-5-22 102
999 WORDS_a~8 152
999 WORDFREQ_2926.69 152
999 WORDSALL_eaux~7_a~8 152
999 COSIND_N/A 152
116 ESRank16 152
205 ESBackSacRegrShort 152
999 WORDS_possible~18 190
999 WORDFREQ_197.16 190
999 WORDSALL_possible~18 190
999 COSIND_0.02 190
999 COSGEN_0.02 190
117 ESRank17 190
202 ESForwSacLong+10+53 190
999 WORDS_baisse~19 175
999 WORDFREQ_3.38 175
999 WORDSALL_baisse~19 175
999 COSIND_-0.04 175
999 COSGEN_-0.04 175
118 ESRank18 175
201 ESForwSacShort 175
999 WORDS_baisse~19 133
999 WORDFREQ_3.38 133
999 WORDSALL_baisse~19 133
999 COSIND_-0.04 133
999 COSGEN_-0.04 133
119 ESRank19 133
203 ESBackSacRefixation 133
999 WORDS_marchés~16 223
999 WORDFREQ_5.07 223
999 WORDSALL_marchés~16 223
999 COSIND_-0.04 223
999 COSGEN_-0.04 223
120 ESRank20 223
206 ESBackSacRegrLong-3-16 223
999 WORDS_possible~18 196
999 WORDFREQ_197.16 196
999 WORDSALL_d'une~17_possible~18 196
999 COSIND_0.02 196
999 COSGEN_0.02 196
202 ESForwSacLong+2+7 196
999 WORDS_modification~27 148
999 WORDFREQ_1.96 148
999 WORDSALL_d'une~26_modification~27 148
999 COSIND_-0.03 148
999 COSGEN_-0.03 148
202 ESForwSacLong+9+44 148
999 WORDS_modification~27 125
999 WORDFREQ_1.96 125
999 WORDSALL_modification~27 125
999 COSIND_-0.03 125
999 COSGEN_-0.03 125
203 ESBackSacRefixation 125
999 WORDS_modification~27 106
999 WORDFREQ_1.96 106
999 WORDSALL_modification~27 106
999 COSIND_-0.03 106
999 COSGEN_-0.03 106
203 ESBackSacRefixation 106
999 WORDS_à~23 256
999 WORDFREQ_19209.05 256
999 WORDSALL_résultats~22_à~23 256
999 COSIND_N/A 256
206 ESBackSacRegrLong-4-16 256
999 WORDS_modification~27 170
999 WORDFREQ_1.96 170
999 WORDSALL_d'une~26_modification~27 170
999 COSIND_-0.03 170
999 COSGEN_-0.03 170
202 ESForwSacLong+4+16 170
999 WORDS_modification~27 190
999 WORDFREQ_1.96 190
999 WORDSALL_modification~27 190
999 COSIND_-0.03 190
999 COSGEN_-0.03 190
203 ESBackSacRefixation 190
999 WORDS_modification~27 143
999 WORDFREQ_1.96 143
999 WORDSALL_d'une~26_modification~27 143
999 COSIND_-0.03 143
999 COSGEN_-0.03 143
203 ESBackSacRefixation 143
999 WORDS_filiale~1 161
999 WORDFREQ_0.54 161
999 WORDSALL_filiale~1 161
999 COSIND_0.07 161
999 COSGEN_0.07 161
206 ESBackSacRegrLong-26-143 161
999 WORDS_filiale~1 146
999 WORDFREQ_0.54 146
999 WORDSALL_filiale~1 146
999 COSIND_0.07 146
999 COSGEN_0.07 146
203 ESBackSacRefixation 146
999 WORDS_déchets~2 276
999 WORDFREQ_4.46 276
999 WORDSALL_déchets~2 276
999 COSIND_0.92 276
999 COSGEN_0.92 276
201 ESForwSacShort 276
200 ESRankN 276
199 ESRankNMinus1 146
198 ESRankNMinus2 161
197 ESRankNMinus3 143
196 ESRankNMinus4 190
195 ESRankNMinus5 170
194 ESRankNMinus6 256
193 ESRankNMinus7 106
192 ESRankNMinus8 125
191 ESRankNMinus9 148
190 ESRankNMinus10 196
