# 321 Fixation 1 (296.2,300.3): Le~0 Yen~1
# 194 Fixation 2 (280.9,286.1): Le~0 Yen~1
# 286 Fixation 3 (353.3,282.6): Yen~1 faisait~2
# 227 Fixation 4 (341.3,287.1): Yen~1 faisait~2
# 269 Fixation 5 (458.4,276): faisait~2
# 218 Fixation 6 (567.3,273.7): toujours~3 preuve~4
# 317 Fixation 7 (663.7,286.5): preuve~4 fermeté~6
%%
# Le~0 Fixations= "2/"
# Yen~1 Fixations= "4/"
# faisait~2 Fixations= "5/"
# toujours~3 Fixations= "6/"
# preuve~4 Fixations= "7/"
# de~5 Fixations= ""
# fermeté~6 Fixations= "7/"
# face~7 Fixations= ""
# au~8 Fixations= ""
# billet~9 Fixations= ""
# vert~10 Fixations= ""
# De~11 Fixations= ""
# même~12 Fixations= ""
# l'Euro~13 Fixations= ""
# a~14 Fixations= ""
# encore~15 Fixations= ""
# gagné~16 Fixations= ""
# du~17 Fixations= ""
# terrain~18 Fixations= ""
# face~19 Fixations= ""
# au~20 Fixations= ""
# billet~21 Fixations= ""
# vert~22 Fixations= ""
# grâce~23 Fixations= ""
# aux~24 Fixations= ""
# perspectives~25 Fixations= ""
# encourageantes~26 Fixations= ""
# de~27 Fixations= ""
# reprise~28 Fixations= ""
# économique~29 Fixations= ""
%%
#  LE[2] YEN[4] FAISAIT[5] TOUJOURS[6] PREUVE[7] de FERMETé[7] face au billet vert De même l'Euro a encore gagné du terrain face au billet vert grâce aux perspectives encourageantes de reprise économique
# s14 faiblesse_dollar-f2 PercentageOfWordsProcessed= 0.2 PercentageOfWordsReallyProcessed= 0.857142857142857
