999 WORDS_moitié~1 103
999 WORDFREQ_76.96 103
999 WORDSALL_La~0_moitié~1 103
999 COSIND_0.12 103
999 COSGEN_0.12 103
101 ESRank1 103
999 WORDS_moitié~1 110
999 WORDFREQ_76.96 110
999 WORDSALL_moitié~1 110
999 COSIND_0.12 110
999 COSGEN_0.12 110
102 ESRank2 110
203 ESBackSacRefixation 110
999 WORDS_tout-petits~3 160
999 WORDFREQ_0.41 160
999 WORDSALL_des~2_tout-petits~3 160
999 COSIND_N/A 160
103 ESRank3 160
202 ESForwSacLong+2+5 160
999 WORDS_tout-petits~3 163
999 WORDFREQ_0.41 163
999 WORDSALL_tout-petits~3 163
999 COSIND_N/A 163
104 ESRank4 163
203 ESBackSacRefixation 163
999 WORDS_gardés~5 299
999 WORDFREQ_2.77 299
999 WORDSALL_sont~4_gardés~5 299
999 COSIND_0.10 299
999 COSGEN_0.10 299
105 ESRank5 299
202 ESForwSacLong+2+6 299
999 WORDS_foyer~7 163
999 WORDFREQ_25.81 163
999 WORDSALL_foyer~7 163
999 COSIND_0.40 163
999 COSGEN_0.40 163
106 ESRank6 163
202 ESForwSacLong+2+4 163
999 WORDS_foyer~7 226
999 WORDFREQ_25.81 226
999 WORDSALL_foyer~7 226
999 COSIND_0.40 226
999 COSGEN_0.40 226
107 ESRank7 226
203 ESBackSacRefixation 226
999 WORDS_parent~10 89
999 WORDFREQ_4.53 89
999 WORDSALL_par~8_parent~10 89
999 COSIND_0.31 89
999 COSGEN_0.31 89
108 ESRank8 89
202 ESForwSacLong+3+8 89
999 WORDS_maman~12 162
999 WORDFREQ_140.2 162
999 WORDSALL_la~11_maman~12 162
999 COSIND_0.13 162
999 COSGEN_0.13 162
109 ESRank9 162
202 ESForwSacLong+2+4 162
999 WORDS_maman~12 160
999 WORDFREQ_140.2 160
999 WORDSALL_la~11_maman~12 160
999 COSIND_0.13 160
999 COSGEN_0.13 160
110 ESRank10 160
203 ESBackSacRefixation 160
999 WORDS_quasi-totalité~15 187
999 WORDFREQ_0.88 187
999 WORDSALL_quasi-totalité~15 187
999 COSIND_N/A 187
111 ESRank11 187
202 ESForwSacLong+3+9 187
999 WORDS_quasi-totalité~15 166
999 WORDFREQ_0.88 166
999 WORDSALL_quasi-totalité~15 166
999 COSIND_N/A 166
112 ESRank12 166
203 ESBackSacRefixation 166
999 WORDS_cas~17 214
999 WORDFREQ_217.36 214
999 WORDSALL_des~16_cas~17 214
999 COSIND_0.08 214
999 COSGEN_0.08 214
113 ESRank13 214
202 ESForwSacLong+2+5 214
999 WORDS_cas~17 127
999 WORDFREQ_217.36 127
999 WORDSALL_des~16_cas~17 127
999 COSIND_0.08 127
999 COSGEN_0.08 127
114 ESRank14 127
203 ESBackSacRefixation 127
999 WORDS_Seuls~18 217
999 WORDFREQ_8.38 217
999 WORDSALL_Seuls~18 217
999 COSIND_0.02 217
999 COSGEN_0.02 217
115 ESRank15 217
201 ESForwSacShort 217
999 WORDS_ont~20 204
999 WORDFREQ_240.61 204
999 WORDSALL_8%~19_ont~20 204
999 COSIND_0.09 204
999 COSGEN_0.09 204
116 ESRank16 204
202 ESForwSacLong+2+4 204
999 WORDS_crèche~24 259
999 WORDFREQ_8.31 259
999 WORDSALL_une~23_crèche~24 259
999 COSIND_0.43 259
999 COSGEN_0.43 259
117 ESRank17 259
202 ESForwSacLong+4+15 259
999 WORDS_collective~25 149
999 WORDFREQ_7.91 149
999 WORDSALL_crèche~24_collective~25 149
999 COSIND_0.05 149
999 COSGEN_0.05 149
118 ESRank18 149
201 ESForwSacShort 149
999 WORDS_parentale~27 86
999 WORDFREQ_0.61 86
999 WORDSALL_collective~25_parentale~27 86
999 COSIND_0.44 86
999 COSGEN_0.44 86
119 ESRank19 86
202 ESForwSacLong+2+4 86
200 ESRankN 86
199 ESRankNMinus1 149
198 ESRankNMinus2 259
197 ESRankNMinus3 204
196 ESRankNMinus4 217
195 ESRankNMinus5 127
194 ESRankNMinus6 214
193 ESRankNMinus7 166
192 ESRankNMinus8 187
191 ESRankNMinus9 160
190 ESRankNMinus10 162
