999 WORDS_31~2 154
999 WORDFREQ_N/A 154
999 WORDSALL_Entre~0_31~2 154
999 COSIND_N/A 154
101 ESRank1 154
999 WORDS_à~4 134
999 WORDFREQ_19209.05 134
999 WORDSALL_décembre~3_à~4 134
999 COSIND_N/A 134
102 ESRank2 134
202 ESForwSacLong+2+11 134
999 WORDS_minuit~5 147
999 WORDFREQ_29.80 147
999 WORDSALL_minuit~5 147
999 COSIND_-0.04 147
999 COSGEN_-0.04 147
103 ESRank3 147
201 ESForwSacShort 147
999 WORDS_fin~9 144
999 WORDFREQ_303.31 144
999 WORDSALL_fin~9 144
999 COSIND_-0.03 144
999 COSGEN_-0.03 144
104 ESRank4 144
202 ESForwSacLong+4+16 144
999 WORDS_à~20 201
999 WORDFREQ_19209.05 201
999 WORDSALL_janvier~13_clubs~15_à~20 201
999 COSIND_N/A 201
105 ESRank5 201
202 ESForwSacLong+11+58 201
999 WORDS_football~17 227
999 WORDFREQ_6.28 227
999 WORDSALL_fin~9_mois~11_football~17 227
999 COSIND_-0.02 227
999 COSGEN_-0.02 227
106 ESRank6 227
206 ESBackSacRegrLong-3-17 227
200 ESRankN 227
199 ESRankNMinus1 201
198 ESRankNMinus2 144
197 ESRankNMinus3 147
196 ESRankNMinus4 134
195 ESRankNMinus5 154
