# 145 Fixation 1 (240.5,289.1): Le~0 ministre~1
# 174 Fixation 2 (284.7,287): Le~0 ministre~1
# 171 Fixation 3 (395,278.8): ministre~1 irakien~2
# 190 Fixation 4 (528.8,282.8): du~3 pétrole~4
# 123 Fixation 5 (569.1,288.9): du~3 pétrole~4
# 197 Fixation 6 (670.5,289.3): a~5 accusé~6
# 163 Fixation 7 (265.6,338.8): dimanche~7
# 185 Fixation 8 (406,352.6): l'Arabie~8
# 210 Fixation 9 (498.8,355.9): saoudite~9
# 146 Fixation 10 (592.1,364.4): saoudite~9 d'avoir~10
# 87 Fixation 11 (665.4,362.6): d'avoir~10
# 108 Fixation 12 (710.8,362.6): d'avoir~10 inondé~11
# 177 Fixation 13 (251,398.7): le~12 marché~13
# 137 Fixation 14 (312.1,399): le~12 marché~13
# 232 Fixation 15 (426.3,402.6): du~14 pétrole~15
# 139 Fixation 16 (560.3,405.6): Il~16 a~17
# 199 Fixation 17 (636.9,412.7): a~17 réclamé~18
# 127 Fixation 18 (281.1,464.6): réduction~20
# 111 Fixation 19 (245.8,468.6): réduction~20
# 370 Fixation 20 (448.4,462.6): de~21 production~23
%%
# Le~0 Fixations= "2/"
# ministre~1 Fixations= "3/"
# irakien~2 Fixations= "3/"
# du~3 Fixations= "5/"
# pétrole~4 Fixations= "5/"
# a~5 Fixations= "6/"
# accusé~6 Fixations= "6/"
# dimanche~7 Fixations= "7/"
# l'Arabie~8 Fixations= "8/"
# saoudite~9 Fixations= "10/"
# d'avoir~10 Fixations= "12/"
# inondé~11 Fixations= "12/"
# le~12 Fixations= "14/"
# marché~13 Fixations= "14/"
# du~14 Fixations= "15/"
# pétrole~15 Fixations= "15/"
# Il~16 Fixations= "16/"
# a~17 Fixations= "17/"
# réclamé~18 Fixations= "17/"
# une~19 Fixations= ""
# réduction~20 Fixations= "19/"
# de~21 Fixations= "20/"
# la~22 Fixations= ""
# production~23 Fixations= "20/"
# saoudienne~24 Fixations= ""
# pour~25 Fixations= ""
# que~26 Fixations= ""
# les~27 Fixations= ""
# prix~28 Fixations= ""
# remontent~29 Fixations= ""
%%
#  LE[2] MINISTRE[3] IRAKIEN[3] DU[5] PéTROLE[5] A[6] ACCUSé[6] DIMANCHE[7] L'ARABIE[8] SAOUDITE[10] D'AVOIR[12] INONDé[12] LE[14] MARCHé[14] DU[15] PéTROLE[15] IL[16] A[17] RéCLAMé[17] une RéDUCTION[19] DE[20] la PRODUCTION[20] saoudienne pour que les prix remontent
# s06 prix_petrole-f2 PercentageOfWordsProcessed= 0.733333333333333 PercentageOfWordsReallyProcessed= 0.916666666666667
