# 165 Fixation 1 (275.6,274.2): L'entraîneur~0
# 125 Fixation 2 (360.1,279): L'entraîneur~0
# 228 Fixation 3 (448.6,285.6): dirige~1
# 188 Fixation 4 (539.2,281.2): l'équipe~2
# 336 Fixation 5 (649,286.3): féminine~3
# 228 Fixation 6 (289.3,337.1): L'entraîneur~0
# 152 Fixation 7 (399.7,344.5): L'entraîneur~0 dirige~1 cinq~5
# 176 Fixation 8 (531.9,348.1): l'équipe~2 après~7
# 153 Fixation 9 (551.9,421.8): adjoint~15
# 228 Fixation 10 (456.2,460.7): comme~13 coach~14 habitudes~22
# 191 Fixation 11 (335.1,466.9): monde~12 petites~21
%%
# L'entraîneur~0 Fixations= "7/"
# dirige~1 Fixations= "7/"
# l'équipe~2 Fixations= "8/"
# féminine~3 Fixations= "5/"
# seulement~4 Fixations= ""
# cinq~5 Fixations= "7/"
# ans~6 Fixations= ""
# après~7 Fixations= "8/"
# avoir~8 Fixations= ""
# été~9 Fixations= ""
# champion~10 Fixations= ""
# du~11 Fixations= ""
# monde~12 Fixations= "11/"
# comme~13 Fixations= "10/"
# coach~14 Fixations= "10/"
# adjoint~15 Fixations= "9/"
# des~16 Fixations= ""
# hommes~17 Fixations= ""
# Il~18 Fixations= ""
# a~19 Fixations= ""
# ses~20 Fixations= ""
# petites~21 Fixations= "11/"
# habitudes~22 Fixations= "10/"
# Le~23 Fixations= ""
# rituel~24 Fixations= ""
# commence~25 Fixations= ""
# pendant~26 Fixations= ""
# l'hymne~27 Fixations= ""
# russe~28 Fixations= ""
%%
#  L'ENTRAîNEUR[7] DIRIGE[7] L'éQUIPE[8] FéMININE[5] seulement CINQ[7] ans APRèS[8] avoir été champion du MONDE[11] COMME[10] COACH[10] ADJOINT[9] des hommes Il a ses PETITES[11] HABITUDES[10] Le rituel commence pendant l'hymne russe
# s06 conflit_irak-a2 PercentageOfWordsProcessed= 0.413793103448276 PercentageOfWordsReallyProcessed= 0.521739130434783
