# 153 Fixation 1 (275.3,280.4): L'équipe~0
# 175 Fixation 2 (398.1,289.3): de~1 France~2
# 175 Fixation 3 (534.3,293.7): de~3 football~4
# 168 Fixation 4 (644.1,296.2): football~4 a~5
# 162 Fixation 5 (316.8,339): l'Australie~7
# 153 Fixation 6 (285,340.8): l'Australie~7
%%
# L'équipe~0 Fixations= "1/"
# de~1 Fixations= "2/"
# France~2 Fixations= "2/"
# de~3 Fixations= "3/"
# football~4 Fixations= "4/"
# a~5 Fixations= "4/"
# vaincu~6 Fixations= ""
# l'Australie~7 Fixations= "6/"
# en~8 Fixations= ""
# finale~9 Fixations= ""
# de~10 Fixations= ""
# la~11 Fixations= ""
# Coupe~12 Fixations= ""
# du~13 Fixations= ""
# Monde~14 Fixations= ""
# L'entraineur~15 Fixations= ""
# est~16 Fixations= ""
# très~17 Fixations= ""
# satisfait~18 Fixations= ""
# de~19 Fixations= ""
# son~20 Fixations= ""
# équipe~21 Fixations= ""
# et~22 Fixations= ""
# envisage~23 Fixations= ""
# les~24 Fixations= ""
# rencontres~25 Fixations= ""
# futures~26 Fixations= ""
# avec~27 Fixations= ""
# enthousiasme~28 Fixations= ""
# et~29 Fixations= ""
# sérénité~30 Fixations= ""
%%
#  L'éQUIPE[1] DE[2] FRANCE[2] DE[3] FOOTBALL[4] A[4] vaincu L'AUSTRALIE[6] en finale de la Coupe du Monde L'entraineur est très satisfait de son équipe et envisage les rencontres futures avec enthousiasme et sérénité
# s05 victoire_footballeurs-f2 PercentageOfWordsProcessed= 0.225806451612903 PercentageOfWordsReallyProcessed= 0.875
