# 165 Fixation 1 (270.2,275.8): Le~0 Yen~1
# 180 Fixation 2 (340.5,274.5): Yen~1 faisait~2
# 183 Fixation 3 (499.6,282.2): toujours~3 preuve~4
# 125 Fixation 4 (690.2,282.4): de~5 fermeté~6
# 203 Fixation 5 (383.1,323.6): au~8 billet~9
# 213 Fixation 6 (550.3,345.6): De~11 même~12
# 184 Fixation 7 (311.3,340.9): face~7
# 171 Fixation 8 (272.1,340): face~7
# 239 Fixation 9 (377.9,333.1): au~8 billet~9
# 107 Fixation 10 (615.4,349.6): même~12 l'Euro~13
# 88 Fixation 11 (674.4,354.9): l'Euro~13
# 196 Fixation 12 (333,399.1): encore~15 gagné~16
# 197 Fixation 13 (504.9,407.1): terrain~18
# 161 Fixation 14 (656,409): face~19 billet~21
# 168 Fixation 15 (413.3,473.1): aux~24 perspectives~25
# 179 Fixation 16 (663.4,474.7): encourageantes~26
# 186 Fixation 17 (320.5,519.9): reprise~28
%%
# Le~0 Fixations= "1/"
# Yen~1 Fixations= "2/"
# faisait~2 Fixations= "2/"
# toujours~3 Fixations= "3/"
# preuve~4 Fixations= "3/"
# de~5 Fixations= "4/"
# fermeté~6 Fixations= "4/"
# face~7 Fixations= "8/"
# au~8 Fixations= "9/"
# billet~9 Fixations= "9/"
# vert~10 Fixations= ""
# De~11 Fixations= "6/"
# même~12 Fixations= "10/"
# l'Euro~13 Fixations= "11/"
# a~14 Fixations= ""
# encore~15 Fixations= "12/"
# gagné~16 Fixations= "12/"
# du~17 Fixations= ""
# terrain~18 Fixations= "13/"
# face~19 Fixations= "14/"
# au~20 Fixations= ""
# billet~21 Fixations= "14/"
# vert~22 Fixations= ""
# grâce~23 Fixations= ""
# aux~24 Fixations= "15/"
# perspectives~25 Fixations= "15/"
# encourageantes~26 Fixations= "16/"
# de~27 Fixations= ""
# reprise~28 Fixations= "17/"
# économique~29 Fixations= ""
%%
#  LE[1] YEN[2] FAISAIT[2] TOUJOURS[3] PREUVE[3] DE[4] FERMETé[4] FACE[8] AU[9] BILLET[9] vert DE[6] MêME[10] L'EURO[11] a ENCORE[12] GAGNé[12] du TERRAIN[13] FACE[14] au BILLET[14] vert grâce AUX[15] PERSPECTIVES[15] ENCOURAGEANTES[16] de REPRISE[17] économique
# s17 faiblesse_dollar-f2 PercentageOfWordsProcessed= 0.733333333333333 PercentageOfWordsReallyProcessed= 0.758620689655172
