999 WORDS_L'espace~0 152
999 WORDFREQ_78.58 152
999 WORDSALL_L'espace~0 152
999 COSIND_0.33 152
999 COSGEN_0.33 152
101 ESRank1 152
999 WORDS_évoluent~3 157
999 WORDFREQ_0.81 157
999 WORDSALL_dans~1_évoluent~3 157
999 COSIND_0.04 157
999 COSGEN_0.04 157
102 ESRank2 157
202 ESForwSacLong+3+13 157
999 WORDS_évoluent~3 191
999 WORDFREQ_0.81 191
999 WORDSALL_évoluent~3 191
999 COSIND_0.04 191
999 COSGEN_0.04 191
103 ESRank3 191
203 ESBackSacRefixation 191
999 WORDS_satellites~5 163
999 WORDFREQ_1.15 163
999 WORDSALL_satellites~5 163
999 COSIND_0.59 163
999 COSGEN_0.59 163
104 ESRank4 163
202 ESForwSacLong+2+5 163
999 WORDS_autour~6 124
999 WORDFREQ_361.55 124
999 WORDSALL_autour~6 124
999 COSIND_0.09 124
999 COSGEN_0.09 124
105 ESRank5 124
201 ESForwSacShort 124
999 WORDS_planète~9 186
999 WORDFREQ_19.86 186
999 WORDSALL_notre~8_planète~9 186
999 COSIND_0.38 186
999 COSGEN_0.38 186
106 ESRank6 186
202 ESForwSacLong+3+10 186
999 WORDS_milliers~13 153
999 WORDFREQ_40.07 153
999 WORDSALL_milliers~13 153
999 COSIND_0.01 153
999 COSGEN_0.01 153
107 ESRank7 153
202 ESForwSacLong+4+16 153
999 WORDS_professionnels~22 114
999 WORDFREQ_3.24 114
999 WORDSALL_les~21_professionnels~22 114
999 COSIND_-0.01 114
999 COSGEN_-0.01 114
108 ESRank8 114
202 ESForwSacLong+9+49 114
999 WORDS_professionnels~22 120
999 WORDFREQ_3.24 120
999 WORDSALL_professionnels~22 120
999 COSIND_-0.01 120
999 COSGEN_-0.01 120
109 ESRank9 120
203 ESBackSacRefixation 120
999 WORDS_inquiètent~20 169
999 WORDFREQ_1.01 169
999 WORDSALL_inquiètent~20 169
999 COSIND_0.06 169
999 COSGEN_0.06 169
110 ESRank10 169
206 ESBackSacRegrLong-2-5 169
999 WORDS_sortes~18 162
999 WORDFREQ_33.78 162
999 WORDSALL_sortes~18 162
999 COSIND_0.01 162
999 COSGEN_0.01 162
111 ESRank11 162
206 ESBackSacRegrLong-2-5 162
999 WORDS_jonché~11 126
999 WORDFREQ_0.07 126
999 WORDSALL_jonché~11 126
999 COSIND_0.16 126
999 COSGEN_0.16 126
112 ESRank12 126
206 ESBackSacRegrLong-7-34 126
200 ESRankN 126
199 ESRankNMinus1 162
198 ESRankNMinus2 169
197 ESRankNMinus3 120
196 ESRankNMinus4 114
195 ESRankNMinus5 153
194 ESRankNMinus6 186
193 ESRankNMinus7 124
192 ESRankNMinus8 163
191 ESRankNMinus9 191
190 ESRankNMinus10 157
