999 WORDS_Bien~0 102
999 WORDFREQ_2535.14 102
999 WORDSALL_Bien~0 102
999 COSIND_0.04 102
999 COSGEN_0.04 102
101 ESRank1 102
999 WORDS_preuves~3 151
999 WORDFREQ_14.8 151
999 WORDSALL_que~1_preuves~3 151
999 COSIND_0.08 151
999 COSGEN_0.08 151
102 ESRank2 151
202 ESForwSacLong+3+9 151
999 WORDS_preuves~3 162
999 WORDFREQ_14.8 162
999 WORDSALL_les~2_preuves~3 162
999 COSIND_0.08 162
999 COSGEN_0.08 162
103 ESRank3 162
203 ESBackSacRefixation 162
999 WORDS_discrimination~6 148
999 WORDFREQ_0.88 148
999 WORDSALL_de~4_discrimination~6 148
999 COSIND_-0.03 148
999 COSGEN_-0.03 148
104 ESRank4 148
202 ESForwSacLong+3+7 148
999 WORDS_discrimination~6 169
999 WORDFREQ_0.88 169
999 WORDSALL_la~5_discrimination~6 169
999 COSIND_-0.03 169
999 COSGEN_-0.03 169
105 ESRank5 169
203 ESBackSacRefixation 169
999 WORDS_discrimination~6 165
999 WORDFREQ_0.88 165
999 WORDSALL_la~5_discrimination~6 165
999 COSIND_-0.03 165
999 COSGEN_-0.03 165
106 ESRank6 165
203 ESBackSacRefixation 165
999 WORDS_à~7 147
999 WORDFREQ_19209.05 147
999 WORDSALL_discrimination~6_à~7 147
999 COSIND_N/A 147
107 ESRank7 147
201 ESForwSacShort 147
999 WORDS_l'embauche~8 267
999 WORDFREQ_2.97 267
999 WORDSALL_l'embauche~8 267
999 COSIND_-0.05 267
999 COSGEN_-0.05 267
108 ESRank8 267
201 ESForwSacShort 267
999 WORDS_soient~9 193
999 WORDFREQ_32.03 193
999 WORDSALL_soient~9 193
999 COSIND_0.05 193
999 COSGEN_0.05 193
109 ESRank9 193
201 ESForwSacShort 193
999 WORDS_difficiles~11 220
999 WORDFREQ_17.36 220
999 WORDSALL_souvent~10_difficiles~11 220
999 COSIND_0.13 220
999 COSGEN_0.13 220
110 ESRank10 220
202 ESForwSacLong+2+9 220
999 WORDS_difficiles~11 155
999 WORDFREQ_17.36 155
999 WORDSALL_souvent~10_difficiles~11 155
999 COSIND_0.13 155
999 COSGEN_0.13 155
111 ESRank11 155
203 ESBackSacRefixation 155
999 WORDS_difficiles~11 166
999 WORDFREQ_17.36 166
999 WORDSALL_souvent~10_difficiles~11 166
999 COSIND_0.13 166
999 COSGEN_0.13 166
112 ESRank12 166
203 ESBackSacRefixation 166
999 WORDS_difficiles~11 266
999 WORDFREQ_17.36 266
999 WORDSALL_difficiles~11 266
999 COSIND_0.13 266
999 COSGEN_0.13 266
113 ESRank13 266
203 ESBackSacRefixation 266
999 WORDS_établir~13 162
999 WORDFREQ_20.68 162
999 WORDSALL_établir~13 162
999 COSIND_-0.02 162
999 COSGEN_-0.02 162
114 ESRank14 162
202 ESForwSacLong+2+4 162
999 WORDS_établir~13 149
999 WORDFREQ_20.68 149
999 WORDSALL_établir~13 149
999 COSIND_-0.02 149
999 COSGEN_-0.02 149
115 ESRank15 149
203 ESBackSacRefixation 149
999 WORDS_juges~16 149
999 WORDFREQ_14.66 149
999 WORDSALL_devant~14_juges~16 149
999 COSIND_0.11 149
999 COSGEN_0.11 149
116 ESRank16 149
202 ESForwSacLong+3+12 149
999 WORDS_juges~16 155
999 WORDFREQ_14.66 155
999 WORDSALL_les~15_juges~16 155
999 COSIND_0.11 155
999 COSGEN_0.11 155
117 ESRank17 155
203 ESBackSacRefixation 155
999 WORDS_juges~16 113
999 WORDFREQ_14.66 113
999 WORDSALL_les~15_juges~16 113
999 COSIND_0.11 113
999 COSGEN_0.11 113
118 ESRank18 113
203 ESBackSacRefixation 113
999 WORDS_affaires~18 181
999 WORDFREQ_102.84 181
999 WORDSALL_quelques~17_affaires~18 181
999 COSIND_-0.02 181
999 COSGEN_-0.02 181
119 ESRank19 181
202 ESForwSacLong+2+10 181
999 WORDS_affaires~18 193
999 WORDFREQ_102.84 193
999 WORDSALL_quelques~17_affaires~18 193
999 COSIND_-0.02 193
999 COSGEN_-0.02 193
120 ESRank20 193
203 ESBackSacRefixation 193
999 WORDS_aboutir~21 155
999 WORDFREQ_9.8 155
999 WORDSALL_pu~20_aboutir~21 155
999 COSIND_0.24 155
999 COSGEN_0.24 155
202 ESForwSacLong+3+8 155
999 WORDS_pu~20 166
999 WORDFREQ_349.32 166
999 WORDSALL_ont~19_pu~20 166
999 COSIND_-0.02 166
999 COSGEN_-0.02 166
205 ESBackSacRegrShort 166
999 WORDS_confondre~23 252
999 WORDFREQ_13.18 252
999 WORDSALL_à~22_confondre~23 252
999 COSIND_0.00 252
999 COSGEN_0.00 252
202 ESForwSacLong+3+12 252
999 WORDS_employeurs~25 321
999 WORDFREQ_1.01 321
999 WORDSALL_des~24_employeurs~25 321
999 COSIND_-0.06 321
999 COSGEN_-0.06 321
202 ESForwSacLong+2+5 321
999 WORDS_condamnations~30 232
999 WORDFREQ_1.22 232
999 WORDSALL_des~29_condamnations~30 232
999 COSIND_0.15 232
999 COSGEN_0.15 232
202 ESForwSacLong+5+23 232
200 ESRankN 232
199 ESRankNMinus1 321
198 ESRankNMinus2 252
197 ESRankNMinus3 166
196 ESRankNMinus4 155
195 ESRankNMinus5 193
194 ESRankNMinus6 181
193 ESRankNMinus7 113
192 ESRankNMinus8 155
191 ESRankNMinus9 149
190 ESRankNMinus10 149
