# 144 Fixation 1 (322.2,311.1): Le~0 moral~1
# 166 Fixation 2 (443.4,297.7): des~2 boursiers~3
# 163 Fixation 3 (613.2,288.2): s'est~4 sérieusement~5 désormais~9
# 85 Fixation 4 (667.6,284.3): sérieusement~5
# 193 Fixation 5 (338,347.1): moral~1 dégradé~6
# 160 Fixation 6 (432.6,358.2): ils~7 doutent~8
# 246 Fixation 7 (577.8,356.2): désormais~9
# 97 Fixation 8 (437.5,396.7): ils~7 doutent~8 marges~13
# 165 Fixation 9 (329.9,393.2): dégradé~6 nouvelles~12
# 209 Fixation 10 (529.8,408.7): doutent~8 désormais~9 fluctuation~15
# 183 Fixation 11 (584.9,420): fluctuation~15
# 133 Fixation 12 (571.1,462.7): fluctuation~15 fixées~20
# 140 Fixation 13 (620.4,465.1): fluctuation~15 mercredi~21
# 154 Fixation 14 (735.6,468.4): de~16
# 109 Fixation 15 (633.6,514): mercredi~21
# 195 Fixation 16 (539,501.2): fixées~20
%%
# Le~0 Fixations= "1/"
# moral~1 Fixations= "5/"
# des~2 Fixations= "2/"
# boursiers~3 Fixations= "2/"
# s'est~4 Fixations= "3/"
# sérieusement~5 Fixations= "4/"
# dégradé~6 Fixations= "9/"
# ils~7 Fixations= "8/"
# doutent~8 Fixations= "10/"
# désormais~9 Fixations= "10/"
# que~10 Fixations= ""
# les~11 Fixations= ""
# nouvelles~12 Fixations= "9/"
# marges~13 Fixations= "8/"
# de~14 Fixations= ""
# fluctuation~15 Fixations= "13/"
# de~16 Fixations= "14/"
# la~17 Fixations= ""
# devise~18 Fixations= ""
# brésilienne~19 Fixations= ""
# fixées~20 Fixations= "16/"
# mercredi~21 Fixations= "15/"
# par~22 Fixations= ""
# la~23 Fixations= ""
# banque~24 Fixations= ""
# centrale~25 Fixations= ""
# puissent~26 Fixations= ""
# tenir~27 Fixations= ""
# longtemps~28 Fixations= ""
%%
#  LE[1] MORAL[5] DES[2] BOURSIERS[2] S'EST[3] SéRIEUSEMENT[4] DéGRADé[9] ILS[8] DOUTENT[10] DéSORMAIS[10] que les NOUVELLES[9] MARGES[8] de FLUCTUATION[13] DE[14] la devise brésilienne FIXéES[16] MERCREDI[15] par la banque centrale puissent tenir longtemps
# s08 syndicat_agricole-a1 PercentageOfWordsProcessed= 0.551724137931034 PercentageOfWordsReallyProcessed= 0.727272727272727
