# 276 Fixation 1 (289.1,278): Le~0 chef~1
# 236 Fixation 2 (382.8,285.4): chef~1 gouvernement~3
# 386 Fixation 3 (590.5,281.9): a~4 estimé~5
# 369 Fixation 4 (668.6,285.3): estimé~5
# 99 Fixation 5 (709.5,283.3): que~6
# 340 Fixation 6 (297.4,334.7): Le~0 chef~1 croissance~8
# 250 Fixation 7 (417.9,339.1): du~2 gouvernement~3 économique~9
# 198 Fixation 8 (579.2,336.2): a~4 estimé~5 France~12
# 103 Fixation 9 (622.2,334.3): a~4 estimé~5 France~12
# 163 Fixation 10 (709.5,342.1): que~6 France~12 était~13
# 205 Fixation 11 (288.5,419.8): sur~14 bonne~16 prévisions~20
# 167 Fixation 12 (342.5,410.6): croissance~8 bonne~16
# 265 Fixation 13 (478.3,409.1): économique~9 voie~17
# 151 Fixation 14 (530.7,412.4): économique~9 contrairement~18
# 92 Fixation 15 (624,418.3): contrairement~18 croissance~24
# 108 Fixation 16 (662.2,417.3): aux~19 croissance~24
# 293 Fixation 17 (303.3,483.5): prévisions~20
# 235 Fixation 18 (450.4,476.3): voie~17 experts~22
# 239 Fixation 19 (638.5,480.6): La~23 croissance~24
# 125 Fixation 20 (607.3,474.9): contrairement~18 croissance~24
# 154 Fixation 21 (300.9,556.1): produit~26
# 108 Fixation 22 (277.1,554.2): produit~26
%%
# Le~0 Fixations= "6/"
# chef~1 Fixations= "6/"
# du~2 Fixations= "7/"
# gouvernement~3 Fixations= "7/"
# a~4 Fixations= "9/"
# estimé~5 Fixations= "9/"
# que~6 Fixations= "10/"
# la~7 Fixations= ""
# croissance~8 Fixations= "12/"
# économique~9 Fixations= "14/"
# de~10 Fixations= ""
# la~11 Fixations= ""
# France~12 Fixations= "10/"
# était~13 Fixations= "10/"
# sur~14 Fixations= "11/"
# la~15 Fixations= ""
# bonne~16 Fixations= "12/"
# voie~17 Fixations= "18/"
# contrairement~18 Fixations= "20/"
# aux~19 Fixations= "16/"
# prévisions~20 Fixations= "17/"
# des~21 Fixations= ""
# experts~22 Fixations= "18/"
# La~23 Fixations= "19/"
# croissance~24 Fixations= "20/"
# du~25 Fixations= ""
# produit~26 Fixations= "22/"
# intérieur~27 Fixations= ""
# brut~28 Fixations= ""
# est~29 Fixations= ""
# étonnante~30 Fixations= ""
%%
#  LE[6] CHEF[6] DU[7] GOUVERNEMENT[7] A[9] ESTIMé[9] QUE[10] la CROISSANCE[12] éCONOMIQUE[14] de la FRANCE[10] éTAIT[10] SUR[11] la BONNE[12] VOIE[18] CONTRAIREMENT[20] AUX[16] PRéVISIONS[17] des EXPERTS[18] LA[19] CROISSANCE[20] du PRODUIT[22] intérieur brut est étonnante
# s13 aide_refugies-a2 PercentageOfWordsProcessed= 0.67741935483871 PercentageOfWordsReallyProcessed= 0.777777777777778
