# 312 Fixation 1 (320.6,265.9): Il~0 s'agit~1
# 249 Fixation 2 (411.2,271): de~2 citoyens~4
# 240 Fixation 3 (508,271.2): citoyens~4
# 205 Fixation 4 (637.3,277.5): et~5 devoir~7
# 172 Fixation 5 (673.8,283): le~6 devoir~7
# 116 Fixation 6 (746.1,285.6): devoir~7
# 289 Fixation 7 (299.9,326.3): n'importe~9
# 168 Fixation 8 (430.9,334.2): quel~10 gouvernement~11
# 162 Fixation 9 (515.4,337.2): gouvernement~11
# 199 Fixation 10 (669.7,341.6): est~12 défendre~14
# 168 Fixation 11 (732.2,346.8): de~13 défendre~14
# 404 Fixation 12 (339.2,391.7): intérêts~16
# 213 Fixation 13 (578.8,405.8): citoyens~19
# 118 Fixation 14 (549.2,387.1): citoyens~19
# 374 Fixation 15 (391.2,301): s'agit~1
%%
# Il~0 Fixations= "1/"
# s'agit~1 Fixations= "15/"
# de~2 Fixations= "2/"
# nos~3 Fixations= ""
# citoyens~4 Fixations= "3/"
# et~5 Fixations= "4/"
# le~6 Fixations= "5/"
# devoir~7 Fixations= "6/"
# de~8 Fixations= ""
# n'importe~9 Fixations= "7/"
# quel~10 Fixations= "8/"
# gouvernement~11 Fixations= "9/"
# est~12 Fixations= "10/"
# de~13 Fixations= "11/"
# défendre~14 Fixations= "11/"
# les~15 Fixations= ""
# intérêts~16 Fixations= "12/"
# de~17 Fixations= ""
# ses~18 Fixations= ""
# citoyens~19 Fixations= "14/"
# Des~20 Fixations= ""
# mesures~21 Fixations= ""
# sont~22 Fixations= ""
# prises~23 Fixations= ""
# mais~24 Fixations= ""
# également~25 Fixations= ""
# une~26 Fixations= ""
# coopération~27 Fixations= ""
# avec~28 Fixations= ""
# les~29 Fixations= ""
# organisations~30 Fixations= ""
# internationales~31 Fixations= ""
%%
#  IL[1] S'AGIT[15] DE[2] nos CITOYENS[3] ET[4] LE[5] DEVOIR[6] de N'IMPORTE[7] QUEL[8] GOUVERNEMENT[9] EST[10] DE[11] DéFENDRE[11] les INTéRêTS[12] de ses CITOYENS[14] Des mesures sont prises mais également une coopération avec les organisations internationales
# s13 associations_humanitaires-m1 PercentageOfWordsProcessed= 0.46875 PercentageOfWordsReallyProcessed= 0.75
