# 159 Fixation 1 (307.8,279.5): Les~0 pluies~1
# 177 Fixation 2 (320.2,276.1): Les~0 pluies~1
# 331 Fixation 3 (407.8,273.9): pluies~1 intenses~2
# 237 Fixation 4 (575.7,273.3): ont~3 duré~4
# 240 Fixation 5 (631.2,280.7): duré~4 plusieurs~5
# 221 Fixation 6 (309.6,347.7): heures~6
# 303 Fixation 7 (386.5,333): causant~7
# 389 Fixation 8 (498.7,329.3): l'interruption~8
# 218 Fixation 9 (271,437.3): circulation~11
# 190 Fixation 10 (299,481.6): régions~18
# 199 Fixation 11 (388,479.2): Le~19 bureau~20
# 124 Fixation 12 (407.9,471.8): Le~19 bureau~20
# 228 Fixation 13 (503.7,466.3): bureau~20 prévoit~21
# 301 Fixation 14 (653.4,470.1): une~22 augmentation~23
# 190 Fixation 15 (280.1,543.3): de~24 dérèglements~26
# 244 Fixation 16 (346,536.8): ces~25 dérèglements~26
# 291 Fixation 17 (556,520.7): climatiques~27
# 300 Fixation 18 (696.8,531): au~28 niveau~29
%%
# Les~0 Fixations= "2/"
# pluies~1 Fixations= "3/"
# intenses~2 Fixations= "3/"
# ont~3 Fixations= "4/"
# duré~4 Fixations= "5/"
# plusieurs~5 Fixations= "5/"
# heures~6 Fixations= "6/"
# causant~7 Fixations= "7/"
# l'interruption~8 Fixations= "8/"
# de~9 Fixations= ""
# la~10 Fixations= ""
# circulation~11 Fixations= "9/"
# et~12 Fixations= ""
# isolant~13 Fixations= ""
# un~14 Fixations= ""
# certain~15 Fixations= ""
# nombre~16 Fixations= ""
# de~17 Fixations= ""
# régions~18 Fixations= "10/"
# Le~19 Fixations= "12/"
# bureau~20 Fixations= "13/"
# prévoit~21 Fixations= "13/"
# une~22 Fixations= "14/"
# augmentation~23 Fixations= "14/"
# de~24 Fixations= "15/"
# ces~25 Fixations= "16/"
# dérèglements~26 Fixations= "16/"
# climatiques~27 Fixations= "17/"
# au~28 Fixations= "18/"
# niveau~29 Fixations= "18/"
# de~30 Fixations= ""
# la~31 Fixations= ""
# planète~32 Fixations= ""
%%
#  LES[2] PLUIES[3] INTENSES[3] ONT[4] DURé[5] PLUSIEURS[5] HEURES[6] CAUSANT[7] L'INTERRUPTION[8] de la CIRCULATION[9] et isolant un certain nombre de RéGIONS[10] LE[12] BUREAU[13] PRéVOIT[13] UNE[14] AUGMENTATION[14] DE[15] CES[16] DéRèGLEMENTS[16] CLIMATIQUES[17] AU[18] NIVEAU[18] de la planète
# s13 rechauffement_climatique-m1 PercentageOfWordsProcessed= 0.666666666666667 PercentageOfWordsReallyProcessed= 0.733333333333333
