999 WORDS_a~2 148
999 WORDFREQ_1669.39 148
999 WORDSALL_y~1_a~2 148
999 COSIND_N/A 148
101 ESRank1 148
999 WORDS_multitude~4 247
999 WORDFREQ_9.66 247
999 WORDSALL_a~2_multitude~4 247
999 COSIND_0.16 247
999 COSGEN_0.16 247
102 ESRank2 247
202 ESForwSacLong+2+5 247
999 WORDS_multitude~4 118
999 WORDFREQ_9.66 118
999 WORDSALL_multitude~4 118
999 COSIND_0.16 118
999 COSGEN_0.16 118
103 ESRank3 118
203 ESBackSacRefixation 118
999 WORDS_variantes~6 214
999 WORDFREQ_2.43 214
999 WORDSALL_de~5_variantes~6 214
999 COSIND_-0.01 214
999 COSGEN_-0.01 214
104 ESRank4 214
202 ESForwSacLong+2+4 214
999 WORDS_variantes~6 111
999 WORDFREQ_2.43 111
999 WORDSALL_de~5_variantes~6 111
999 COSIND_-0.01 111
999 COSGEN_-0.01 111
105 ESRank5 111
203 ESBackSacRefixation 111
999 WORDS_vont~8 162
999 WORDFREQ_116.62 162
999 WORDSALL_variantes~6_vont~8 162
999 COSIND_0.04 162
999 COSGEN_0.04 162
106 ESRank6 162
202 ESForwSacLong+2+5 162
999 WORDS_vont~8 113
999 WORDFREQ_116.62 113
999 WORDSALL_qui~7_vont~8 113
999 COSIND_0.04 113
999 COSGEN_0.04 113
107 ESRank7 113
203 ESBackSacRefixation 113
999 WORDS_l'impossibilité~10 208
999 WORDFREQ_7.16 208
999 WORDSALL_de~9_l'impossibilité~10 208
999 COSIND_0.01 208
999 COSGEN_0.01 208
108 ESRank8 208
202 ESForwSacLong+2+4 208
999 WORDS_l'impossibilité~10 290
999 WORDFREQ_7.16 290
999 WORDSALL_l'impossibilité~10 290
999 COSIND_0.01 290
999 COSGEN_0.01 290
109 ESRank9 290
203 ESBackSacRefixation 290
999 WORDS_l'impossibilité~10 141
999 WORDFREQ_7.16 141
999 WORDSALL_de~9_l'impossibilité~10 141
999 COSIND_0.01 141
999 COSGEN_0.01 141
110 ESRank10 141
203 ESBackSacRefixation 141
999 WORDS_sonde~13 141
999 WORDFREQ_0.81 141
999 WORDSALL_pour~11_sonde~13 141
999 COSIND_0.74 141
999 COSGEN_0.74 141
111 ESRank11 141
202 ESForwSacLong+3+9 141
999 WORDS_sonde~13 152
999 WORDFREQ_0.81 152
999 WORDSALL_la~12_sonde~13 152
999 COSIND_0.74 152
999 COSGEN_0.74 152
112 ESRank12 152
203 ESBackSacRefixation 152
999 WORDS_pointer~15 228
999 WORDFREQ_5.14 228
999 WORDSALL_sonde~13_pointer~15 228
999 COSIND_0.06 228
999 COSGEN_0.06 228
113 ESRank13 228
202 ESForwSacLong+2+4 228
999 WORDS_antenne~17 149
999 WORDFREQ_3.65 149
999 WORDSALL_antenne~17 149
999 COSIND_0.14 149
999 COSGEN_0.14 149
114 ESRank14 149
202 ESForwSacLong+2+5 149
999 WORDS_antenne~17 218
999 WORDFREQ_3.65 218
999 WORDSALL_son~16_antenne~17 218
999 COSIND_0.14 218
999 COSGEN_0.14 218
115 ESRank15 218
203 ESBackSacRefixation 218
999 WORDS_à~20 165
999 WORDFREQ_19209.05 165
999 WORDSALL_vers~18_à~20 165
999 COSIND_N/A 165
116 ESRank16 165
202 ESForwSacLong+3+11 165
999 WORDS_à~20 162
999 WORDFREQ_19209.05 162
999 WORDSALL_vers~18_à~20 162
999 COSIND_N/A 162
117 ESRank17 162
203 ESBackSacRefixation 162
999 WORDS_à~20 157
999 WORDFREQ_19209.05 157
999 WORDSALL_à~20 157
999 COSIND_N/A 157
118 ESRank18 157
203 ESBackSacRefixation 157
999 WORDS_basculement~22 215
999 WORDFREQ_0.14 215
999 WORDSALL_un~21_basculement~22 215
999 COSIND_0.05 215
999 COSGEN_0.05 215
119 ESRank19 215
202 ESForwSacLong+2+4 215
999 WORDS_basculement~22 170
999 WORDFREQ_0.14 170
999 WORDSALL_basculement~22 170
999 COSIND_0.05 170
999 COSGEN_0.05 170
120 ESRank20 170
203 ESBackSacRefixation 170
999 WORDS_été~27 131
999 WORDFREQ_818.99 131
999 WORDSALL_aurait~26_été~27 131
999 COSIND_-0.01 131
999 COSGEN_-0.01 131
202 ESForwSacLong+5+23 131
999 WORDS_l'engin~24 127
999 WORDFREQ_9.8 127
999 WORDSALL_l'engin~24 127
999 COSIND_0.50 127
999 COSGEN_0.50 127
206 ESBackSacRegrLong-3-12 127
999 WORDS_l'engin~24 225
999 WORDFREQ_9.8 225
999 WORDSALL_l'engin~24 225
999 COSIND_0.50 225
999 COSGEN_0.50 225
203 ESBackSacRefixation 225
999 WORDS_aurait~26 136
999 WORDFREQ_491.15 136
999 WORDSALL_qui~25_aurait~26 136
999 COSIND_-0.02 136
999 COSGEN_-0.02 136
202 ESForwSacLong+2+5 136
999 WORDS_aurait~26 185
999 WORDFREQ_491.15 185
999 WORDSALL_qui~25_aurait~26 185
999 COSIND_-0.02 185
999 COSGEN_-0.02 185
203 ESBackSacRefixation 185
999 WORDS_aurait~26 168
999 WORDFREQ_491.15 168
999 WORDSALL_aurait~26 168
999 COSIND_-0.02 168
999 COSGEN_-0.02 168
203 ESBackSacRefixation 168
999 WORDS_déséquilibré~28 260
999 WORDFREQ_0.54 260
999 WORDSALL_été~27_déséquilibré~28 260
999 COSIND_0.12 260
999 COSGEN_0.12 260
202 ESForwSacLong+2+7 260
999 WORDS_déséquilibré~28 189
999 WORDFREQ_0.54 189
999 WORDSALL_déséquilibré~28 189
999 COSIND_0.12 189
999 COSGEN_0.12 189
203 ESBackSacRefixation 189
999 WORDS_accident~31 129
999 WORDFREQ_36.62 129
999 WORDSALL_accident~31 129
999 COSIND_-0.08 129
999 COSGEN_-0.08 129
202 ESForwSacLong+3+8 129
999 WORDS_accident~31 222
999 WORDFREQ_36.62 222
999 WORDSALL_accident~31 222
999 COSIND_-0.08 222
999 COSGEN_-0.08 222
203 ESBackSacRefixation 222
999 WORDS_terrain~33 420
999 WORDFREQ_64.86 420
999 WORDSALL_de~32_terrain~33 420
999 COSIND_-0.03 420
999 COSGEN_-0.03 420
202 ESForwSacLong+2+4 420
999 WORDS_terrain~33 210
999 WORDFREQ_64.86 210
999 WORDSALL_de~32_terrain~33 210
999 COSIND_-0.03 210
999 COSGEN_-0.03 210
203 ESBackSacRefixation 210
999 WORDS_accident~31 123
999 WORDFREQ_36.62 123
999 WORDSALL_accident~31 123
999 COSIND_-0.08 123
999 COSGEN_-0.08 123
206 ESBackSacRegrLong-2-4 123
200 ESRankN 123
199 ESRankNMinus1 210
198 ESRankNMinus2 420
197 ESRankNMinus3 222
196 ESRankNMinus4 129
195 ESRankNMinus5 189
194 ESRankNMinus6 260
193 ESRankNMinus7 168
192 ESRankNMinus8 185
191 ESRankNMinus9 136
190 ESRankNMinus10 225
