999 WORDS_fera~5 189
999 WORDFREQ_59.66 189
999 WORDSALL_La~0_Commission~1_fera~5 189
999 COSIND_-0.02 189
999 COSGEN_-0.02 189
101 ESRank1 189
999 WORDS_Commission~1 213
999 WORDFREQ_10.81 213
999 WORDSALL_La~0_Commission~1 213
999 COSIND_0.06 213
999 COSGEN_0.06 213
102 ESRank2 213
206 ESBackSacRegrLong-4-29 213
999 WORDS_européenne~2 240
999 WORDFREQ_6.76 240
999 WORDSALL_européenne~2 240
999 COSIND_-0.05 240
999 COSGEN_-0.05 240
103 ESRank3 240
201 ESForwSacShort 240
999 WORDS_annonce~3 276
999 WORDFREQ_21.76 276
999 WORDSALL_européenne~2_annonce~3 276
999 COSIND_-0.03 276
999 COSGEN_-0.03 276
104 ESRank4 276
201 ESForwSacShort 276
999 WORDS_propositions~7 221
999 WORDFREQ_7.5 221
999 WORDSALL_des~6_propositions~7 221
999 COSIND_0.12 221
999 COSGEN_0.12 221
105 ESRank5 221
202 ESForwSacLong+4+18 221
999 WORDS_qu'elle~4 256
999 WORDFREQ_N/A 256
999 WORDSALL_annonce~3_qu'elle~4 256
999 COSIND_N/A 256
106 ESRank6 256
206 ESBackSacRegrLong-3-10 256
999 WORDS_fera~5 346
999 WORDFREQ_59.66 346
999 WORDSALL_La~0_Commission~1_fera~5 346
999 COSIND_-0.02 346
999 COSGEN_-0.02 346
107 ESRank7 346
201 ESForwSacShort 346
999 WORDS_fera~5 354
999 WORDFREQ_59.66 354
999 WORDSALL_La~0_Commission~1_fera~5 354
999 COSIND_-0.02 354
999 COSGEN_-0.02 354
108 ESRank8 354
203 ESBackSacRefixation 354
999 WORDS_européenne~2 243
999 WORDFREQ_6.76 243
999 WORDSALL_européenne~2 243
999 COSIND_-0.05 243
999 COSGEN_-0.05 243
109 ESRank9 243
206 ESBackSacRegrLong-3-17 243
999 WORDS_encourager~9 323
999 WORDFREQ_7.03 323
999 WORDSALL_annonce~3_encourager~9 323
999 COSIND_-0.09 323
999 COSGEN_-0.09 323
110 ESRank10 323
202 ESForwSacLong+7+44 323
999 WORDS_encourager~9 227
999 WORDFREQ_7.03 227
999 WORDSALL_annonce~3_encourager~9 227
999 COSIND_-0.09 227
999 COSGEN_-0.09 227
111 ESRank11 227
203 ESBackSacRefixation 227
999 WORDS_encourager~9 165
999 WORDFREQ_7.03 165
999 WORDSALL_annonce~3_qu'elle~4_encourager~9 165
999 COSIND_-0.09 165
999 COSGEN_-0.09 165
112 ESRank12 165
203 ESBackSacRefixation 165
999 WORDS_commun~12 157
999 WORDFREQ_32.16 157
999 WORDSALL_fera~5_marché~11_commun~12 157
999 COSIND_0.09 157
999 COSGEN_0.09 157
113 ESRank13 157
202 ESForwSacLong+3+12 157
999 WORDS_marché~11 193
999 WORDFREQ_57.36 193
999 WORDSALL_fera~5_marché~11 193
999 COSIND_-0.03 193
999 COSGEN_-0.03 193
114 ESRank14 193
205 ESBackSacRegrShort 193
999 WORDS_secteur~14 414
999 WORDFREQ_18.45 414
999 WORDSALL_propositions~7_secteur~14 414
999 COSIND_0.05 414
999 COSGEN_0.05 414
115 ESRank15 414
202 ESForwSacLong+3+11 414
999 WORDS_encourager~9 274
999 WORDFREQ_7.03 274
999 WORDSALL_pour~8_encourager~9 274
999 COSIND_-0.09 274
999 COSGEN_-0.09 274
116 ESRank16 274
206 ESBackSacRegrLong-5-22 274
999 WORDS_jeux~22 241
999 WORDFREQ_42.64 241
999 WORDSALL_du~13_secteur~14_jeux~22 241
999 COSIND_0.01 241
999 COSGEN_0.01 241
117 ESRank17 241
202 ESForwSacLong+13+61 241
999 WORDS_jeux~22 154
999 WORDFREQ_42.64 154
999 WORDSALL_des~21_jeux~22 154
999 COSIND_0.01 154
999 COSGEN_0.01 154
118 ESRank18 154
203 ESBackSacRefixation 154
200 ESRankN 154
199 ESRankNMinus1 241
198 ESRankNMinus2 274
197 ESRankNMinus3 414
196 ESRankNMinus4 193
195 ESRankNMinus5 157
194 ESRankNMinus6 165
193 ESRankNMinus7 227
192 ESRankNMinus8 323
191 ESRankNMinus9 243
190 ESRankNMinus10 354
