999 WORDS_annonce~1 328
999 WORDFREQ_13.18 328
999 WORDSALL_Cette~0_annonce~1 328
999 COSIND_0.25 328
999 COSGEN_0.25 328
101 ESRank1 328
999 WORDS_avait~3 144
999 WORDFREQ_3116.42 144
999 WORDSALL_qui~2_avait~3 144
999 COSIND_0.08 144
999 COSGEN_0.08 144
102 ESRank2 144
202 ESForwSacLong+2+5 144
999 WORDS_ 208
999 WORDFREQ_ 208
999 WORDSALL_ 208
103 ESRank3 208
999 WORDS_pronostiquée~6 278
999 WORDFREQ_N/A 278
999 WORDSALL_pronostiquée~6 278
999 COSIND_N/A 278
104 ESRank4 278
999 WORDS_pronostiquée~6 232
999 WORDFREQ_N/A 232
999 WORDSALL_pronostiquée~6 232
999 COSIND_N/A 232
105 ESRank5 232
203 ESBackSacRefixation 232
999 WORDS_pronostiquée~6 279
999 WORDFREQ_N/A 279
999 WORDSALL_pronostiquée~6 279
999 COSIND_N/A 279
106 ESRank6 279
203 ESBackSacRefixation 279
999 WORDS_certains~8 186
999 WORDFREQ_32.64 186
999 WORDSALL_par~7_certains~8 186
999 COSIND_-0.05 186
999 COSGEN_-0.05 186
107 ESRank7 186
202 ESForwSacLong+2+5 186
999 WORDS_certains~8 128
999 WORDFREQ_32.64 128
999 WORDSALL_par~7_certains~8 128
999 COSIND_-0.05 128
999 COSGEN_-0.05 128
108 ESRank8 128
203 ESBackSacRefixation 128
999 WORDS_été~5 245
999 WORDFREQ_40.2 245
999 WORDSALL_déjà~4_été~5 245
999 COSIND_0.01 245
999 COSGEN_0.01 245
109 ESRank9 245
206 ESBackSacRegrLong-3-19 245
999 WORDS_semaine~11 182
999 WORDFREQ_111.89 182
999 WORDSALL_semaine~11 182
999 COSIND_0.07 182
999 COSGEN_0.07 182
110 ESRank10 182
202 ESForwSacLong+6+41 182
999 WORDS_semaine~11 427
999 WORDFREQ_111.89 427
999 WORDSALL_semaine~11 427
999 COSIND_0.07 427
999 COSGEN_0.07 427
111 ESRank11 427
203 ESBackSacRefixation 427
999 WORDS_dernière~12 228
999 WORDFREQ_145.27 228
999 WORDSALL_dernière~12 228
999 COSIND_-0.10 228
999 COSGEN_-0.10 228
112 ESRank12 228
201 ESForwSacShort 228
999 WORDS_été~14 220
999 WORDFREQ_818.99 220
999 WORDSALL_a~13_été~14 220
999 COSIND_0.01 220
999 COSGEN_0.01 220
113 ESRank13 220
202 ESForwSacLong+2+3 220
999 WORDS_a~13 227
999 WORDFREQ_2926.69 227
999 WORDSALL_a~13 227
999 COSIND_N/A 227
114 ESRank14 227
205 ESBackSacRegrShort 227
999 WORDS_accueillie~16 290
999 WORDFREQ_2.23 290
999 WORDSALL_accueillie~16 290
999 COSIND_0.04 290
999 COSGEN_0.04 290
115 ESRank15 290
202 ESForwSacLong+3+20 290
999 WORDS_diminution~18 215
999 WORDFREQ_1.01 215
999 WORDSALL_Cette~17_diminution~18 215
999 COSIND_0.12 215
999 COSGEN_0.12 215
116 ESRank16 215
202 ESForwSacLong+2+7 215
999 WORDS_diminution~18 193
999 WORDFREQ_1.01 193
999 WORDSALL_Cette~17_diminution~18 193
999 COSIND_0.12 193
999 COSGEN_0.12 193
117 ESRank17 193
203 ESBackSacRefixation 193
999 WORDS_fait~20 371
999 WORDFREQ_1459.26 371
999 WORDSALL_diminution~18_fait~20 371
999 COSIND_0.02 371
999 COSGEN_0.02 371
118 ESRank18 371
202 ESForwSacLong+2+4 371
999 WORDS_poursuivre~22 234
999 WORDFREQ_22.23 234
999 WORDSALL_poursuivre~22 234
999 COSIND_0.11 234
999 COSGEN_0.11 234
119 ESRank19 234
202 ESForwSacLong+2+5 234
999 WORDS_tendance~24 249
999 WORDFREQ_14.26 249
999 WORDSALL_une~23_tendance~24 249
999 COSIND_0.24 249
999 COSGEN_0.24 249
120 ESRank20 249
202 ESForwSacLong+2+5 249
999 WORDS_à~25 263
999 WORDFREQ_19209.05 263
999 WORDSALL_à~25 263
999 COSIND_N/A 263
201 ESForwSacShort 263
200 ESRankN 263
199 ESRankNMinus1 249
198 ESRankNMinus2 234
197 ESRankNMinus3 371
196 ESRankNMinus4 193
195 ESRankNMinus5 215
194 ESRankNMinus6 290
193 ESRankNMinus7 227
192 ESRankNMinus8 220
191 ESRankNMinus9 228
190 ESRankNMinus10 427
