# 168 Fixation 1 (420.9,271.9): n'apporte~2
# 228 Fixation 2 (578,268): pas~3
# 191 Fixation 3 (278,342.5): La~0 science~1 bienfaits~6
# 141 Fixation 4 (442.8,343.5): n'apporte~2 a~8
# 120 Fixation 5 (518.9,345.8): n'apporte~2 a~8 apporté~9
# 160 Fixation 6 (649.1,343.2): seulement~4 armes~11
# 134 Fixation 7 (303.3,416.5): destruction~13
# 143 Fixation 8 (266.4,422.1): destruction~13
# 160 Fixation 9 (437.3,414.8): massive~14
# 159 Fixation 10 (596.4,407.9): apporté~9 armes~11 possibilités~17
# 143 Fixation 11 (668.4,405.4): des~10 armes~11 possibilités~17
# 209 Fixation 12 (291.6,480): manipulation~19
# 243 Fixation 13 (629.6,463.8): des~16 possibilités~17 technique~22
# 211 Fixation 14 (281.3,541.4): l'économie~24
# 138 Fixation 15 (460.2,531.9): biologique~20 concourent~25
# 156 Fixation 16 (634.4,543.3): la~27 dégradation~28
%%
# La~0 Fixations= "3/"
# science~1 Fixations= "3/"
# n'apporte~2 Fixations= "5/"
# pas~3 Fixations= "2/"
# seulement~4 Fixations= "6/"
# des~5 Fixations= ""
# bienfaits~6 Fixations= "3/"
# mais~7 Fixations= ""
# a~8 Fixations= "5/"
# apporté~9 Fixations= "10/"
# des~10 Fixations= "11/"
# armes~11 Fixations= "11/"
# de~12 Fixations= ""
# destruction~13 Fixations= "8/"
# massive~14 Fixations= "9/"
# et~15 Fixations= ""
# des~16 Fixations= "13/"
# possibilités~17 Fixations= "13/"
# de~18 Fixations= ""
# manipulation~19 Fixations= "12/"
# biologique~20 Fixations= "15/"
# La~21 Fixations= ""
# technique~22 Fixations= "13/"
# et~23 Fixations= ""
# l'économie~24 Fixations= "14/"
# concourent~25 Fixations= "15/"
# à~26 Fixations= ""
# la~27 Fixations= "16/"
# dégradation~28 Fixations= "16/"
# de~29 Fixations= ""
# la~30 Fixations= ""
# biosphère~31 Fixations= ""
%%
#  LA[3] SCIENCE[3] N'APPORTE[5] PAS[2] SEULEMENT[6] des BIENFAITS[3] mais A[5] APPORTé[10] DES[11] ARMES[11] de DESTRUCTION[8] MASSIVE[9] et DES[13] POSSIBILITéS[13] de MANIPULATION[12] BIOLOGIQUE[15] La TECHNIQUE[13] et L'éCONOMIE[14] CONCOURENT[15] à LA[16] DéGRADATION[16] de la biosphère
# s19 reforme_justice-a1 PercentageOfWordsProcessed= 0.65625 PercentageOfWordsReallyProcessed= 0.724137931034483
