999 WORDS_sont~1 104
999 WORDFREQ_713.18 104
999 WORDSALL_Ils~0_sont~1 104
999 COSIND_0.07 104
999 COSGEN_0.07 104
101 ESRank1 104
999 WORDS_sont~1 121
999 WORDFREQ_713.18 121
999 WORDSALL_Ils~0_sont~1 121
999 COSIND_0.07 121
999 COSGEN_0.07 121
102 ESRank2 121
203 ESBackSacRefixation 121
999 WORDS_six~3 161
999 WORDFREQ_156.22 161
999 WORDSALL_encore~2_six~3 161
999 COSIND_-0.03 161
999 COSGEN_-0.03 161
103 ESRank3 161
202 ESForwSacLong+2+8 161
999 WORDS_six~3 154
999 WORDFREQ_156.22 154
999 WORDSALL_six~3 154
999 COSIND_-0.03 154
999 COSGEN_-0.03 154
104 ESRank4 154
203 ESBackSacRefixation 154
999 WORDS_candidats~4 98
999 WORDFREQ_3.99 98
999 WORDSALL_candidats~4 98
999 COSIND_0.03 98
999 COSGEN_0.03 98
105 ESRank5 98
201 ESForwSacShort 98
999 WORDS_à~5 151
999 WORDFREQ_19209.05 151
999 WORDSALL_candidats~4_à~5 151
999 COSIND_N/A 151
106 ESRank6 151
201 ESForwSacShort 151
999 WORDS_tenter~7 180
999 WORDFREQ_32.43 180
999 WORDSALL_Ils~0_sont~1_tenter~7 180
999 COSIND_0.03 180
999 COSGEN_0.03 180
107 ESRank7 180
202 ESForwSacLong+2+9 180
999 WORDS_tour~9 195
999 WORDFREQ_280.27 195
999 WORDSALL_sont~1_six~3_tour~9 195
999 COSIND_0.05 195
999 COSGEN_0.05 195
108 ESRank8 195
202 ESForwSacLong+2+4 195
999 WORDS_monde~11 145
999 WORDFREQ_732.43 145
999 WORDSALL_encore~2_six~3_tour~9_monde~11 145
999 COSIND_0.03 145
999 COSGEN_0.03 145
109 ESRank9 145
202 ESForwSacLong+2+4 145
999 WORDS_ballon~13 275
999 WORDFREQ_17.16 275
999 WORDSALL_candidats~4_monde~11_ballon~13 275
999 COSIND_0.06 275
999 COSGEN_0.06 275
110 ESRank10 275
202 ESForwSacLong+2+4 275
999 WORDS_escale~15 129
999 WORDFREQ_7.16 129
999 WORDSALL_tenter~7_escale~15 129
999 COSIND_-0.01 129
999 COSGEN_-0.01 129
111 ESRank11 129
202 ESForwSacLong+2+6 129
999 WORDS_tour~9 234
999 WORDFREQ_280.27 234
999 WORDSALL_le~8_tour~9 234
999 COSIND_0.05 234
999 COSGEN_0.05 234
112 ESRank12 234
206 ESBackSacRegrLong-6-25 234
200 ESRankN 234
199 ESRankNMinus1 129
198 ESRankNMinus2 275
197 ESRankNMinus3 145
196 ESRankNMinus4 195
195 ESRankNMinus5 180
194 ESRankNMinus6 151
193 ESRankNMinus7 98
192 ESRankNMinus8 154
191 ESRankNMinus9 161
190 ESRankNMinus10 121
