999 WORDS_ministre~1 120
999 WORDFREQ_61.01 120
999 WORDSALL_Le~0_ministre~1 120
999 COSIND_0.02 120
999 COSGEN_0.02 120
101 ESRank1 120
999 WORDS_ministre~1 113
999 WORDFREQ_61.01 113
999 WORDSALL_ministre~1 113
999 COSIND_0.02 113
999 COSGEN_0.02 113
102 ESRank2 113
203 ESBackSacRefixation 113
999 WORDS_irakien~2 234
999 WORDFREQ_0.07 234
999 WORDSALL_irakien~2 234
999 COSIND_N/A 234
103 ESRank3 234
201 ESForwSacShort 234
999 WORDS_pétrole~4 146
999 WORDFREQ_14.73 146
999 WORDSALL_du~3_pétrole~4 146
999 COSIND_0.55 146
999 COSGEN_0.55 146
104 ESRank4 146
202 ESForwSacLong+2+4 146
999 WORDS_pétrole~4 163
999 WORDFREQ_14.73 163
999 WORDSALL_du~3_pétrole~4 163
999 COSIND_0.55 163
999 COSGEN_0.55 163
105 ESRank5 163
203 ESBackSacRefixation 163
999 WORDS_a~5 273
999 WORDFREQ_2926.69 273
999 WORDSALL_pétrole~4_a~5 273
999 COSIND_N/A 273
106 ESRank6 273
201 ESForwSacShort 273
999 WORDS_dimanche~7 140
999 WORDFREQ_87.84 140
999 WORDSALL_dimanche~7 140
999 COSIND_0.01 140
999 COSGEN_0.01 140
107 ESRank7 140
202 ESForwSacLong+2+9 140
999 WORDS_dimanche~7 280
999 WORDFREQ_87.84 280
999 WORDSALL_dimanche~7 280
999 COSIND_0.01 280
999 COSGEN_0.01 280
108 ESRank8 280
203 ESBackSacRefixation 280
999 WORDS_dimanche~7 152
999 WORDFREQ_87.84 152
999 WORDSALL_dimanche~7 152
999 COSIND_0.01 152
999 COSGEN_0.01 152
109 ESRank9 152
203 ESBackSacRefixation 152
999 WORDS_l'Arabie~8 151
999 WORDFREQ_N/A 151
999 WORDSALL_l'Arabie~8 151
999 COSIND_N/A 151
110 ESRank10 151
201 ESForwSacShort 151
999 WORDS_d'avoir~10 173
999 WORDFREQ_649.26 173
999 WORDSALL_saoudite~9_d'avoir~10 173
999 COSIND_0.02 173
999 COSGEN_0.02 173
111 ESRank11 173
202 ESForwSacLong+2+10 173
999 WORDS_inondé~11 167
999 WORDFREQ_2.7 167
999 WORDSALL_d'avoir~10_inondé~11 167
999 COSIND_0.10 167
999 COSGEN_0.10 167
112 ESRank12 167
201 ESForwSacShort 167
999 WORDS_marché~13 180
999 WORDFREQ_57.36 180
999 WORDSALL_marché~13 180
999 COSIND_-0.05 180
999 COSGEN_-0.05 180
113 ESRank13 180
202 ESForwSacLong+2+4 180
999 WORDS_marché~13 140
999 WORDFREQ_57.36 140
999 WORDSALL_le~12_marché~13 140
999 COSIND_-0.05 140
999 COSGEN_-0.05 140
114 ESRank14 140
203 ESBackSacRefixation 140
999 WORDS_a~17 163
999 WORDFREQ_2926.69 163
999 WORDSALL_pétrole~15_a~17 163
999 COSIND_N/A 163
115 ESRank15 163
202 ESForwSacLong+4+16 163
999 WORDS_réclamé~18 247
999 WORDFREQ_2.64 247
999 WORDSALL_Il~16_a~17_réclamé~18 247
999 COSIND_-0.02 247
999 COSGEN_-0.02 247
116 ESRank16 247
201 ESForwSacShort 247
999 WORDS_réduction~20 154
999 WORDFREQ_2.91 154
999 WORDSALL_réduction~20 154
999 COSIND_0.10 154
999 COSGEN_0.10 154
117 ESRank17 154
202 ESForwSacLong+2+5 154
999 WORDS_réduction~20 164
999 WORDFREQ_2.91 164
999 WORDSALL_réduction~20 164
999 COSIND_0.10 164
999 COSGEN_0.10 164
118 ESRank18 164
203 ESBackSacRefixation 164
999 WORDS_production~23 274
999 WORDFREQ_12.3 274
999 WORDSALL_la~22_production~23 274
999 COSIND_0.19 274
999 COSGEN_0.19 274
119 ESRank19 274
202 ESForwSacLong+3+7 274
200 ESRankN 274
199 ESRankNMinus1 164
198 ESRankNMinus2 154
197 ESRankNMinus3 247
196 ESRankNMinus4 163
195 ESRankNMinus5 140
194 ESRankNMinus6 180
193 ESRankNMinus7 167
192 ESRankNMinus8 173
191 ESRankNMinus9 151
190 ESRankNMinus10 152
