999 WORDS_décret~1 199
999 WORDFREQ_6.42 199
999 WORDSALL_Un~0_décret~1 199
999 COSIND_0.08 199
999 COSGEN_0.08 199
101 ESRank1 199
999 WORDS_décret~1 138
999 WORDFREQ_6.42 138
999 WORDSALL_Un~0_décret~1 138
999 COSIND_0.08 138
999 COSGEN_0.08 138
102 ESRank2 138
203 ESBackSacRefixation 138
999 WORDS_décret~1 101
999 WORDFREQ_6.42 101
999 WORDSALL_Un~0_décret~1 101
999 COSIND_0.08 101
999 COSGEN_0.08 101
103 ESRank3 101
203 ESBackSacRefixation 101
999 WORDS_a~2 362
999 WORDFREQ_2926.69 362
999 WORDSALL_décret~1_a~2 362
999 COSIND_N/A 362
104 ESRank4 362
201 ESForwSacShort 362
999 WORDS_émis~4 201
999 WORDFREQ_2.3 201
999 WORDSALL_a~2_été~3_émis~4 201
999 COSIND_0.11 201
999 COSGEN_0.11 201
105 ESRank5 201
202 ESForwSacLong+2+7 201
999 WORDS_modifie~6 346
999 WORDFREQ_1.76 346
999 WORDSALL_émis~4_modifie~6 346
999 COSIND_-0.06 346
999 COSGEN_-0.06 346
106 ESRank6 346
202 ESForwSacLong+2+5 346
999 WORDS_code~8 288
999 WORDFREQ_13.58 288
999 WORDSALL_modifie~6_code~8 288
999 COSIND_0.02 288
999 COSGEN_0.02 288
107 ESRank7 288
202 ESForwSacLong+2+4 288
999 WORDS_construction~11 391
999 WORDFREQ_18.24 391
999 WORDSALL_la~10_construction~11 391
999 COSIND_0.46 391
999 COSGEN_0.46 391
108 ESRank8 391
202 ESForwSacLong+3+7 391
999 WORDS_construction~11 160
999 WORDFREQ_18.24 160
999 WORDSALL_construction~11 160
999 COSIND_0.46 160
999 COSGEN_0.46 160
109 ESRank9 160
203 ESBackSacRefixation 160
200 ESRankN 160
199 ESRankNMinus1 391
198 ESRankNMinus2 288
197 ESRankNMinus3 346
196 ESRankNMinus4 201
195 ESRankNMinus5 362
194 ESRankNMinus6 101
193 ESRankNMinus7 138
192 ESRankNMinus8 199
