# 210 Fixation 1 (246.6,295): Une~0 économie~1
# 145 Fixation 2 (353.3,282.9): économie~1
# 126 Fixation 3 (452.4,299.2): New~2 Age~3
# 165 Fixation 4 (589.6,327.8): de~11 l'efficacité~12
# 142 Fixation 5 (698.4,333): l'efficacité~12
# 198 Fixation 6 (279.9,361.5): laquelle~8
# 175 Fixation 7 (415.2,350): la~9 croissance~10
# 174 Fixation 8 (631.5,380.9): les~17 ressources~18
# 99 Fixation 9 (742,372.6): l'efficacité~12
# 199 Fixation 10 (308.4,401.2): laquelle~14
# 177 Fixation 11 (464.5,411): utilisons~16
# 133 Fixation 12 (642.2,424.6): les~17 ressources~18
%%
# Une~0 Fixations= "1/"
# économie~1 Fixations= "2/"
# New~2 Fixations= "3/"
# Age~3 Fixations= "3/"
# est~4 Fixations= ""
# une~5 Fixations= ""
# économie~6 Fixations= ""
# dans~7 Fixations= ""
# laquelle~8 Fixations= "6/"
# la~9 Fixations= "7/"
# croissance~10 Fixations= "7/"
# de~11 Fixations= "4/"
# l'efficacité~12 Fixations= "9/"
# avec~13 Fixations= ""
# laquelle~14 Fixations= "10/"
# nous~15 Fixations= ""
# utilisons~16 Fixations= "11/"
# les~17 Fixations= "12/"
# ressources~18 Fixations= "12/"
# productives~19 Fixations= ""
# se~20 Fixations= ""
# trouve~21 Fixations= ""
# durablement~22 Fixations= ""
# accélérée~23 Fixations= ""
# l'inflation~24 Fixations= ""
# maîtrisée~25 Fixations= ""
# et~26 Fixations= ""
# le~27 Fixations= ""
# cycle~28 Fixations= ""
# aboli~29 Fixations= ""
%%
#  UNE[1] éCONOMIE[2] NEW[3] AGE[3] est une économie dans LAQUELLE[6] LA[7] CROISSANCE[7] DE[4] L'EFFICACITé[9] avec LAQUELLE[10] nous UTILISONS[11] LES[12] RESSOURCES[12] productives se trouve durablement accélérée l'inflation maîtrisée et le cycle aboli
# s07 croissance_economie-f2 PercentageOfWordsProcessed= 0.433333333333333 PercentageOfWordsReallyProcessed= 0.684210526315789
