# 210 Fixation 1 (260.8,291.1): Un~0 petit~1
# 463 Fixation 2 (368.9,272.5): petit~1 bimoteur~2
# 167 Fixation 3 (362,270.6): petit~1 bimoteur~2
# 301 Fixation 4 (498.6,270): qui~3 effectuait~4
# 280 Fixation 5 (577.9,273.4): effectuait~4
# 198 Fixation 6 (539.2,270.5): qui~3 effectuait~4
# 251 Fixation 7 (696.8,270.3): la~5 liaison~6
# 84 Fixation 8 (655.5,272.3): effectuait~4
# 342 Fixation 9 (280,352.1): Boston-Chicago~7
# 277 Fixation 10 (500.7,344.1): a~8 atteri~9
# 196 Fixation 11 (467.9,342.7): a~8 atteri~9
# 329 Fixation 12 (578.9,346.8): atteri~9 urgence~11
# 126 Fixation 13 (544.1,342.6): atteri~9
# 316 Fixation 14 (258.9,406.5): Pittsburgh~13
# 219 Fixation 15 (417.6,404.6): hier~14
# 240 Fixation 16 (489.4,409.1): en~15 raison~16
# 204 Fixation 17 (604.5,408.4): raison~16 défaut~18
# 139 Fixation 18 (650.6,406): d'un~17 défaut~18
# 336 Fixation 19 (311.6,464.7): un~20 moteurs~22
# 276 Fixation 20 (262.6,465.1): un~20 moteurs~22
# 176 Fixation 21 (246.3,467.2): un~20 moteurs~22
# 127 Fixation 22 (351.1,464.6): des~21 moteurs~22
%%
# Un~0 Fixations= "1/"
# petit~1 Fixations= "3/"
# bimoteur~2 Fixations= "3/"
# qui~3 Fixations= "6/"
# effectuait~4 Fixations= "8/"
# la~5 Fixations= "7/"
# liaison~6 Fixations= "7/"
# Boston-Chicago~7 Fixations= "9/"
# a~8 Fixations= "11/"
# atteri~9 Fixations= "13/"
# en~10 Fixations= ""
# urgence~11 Fixations= "12/"
# à~12 Fixations= ""
# Pittsburgh~13 Fixations= "14/"
# hier~14 Fixations= "15/"
# en~15 Fixations= "16/"
# raison~16 Fixations= "17/"
# d'un~17 Fixations= "18/"
# défaut~18 Fixations= "18/"
# sur~19 Fixations= ""
# un~20 Fixations= "21/"
# des~21 Fixations= "22/"
# moteurs~22 Fixations= "22/"
%%
#  UN[1] PETIT[3] BIMOTEUR[3] QUI[6] EFFECTUAIT[8] LA[7] LIAISON[7] BOSTON-CHICAGO[9] A[11] ATTERI[13] en URGENCE[12] à PITTSBURGH[14] HIER[15] EN[16] RAISON[17] D'UN[18] DéFAUT[18] sur UN[21] DES[22] MOTEURS[22]
# s14 decollage_fusee-m1 PercentageOfWordsProcessed= 0.869565217391304 PercentageOfWordsReallyProcessed= 0.869565217391304
