999 WORDS_Principal~0 122
999 WORDFREQ_15.81 122
999 WORDSALL_Principal~0 122
999 COSIND_0.06 122
999 COSGEN_0.06 122
101 ESRank1 122
999 WORDS_accusé~1 128
999 WORDFREQ_6.89 128
999 WORDSALL_accusé~1 128
999 COSIND_0.28 128
999 COSGEN_0.28 128
102 ESRank2 128
201 ESForwSacShort 128
999 WORDS_volet~3 147
999 WORDFREQ_6.89 147
999 WORDSALL_du~2_volet~3 147
999 COSIND_-0.02 147
999 COSGEN_-0.02 147
103 ESRank3 147
202 ESForwSacLong+2+4 147
999 WORDS_corruption~4 143
999 WORDFREQ_3.45 143
999 WORDSALL_volet~3_corruption~4 143
999 COSIND_0.23 143
999 COSGEN_0.23 143
104 ESRank4 143
201 ESForwSacShort 143
999 WORDS_corruption~4 138
999 WORDFREQ_3.45 138
999 WORDSALL_corruption~4 138
999 COSIND_0.23 138
999 COSGEN_0.23 138
105 ESRank5 138
203 ESBackSacRefixation 138
999 WORDS_escroquerie~6 154
999 WORDFREQ_2.16 154
999 WORDSALL_escroquerie~6 154
999 COSIND_0.32 154
999 COSGEN_0.32 154
106 ESRank6 154
202 ESForwSacLong+2+4 154
999 WORDS_escroquerie~6 173
999 WORDFREQ_2.16 173
999 WORDSALL_escroquerie~6 173
999 COSIND_0.32 173
999 COSGEN_0.32 173
107 ESRank7 173
203 ESBackSacRefixation 173
999 WORDS_ancien~8 151
999 WORDFREQ_59.26 151
999 WORDSALL_un~7_ancien~8 151
999 COSIND_0.00 151
999 COSGEN_0.00 151
108 ESRank8 151
202 ESForwSacLong+2+4 151
999 WORDS_cadre~9 190
999 WORDFREQ_29.8 190
999 WORDSALL_cadre~9 190
999 COSIND_0.05 190
999 COSGEN_0.05 190
109 ESRank9 190
201 ESForwSacShort 190
999 WORDS_grande~11 160
999 WORDFREQ_378.65 160
999 WORDSALL_d'une~10_grande~11 160
999 COSIND_0.10 160
999 COSGEN_0.10 160
110 ESRank10 160
202 ESForwSacLong+2+7 160
999 WORDS_entreprise~12 135
999 WORDFREQ_29.05 135
999 WORDSALL_entreprise~12 135
999 COSIND_-0.02 135
999 COSGEN_-0.02 135
111 ESRank11 135
201 ESForwSacShort 135
999 WORDS_poursuivi~14 167
999 WORDFREQ_9.59 167
999 WORDSALL_est~13_poursuivi~14 167
999 COSIND_0.30 167
999 COSGEN_0.30 167
112 ESRank12 167
202 ESForwSacLong+2+5 167
999 WORDS_avoir~16 152
999 WORDFREQ_649.26 152
999 WORDSALL_pour~15_avoir~16 152
999 COSIND_-0.01 152
999 COSGEN_-0.01 152
113 ESRank13 152
202 ESForwSacLong+2+6 152
999 WORDS_millions~19 202
999 WORDFREQ_46.22 202
999 WORDSALL_des~18_millions~19 202
999 COSIND_-0.01 202
999 COSGEN_-0.01 202
114 ESRank14 202
202 ESForwSacLong+3+12 202
999 WORDS_d'euros~20 137
999 WORDFREQ_0 137
999 WORDSALL_d'euros~20 137
999 COSIND_N/A 137
115 ESRank15 137
201 ESForwSacShort 137
999 WORDS_commissions~22 155
999 WORDFREQ_6.62 155
999 WORDSALL_en~21_commissions~22 155
999 COSIND_-0.05 155
999 COSGEN_-0.05 155
116 ESRank16 155
202 ESForwSacLong+2+4 155
999 WORDS_auprès~24 194
999 WORDFREQ_1.62 194
999 WORDSALL_occultes~23_auprès~24 194
999 COSIND_0.02 194
999 COSGEN_0.02 194
117 ESRank17 194
202 ESForwSacLong+2+10 194
999 WORDS_dizaine~26 175
999 WORDFREQ_26.55 175
999 WORDSALL_d'une~25_dizaine~26 175
999 COSIND_0.00 175
999 COSGEN_0.00 175
118 ESRank18 175
202 ESForwSacLong+2+7 175
999 WORDS_d'entrepreneurs~27 348
999 WORDFREQ_0.74 348
999 WORDSALL_d'entrepreneurs~27 348
999 COSIND_-0.03 348
999 COSGEN_-0.03 348
119 ESRank19 348
201 ESForwSacShort 348
999 WORDS_Principal~0 149
999 WORDFREQ_15.81 149
999 WORDSALL_Principal~0 149
999 COSIND_0.06 149
999 COSGEN_0.06 149
120 ESRank20 149
206 ESBackSacRegrLong-27-183 149
999 WORDS_Principal~0 149
999 WORDFREQ_15.81 149
999 WORDSALL_Principal~0 149
999 COSIND_0.06 149
999 COSGEN_0.06 149
203 ESBackSacRefixation 149
999 WORDS_accusé~1 151
999 WORDFREQ_6.89 151
999 WORDSALL_accusé~1 151
999 COSIND_0.28 151
999 COSGEN_0.28 151
201 ESForwSacShort 151
999 WORDS_volet~3 166
999 WORDFREQ_6.89 166
999 WORDSALL_du~2_volet~3 166
999 COSIND_-0.02 166
999 COSGEN_-0.02 166
202 ESForwSacLong+2+4 166
999 WORDS_corruption~4 197
999 WORDFREQ_3.45 197
999 WORDSALL_volet~3_corruption~4 197
999 COSIND_0.23 197
999 COSGEN_0.23 197
201 ESForwSacShort 197
999 WORDS_escroquerie~6 372
999 WORDFREQ_2.16 372
999 WORDSALL_escroquerie~6 372
999 COSIND_0.32 372
999 COSGEN_0.32 372
202 ESForwSacLong+2+4 372
999 WORDS_ancien~8 186
999 WORDFREQ_59.26 186
999 WORDSALL_un~7_ancien~8 186
999 COSIND_0.00 186
999 COSGEN_0.00 186
202 ESForwSacLong+2+4 186
200 ESRankN 186
199 ESRankNMinus1 372
198 ESRankNMinus2 197
197 ESRankNMinus3 166
196 ESRankNMinus4 151
195 ESRankNMinus5 149
194 ESRankNMinus6 149
193 ESRankNMinus7 348
192 ESRankNMinus8 175
191 ESRankNMinus9 194
190 ESRankNMinus10 155
