# 175 Fixation 1 (285,280.2): La~0 déflagration~1
# 145 Fixation 2 (466,276.5): s'est~2 produite~3
# 182 Fixation 3 (586.6,266.9): produite~3
# 289 Fixation 4 (695.6,267.5): au~4 passage~5
# 297 Fixation 5 (360.6,277.7): déflagration~1
# 148 Fixation 6 (310,344.1): La~0 déflagration~1 véhicule~7
# 203 Fixation 7 (470.9,351.2): militaire~8
# 150 Fixation 8 (612.9,351): sur~9 route~11
# 134 Fixation 9 (605.4,413.8): centaine~16
# 189 Fixation 10 (379.2,482.9): base~20
%%
# La~0 Fixations= "6/"
# déflagration~1 Fixations= "6/"
# s'est~2 Fixations= "2/"
# produite~3 Fixations= "3/"
# au~4 Fixations= "4/"
# passage~5 Fixations= "4/"
# d'un~6 Fixations= ""
# véhicule~7 Fixations= "6/"
# militaire~8 Fixations= "7/"
# sur~9 Fixations= "8/"
# une~10 Fixations= ""
# route~11 Fixations= "8/"
# du~12 Fixations= ""
# centre-ville~13 Fixations= ""
# à~14 Fixations= ""
# une~15 Fixations= ""
# centaine~16 Fixations= "9/"
# de~17 Fixations= ""
# mètres~18 Fixations= ""
# d'une~19 Fixations= ""
# base~20 Fixations= "10/"
# de~21 Fixations= ""
# l'armée~22 Fixations= ""
# turque~23 Fixations= ""
# selon~24 Fixations= ""
# la~25 Fixations= ""
# police~26 Fixations= ""
%%
#  LA[6] DéFLAGRATION[6] S'EST[2] PRODUITE[3] AU[4] PASSAGE[4] d'un VéHICULE[6] MILITAIRE[7] SUR[8] une ROUTE[8] du centre-ville à une CENTAINE[9] de mètres d'une BASE[10] de l'armée turque selon la police
# s19 associations_humanitaires-a1 PercentageOfWordsProcessed= 0.444444444444444 PercentageOfWordsReallyProcessed= 0.571428571428571
