# 228 Fixation 1 (299.2,267.4): La~0 Chine~1
# 296 Fixation 2 (403.1,327): souhaite~2 mortelle~7
# 154 Fixation 3 (574.9,341.5): généraliser~3 peines~10
# 135 Fixation 4 (635.7,350.5): les~9 peines~10
# 284 Fixation 5 (499.6,415.2): détriment~13
# 184 Fixation 6 (531.1,470.8): détriment~13 considéré~19
# 105 Fixation 7 (639.5,479.8): comme~20 plus~21
# 210 Fixation 8 (468.2,550): les~25 juridictions~26
%%
# La~0 Fixations= "1/"
# Chine~1 Fixations= "1/"
# souhaite~2 Fixations= "2/"
# généraliser~3 Fixations= "3/"
# l'usage~4 Fixations= ""
# de~5 Fixations= ""
# l'injection~6 Fixations= ""
# mortelle~7 Fixations= "2/"
# pour~8 Fixations= ""
# les~9 Fixations= "4/"
# peines~10 Fixations= "4/"
# capitales~11 Fixations= ""
# au~12 Fixations= ""
# détriment~13 Fixations= "6/"
# de~14 Fixations= ""
# l'exécution~15 Fixations= ""
# par~16 Fixations= ""
# balle~17 Fixations= ""
# C'est~18 Fixations= ""
# considéré~19 Fixations= "6/"
# comme~20 Fixations= "7/"
# plus~21 Fixations= "7/"
# humain~22 Fixations= ""
# dans~23 Fixations= ""
# toutes~24 Fixations= ""
# les~25 Fixations= "8/"
# juridictions~26 Fixations= "8/"
# intermédiaires~27 Fixations= ""
%%
#  LA[1] CHINE[1] SOUHAITE[2] GéNéRALISER[3] l'usage de l'injection MORTELLE[2] pour LES[4] PEINES[4] capitales au DéTRIMENT[6] de l'exécution par balle C'est CONSIDéRé[6] COMME[7] PLUS[7] humain dans toutes LES[8] JURIDICTIONS[8] intermédiaires
# s21 course_voiliers-a1 PercentageOfWordsProcessed= 0.464285714285714 PercentageOfWordsReallyProcessed= 0.481481481481481
