999 WORDS_quarantaine~1 129
999 WORDFREQ_10.07 129
999 WORDSALL_Une~0_quarantaine~1 129
999 COSIND_0.20 129
999 COSGEN_0.20 129
101 ESRank1 129
999 WORDS_quarantaine~1 133
999 WORDFREQ_10.07 133
999 WORDSALL_quarantaine~1 133
999 COSIND_0.20 133
999 COSGEN_0.20 133
102 ESRank2 133
203 ESBackSacRefixation 133
999 WORDS_véhicules~3 183
999 WORDFREQ_7.23 183
999 WORDSALL_véhicules~3 183
999 COSIND_0.09 183
999 COSGEN_0.09 183
103 ESRank3 183
202 ESForwSacLong+2+4 183
999 WORDS_été~5 117
999 WORDFREQ_818.99 117
999 WORDSALL_ont~4_été~5 117
999 COSIND_-0.09 117
999 COSGEN_-0.09 117
104 ESRank4 117
202 ESForwSacLong+2+5 117
999 WORDS_incendiés~6 220
999 WORDFREQ_0.88 220
999 WORDSALL_incendiés~6 220
999 COSIND_0.01 220
999 COSGEN_0.01 220
105 ESRank5 220
201 ESForwSacShort 220
999 WORDS_jeunes~9 179
999 WORDFREQ_136.55 179
999 WORDSALL_des~8_jeunes~9 179
999 COSIND_0.28 179
999 COSGEN_0.28 179
106 ESRank6 179
202 ESForwSacLong+3+9 179
999 WORDS_mineurs~10 190
999 WORDFREQ_6.01 190
999 WORDSALL_mineurs~10 190
999 COSIND_0.73 190
999 COSGEN_0.73 190
107 ESRank7 190
201 ESForwSacShort 190
999 WORDS_mineurs~10 194
999 WORDFREQ_6.01 194
999 WORDSALL_mineurs~10 194
999 COSIND_0.73 194
999 COSGEN_0.73 194
108 ESRank8 194
203 ESBackSacRefixation 194
999 WORDS_dans~11 110
999 WORDFREQ_8296.08 110
999 WORDSALL_dans~11 110
999 COSIND_N/A 110
109 ESRank9 110
201 ESForwSacShort 110
999 WORDS_banlieues~13 249
999 WORDFREQ_2.5 249
999 WORDSALL_banlieues~13 249
999 COSIND_0.39 249
999 COSGEN_0.39 249
110 ESRank10 249
202 ESForwSacLong+2+5 249
999 WORDS_Strasbourg~15 181
999 WORDFREQ_N/A 181
999 WORDSALL_Strasbourg~15 181
999 COSIND_N/A 181
111 ESRank11 181
202 ESForwSacLong+2+4 181
999 WORDS_affrontements~23 121
999 WORDFREQ_1.62 121
999 WORDSALL_affrontements~23 121
999 COSIND_0.11 121
999 COSGEN_0.11 121
112 ESRank12 121
202 ESForwSacLong+8+43 121
999 WORDS_affrontements~23 171
999 WORDFREQ_1.62 171
999 WORDSALL_affrontements~23 171
999 COSIND_0.11 171
999 COSGEN_0.11 171
113 ESRank13 171
203 ESBackSacRefixation 171
200 ESRankN 171
199 ESRankNMinus1 121
198 ESRankNMinus2 181
197 ESRankNMinus3 249
196 ESRankNMinus4 110
195 ESRankNMinus5 194
194 ESRankNMinus6 190
193 ESRankNMinus7 179
192 ESRankNMinus8 220
191 ESRankNMinus9 117
190 ESRankNMinus10 183
