# 150 Fixation 1 (363.9,283.5): sont~1
# 174 Fixation 2 (520.1,263.4): six~3 candidats~4
# 162 Fixation 3 (658.8,275.8): à~5 vouloir~6
# 127 Fixation 4 (327.1,339.6): Ils~0 sont~1 tenter~7
# 91 Fixation 5 (267.4,337.3): Ils~0 sont~1 tenter~7
# 143 Fixation 6 (458.2,332.5): encore~2 six~3 monde~11
# 215 Fixation 7 (610.7,338): candidats~4 à~5 ballon~13
# 172 Fixation 8 (284.5,402.5): tenter~7 escale~15
# 167 Fixation 9 (437.5,409.1): tour~9
# 131 Fixation 10 (647.3,408.1): ballon~13 aérienne~18
# 158 Fixation 11 (302.6,481.9): réclame~19
# 138 Fixation 12 (391,464.9): Cette~16 circumnavigation~17 courage~22
# 151 Fixation 13 (521.6,463): circumnavigation~17 courage~22
# 134 Fixation 14 (668.5,465.9): aérienne~18 d'audace~24
# 150 Fixation 15 (277.8,545.5): de~26 moyens~27
# 185 Fixation 16 (458.3,534.6): autant~20 courage~22 connaissances~30
# 173 Fixation 17 (692.9,535.8): d'audace~24 techniques~31
%%
# Ils~0 Fixations= "5/"
# sont~1 Fixations= "5/"
# encore~2 Fixations= "6/"
# six~3 Fixations= "6/"
# candidats~4 Fixations= "7/"
# à~5 Fixations= "7/"
# vouloir~6 Fixations= "3/"
# tenter~7 Fixations= "8/"
# le~8 Fixations= ""
# tour~9 Fixations= "9/"
# du~10 Fixations= ""
# monde~11 Fixations= "6/"
# en~12 Fixations= ""
# ballon~13 Fixations= "10/"
# sans~14 Fixations= ""
# escale~15 Fixations= "8/"
# Cette~16 Fixations= "12/"
# circumnavigation~17 Fixations= "13/"
# aérienne~18 Fixations= "14/"
# réclame~19 Fixations= "11/"
# autant~20 Fixations= "16/"
# de~21 Fixations= ""
# courage~22 Fixations= "16/"
# et~23 Fixations= ""
# d'audace~24 Fixations= "17/"
# que~25 Fixations= ""
# de~26 Fixations= "15/"
# moyens~27 Fixations= "15/"
# et~28 Fixations= ""
# de~29 Fixations= ""
# connaissances~30 Fixations= "16/"
# techniques~31 Fixations= "17/"
%%
#  ILS[5] SONT[5] ENCORE[6] SIX[6] CANDIDATS[7] à[7] VOULOIR[3] TENTER[8] le TOUR[9] du MONDE[6] en BALLON[10] sans ESCALE[8] CETTE[12] CIRCUMNAVIGATION[13] AéRIENNE[14] RéCLAME[11] AUTANT[16] de COURAGE[16] et D'AUDACE[17] que DE[15] MOYENS[15] et de CONNAISSANCES[16] TECHNIQUES[17]
# s19 dechets_nucleaires-a2 PercentageOfWordsProcessed= 0.71875 PercentageOfWordsReallyProcessed= 0.71875
