# 139 Fixation 1 (265.9,256.4): Le~0 tribunal~1
# 212 Fixation 2 (442.8,263.4): administratif~2
# 236 Fixation 3 (641,260.6): de~3 Paris~4
# 222 Fixation 4 (715.7,261.3): Paris~4 a~5
# 211 Fixation 5 (315.2,341.7): Le~0 tribunal~1 décision~8
# 205 Fixation 6 (464.5,332): administratif~2 Conseil~10
# 147 Fixation 7 (584.4,337.7): de~3 Paris~4 Paris~12
# 187 Fixation 8 (699,341.4): Paris~4 a~5 d'étendre~13
# 210 Fixation 9 (307.7,408.8): la~7 décision~8 communes~16
# 265 Fixation 10 (492,397.1): Conseil~10 banlieue~18
# 211 Fixation 11 (621.3,411.5): de~11 Paris~12 système~20
# 200 Fixation 12 (307.1,467.6): des~15 communes~16 vélos~22
# 126 Fixation 13 (335.9,472.1): des~15 communes~16
# 163 Fixation 14 (264.1,473.9): des~15 communes~16 vélos~22
%%
# Le~0 Fixations= "5/"
# tribunal~1 Fixations= "5/"
# administratif~2 Fixations= "6/"
# de~3 Fixations= "7/"
# Paris~4 Fixations= "8/"
# a~5 Fixations= "8/"
# annulé~6 Fixations= ""
# la~7 Fixations= "9/"
# décision~8 Fixations= "9/"
# du~9 Fixations= ""
# Conseil~10 Fixations= "10/"
# de~11 Fixations= "11/"
# Paris~12 Fixations= "11/"
# d'étendre~13 Fixations= "8/"
# à~14 Fixations= ""
# des~15 Fixations= "14/"
# communes~16 Fixations= "14/"
# de~17 Fixations= ""
# banlieue~18 Fixations= "10/"
# le~19 Fixations= ""
# système~20 Fixations= "11/"
# de~21 Fixations= ""
# vélos~22 Fixations= "14/"
# en~23 Fixations= ""
# libre-service~24 Fixations= ""
%%
#  LE[5] TRIBUNAL[5] ADMINISTRATIF[6] DE[7] PARIS[8] A[8] annulé LA[9] DéCISION[9] du CONSEIL[10] DE[11] PARIS[11] D'éTENDRE[8] à DES[14] COMMUNES[14] de BANLIEUE[10] le SYSTèME[11] de VéLOS[14] en libre-service
# s17 chef_russie-a2 PercentageOfWordsProcessed= 0.68 PercentageOfWordsReallyProcessed= 0.739130434782609
