999 WORDS_Toute~0 113
999 WORDFREQ_5.2 113
999 WORDSALL_Toute~0 113
999 COSIND_0.01 113
999 COSGEN_0.01 113
101 ESRank1 113
999 WORDS_Toute~0 121
999 WORDFREQ_5.2 121
999 WORDSALL_Toute~0 121
999 COSIND_0.01 121
999 COSGEN_0.01 121
102 ESRank2 121
203 ESBackSacRefixation 121
999 WORDS_magie~2 184
999 WORDFREQ_15.14 184
999 WORDSALL_la~1_magie~2 184
999 COSIND_0.19 184
999 COSGEN_0.19 184
103 ESRank3 184
202 ESForwSacLong+2+4 184
999 WORDS_hauts~4 261
999 WORDFREQ_29.26 261
999 WORDSALL_des~3_hauts~4 261
999 COSIND_0.10 261
999 COSGEN_0.10 261
104 ESRank4 261
202 ESForwSacLong+2+5 261
999 WORDS_plateaux~5 165
999 WORDFREQ_8.78 165
999 WORDSALL_hauts~4_plateaux~5 165
999 COSIND_0.23 165
999 COSGEN_0.23 165
105 ESRank5 165
201 ESForwSacShort 165
999 WORDS_basaltiques~6 342
999 WORDFREQ_N/A 342
999 WORDSALL_basaltiques~6 342
999 COSIND_N/A 342
106 ESRank6 342
201 ESForwSacShort 342
999 WORDS_neige~9 216
999 WORDFREQ_74.93 216
999 WORDSALL_la~8_neige~9 216
999 COSIND_0.56 216
999 COSGEN_0.56 216
107 ESRank7 216
202 ESForwSacLong+3+9 216
999 WORDS_plus~11 183
999 WORDFREQ_5014.53 183
999 WORDSALL_neige~9_plus~11 183
999 COSIND_0.00 183
999 COSGEN_0.00 183
108 ESRank8 183
202 ESForwSacLong+2+4 183
999 WORDS_neige~9 176
999 WORDFREQ_74.93 176
999 WORDSALL_avec~7_neige~9 176
999 COSIND_0.56 176
999 COSGEN_0.56 176
109 ESRank9 176
206 ESBackSacRegrLong-2-4 176
999 WORDS_basaltiques~6 265
999 WORDFREQ_N/A 265
999 WORDSALL_basaltiques~6 265
999 COSIND_N/A 265
110 ESRank10 265
206 ESBackSacRegrLong-3-9 265
999 WORDS_neige~9 141
999 WORDFREQ_74.93 141
999 WORDSALL_avec~7_neige~9 141
999 COSIND_0.56 141
999 COSGEN_0.56 141
111 ESRank11 141
202 ESForwSacLong+3+9 141
999 WORDS_plus~11 359
999 WORDFREQ_5014.53 359
999 WORDSALL_neige~9_plus~11 359
999 COSIND_0.00 359
999 COSGEN_0.00 359
112 ESRank12 359
202 ESForwSacLong+2+4 359
999 WORDS_plus~11 249
999 WORDFREQ_5014.53 249
999 WORDSALL_neige~9_plus~11 249
999 COSIND_0.00 249
999 COSGEN_0.00 249
113 ESRank13 249
203 ESBackSacRefixation 249
999 WORDS_programme~13 343
999 WORDFREQ_21.89 343
999 WORDSALL_programme~13 343
999 COSIND_-0.03 343
999 COSGEN_-0.03 343
114 ESRank14 343
202 ESForwSacLong+2+4 343
999 WORDS_plateaux~5 142
999 WORDFREQ_8.78 142
999 WORDSALL_plateaux~5 142
999 COSIND_0.23 142
999 COSGEN_0.23 142
115 ESRank15 142
206 ESBackSacRegrLong-8-38 142
999 WORDS_randonnée~14 281
999 WORDFREQ_2.64 281
999 WORDSALL_randonnée~14 281
999 COSIND_0.70 281
999 COSGEN_0.70 281
116 ESRank16 281
202 ESForwSacLong+9+48 281
999 WORDS_raquettes~16 317
999 WORDFREQ_1.82 317
999 WORDSALL_en~15_raquettes~16 317
999 COSIND_0.48 317
999 COSGEN_0.48 317
117 ESRank17 317
202 ESForwSacLong+2+4 317
999 WORDS_guide~18 293
999 WORDFREQ_16.69 293
999 WORDSALL_guide~18 293
999 COSIND_0.55 293
999 COSGEN_0.55 293
118 ESRank18 293
202 ESForwSacLong+2+6 293
999 WORDS_fond~21 182
999 WORDFREQ_376.15 182
999 WORDSALL_ski~19_fond~21 182
999 COSIND_0.17 182
999 COSGEN_0.17 182
119 ESRank19 182
202 ESForwSacLong+3+8 182
999 WORDS_fond~21 178
999 WORDFREQ_376.15 178
999 WORDSALL_de~20_fond~21 178
999 COSIND_0.17 178
999 COSGEN_0.17 178
120 ESRank20 178
203 ESBackSacRefixation 178
999 WORDS_relaxation~23 348
999 WORDFREQ_0.68 348
999 WORDSALL_et~22_relaxation~23 348
999 COSIND_0.19 348
999 COSGEN_0.19 348
202 ESForwSacLong+2+4 348
999 WORDS_chaudes~27 203
999 WORDFREQ_13.18 203
999 WORDSALL_eaux~26_chaudes~27 203
999 COSIND_0.15 203
999 COSGEN_0.15 203
202 ESForwSacLong+4+15 203
999 WORDS_chaudes~27 211
999 WORDFREQ_13.18 211
999 WORDSALL_eaux~26_chaudes~27 211
999 COSIND_0.15 211
999 COSGEN_0.15 211
203 ESBackSacRefixation 211
999 WORDS_thermales~28 188
999 WORDFREQ_0.41 188
999 WORDSALL_thermales~28 188
999 COSIND_0.09 188
999 COSGEN_0.09 188
201 ESForwSacShort 188
999 WORDS_dans~24 148
999 WORDFREQ_8296.08 148
999 WORDSALL_dans~24 148
999 COSIND_N/A 148
206 ESBackSacRegrLong-4-18 148
999 WORDS_dans~24 135
999 WORDFREQ_8296.08 135
999 WORDSALL_dans~24 135
999 COSIND_N/A 135
203 ESBackSacRefixation 135
999 WORDS_montagne~31 161
999 WORDFREQ_49.8 161
999 WORDSALL_la~30_montagne~31 161
999 COSIND_0.88 161
999 COSGEN_0.88 161
202 ESForwSacLong+7+34 161
999 WORDS_montagne~31 147
999 WORDFREQ_49.8 147
999 WORDSALL_de~29_montagne~31 147
999 COSIND_0.88 147
999 COSGEN_0.88 147
203 ESBackSacRefixation 147
999 WORDS_thermales~28 169
999 WORDFREQ_0.41 169
999 WORDSALL_thermales~28 169
999 COSIND_0.09 169
999 COSGEN_0.09 169
206 ESBackSacRegrLong-3-7 169
200 ESRankN 169
199 ESRankNMinus1 147
198 ESRankNMinus2 161
197 ESRankNMinus3 135
196 ESRankNMinus4 148
195 ESRankNMinus5 188
194 ESRankNMinus6 211
193 ESRankNMinus7 203
192 ESRankNMinus8 348
191 ESRankNMinus9 178
190 ESRankNMinus10 182
