999 WORDS_connaissance~4 102
999 WORDFREQ_55.81 102
999 WORDSALL_que~2_connaissance~4 102
999 COSIND_0.12 102
999 COSGEN_0.12 102
101 ESRank1 102
999 WORDS_connaissance~4 130
999 WORDFREQ_55.81 130
999 WORDSALL_connaissance~4 130
999 COSIND_0.12 130
999 COSGEN_0.12 130
102 ESRank2 130
203 ESBackSacRefixation 130
999 WORDS_langue~6 116
999 WORDFREQ_103.78 116
999 WORDSALL_d'une~5_langue~6 116
999 COSIND_0.05 116
999 COSGEN_0.05 116
103 ESRank3 116
202 ESForwSacLong+2+7 116
999 WORDS_morte~7 95
999 WORDFREQ_28.18 95
999 WORDSALL_morte~7 95
999 COSIND_-0.01 95
999 COSGEN_-0.01 95
104 ESRank4 95
201 ESForwSacShort 95
999 WORDS_morte~7 81
999 WORDFREQ_28.18 81
999 WORDSALL_morte~7 81
999 COSIND_-0.01 81
999 COSGEN_-0.01 81
105 ESRank5 81
203 ESBackSacRefixation 81
999 WORDS_l'apprentissage~8 135
999 WORDFREQ_10.14 135
999 WORDSALL_l'apprentissage~8 135
999 COSIND_0.47 135
999 COSGEN_0.47 135
106 ESRank6 135
201 ESForwSacShort 135
999 WORDS_dès~11 175
999 WORDFREQ_275.07 175
999 WORDSALL_latin~10_dès~11 175
999 COSIND_0.02 175
999 COSGEN_0.02 175
107 ESRank7 175
202 ESForwSacLong+3+10 175
999 WORDS_latin~10 92
999 WORDFREQ_14.93 92
999 WORDSALL_du~9_latin~10 92
999 COSIND_0.06 92
999 COSGEN_0.06 92
108 ESRank8 92
205 ESBackSacRegrShort 92
999 WORDS_collège~13 143
999 WORDFREQ_25 143
999 WORDSALL_collège~13 143
999 COSIND_0.01 143
999 COSGEN_0.01 143
109 ESRank9 143
202 ESForwSacLong+3+9 143
999 WORDS_exercice~16 127
999 WORDFREQ_17.5 127
999 WORDSALL_exercice~16 127
999 COSIND_0.06 127
999 COSGEN_0.06 127
110 ESRank10 127
202 ESForwSacLong+3+8 127
999 WORDS_raisonnement~18 132
999 WORDFREQ_7.91 132
999 WORDSALL_raisonnement~18 132
999 COSIND_0.07 132
999 COSGEN_0.07 132
111 ESRank11 132
202 ESForwSacLong+2+4 132
999 WORDS_d'affirmation~20 176
999 WORDFREQ_4.66 176
999 WORDSALL_d'affirmation~20 176
999 COSIND_-0.07 176
999 COSGEN_-0.07 176
112 ESRank12 176
202 ESForwSacLong+2+4 176
999 WORDS_caractère~22 220
999 WORDFREQ_47.5 220
999 WORDSALL_du~21_caractère~22 220
999 COSIND_0.08 220
999 COSGEN_0.08 220
113 ESRank13 220
202 ESForwSacLong+2+4 220
999 WORDS_puissant~26 159
999 WORDFREQ_19.86 159
999 WORDSALL_puissant~26 159
999 COSIND_0.06 159
999 COSGEN_0.06 159
114 ESRank14 159
202 ESForwSacLong+4+11 159
999 WORDS_signe~27 107
999 WORDFREQ_119.19 107
999 WORDSALL_signe~27 107
999 COSIND_0.02 107
999 COSGEN_0.02 107
115 ESRank15 107
201 ESForwSacShort 107
999 WORDS_différence~29 94
999 WORDFREQ_38.65 94
999 WORDSALL_différence~29 94
999 COSIND_-0.03 94
999 COSGEN_-0.03 94
116 ESRank16 94
202 ESForwSacLong+2+4 94
200 ESRankN 94
199 ESRankNMinus1 107
198 ESRankNMinus2 159
197 ESRankNMinus3 220
196 ESRankNMinus4 176
195 ESRankNMinus5 132
194 ESRankNMinus6 127
193 ESRankNMinus7 143
192 ESRankNMinus8 92
191 ESRankNMinus9 175
190 ESRankNMinus10 135
