# 131 Fixation 1 (343,284.4): Californie~1
# 148 Fixation 2 (376,285.5): Californie~1
# 178 Fixation 3 (472.4,283.9): a~2
# 157 Fixation 4 (578.4,292.5): officiellement~3
# 203 Fixation 5 (678.6,288.5): déposé~4
# 144 Fixation 6 (290.7,330): La~0 Californie~1 plainte~5
# 136 Fixation 7 (265.8,341.4): La~0 Californie~1 plainte~5
# 179 Fixation 8 (362.2,342.4): Californie~1 plainte~5
# 95 Fixation 9 (426.5,342.7): Californie~1 a~2
# 240 Fixation 10 (492.9,346.9): a~2 officiellement~3 gouvernement~8
# 195 Fixation 11 (598.8,348.1): officiellement~3 gouvernement~8
# 121 Fixation 12 (656.3,349.7): des~9 l'application~14
# 100 Fixation 13 (311.2,382.1): plainte~5 États-Unis~10
# 135 Fixation 14 (258.4,394.5): plainte~5 États-Unis~10
# 144 Fixation 15 (416.3,393): contre~6 gouvernement~8 avoir~12
# 105 Fixation 16 (471,400.9): le~7 gouvernement~8 avoir~12
# 191 Fixation 17 (575.6,403): gouvernement~8 empêché~13
# 152 Fixation 18 (664.9,414.8): l'application~14
# 136 Fixation 19 (272.2,457.9): États-Unis~10
# 160 Fixation 20 (341.2,468.3): États-Unis~10 loi~17
# 274 Fixation 21 (435.1,462.4): pour~11 avoir~12 réduction~19
# 142 Fixation 22 (573.3,469.9): empêché~13
# 220 Fixation 23 (618.9,469.4): empêché~13 émissions~21
# 225 Fixation 24 (744.4,468.2): l'application~14 gaz~23
# 108 Fixation 25 (246.6,532.2): de~15 loi~17 à~24
# 144 Fixation 26 (291.5,527.5): de~15 loi~17 effet~25
# 170 Fixation 27 (402.8,525.5): loi~17 réduction~19 serre~27
# 279 Fixation 28 (545.2,524.1): réduction~19 automobiles~29
# 169 Fixation 29 (582.4,506.1): des~20 émissions~21 automobiles~29
# 104 Fixation 30 (594.4,530.8): des~20 émissions~21 automobiles~29
# 120 Fixation 31 (274.3,305.7): La~0 Californie~1 plainte~5
# 151 Fixation 32 (319.9,290.5): La~0 Californie~1
# 273 Fixation 33 (468.2,293.8): a~2
# 139 Fixation 34 (529.8,292.4): officiellement~3
# 330 Fixation 35 (669.6,297.2): déposé~4
# 142 Fixation 36 (315.3,341.6): La~0 Californie~1 plainte~5
# 156 Fixation 37 (266,346.4): La~0 Californie~1 plainte~5
# 176 Fixation 38 (350.9,345.8): Californie~1 plainte~5
# 97 Fixation 39 (416,343.6): Californie~1 a~2
# 335 Fixation 40 (500.1,350.8): le~7 gouvernement~8
# 109 Fixation 41 (520.7,347.4): officiellement~3 gouvernement~8
# 131 Fixation 42 (566.3,278.6): officiellement~3
# 211 Fixation 43 (670.9,293): déposé~4
# 147 Fixation 44 (499.8,280.8): a~2 officiellement~3
# 340 Fixation 45 (477.7,286.7): a~2 officiellement~3
%%
# La~0 Fixations= "37/"
# Californie~1 Fixations= "39/"
# a~2 Fixations= "45/"
# officiellement~3 Fixations= "45/"
# déposé~4 Fixations= "43/"
# plainte~5 Fixations= "38/"
# contre~6 Fixations= "15/"
# le~7 Fixations= "40/"
# gouvernement~8 Fixations= "41/"
# des~9 Fixations= "12/"
# États-Unis~10 Fixations= "20/"
# pour~11 Fixations= "21/"
# avoir~12 Fixations= "21/"
# empêché~13 Fixations= "23/"
# l'application~14 Fixations= "24/"
# de~15 Fixations= "26/"
# sa~16 Fixations= ""
# loi~17 Fixations= "27/"
# de~18 Fixations= ""
# réduction~19 Fixations= "28/"
# des~20 Fixations= "30/"
# émissions~21 Fixations= "30/"
# de~22 Fixations= ""
# gaz~23 Fixations= "24/"
# à~24 Fixations= "25/"
# effet~25 Fixations= "26/"
# de~26 Fixations= ""
# serre~27 Fixations= "27/"
# des~28 Fixations= ""
# automobiles~29 Fixations= "30/"
%%
#  LA[37] CALIFORNIE[39] A[45] OFFICIELLEMENT[45] DéPOSé[43] PLAINTE[38] CONTRE[15] LE[40] GOUVERNEMENT[41] DES[12] ÉTATS-UNIS[20] POUR[21] AVOIR[21] EMPêCHé[23] L'APPLICATION[24] DE[26] sa LOI[27] de RéDUCTION[28] DES[30] éMISSIONS[30] de GAZ[24] à[25] EFFET[26] de SERRE[27] des AUTOMOBILES[30]
# s06 prix_petrole-a2 PercentageOfWordsProcessed= 0.833333333333333 PercentageOfWordsReallyProcessed= 0.833333333333333
