# 177 Fixation 1 (276.4,261.1): Le~0 malaise~1
# 143 Fixation 2 (453.9,258.5): des~2 personnels~3
# 162 Fixation 3 (619.1,283.1): porte~4
# 242 Fixation 4 (636.4,310.7): porte~4
# 283 Fixation 5 (559.5,322.9): leur~10 statut~11
# 141 Fixation 6 (687.3,350.1): Ils~12 ont~13
# 173 Fixation 7 (599,393.9): de~19 teneur~21
# 239 Fixation 8 (437.4,393.3): par~16 direction~18
# 222 Fixation 9 (327.8,469.6): cette~23 réforme~24
# 178 Fixation 10 (441.1,452.3): réforme~24 juste~25
# 225 Fixation 11 (633.1,458.1): la~27 réunion~28
# 127 Fixation 12 (352.7,526.9): comité~30 devait~32
# 178 Fixation 13 (276.2,555.8): comité~30
# 202 Fixation 14 (467.4,530.5): devait~32 procéder~33
# 173 Fixation 15 (619,533.7): à~34
# 117 Fixation 16 (689.2,534): son~35 examen~36
# 94 Fixation 17 (433.3,540.3): devait~32
%%
# Le~0 Fixations= "1/"
# malaise~1 Fixations= "1/"
# des~2 Fixations= "2/"
# personnels~3 Fixations= "2/"
# porte~4 Fixations= "4/"
# également~5 Fixations= ""
# sur~6 Fixations= ""
# une~7 Fixations= ""
# réforme~8 Fixations= ""
# de~9 Fixations= ""
# leur~10 Fixations= "5/"
# statut~11 Fixations= "5/"
# Ils~12 Fixations= "6/"
# ont~13 Fixations= "6/"
# été~14 Fixations= ""
# avertis~15 Fixations= ""
# par~16 Fixations= "8/"
# la~17 Fixations= ""
# direction~18 Fixations= "8/"
# de~19 Fixations= "7/"
# la~20 Fixations= ""
# teneur~21 Fixations= "7/"
# de~22 Fixations= ""
# cette~23 Fixations= "9/"
# réforme~24 Fixations= "10/"
# juste~25 Fixations= "10/"
# avant~26 Fixations= ""
# la~27 Fixations= "11/"
# réunion~28 Fixations= "11/"
# du~29 Fixations= ""
# comité~30 Fixations= "13/"
# qui~31 Fixations= ""
# devait~32 Fixations= "17/"
# procéder~33 Fixations= "14/"
# à~34 Fixations= "15/"
# son~35 Fixations= "16/"
# examen~36 Fixations= "16/"
%%
#  LE[1] MALAISE[1] DES[2] PERSONNELS[2] PORTE[4] également sur une réforme de LEUR[5] STATUT[5] ILS[6] ONT[6] été avertis PAR[8] la DIRECTION[8] DE[7] la TENEUR[7] de CETTE[9] RéFORME[10] JUSTE[10] avant LA[11] RéUNION[11] du COMITé[13] qui DEVAIT[17] PROCéDER[14] à[15] SON[16] EXAMEN[16]
# s21 greve_cheminot-m2 PercentageOfWordsProcessed= 0.648648648648649 PercentageOfWordsReallyProcessed= 0.648648648648649
