# 139 Fixation 1 (285.5,284.8): L'équipe~0
# 172 Fixation 2 (409.8,282.7): cycliste~1
# 175 Fixation 3 (536.1,279.9): a~2 retrouvé~3
# 117 Fixation 4 (638.1,268.8): quelques~4
# 165 Fixation 5 (308.1,340.1): couleurs~5
# 205 Fixation 6 (436.2,335.2): sportives~6
# 128 Fixation 7 (601.5,354.4): alors~7 noms~10
# 124 Fixation 8 (686.5,354.4): les~9 noms~10
# 196 Fixation 9 (337.9,401.4): représentants~13
# 174 Fixation 10 (567.9,403.8): figuraient~14
# 133 Fixation 11 (703.1,422.7): plus~15 à~17
# 153 Fixation 12 (475.4,460.2): des~20 affaires~21
%%
# L'équipe~0 Fixations= "1/"
# cycliste~1 Fixations= "2/"
# a~2 Fixations= "3/"
# retrouvé~3 Fixations= "3/"
# quelques~4 Fixations= "4/"
# couleurs~5 Fixations= "5/"
# sportives~6 Fixations= "6/"
# alors~7 Fixations= "7/"
# que~8 Fixations= ""
# les~9 Fixations= "8/"
# noms~10 Fixations= "8/"
# de~11 Fixations= ""
# ses~12 Fixations= ""
# représentants~13 Fixations= "9/"
# figuraient~14 Fixations= "10/"
# plus~15 Fixations= "11/"
# souvent~16 Fixations= ""
# à~17 Fixations= "11/"
# la~18 Fixations= ""
# rubrique~19 Fixations= ""
# des~20 Fixations= "12/"
# affaires~21 Fixations= "12/"
# au~22 Fixations= ""
# gré~23 Fixations= ""
# des~24 Fixations= ""
# avancées~25 Fixations= ""
# des~26 Fixations= ""
# enquêtes~27 Fixations= ""
# liées~28 Fixations= ""
# au~29 Fixations= ""
# dopage~30 Fixations= ""
%%
#  L'éQUIPE[1] CYCLISTE[2] A[3] RETROUVé[3] QUELQUES[4] COULEURS[5] SPORTIVES[6] ALORS[7] que LES[8] NOMS[8] de ses REPRéSENTANTS[9] FIGURAIENT[10] PLUS[11] souvent à[11] la rubrique DES[12] AFFAIRES[12] au gré des avancées des enquêtes liées au dopage
# s17 course_voiliers-m2 PercentageOfWordsProcessed= 0.516129032258065 PercentageOfWordsReallyProcessed= 0.727272727272727
