s01, chasse_oiseaux-a1 - trigger_words : sera~22 0.10 - sera~22 0.10
s01, chasse_oiseaux-a2 - trigger_words : ambitieux~6 0.14 - ambitieux~6 0.14
s01, faiblesse_dollar-a1 - trigger_words : collectif~5 0.14 - collectif~5 0.14
s01, faiblesse_dollar-a2 - trigger_words : hommage~3 0.13 - hommage~3 0.13
s01, tourisme_montagne-a2 - trigger_words : nécessaire~22 0.17 - actions~26 0.17
s01, tourisme_montagne-a1 - trigger_words : sabordés~7 0.11 - sabordés~7 0.11
s01, decollage_fusee-a1 - trigger_words : noms~3 0.06 - grands~2 0.10
s01, decollage_fusee-a2 - trigger_words : artisan~3 0.11 - artisan~3 0.11
s01, plantation_fleurs-a2 - trigger_words : tir~4 0.15 - missile~6 0.16
s01, plantation_fleurs-a1 - trigger_words : responsabilité~7 0.13 - responsabilité~7 0.13
s01, hausse_bourse-a2 - trigger_words : but~19 0.13 - collectif~6 0.13
s01, hausse_bourse-a1 - trigger_words : transmis~25 0.12 - distinguer~2 0.12
s01, conflit_irak-a1 - trigger_words : l'affluence~5 0.17 - dimanche~7 0.19
s01, salon_aeronautique-a1 - trigger_words : n'ont~5 0.13 - sont~1 0.15
s01, salon_aeronautique-a2 - trigger_words : ont~13 0.13 - ont~13 0.13
s01, dechets_nucleaires-a2 - trigger_words : d'audace~24 0.09 - d'audace~24 0.09
s01, dechets_nucleaires-a1 - trigger_words : fête~2 0.06 - fête~2 0.06
s01, conflit_israelo_palestinien-a1 - trigger_words : vélos~12 0.09 - libre-service~14 0.09
s01, conflit_israelo_palestinien-a2 - trigger_words : laboratoires~1 0.14 - laboratoires~1 0.14
s01, delinquance_juvenile-a2 - trigger_words : constructeurs~2 0.04 - constructeurs~2 0.04
s01, delinquance_juvenile-a1 - trigger_words : Après~0 0.14 - Après~0 0.14
s01, victoire_footballeurs-a1 - trigger_words : mémoires~3 0.15 - livres~1 0.17
s01, victoire_footballeurs-a2 - trigger_words : conservateur~2 0.16 - fort~8 0.16
s01, art_contemporain-a1 - trigger_words : poudres~13 0.08 - dysfonctionnements~19 0.09
s01, art_contemporain-a2 - trigger_words : involontaires~5 0.11 - involontaires~5 0.11
s01, course_voiliers-a1 - trigger_words : l'usage~4 0.16 - souhaite~2 0.17
s01, course_voiliers-a2 - trigger_words : autorités~9 0.14 - fondateur~1 0.14
s01, reforme_justice-a2 - trigger_words : préférées~18 0.08 - préférées~18 0.08
s01, reforme_justice-a1 - trigger_words : n'apporte~2 0.14 - biologique~20 0.14
s01, chef_russie-a2 - trigger_words : système~20 0.16 - communes~16 0.18
s01, chef_russie-a1 - trigger_words : footballeurs~15 0.12 - mercato~5 0.16
s01, aide_refugies-a1 - trigger_words : 31~2 0.12 - 31~2 0.12
s01, aide_refugies-a2 - trigger_words : produit~26 0.11 - produit~26 0.11
s01, prix_litteraire-a1 - trigger_words : Toutes~0 0.11 - bigarré~3 0.13
s01, prix_litteraire-a2 - trigger_words : incendiée~13 0.13 - d'assises~8 0.15
s01, syndicat_agricole-a2 - trigger_words : Rajasthan~24 0.11 - l'épais~2 0.11
s01, syndicat_agricole-a1 - trigger_words : sérieusement~5 0.13 - sérieusement~5 0.13
s01, rehabilitation_logement-a1 - trigger_words : fugaces~11 0.08 - baie~1 0.16
s01, rehabilitation_logement-a2 - trigger_words : badminton~1 0.14 - badminton~1 0.14
s01, associations_humanitaires-a1 - trigger_words : passage~5 0.10 - produite~3 0.10
s01, associations_humanitaires-a2 - trigger_words : deuxième~5 0.13 - nageuse~1 0.14
s01, greve_cheminot-a2 - trigger_words : sélections~8 0.13 - XV~4 0.14
s01, greve_cheminot-a1 - trigger_words : musique~17 0.11 - musique~17 0.11
s01, croissance_economie-a2 - trigger_words : bagarre~15 0.06 - bagarre~15 0.06
s01, croissance_economie-a1 - trigger_words : dos~22 0.09 - portés~19 0.14
s01, allocation_familiale-a2 - trigger_words : pianiste~1 0.16 - pianiste~1 0.16
s01, allocation_familiale-a1 - trigger_words : passage~19 0.11 - au-dessus~20 0.11
s01, observation_planetes-a1 - trigger_words : déposée~4 0.11 - déposée~4 0.11
s01, tribunal_international-a2 - trigger_words : espaces~21 0.08 - Coincée~6 0.10
s01, tribunal_international-a1 - trigger_words : présente~13 0.13 - présente~13 0.13
s01, prix_petrole-a2 - trigger_words : officiellement~3 0.11 - officiellement~3 0.11
s01, reforme_enseignement-a2 - trigger_words : refrain~8 0.14 - plates-formes~10 0.14
s01, reforme_enseignement-a1 - trigger_words : Parker~3 0.13 - terrain~9 0.15
s01, rechauffement_climatique-a2 - trigger_words : courroucée~15 0.08 - courroucée~15 0.08
s01, rechauffement_climatique-a1 - trigger_words : Nacion~6 0.08 - Nacion~6 0.08
s01, formation_informatique-a1 - trigger_words : électeurs~4 0.12 - voisins~15 0.13
s01, formation_informatique-a2 - trigger_words : cueille~11 0.08 - cueille~11 0.08
s02, rehabilitation_logement-a2 - trigger_words : badminton~1 0.14 - badminton~1 0.14
s02, rehabilitation_logement-a1 - trigger_words : fugaces~11 0.08 - fugaces~11 0.08
s02, chef_russie-a2 - trigger_words : communes~16 0.18 - d'étendre~13 0.18
s02, chef_russie-a1 - trigger_words : footballeurs~15 0.12 - footballeurs~15 0.12
s02, chasse_oiseaux-a2 - trigger_words : producteur~26 0.12 - ambitieux~6 0.14
s02, chasse_oiseaux-a1 - trigger_words : sera~22 0.10 - sera~22 0.10
s02, conflit_israelo_palestinien-a1 - trigger_words : vélos~12 0.09 - libre-service~14 0.09
s02, conflit_israelo_palestinien-a2 - trigger_words : laboratoires~1 0.14 - laboratoires~1 0.14
s02, observation_planetes-a2 - trigger_words : Laure~0 0.08 - remporté~3 0.11
s02, observation_planetes-a1 - trigger_words : déposée~4 0.11 - déposée~4 0.11
s02, prix_petrole-a2 - trigger_words : officiellement~3 0.11 - déposé~4 0.13
s02, prix_petrole-a1 - trigger_words : passer~5 0.15 - L'interdiction~9 0.19
s02, associations_humanitaires-a2 - trigger_words : deuxième~5 0.13 - deuxième~5 0.13
s02, associations_humanitaires-a1 - trigger_words : passage~5 0.10 - produite~3 0.10
s02, hausse_bourse-a2 - trigger_words : but~19 0.13 - but~19 0.13
s02, hausse_bourse-a1 - trigger_words : distinguer~2 0.12 - croyances~11 0.16
s02, greve_cheminot-a2 - trigger_words : sélections~8 0.13 - XV~4 0.14
s02, greve_cheminot-a1 - trigger_words : musique~17 0.11 - musique~17 0.11
s02, allocation_familiale-a1 - trigger_words : têtes~23 0.12 - Spirit~2 0.13
s02, allocation_familiale-a2 - trigger_words : fait~5 0.15 - pianiste~1 0.16
s02, syndicat_agricole-a1 - trigger_words : sérieusement~5 0.13 - sérieusement~5 0.13
s02, syndicat_agricole-a2 - trigger_words : l'épais~2 0.11 - s'ajoute~15 0.12
s02, formation_informatique-a1 - trigger_words : électeurs~4 0.12 - électeurs~4 0.12
s02, formation_informatique-a2 - trigger_words : cueille~11 0.08 - cueille~11 0.08
s02, course_voiliers-a1 - trigger_words : peines~10 0.16 - peines~10 0.16
s02, course_voiliers-a2 - trigger_words : fondateur~1 0.14 - fondateur~1 0.14
s02, conflit_irak-a1 - trigger_words : fumer~3 0.20 - fumer~3 0.20
s02, conflit_irak-a2 - trigger_words : féminine~3 0.17 - L'entraîneur~0 0.17
s02, rechauffement_climatique-a2 - trigger_words : courroucée~15 0.08 - nationale~27 0.17
s02, rechauffement_climatique-a1 - trigger_words : Nacion~6 0.08 - Nacion~6 0.08
s02, reforme_enseignement-a2 - trigger_words : refrain~8 0.14 - refrain~8 0.14
s02, reforme_enseignement-a1 - trigger_words : Tony~2 0.10 - Parker~3 0.13
s02, tribunal_international-a1 - trigger_words : téléphones~11 0.16 - téléphones~11 0.16
s02, tribunal_international-a2 - trigger_words : Coincée~6 0.10 - Coincée~6 0.10
s02, dechets_nucleaires-a2 - trigger_words : monde~11 0.12 - tour~9 0.15
s02, dechets_nucleaires-a1 - trigger_words : fête~2 0.06 - fête~2 0.06
s02, faiblesse_dollar-a2 - trigger_words : hommage~3 0.13 - hommage~3 0.13
s02, faiblesse_dollar-a1 - trigger_words : collectif~5 0.14 - stade~15 0.17
s02, delinquance_juvenile-a1 - trigger_words : conquis~14 0.07 - Après~0 0.14
s02, aide_refugies-a2 - trigger_words : étonnante~30 0.17 - étonnante~30 0.17
s02, reforme_justice-a1 - trigger_words : n'apporte~2 0.14 - manipulation~19 0.22
s02, art_contemporain-a1 - trigger_words : poudres~13 0.08 - générale~4 0.12
s02, art_contemporain-a2 - trigger_words : tombé~20 0.10 - tombé~20 0.10
s02, tourisme_montagne-a2 - trigger_words : générale~6 0.18 - générale~6 0.18
s02, tourisme_montagne-a1 - trigger_words : sabordés~7 0.11 - cocaïne~3 0.17
s02, salon_aeronautique-a2 - trigger_words : cents~8 0.16 - cents~8 0.16
s02, salon_aeronautique-a1 - trigger_words : n'ont~5 0.13 - n'ont~5 0.13
s02, prix_litteraire-a2 - trigger_words : d'assises~8 0.15 - nuit~16 0.17
s02, prix_litteraire-a1 - trigger_words : Toutes~0 0.11 - bigarré~3 0.13
s02, victoire_footballeurs-a1 - trigger_words : mémoires~3 0.15 - mémoires~3 0.15
s02, victoire_footballeurs-a2 - trigger_words : État~18 0.12 - conservateur~2 0.16
s02, croissance_economie-a1 - trigger_words : coeurs~13 0.12 - Indiennes~4 0.20
s04, rehabilitation_logement-a2 - trigger_words : l'athlète~24 0.14 - l'athlète~24 0.14
s04, rechauffement_climatique-a2 - trigger_words : courroucée~15 0.08 - courroucée~15 0.08
s04, prix_litteraire-a1 - trigger_words : Toutes~0 0.11 - l'Hercules~29 0.12
s04, prix_litteraire-a2 - trigger_words : incendiée~13 0.13 - d'assises~8 0.15
s04, aide_refugies-a1 - trigger_words : minuit~5 0.13 - minuit~5 0.13
s04, aide_refugies-a2 - trigger_words : produit~26 0.11 - étonnante~30 0.17
s04, syndicat_agricole-a2 - trigger_words : Rajasthan~24 0.11 - l'épais~2 0.11
s04, delinquance_juvenile-a1 - trigger_words : conquis~14 0.07 - monde~18 0.10
s04, delinquance_juvenile-a2 - trigger_words : constructeurs~2 0.04 - constructeurs~2 0.04
s04, reforme_justice-a2 - trigger_words : préférées~18 0.08 - préférées~18 0.08
s04, reforme_justice-a1 - trigger_words : biosphère~31 0.12 - n'apporte~2 0.14
s04, greve_cheminot-a1 - trigger_words : musique~17 0.11 - musique~17 0.11
s04, reforme_enseignement-a1 - trigger_words : Tony~2 0.10 - Parker~3 0.13
s04, reforme_enseignement-a2 - trigger_words : tuent~14 0.07 - tuent~14 0.07
s04, chef_russie-a2 - trigger_words : système~20 0.16 - libre-service~24 0.16
s04, chef_russie-a1 - trigger_words : footballeurs~15 0.12 - électrisé~18 0.15
s04, victoire_footballeurs-a2 - trigger_words : État~18 0.12 - État~18 0.12
s04, course_voiliers-a2 - trigger_words : allusion~13 0.14 - autorités~9 0.14
s04, prix_petrole-a1 - trigger_words : lieux~14 0.14 - lieux~14 0.14
s04, prix_petrole-a2 - trigger_words : déposé~4 0.13 - plainte~5 0.13
s04, conflit_irak-a1 - trigger_words : queue~13 0.12 - queue~13 0.12
s04, tribunal_international-a2 - trigger_words : espaces~21 0.08 - Coincée~6 0.10
s04, art_contemporain-a1 - trigger_words : poudres~13 0.08 - dysfonctionnements~19 0.09
s04, allocation_familiale-a2 - trigger_words : grand~30 0.10 - Bach~24 0.12
s04, allocation_familiale-a1 - trigger_words : passage~19 0.11 - têtes~23 0.12
s04, faiblesse_dollar-a1 - trigger_words : collectif~5 0.14 - stade~15 0.17
s04, faiblesse_dollar-a2 - trigger_words : hommage~3 0.13 - hommage~3 0.13
s04, formation_informatique-a1 - trigger_words : électeurs~4 0.12 - électeurs~4 0.12
s04, formation_informatique-a2 - trigger_words : cueille~11 0.08 - cueille~11 0.08
s04, dechets_nucleaires-a2 - trigger_words : d'audace~24 0.09 - courage~22 0.12
s04, dechets_nucleaires-a1 - trigger_words : fête~2 0.06 - Luri~6 0.13
s04, observation_planetes-a1 - trigger_words : déposée~4 0.11 - portait~8 0.11
s04, croissance_economie-a2 - trigger_words : bagarre~15 0.06 - bagarre~15 0.06
s04, croissance_economie-a1 - trigger_words : dos~22 0.09 - dos~22 0.09
s04, conflit_israelo_palestinien-a1 - trigger_words : vélos~12 0.09 - libre-service~14 0.09
s04, associations_humanitaires-a2 - trigger_words : deuxième~5 0.13 - d'or~7 0.13
s04, associations_humanitaires-a1 - trigger_words : passage~5 0.10 - produite~3 0.10
s04, tourisme_montagne-a2 - trigger_words : nécessaire~22 0.17 - unités~17 0.17
s04, tourisme_montagne-a1 - trigger_words : sabordés~7 0.11 - sous-marin~10 0.11
s04, chasse_oiseaux-a1 - trigger_words : sera~22 0.10 - sera~22 0.10
s04, salon_aeronautique-a1 - trigger_words : n'ont~5 0.13 - n'ont~5 0.13
s04, hausse_bourse-a2 - trigger_words : but~19 0.13 - collectif~6 0.13
s04, hausse_bourse-a1 - trigger_words : transmis~25 0.12 - distinguer~2 0.12
s04, decollage_fusee-a2 - trigger_words : élu~22 0.10 - artisan~3 0.11
s04, plantation_fleurs-a2 - trigger_words : Pakistan~10 0.14 - Agni-2~8 0.14
s05, croissance_economie-a1 - trigger_words : dos~22 0.09 - coeurs~13 0.12
s05, croissance_economie-a2 - trigger_words : bagarre~15 0.06 - bagarre~15 0.06
s05, allocation_familiale-a2 - trigger_words : fait~5 0.15 - pianiste~1 0.16
s05, allocation_familiale-a1 - trigger_words : passage~19 0.11 - au-dessus~20 0.11
s05, greve_cheminot-a2 - trigger_words : 3e~1 0.11 - 3e~1 0.11
s05, greve_cheminot-a1 - trigger_words : musique~17 0.11 - musique~17 0.11
s05, observation_planetes-a2 - trigger_words : Laure~0 0.08 - Laure~0 0.08
s05, observation_planetes-a1 - trigger_words : déposée~4 0.11 - déposée~4 0.11
s05, reforme_justice-a2 - trigger_words : préférées~18 0.08 - préférées~18 0.08
s05, art_contemporain-a1 - trigger_words : poudres~13 0.08 - dysfonctionnements~19 0.09
s05, tribunal_international-a2 - trigger_words : espaces~21 0.08 - Coincée~6 0.10
s05, tribunal_international-a1 - trigger_words : laisse~25 0.12 - présente~13 0.13
s05, decollage_fusee-a2 - trigger_words : artisan~3 0.11 - artisan~3 0.11
s05, decollage_fusee-a1 - trigger_words : associés~12 0.05 - noms~3 0.06
s05, prix_litteraire-a1 - trigger_words : Toutes~0 0.11 - bigarré~3 0.13
s05, prix_litteraire-a2 - trigger_words : incendiée~13 0.13 - d'assises~8 0.15
s05, faiblesse_dollar-a1 - trigger_words : collectif~5 0.14 - collectif~5 0.14
s05, faiblesse_dollar-a2 - trigger_words : hommage~3 0.13 - rend~2 0.17
s05, hausse_bourse-a1 - trigger_words : distinguer~2 0.12 - croyances~11 0.16
s05, hausse_bourse-a2 - trigger_words : collectif~6 0.13 - football~1 0.19
s05, formation_informatique-a2 - trigger_words : cueille~11 0.08 - cueille~11 0.08
s05, formation_informatique-a1 - trigger_words : électeurs~4 0.12 - électeurs~4 0.12
s05, conflit_israelo_palestinien-a2 - trigger_words : laboratoires~1 0.14 - laboratoires~1 0.14
s05, rechauffement_climatique-a1 - trigger_words : Nacion~6 0.08 - Nacion~6 0.08
s05, rechauffement_climatique-a2 - trigger_words : courroucée~15 0.08 - courroucée~15 0.08
s05, aide_refugies-a2 - trigger_words : voie~17 0.18 - a~4 0.18
s05, aide_refugies-a1 - trigger_words : minuit~5 0.13 - minuit~5 0.13
s05, salon_aeronautique-a2 - trigger_words : cents~8 0.16 - cents~8 0.16
s05, salon_aeronautique-a1 - trigger_words : n'ont~5 0.13 - n'ont~5 0.13
s05, delinquance_juvenile-a2 - trigger_words : constructeurs~2 0.04 - l'automobile~15 0.13
s05, delinquance_juvenile-a1 - trigger_words : conquis~14 0.07 - monde~18 0.10
s05, prix_petrole-a1 - trigger_words : lieux~14 0.14 - lieux~14 0.14
s05, prix_petrole-a2 - trigger_words : officiellement~3 0.11 - déposé~4 0.13
s05, syndicat_agricole-a2 - trigger_words : Rajasthan~24 0.11 - Rajasthan~24 0.11
s05, syndicat_agricole-a1 - trigger_words : sérieusement~5 0.13 - sérieusement~5 0.13
s05, conflit_irak-a2 - trigger_words : féminine~3 0.17 - L'entraîneur~0 0.17
s05, conflit_irak-a1 - trigger_words : l'affluence~5 0.17 - dimanche~7 0.19
s05, chasse_oiseaux-a1 - trigger_words : décidé~7 0.16 - décidé~7 0.16
s05, chasse_oiseaux-a2 - trigger_words : ambitieux~6 0.14 - Z~23 0.16
s05, chef_russie-a2 - trigger_words : vélos~22 0.11 - libre-service~24 0.11
s05, chef_russie-a1 - trigger_words : mercato~5 0.16 - mercato~5 0.16
s05, victoire_footballeurs-a2 - trigger_words : conservateur~2 0.16 - fort~8 0.16
s05, victoire_footballeurs-a1 - trigger_words : mémoires~3 0.15 - mémoires~3 0.15
s05, plantation_fleurs-a2 - trigger_words : répliqué~12 0.10 - balistique~21 0.14
s05, plantation_fleurs-a1 - trigger_words : survenus~17 0.10 - responsabilité~7 0.13
s05, course_voiliers-a2 - trigger_words : allusion~13 0.14 - autorités~9 0.14
s05, course_voiliers-a1 - trigger_words : l'usage~4 0.16 - peines~10 0.16
s05, rehabilitation_logement-a2 - trigger_words : badminton~1 0.14 - compétition~22 0.16
s05, rehabilitation_logement-a1 - trigger_words : fugaces~11 0.08 - fugaces~11 0.08
s05, dechets_nucleaires-a1 - trigger_words : fête~2 0.06 - fête~2 0.06
s05, dechets_nucleaires-a2 - trigger_words : d'audace~24 0.09 - courage~22 0.12
s05, associations_humanitaires-a1 - trigger_words : passage~5 0.10 - produite~3 0.10
s05, associations_humanitaires-a2 - trigger_words : deuxième~5 0.13 - d'or~7 0.13
s05, reforme_enseignement-a2 - trigger_words : tuent~14 0.07 - refrain~8 0.14
s05, reforme_enseignement-a1 - trigger_words : Tony~2 0.10 - Parker~3 0.13
s05, tourisme_montagne-a1 - trigger_words : cocaïne~3 0.17 - cocaïne~3 0.17
s05, tourisme_montagne-a2 - trigger_words : unités~17 0.17 - unités~17 0.17
s06, plantation_fleurs-a1 - trigger_words : responsabilité~7 0.13 - responsabilité~7 0.13
s06, plantation_fleurs-a2 - trigger_words : répliqué~12 0.10 - Pakistan~10 0.14
s06, decollage_fusee-a1 - trigger_words : associés~12 0.05 - associés~12 0.05
s06, decollage_fusee-a2 - trigger_words : artisan~3 0.11 - artisan~3 0.11
s06, art_contemporain-a1 - trigger_words : poudres~13 0.08 - dysfonctionnements~19 0.09
s06, art_contemporain-a2 - trigger_words : involontaires~5 0.11 - involontaires~5 0.11
s06, dechets_nucleaires-a1 - trigger_words : fête~2 0.06 - fête~2 0.06
s06, dechets_nucleaires-a2 - trigger_words : monde~11 0.12 - tour~9 0.15
s06, prix_petrole-a1 - trigger_words : lieux~14 0.14 - lieux~14 0.14
s06, prix_petrole-a2 - trigger_words : officiellement~3 0.11 - officiellement~3 0.11
s06, aide_refugies-a2 - trigger_words : produit~26 0.11 - voie~17 0.18
s06, aide_refugies-a1 - trigger_words : minuit~5 0.13 - renouveler~21 0.15
s06, associations_humanitaires-a2 - trigger_words : petit~14 0.12 - emporté~26 0.12
s06, associations_humanitaires-a1 - trigger_words : passage~5 0.10 - produite~3 0.10
s06, syndicat_agricole-a2 - trigger_words : Rajasthan~24 0.11 - l'épais~2 0.11
s06, syndicat_agricole-a1 - trigger_words : sérieusement~5 0.13 - mercredi~21 0.14
s06, allocation_familiale-a1 - trigger_words : Spirit~2 0.13 - juin~13 0.15
s06, allocation_familiale-a2 - trigger_words : fait~5 0.15 - pianiste~1 0.16
s06, hausse_bourse-a1 - trigger_words : distinguer~2 0.12 - distinguer~2 0.12
s06, hausse_bourse-a2 - trigger_words : collectif~6 0.13 - collectif~6 0.13
s06, observation_planetes-a2 - trigger_words : Laure~0 0.08 - Manaudou~1 0.14
s06, observation_planetes-a1 - trigger_words : déposée~4 0.11 - déposée~4 0.11
s06, reforme_enseignement-a1 - trigger_words : Tony~2 0.10 - Parker~3 0.13
s06, reforme_enseignement-a2 - trigger_words : tuent~14 0.07 - refrain~8 0.14
s06, chef_russie-a1 - trigger_words : footballeurs~15 0.12 - footballeurs~15 0.12
s06, faiblesse_dollar-a1 - trigger_words : collectif~5 0.14 - collectif~5 0.14
s06, faiblesse_dollar-a2 - trigger_words : hommage~3 0.13 - rend~2 0.17
s06, rehabilitation_logement-a1 - trigger_words : fugaces~11 0.08 - baie~1 0.16
s06, rehabilitation_logement-a2 - trigger_words : badminton~1 0.14 - badminton~1 0.14
s06, delinquance_juvenile-a1 - trigger_words : conquis~14 0.07 - Après~0 0.14
s06, delinquance_juvenile-a2 - trigger_words : constructeurs~2 0.04 - constructeurs~2 0.04
s06, rechauffement_climatique-a1 - trigger_words : Nacion~6 0.08 - Nacion~6 0.08
s06, course_voiliers-a1 - trigger_words : l'usage~4 0.16 - l'usage~4 0.16
s06, course_voiliers-a2 - trigger_words : autorités~9 0.14 - autorités~9 0.14
s06, salon_aeronautique-a2 - trigger_words : cents~8 0.16 - Cinq~7 0.16
s06, salon_aeronautique-a1 - trigger_words : n'ont~5 0.13 - n'ont~5 0.13
s06, croissance_economie-a2 - trigger_words : bagarre~15 0.06 - bagarre~15 0.06
s06, croissance_economie-a1 - trigger_words : dos~22 0.09 - dos~22 0.09
s06, formation_informatique-a2 - trigger_words : cueille~11 0.08 - cueille~11 0.08
s06, formation_informatique-a1 - trigger_words : électeurs~4 0.12 - électeurs~4 0.12
s06, victoire_footballeurs-a1 - trigger_words : mémoires~3 0.15 - inégale~12 0.15
s06, victoire_footballeurs-a2 - trigger_words : conservateur~2 0.16 - conservateur~2 0.16
s06, greve_cheminot-a1 - trigger_words : musique~17 0.11 - musique~17 0.11
s06, greve_cheminot-a2 - trigger_words : 3e~1 0.11 - sélections~8 0.13
s06, tourisme_montagne-a1 - trigger_words : sabordés~7 0.11 - cocaïne~3 0.17
s06, tourisme_montagne-a2 - trigger_words : générale~6 0.18 - faut~1 0.18
s06, conflit_israelo_palestinien-a2 - trigger_words : laboratoires~1 0.14 - laboratoires~1 0.14
s06, tribunal_international-a2 - trigger_words : Coincée~6 0.10 - Coincée~6 0.10
s06, tribunal_international-a1 - trigger_words : présente~13 0.13 - mobiles~12 0.14
s06, conflit_irak-a2 - trigger_words : adjoint~15 0.15 - féminine~3 0.17
s06, conflit_irak-a1 - trigger_words : queue~13 0.12 - l'affluence~5 0.17
s06, prix_litteraire-a2 - trigger_words : d'assises~8 0.15 - d'assises~8 0.15
s06, prix_litteraire-a1 - trigger_words : bigarré~3 0.13 - bigarré~3 0.13
s06, chasse_oiseaux-a2 - trigger_words : ambitieux~6 0.14 - ambitieux~6 0.14
s07, conflit_israelo_palestinien-a2 - trigger_words : laboratoires~1 0.14 - laboratoires~1 0.14
s07, salon_aeronautique-a1 - trigger_words : n'ont~5 0.13 - sont~1 0.15
s07, syndicat_agricole-a2 - trigger_words : l'épais~2 0.11 - brouillard~3 0.13
s07, greve_cheminot-a2 - trigger_words : colonnes~16 0.11 - colonnes~16 0.11
s07, greve_cheminot-a1 - trigger_words : musique~17 0.11 - européenne~2 0.15
s07, decollage_fusee-a2 - trigger_words : artisan~3 0.11 - artisan~3 0.11
s07, decollage_fusee-a1 - trigger_words : grands~2 0.10 - présents~9 0.10
s07, conflit_irak-a2 - trigger_words : adjoint~15 0.15 - champion~10 0.16
s07, conflit_irak-a1 - trigger_words : l'affluence~5 0.17 - dimanche~7 0.19
s07, victoire_footballeurs-a1 - trigger_words : mémoires~3 0.15 - livres~1 0.17
s07, victoire_footballeurs-a2 - trigger_words : conservateur~2 0.16 - conservateur~2 0.16
s07, delinquance_juvenile-a1 - trigger_words : monde~18 0.10 - utilisé~23 0.14
s07, delinquance_juvenile-a2 - trigger_words : constructeurs~2 0.04 - automobiles~3 0.14
s07, croissance_economie-a1 - trigger_words : Indiennes~4 0.20 - récoltent~5 0.24
s07, croissance_economie-a2 - trigger_words : bagarre~15 0.06 - venus~5 0.11
s07, observation_planetes-a1 - trigger_words : déposée~4 0.11 - déposée~4 0.11
s07, observation_planetes-a2 - trigger_words : Laure~0 0.08 - remporté~3 0.11
s07, prix_litteraire-a1 - trigger_words : Toutes~0 0.11 - bigarré~3 0.13
s07, prix_litteraire-a2 - trigger_words : d'assises~8 0.15 - nuit~16 0.17
s07, hausse_bourse-a1 - trigger_words : distinguer~2 0.12 - croyances~11 0.16
s07, hausse_bourse-a2 - trigger_words : collectif~6 0.13 - football~1 0.19
s07, plantation_fleurs-a1 - trigger_words : responsabilité~7 0.13 - pénale~8 0.17
s07, plantation_fleurs-a2 - trigger_words : tir~4 0.15 - missile~6 0.16
s07, rechauffement_climatique-a2 - trigger_words : sortir~5 0.20 - traité~7 0.21
s07, rechauffement_climatique-a1 - trigger_words : Nacion~6 0.08 - cité~3 0.11
s07, formation_informatique-a1 - trigger_words : électeurs~4 0.12 - voisins~15 0.13
s07, formation_informatique-a2 - trigger_words : tomate~17 0.20 - cultiver~2 0.21
s07, reforme_enseignement-a2 - trigger_words : refrain~8 0.14 - plates-formes~10 0.14
s07, aide_refugies-a2 - trigger_words : voie~17 0.18 - France~12 0.18
s07, aide_refugies-a1 - trigger_words : minuit~5 0.13 - clubs~15 0.18
s07, chasse_oiseaux-a2 - trigger_words : ambitieux~6 0.14 - ambitieux~6 0.14
s07, chasse_oiseaux-a1 - trigger_words : décidé~7 0.16 - créer~9 0.16
s07, tourisme_montagne-a1 - trigger_words : sabordés~7 0.11 - sous-marin~10 0.11
s07, tourisme_montagne-a2 - trigger_words : nécessaire~22 0.17 - unités~17 0.17
s07, dechets_nucleaires-a1 - trigger_words : fête~2 0.06 - Luri~6 0.13
s07, dechets_nucleaires-a2 - trigger_words : monde~11 0.12 - tenter~7 0.19
s07, reforme_justice-a1 - trigger_words : n'apporte~2 0.14 - apporté~9 0.15
s07, reforme_justice-a2 - trigger_words : Noah~3 0.14 - chanteur~1 0.17
s07, associations_humanitaires-a1 - trigger_words : passage~5 0.10 - produite~3 0.10
s07, associations_humanitaires-a2 - trigger_words : deuxième~5 0.13 - nageuse~1 0.14
s07, art_contemporain-a2 - trigger_words : involontaires~5 0.11 - blessures~4 0.12
s07, art_contemporain-a1 - trigger_words : dysfonctionnements~19 0.09 - générale~4 0.12
s07, faiblesse_dollar-a2 - trigger_words : skippeur~1 0.15 - rend~2 0.17
s07, faiblesse_dollar-a1 - trigger_words : équipes~9 0.18 - football~1 0.22
s07, tribunal_international-a1 - trigger_words : présente~13 0.13 - mobiles~12 0.14
s07, tribunal_international-a2 - trigger_words : Coincée~6 0.10 - mal~4 0.10
s07, rehabilitation_logement-a1 - trigger_words : fugaces~11 0.08 - baie~1 0.16
s07, rehabilitation_logement-a2 - trigger_words : badminton~1 0.14 - badminton~1 0.14
s07, chef_russie-a2 - trigger_words : vélos~22 0.11 - vélos~22 0.11
s07, chef_russie-a1 - trigger_words : mercato~5 0.16 - bon~4 0.16
s07, prix_petrole-a2 - trigger_words : déposé~4 0.13 - plainte~5 0.13
s07, prix_petrole-a1 - trigger_words : passer~5 0.15 - L'interdiction~9 0.19
s07, allocation_familiale-a1 - trigger_words : Spirit~2 0.13 - bombardier~1 0.16
s07, allocation_familiale-a2 - trigger_words : Bach~24 0.12 - pianiste~1 0.16
s07, course_voiliers-a2 - trigger_words : autorités~9 0.14 - fondateur~1 0.14
s08, decollage_fusee-a2 - trigger_words : artisan~3 0.11 - France~9 0.12
s08, decollage_fusee-a1 - trigger_words : noms~3 0.06 - noms~3 0.06
s08, reforme_enseignement-a2 - trigger_words : tuent~14 0.07 - refrain~8 0.14
s08, reforme_enseignement-a1 - trigger_words : Tony~2 0.10 - Parker~3 0.13
s08, course_voiliers-a2 - trigger_words : autorités~9 0.14 - autorités~9 0.14
s08, course_voiliers-a1 - trigger_words : l'usage~4 0.16 - l'usage~4 0.16
s08, associations_humanitaires-a2 - trigger_words : petit~14 0.12 - deuxième~5 0.13
s08, associations_humanitaires-a1 - trigger_words : passage~5 0.10 - produite~3 0.10
s08, rechauffement_climatique-a1 - trigger_words : Nacion~6 0.08 - Nacion~6 0.08
s08, chef_russie-a1 - trigger_words : électrisé~18 0.15 - mercato~5 0.16
s08, chef_russie-a2 - trigger_words : vélos~22 0.11 - vélos~22 0.11
s08, dechets_nucleaires-a1 - trigger_words : fête~2 0.06 - fête~2 0.06
s08, dechets_nucleaires-a2 - trigger_words : d'audace~24 0.09 - d'audace~24 0.09
s08, prix_litteraire-a2 - trigger_words : d'assises~8 0.15 - Haute-Corse~10 0.15
s08, prix_litteraire-a1 - trigger_words : Toutes~0 0.11 - bigarré~3 0.13
s08, conflit_irak-a1 - trigger_words : queue~13 0.12 - courses~26 0.16
s08, conflit_irak-a2 - trigger_words : coach~14 0.14 - petites~21 0.14
s08, observation_planetes-a1 - trigger_words : déposée~4 0.11 - portait~8 0.11
s08, observation_planetes-a2 - trigger_words : Laure~0 0.08 - petit~18 0.09
s08, rehabilitation_logement-a2 - trigger_words : badminton~1 0.14 - badminton~1 0.14
s08, rehabilitation_logement-a1 - trigger_words : fugaces~11 0.08 - fugaces~11 0.08
s08, tribunal_international-a1 - trigger_words : présente~13 0.13 - mobiles~12 0.14
s08, tribunal_international-a2 - trigger_words : espaces~21 0.08 - Coincée~6 0.10
s08, croissance_economie-a2 - trigger_words : venus~5 0.11 - venus~5 0.11
s08, croissance_economie-a1 - trigger_words : dos~22 0.09 - coeurs~13 0.12
s08, faiblesse_dollar-a2 - trigger_words : hommage~3 0.13 - hommage~3 0.13
s08, faiblesse_dollar-a1 - trigger_words : collectif~5 0.14 - sport~4 0.18
s08, plantation_fleurs-a1 - trigger_words : responsabilité~7 0.13 - responsabilité~7 0.13
s08, plantation_fleurs-a2 - trigger_words : tir~4 0.15 - missile~6 0.16
s08, reforme_justice-a2 - trigger_words : tete~13 0.09 - Yannick~2 0.11
s08, reforme_justice-a1 - trigger_words : n'apporte~2 0.14 - n'apporte~2 0.14
s08, formation_informatique-a2 - trigger_words : cueille~11 0.08 - cueille~11 0.08
s08, formation_informatique-a1 - trigger_words : électeurs~4 0.12 - voisins~15 0.13
s08, delinquance_juvenile-a1 - trigger_words : conquis~14 0.07 - utilisé~23 0.14
s08, delinquance_juvenile-a2 - trigger_words : constructeurs~2 0.04 - constructeurs~2 0.04
s08, conflit_israelo_palestinien-a2 - trigger_words : laboratoires~1 0.14 - laboratoires~1 0.14
s08, conflit_israelo_palestinien-a1 - trigger_words : vélos~12 0.09 - libre-service~14 0.09
s08, art_contemporain-a2 - trigger_words : chute~14 0.11 - involontaires~5 0.11
s08, art_contemporain-a1 - trigger_words : dysfonctionnements~19 0.09 - dysfonctionnements~19 0.09
s08, greve_cheminot-a1 - trigger_words : musique~17 0.11 - musique~17 0.11
s08, greve_cheminot-a2 - trigger_words : XV~4 0.14 - XV~4 0.14
s08, allocation_familiale-a2 - trigger_words : Bach~24 0.12 - Bach~24 0.12
s08, allocation_familiale-a1 - trigger_words : Spirit~2 0.13 - Spirit~2 0.13
s08, hausse_bourse-a2 - trigger_words : collectif~6 0.13 - ovale~31 0.13
s08, hausse_bourse-a1 - trigger_words : distinguer~2 0.12 - civilisation~5 0.16
s08, victoire_footballeurs-a2 - trigger_words : État~18 0.12 - État~18 0.12
s08, victoire_footballeurs-a1 - trigger_words : mémoires~3 0.15 - inégal~15 0.16
s08, syndicat_agricole-a1 - trigger_words : sérieusement~5 0.13 - sérieusement~5 0.13
s08, syndicat_agricole-a2 - trigger_words : l'épais~2 0.11 - l'épais~2 0.11
s08, tourisme_montagne-a2 - trigger_words : nécessaire~22 0.17 - nécessaire~22 0.17
s08, tourisme_montagne-a1 - trigger_words : sabordés~7 0.11 - sabordés~7 0.11
s08, salon_aeronautique-a1 - trigger_words : n'ont~5 0.13 - n'ont~5 0.13
s08, salon_aeronautique-a2 - trigger_words : rues~17 0.16 - neige~1 0.18
s08, chasse_oiseaux-a1 - trigger_words : sera~22 0.10 - sera~22 0.10
s08, prix_petrole-a2 - trigger_words : officiellement~3 0.11 - déposé~4 0.13
s10, decollage_fusee-a1 - trigger_words : noms~3 0.06 - grands~2 0.10
s10, decollage_fusee-a2 - trigger_words : artisan~3 0.11 - artisan~3 0.11
s10, delinquance_juvenile-a2 - trigger_words : constructeurs~2 0.04 - automobiles~3 0.14
s10, delinquance_juvenile-a1 - trigger_words : conquis~14 0.07 - Sud~3 0.15
s10, plantation_fleurs-a2 - trigger_words : répliqué~12 0.10 - Pakistan~10 0.14
s10, plantation_fleurs-a1 - trigger_words : survenus~17 0.10 - responsabilité~7 0.13
s10, reforme_enseignement-a2 - trigger_words : tuent~14 0.07 - refrain~8 0.14
s10, reforme_enseignement-a1 - trigger_words : Tony~2 0.10 - Parker~3 0.13
s10, prix_petrole-a1 - trigger_words : passer~5 0.15 - atteinte~25 0.16
s10, art_contemporain-a1 - trigger_words : poudres~13 0.08 - dysfonctionnements~19 0.09
s10, art_contemporain-a2 - trigger_words : fermetures~26 0.10 - sécurité~28 0.11
s10, course_voiliers-a2 - trigger_words : autorités~9 0.14 - autorités~9 0.14
s10, course_voiliers-a1 - trigger_words : l'usage~4 0.16 - peines~10 0.16
s10, prix_litteraire-a2 - trigger_words : acte~29 0.15 - acte~29 0.15
s10, prix_litteraire-a1 - trigger_words : Toutes~0 0.11 - l'Hercules~29 0.12
s10, conflit_israelo_palestinien-a1 - trigger_words : vélos~12 0.09 - libre-service~14 0.09
s10, conflit_israelo_palestinien-a2 - trigger_words : laboratoires~1 0.14 - laboratoires~1 0.14
s10, formation_informatique-a1 - trigger_words : électeurs~4 0.12 - voisins~15 0.13
s10, formation_informatique-a2 - trigger_words : cueille~11 0.08 - cueille~11 0.08
s10, chef_russie-a2 - trigger_words : vélos~22 0.11 - d'étendre~13 0.18
s10, chef_russie-a1 - trigger_words : électrisé~18 0.15 - mercato~5 0.16
s10, aide_refugies-a1 - trigger_words : minuit~5 0.13 - effectif~23 0.14
s10, aide_refugies-a2 - trigger_words : étonnante~30 0.17 - France~12 0.18
s10, faiblesse_dollar-a1 - trigger_words : collectif~5 0.14 - sport~4 0.18
s10, faiblesse_dollar-a2 - trigger_words : hommage~3 0.13 - rend~2 0.17
s10, dechets_nucleaires-a2 - trigger_words : d'audace~24 0.09 - d'audace~24 0.09
s10, dechets_nucleaires-a1 - trigger_words : fête~2 0.06 - fête~2 0.06
s10, reforme_justice-a2 - trigger_words : tete~13 0.09 - Yannick~2 0.11
s10, reforme_justice-a1 - trigger_words : biosphère~31 0.12 - n'apporte~2 0.14
s10, rehabilitation_logement-a2 - trigger_words : badminton~1 0.14 - badminton~1 0.14
s10, rehabilitation_logement-a1 - trigger_words : fugaces~11 0.08 - fugaces~11 0.08
s10, hausse_bourse-a2 - trigger_words : collectif~6 0.13 - collectif~6 0.13
s10, hausse_bourse-a1 - trigger_words : distinguer~2 0.12 - croyances~11 0.16
s10, victoire_footballeurs-a1 - trigger_words : mémoires~3 0.15 - mémoires~3 0.15
s10, victoire_footballeurs-a2 - trigger_words : conservateur~2 0.16 - a~3 0.20
s10, rechauffement_climatique-a2 - trigger_words : elle~13 0.18 - sortir~5 0.20
s10, rechauffement_climatique-a1 - trigger_words : Nacion~6 0.08 - Nacion~6 0.08
s10, tribunal_international-a1 - trigger_words : doute~29 0.12 - laisse~25 0.12
s10, tribunal_international-a2 - trigger_words : espaces~21 0.08 - Coincée~6 0.10
s10, syndicat_agricole-a1 - trigger_words : sérieusement~5 0.13 - sérieusement~5 0.13
s10, syndicat_agricole-a2 - trigger_words : Rajasthan~24 0.11 - l'épais~2 0.11
s10, salon_aeronautique-a1 - trigger_words : n'ont~5 0.13 - n'ont~5 0.13
s10, salon_aeronautique-a2 - trigger_words : cents~8 0.16 - Gap~19 0.16
s10, tourisme_montagne-a1 - trigger_words : détruire~30 0.13 - forces~23 0.16
s10, tourisme_montagne-a2 - trigger_words : unités~17 0.17 - générale~6 0.18
s10, allocation_familiale-a1 - trigger_words : passage~19 0.11 - passage~19 0.11
s10, allocation_familiale-a2 - trigger_words : fait~5 0.15 - pianiste~1 0.16
s10, conflit_irak-a2 - trigger_words : coach~14 0.14 - coach~14 0.14
s10, conflit_irak-a1 - trigger_words : l'affluence~5 0.17 - dimanche~7 0.19
s10, chasse_oiseaux-a2 - trigger_words : producteur~26 0.12 - ambitieux~6 0.14
s10, chasse_oiseaux-a1 - trigger_words : sera~22 0.10 - sera~22 0.10
s10, croissance_economie-a2 - trigger_words : venus~5 0.11 - venus~5 0.11
s10, greve_cheminot-a1 - trigger_words : musique~17 0.11 - jeux~22 0.14
s10, greve_cheminot-a2 - trigger_words : XV~4 0.14 - bien~21 0.18
s10, observation_planetes-a2 - trigger_words : Laure~0 0.08 - remporté~3 0.11
s13, croissance_economie-a1 - trigger_words : coeurs~13 0.12 - coeurs~13 0.12
s13, croissance_economie-a2 - trigger_words : bagarre~15 0.06 - bagarre~15 0.06
s13, decollage_fusee-a2 - trigger_words : artisan~3 0.11 - artisan~3 0.11
s13, decollage_fusee-a1 - trigger_words : associés~12 0.05 - noms~3 0.06
s13, tribunal_international-a1 - trigger_words : présente~13 0.13 - mobiles~12 0.14
s13, tribunal_international-a2 - trigger_words : Coincée~6 0.10 - Coincée~6 0.10
s13, associations_humanitaires-a2 - trigger_words : petit~14 0.12 - deuxième~5 0.13
s13, associations_humanitaires-a1 - trigger_words : passage~5 0.10 - produite~3 0.10
s13, greve_cheminot-a1 - trigger_words : musique~17 0.11 - musique~17 0.11
s13, greve_cheminot-a2 - trigger_words : colonnes~16 0.11 - colonnes~16 0.11
s13, aide_refugies-a1 - trigger_words : minuit~5 0.13 - renouveler~21 0.15
s13, aide_refugies-a2 - trigger_words : produit~26 0.11 - voie~17 0.18
s13, art_contemporain-a2 - trigger_words : tombé~20 0.10 - involontaires~5 0.11
s13, art_contemporain-a1 - trigger_words : poudres~13 0.08 - dysfonctionnements~19 0.09
s13, syndicat_agricole-a1 - trigger_words : sérieusement~5 0.13 - sérieusement~5 0.13
s13, syndicat_agricole-a2 - trigger_words : l'épais~2 0.11 - l'épais~2 0.11
s13, chasse_oiseaux-a2 - trigger_words : ambitieux~6 0.14 - ambitieux~6 0.14
s13, chasse_oiseaux-a1 - trigger_words : décidé~7 0.16 - créer~9 0.16
s13, delinquance_juvenile-a1 - trigger_words : conquis~14 0.07 - utilisé~23 0.14
s13, delinquance_juvenile-a2 - trigger_words : constructeurs~2 0.04 - automobiles~3 0.14
s13, course_voiliers-a2 - trigger_words : allusion~13 0.14 - autorités~9 0.14
s13, course_voiliers-a1 - trigger_words : l'usage~4 0.16 - l'usage~4 0.16
s13, prix_petrole-a1 - trigger_words : lieux~14 0.14 - lieux~14 0.14
s13, prix_petrole-a2 - trigger_words : déposé~4 0.13 - plainte~5 0.13
s13, faiblesse_dollar-a1 - trigger_words : collectif~5 0.14 - collectif~5 0.14
s13, faiblesse_dollar-a2 - trigger_words : hommage~3 0.13 - rend~2 0.17
s13, prix_litteraire-a2 - trigger_words : incendiée~13 0.13 - d'assises~8 0.15
s13, prix_litteraire-a1 - trigger_words : Toutes~0 0.11 - bigarré~3 0.13
s13, rechauffement_climatique-a1 - trigger_words : Nacion~6 0.08 - Nacion~6 0.08
s13, rechauffement_climatique-a2 - trigger_words : a~2 0.20 - sortir~5 0.20
s13, formation_informatique-a1 - trigger_words : électeurs~4 0.12 - voisins~15 0.13
s13, plantation_fleurs-a1 - trigger_words : survenus~17 0.10 - responsabilité~7 0.13
s13, conflit_israelo_palestinien-a2 - trigger_words : laboratoires~1 0.14 - laboratoires~1 0.14
s13, conflit_israelo_palestinien-a1 - trigger_words : vélos~12 0.09 - vélos~12 0.09
s13, reforme_justice-a2 - trigger_words : préférées~18 0.08 - tete~13 0.09
s13, reforme_justice-a1 - trigger_words : n'apporte~2 0.14 - biologique~20 0.14
s13, chef_russie-a2 - trigger_words : annulé~6 0.22 - décision~8 0.24
s13, chef_russie-a1 - trigger_words : footballeurs~15 0.12 - mercato~5 0.16
s13, conflit_irak-a2 - trigger_words : champion~10 0.16 - féminine~3 0.17
s13, conflit_irak-a1 - trigger_words : l'affluence~5 0.17 - dimanche~7 0.19
s13, salon_aeronautique-a2 - trigger_words : cents~8 0.16 - cents~8 0.16
s13, observation_planetes-a2 - trigger_words : Laure~0 0.08 - remporté~3 0.11
s13, observation_planetes-a1 - trigger_words : déposée~4 0.11 - déposée~4 0.11
s13, rehabilitation_logement-a2 - trigger_words : badminton~1 0.14 - badminton~1 0.14
s13, rehabilitation_logement-a1 - trigger_words : fugaces~11 0.08 - magiques~15 0.11
s13, tourisme_montagne-a1 - trigger_words : cocaïne~3 0.17 - cocaïne~3 0.17
s13, tourisme_montagne-a2 - trigger_words : unités~17 0.17 - générale~6 0.18
s13, hausse_bourse-a2 - trigger_words : collectif~6 0.13 - collectif~6 0.13
s13, hausse_bourse-a1 - trigger_words : distinguer~2 0.12 - distinguer~2 0.12
s13, dechets_nucleaires-a2 - trigger_words : courage~22 0.12 - monde~11 0.12
s13, dechets_nucleaires-a1 - trigger_words : fête~2 0.06 - fête~2 0.06
s13, allocation_familiale-a2 - trigger_words : fait~5 0.15 - pianiste~1 0.16
s13, allocation_familiale-a1 - trigger_words : Spirit~2 0.13 - Bourget~9 0.16
s13, reforme_enseignement-a2 - trigger_words : tuent~14 0.07 - refrain~8 0.14
s13, reforme_enseignement-a1 - trigger_words : Tony~2 0.10 - Parker~3 0.13
s13, victoire_footballeurs-a1 - trigger_words : mémoires~3 0.15 - mémoires~3 0.15
s13, victoire_footballeurs-a2 - trigger_words : État~18 0.12 - État~18 0.12
s14, salon_aeronautique-a1 - trigger_words : n'ont~5 0.13 - n'ont~5 0.13
s14, art_contemporain-a1 - trigger_words : poudres~13 0.08 - générale~4 0.12
s14, art_contemporain-a2 - trigger_words : chute~14 0.11 - chute~14 0.11
s14, croissance_economie-a2 - trigger_words : bagarre~15 0.06 - clore~6 0.12
s14, croissance_economie-a1 - trigger_words : dos~22 0.09 - dos~22 0.09
s14, delinquance_juvenile-a2 - trigger_words : constructeurs~2 0.04 - constructeurs~2 0.04
s14, delinquance_juvenile-a1 - trigger_words : conquis~14 0.07 - monde~18 0.10
s14, allocation_familiale-a1 - trigger_words : passage~19 0.11 - Spirit~2 0.13
s14, allocation_familiale-a2 - trigger_words : grand~30 0.10 - Bach~24 0.12
s14, dechets_nucleaires-a1 - trigger_words : fête~2 0.06 - fête~2 0.06
s14, dechets_nucleaires-a2 - trigger_words : courage~22 0.12 - monde~11 0.12
s14, decollage_fusee-a2 - trigger_words : artisan~3 0.11 - France~9 0.12
s14, decollage_fusee-a1 - trigger_words : noms~3 0.06 - grands~2 0.10
s14, formation_informatique-a1 - trigger_words : électeurs~4 0.12 - électeurs~4 0.12
s14, formation_informatique-a2 - trigger_words : cueille~11 0.08 - cueille~11 0.08
s14, greve_cheminot-a1 - trigger_words : musique~17 0.11 - jeux~22 0.14
s14, greve_cheminot-a2 - trigger_words : colonnes~16 0.11 - sélections~8 0.13
s14, reforme_justice-a1 - trigger_words : n'apporte~2 0.14 - n'apporte~2 0.14
s14, reforme_justice-a2 - trigger_words : tete~13 0.09 - Yannick~2 0.11
s14, plantation_fleurs-a1 - trigger_words : responsabilité~7 0.13 - responsabilité~7 0.13
s14, plantation_fleurs-a2 - trigger_words : Pakistan~10 0.14 - Pakistan~10 0.14
s14, tribunal_international-a1 - trigger_words : doute~29 0.12 - laisse~25 0.12
s14, chef_russie-a1 - trigger_words : électrisé~18 0.15 - électrisé~18 0.15
s14, chef_russie-a2 - trigger_words : système~20 0.16 - banlieue~18 0.18
s14, aide_refugies-a2 - trigger_words : a~4 0.18 - était~13 0.18
s14, aide_refugies-a1 - trigger_words : minuit~5 0.13 - minuit~5 0.13
s14, victoire_footballeurs-a1 - trigger_words : mémoires~3 0.15 - inégal~15 0.16
s14, victoire_footballeurs-a2 - trigger_words : État~18 0.12 - conservateur~2 0.16
s14, course_voiliers-a1 - trigger_words : l'usage~4 0.16 - souhaite~2 0.17
s14, prix_litteraire-a1 - trigger_words : Toutes~0 0.11 - Toutes~0 0.11
s14, prix_litteraire-a2 - trigger_words : d'assises~8 0.15 - Haute-Corse~10 0.15
s14, hausse_bourse-a2 - trigger_words : nommée~37 0.16 - connu~7 0.18
s14, hausse_bourse-a1 - trigger_words : distinguer~2 0.12 - distinguer~2 0.12
s14, faiblesse_dollar-a2 - trigger_words : rend~2 0.17 - peuvent~28 0.21
s14, faiblesse_dollar-a1 - trigger_words : collectif~5 0.14 - sport~4 0.18
s14, associations_humanitaires-a2 - trigger_words : deuxième~5 0.13 - nageuse~1 0.14
s14, associations_humanitaires-a1 - trigger_words : produite~3 0.10 - produite~3 0.10
s14, conflit_irak-a1 - trigger_words : l'affluence~5 0.17 - fumer~3 0.20
s14, rechauffement_climatique-a1 - trigger_words : Nacion~6 0.08 - Nacion~6 0.08
s14, rechauffement_climatique-a2 - trigger_words : courroucée~15 0.08 - courroucée~15 0.08
s14, rehabilitation_logement-a2 - trigger_words : badminton~1 0.14 - badminton~1 0.14
s14, rehabilitation_logement-a1 - trigger_words : baie~1 0.16 - baie~1 0.16
s14, observation_planetes-a2 - trigger_words : Laure~0 0.08 - remporté~3 0.11
s14, observation_planetes-a1 - trigger_words : déposée~4 0.11 - déposée~4 0.11
s14, conflit_israelo_palestinien-a2 - trigger_words : laboratoires~1 0.14 - réalisé~4 0.18
s14, conflit_israelo_palestinien-a1 - trigger_words : système~8 0.16 - constitue~15 0.17
s14, tourisme_montagne-a1 - trigger_words : sabordés~7 0.11 - cocaïne~3 0.17
s14, tourisme_montagne-a2 - trigger_words : nécessaire~22 0.17 - unités~17 0.17
s14, reforme_enseignement-a2 - trigger_words : tuent~14 0.07 - tuent~14 0.07
s14, reforme_enseignement-a1 - trigger_words : Tony~2 0.10 - Tony~2 0.10
s14, prix_petrole-a2 - trigger_words : officiellement~3 0.11 - déposé~4 0.13
s14, prix_petrole-a1 - trigger_words : passer~5 0.15 - passer~5 0.15
s14, syndicat_agricole-a1 - trigger_words : sérieusement~5 0.13 - sérieusement~5 0.13
s14, syndicat_agricole-a2 - trigger_words : l'épais~2 0.11 - l'épais~2 0.11
s14, chasse_oiseaux-a2 - trigger_words : ambitieux~6 0.14 - sentiment~15 0.16
s17, croissance_economie-a2 - trigger_words : bagarre~15 0.06 - bagarre~15 0.06
s17, croissance_economie-a1 - trigger_words : dos~22 0.09 - dos~22 0.09
s17, aide_refugies-a1 - trigger_words : effectif~23 0.14 - 31~2 0.15
s17, aide_refugies-a2 - trigger_words : produit~26 0.11 - produit~26 0.11
s17, salon_aeronautique-a2 - trigger_words : cents~8 0.16 - cents~8 0.16
s17, allocation_familiale-a1 - trigger_words : passage~19 0.11 - au-dessus~20 0.11
s17, allocation_familiale-a2 - trigger_words : grand~30 0.10 - Bach~24 0.12
s17, rehabilitation_logement-a2 - trigger_words : l'athlète~24 0.14 - badminton~1 0.14
s17, tribunal_international-a2 - trigger_words : espaces~21 0.08 - Coincée~6 0.10
s17, chef_russie-a2 - trigger_words : vélos~22 0.11 - vélos~22 0.11
s17, chef_russie-a1 - trigger_words : footballeurs~15 0.12 - électrisé~18 0.15
s17, formation_informatique-a1 - trigger_words : électeurs~4 0.12 - électeurs~4 0.12
s17, formation_informatique-a2 - trigger_words : cueille~11 0.08 - cueille~11 0.08
s17, delinquance_juvenile-a2 - trigger_words : constructeurs~2 0.04 - l'automobile~15 0.13
s17, delinquance_juvenile-a1 - trigger_words : Après~0 0.14 - Après~0 0.14
s17, conflit_israelo_palestinien-a1 - trigger_words : vélos~12 0.09 - libre-service~14 0.09
s17, conflit_israelo_palestinien-a2 - trigger_words : laboratoires~1 0.14 - laboratoires~1 0.14
s17, tourisme_montagne-a2 - trigger_words : nécessaire~22 0.17 - actions~26 0.17
s17, tourisme_montagne-a1 - trigger_words : sabordés~7 0.11 - sous-marin~10 0.11
s17, decollage_fusee-a1 - trigger_words : associés~12 0.05 - noms~3 0.06
s17, decollage_fusee-a2 - trigger_words : artisan~3 0.11 - artisan~3 0.11
s17, plantation_fleurs-a1 - trigger_words : survenus~17 0.10 - incombe~26 0.11
s17, plantation_fleurs-a2 - trigger_words : répliqué~12 0.10 - Pakistan~10 0.14
s17, reforme_justice-a2 - trigger_words : préférées~18 0.08 - tete~13 0.09
s17, reforme_justice-a1 - trigger_words : n'apporte~2 0.14 - biologique~20 0.14
s17, art_contemporain-a2 - trigger_words : involontaires~5 0.11 - involontaires~5 0.11
s17, art_contemporain-a1 - trigger_words : poudres~13 0.08 - poudres~13 0.08
s17, conflit_irak-a2 - trigger_words : adjoint~15 0.15 - champion~10 0.16
s17, conflit_irak-a1 - trigger_words : queue~13 0.12 - l'affluence~5 0.17
s17, associations_humanitaires-a1 - trigger_words : passage~5 0.10 - produite~3 0.10
s17, associations_humanitaires-a2 - trigger_words : deuxième~5 0.13 - nageuse~1 0.14
s17, observation_planetes-a1 - trigger_words : déposée~4 0.11 - portait~8 0.11
s17, observation_planetes-a2 - trigger_words : Laure~0 0.08 - Laure~0 0.08
s17, faiblesse_dollar-a1 - trigger_words : sport~4 0.18 - sport~4 0.18
s17, faiblesse_dollar-a2 - trigger_words : hommage~3 0.13 - hommage~3 0.13
s17, greve_cheminot-a2 - trigger_words : sélections~8 0.13 - XV~4 0.14
s17, greve_cheminot-a1 - trigger_words : musique~17 0.11 - musique~17 0.11
s17, victoire_footballeurs-a1 - trigger_words : mémoires~3 0.15 - livres~1 0.17
s17, victoire_footballeurs-a2 - trigger_words : conservateur~2 0.16 - conservateur~2 0.16
s17, hausse_bourse-a2 - trigger_words : collectif~6 0.13 - connu~7 0.18
s17, hausse_bourse-a1 - trigger_words : transmis~25 0.12 - distinguer~2 0.12
s17, reforme_enseignement-a2 - trigger_words : tuent~14 0.07 - disques~23 0.09
s17, reforme_enseignement-a1 - trigger_words : Tony~2 0.10 - Tony~2 0.10
s17, dechets_nucleaires-a1 - trigger_words : fête~2 0.06 - fête~2 0.06
s17, dechets_nucleaires-a2 - trigger_words : d'audace~24 0.09 - courage~22 0.12
s17, course_voiliers-a1 - trigger_words : humain~22 0.12 - humain~22 0.12
s17, course_voiliers-a2 - trigger_words : autorités~9 0.14 - fondateur~1 0.14
s17, rechauffement_climatique-a2 - trigger_words : courroucée~15 0.08 - sortir~5 0.20
s17, rechauffement_climatique-a1 - trigger_words : Nacion~6 0.08 - Nacion~6 0.08
s17, syndicat_agricole-a2 - trigger_words : Rajasthan~24 0.11 - Rajasthan~24 0.11
s17, prix_petrole-a1 - trigger_words : lieux~14 0.14 - passer~5 0.15
s17, prix_litteraire-a1 - trigger_words : l'Hercules~29 0.12 - bigarré~3 0.13
s18, dechets_nucleaires-a2 - trigger_words : monde~11 0.12 - tour~9 0.15
s18, dechets_nucleaires-a1 - trigger_words : fête~2 0.06 - fête~2 0.06
s18, prix_petrole-a2 - trigger_words : officiellement~3 0.11 - déposé~4 0.13
s18, prix_petrole-a1 - trigger_words : passer~5 0.15 - L'interdiction~9 0.19
s18, salon_aeronautique-a2 - trigger_words : neige~1 0.18 - défaut~3 0.20
s18, salon_aeronautique-a1 - trigger_words : n'ont~5 0.13 - n'ont~5 0.13
s18, hausse_bourse-a1 - trigger_words : distinguer~2 0.12 - croyances~11 0.16
s18, hausse_bourse-a2 - trigger_words : football~1 0.19 - football~1 0.19
s18, victoire_footballeurs-a2 - trigger_words : conservateur~2 0.16 - a~3 0.20
s18, victoire_footballeurs-a1 - trigger_words : mémoires~3 0.15 - livres~1 0.17
s18, chasse_oiseaux-a1 - trigger_words : sera~22 0.10 - décidé~7 0.16
s18, chasse_oiseaux-a2 - trigger_words : producteur~26 0.12 - ambitieux~6 0.14
s18, decollage_fusee-a2 - trigger_words : artisan~3 0.11 - France~9 0.12
s18, decollage_fusee-a1 - trigger_words : noms~3 0.06 - grands~2 0.10
s18, plantation_fleurs-a2 - trigger_words : tir~4 0.15 - missile~6 0.16
s18, plantation_fleurs-a1 - trigger_words : survenus~17 0.10 - responsabilité~7 0.13
s18, reforme_justice-a1 - trigger_words : n'apporte~2 0.14 - apporté~9 0.15
s18, reforme_justice-a2 - trigger_words : Yannick~2 0.11 - Yannick~2 0.11
s18, aide_refugies-a2 - trigger_words : voie~17 0.18 - France~12 0.18
s18, aide_refugies-a1 - trigger_words : renouveler~21 0.15 - football~17 0.18
s18, tribunal_international-a2 - trigger_words : Coincée~6 0.10 - Coincée~6 0.10
s18, tribunal_international-a1 - trigger_words : laisse~25 0.12 - mobiles~12 0.14
s18, prix_litteraire-a2 - trigger_words : cour~7 0.18 - Haute-Corse~10 0.18
s18, prix_litteraire-a1 - trigger_words : Toutes~0 0.11 - bigarré~3 0.13
s18, conflit_israelo_palestinien-a1 - trigger_words : système~8 0.16 - administratif~2 0.19
s18, conflit_israelo_palestinien-a2 - trigger_words : laboratoires~1 0.14 - laboratoires~1 0.14
s18, syndicat_agricole-a1 - trigger_words : sérieusement~5 0.13 - moral~1 0.19
s18, syndicat_agricole-a2 - trigger_words : Rajasthan~24 0.11 - l'épais~2 0.11
s18, formation_informatique-a2 - trigger_words : d'Amérique~23 0.19 - tomate~17 0.20
s18, formation_informatique-a1 - trigger_words : électeurs~4 0.12 - Chez~0 0.18
s18, allocation_familiale-a2 - trigger_words : pianiste~1 0.16 - américaine~2 0.24
s18, allocation_familiale-a1 - trigger_words : Spirit~2 0.13 - bombardier~1 0.16
s18, greve_cheminot-a1 - trigger_words : musique~17 0.11 - européenne~2 0.15
s18, greve_cheminot-a2 - trigger_words : 3e~1 0.11 - XV~4 0.14
s18, art_contemporain-a2 - trigger_words : chute~14 0.11 - involontaires~5 0.11
s18, art_contemporain-a1 - trigger_words : générale~4 0.12 - rapport~1 0.13
s18, conflit_irak-a2 - trigger_words : féminine~3 0.17 - L'entraîneur~0 0.17
s18, conflit_irak-a1 - trigger_words : l'affluence~5 0.17 - fumer~3 0.20
s18, rehabilitation_logement-a1 - trigger_words : soleil~20 0.11 - soleil~20 0.11
s18, rehabilitation_logement-a2 - trigger_words : badminton~1 0.14 - badminton~1 0.14
s18, croissance_economie-a1 - trigger_words : Indiennes~4 0.20 - clairières~2 0.25
s18, croissance_economie-a2 - trigger_words : venus~5 0.11 - clore~6 0.12
s18, rechauffement_climatique-a1 - trigger_words : Nacion~6 0.08 - Cerda~26 0.08
s18, rechauffement_climatique-a2 - trigger_words : courroucée~15 0.08 - sortir~5 0.20
s18, tourisme_montagne-a1 - trigger_words : sabordés~7 0.11 - cocaïne~3 0.17
s18, tourisme_montagne-a2 - trigger_words : générale~6 0.18 - faut~1 0.18
s18, faiblesse_dollar-a2 - trigger_words : hommage~3 0.13 - rend~2 0.17
s18, chef_russie-a1 - trigger_words : bon~4 0.16 - l'animer~10 0.18
s18, course_voiliers-a1 - trigger_words : l'exécution~15 0.16 - peines~10 0.16
s18, course_voiliers-a2 - trigger_words : fondateur~1 0.14 - guérilla~4 0.18
s18, associations_humanitaires-a1 - trigger_words : passage~5 0.10 - produite~3 0.10
s18, associations_humanitaires-a2 - trigger_words : deuxième~5 0.13 - nageuse~1 0.14
s18, reforme_enseignement-a1 - trigger_words : Tony~2 0.10 - saison~1 0.16
s18, reforme_enseignement-a2 - trigger_words : refrain~8 0.14 - plates-formes~10 0.14
s18, delinquance_juvenile-a1 - trigger_words : Après~0 0.14 - Après~0 0.14
s18, delinquance_juvenile-a2 - trigger_words : constructeurs~2 0.04 - automobiles~3 0.14
s18, observation_planetes-a1 - trigger_words : l'entreprise~6 0.14 - plainte~1 0.14
s18, observation_planetes-a2 - trigger_words : Laure~0 0.08 - Manaudou~1 0.14
s19, dechets_nucleaires-a1 - trigger_words : fête~2 0.06 - fête~2 0.06
s19, dechets_nucleaires-a2 - trigger_words : d'audace~24 0.09 - courage~22 0.12
s19, chasse_oiseaux-a1 - trigger_words : sera~22 0.10 - sera~22 0.10
s19, chasse_oiseaux-a2 - trigger_words : producteur~26 0.12 - ambitieux~6 0.14
s19, reforme_justice-a1 - trigger_words : n'apporte~2 0.14 - apporté~9 0.15
s19, reforme_justice-a2 - trigger_words : préférées~18 0.08 - tete~13 0.09
s19, art_contemporain-a1 - trigger_words : poudres~13 0.08 - dysfonctionnements~19 0.09
s19, art_contemporain-a2 - trigger_words : fermetures~26 0.10 - involontaires~5 0.11
s19, prix_litteraire-a2 - trigger_words : d'assises~8 0.15 - Haute-Corse~10 0.15
s19, prix_litteraire-a1 - trigger_words : Toutes~0 0.11 - l'Hercules~29 0.12
s19, rechauffement_climatique-a2 - trigger_words : courroucée~15 0.08 - nationale~27 0.17
s19, rechauffement_climatique-a1 - trigger_words : Nacion~6 0.08 - Cerda~26 0.08
s19, allocation_familiale-a2 - trigger_words : répertoire~13 0.18 - répertoire~13 0.18
s19, allocation_familiale-a1 - trigger_words : passage~19 0.11 - au-dessus~20 0.11
s19, observation_planetes-a2 - trigger_words : Laure~0 0.08 - remporté~3 0.11
s19, observation_planetes-a1 - trigger_words : déposée~4 0.11 - portait~8 0.11
s19, aide_refugies-a1 - trigger_words : minuit~5 0.13 - renouveler~21 0.15
s19, aide_refugies-a2 - trigger_words : produit~26 0.11 - voie~17 0.18
s19, faiblesse_dollar-a2 - trigger_words : hommage~3 0.13 - rend~2 0.17
s19, faiblesse_dollar-a1 - trigger_words : collectif~5 0.14 - équipes~9 0.18
s19, formation_informatique-a2 - trigger_words : savoureuse~7 0.09 - soleil~37 0.10
s19, syndicat_agricole-a1 - trigger_words : sérieusement~5 0.13 - mercredi~21 0.14
s19, syndicat_agricole-a2 - trigger_words : l'épais~2 0.11 - brouillard~3 0.13
s19, conflit_israelo_palestinien-a2 - trigger_words : laboratoires~1 0.14 - réalisé~4 0.18
s19, conflit_israelo_palestinien-a1 - trigger_words : vélos~12 0.09 - libre-service~14 0.09
s19, tourisme_montagne-a2 - trigger_words : nécessaire~22 0.17 - unités~17 0.17
s19, tourisme_montagne-a1 - trigger_words : sabordés~7 0.11 - cocaïne~3 0.17
s19, decollage_fusee-a1 - trigger_words : noms~3 0.06 - présents~9 0.10
s19, decollage_fusee-a2 - trigger_words : France~9 0.12 - grand~2 0.12
s19, victoire_footballeurs-a2 - trigger_words : État~18 0.12 - conservateur~2 0.16
s19, victoire_footballeurs-a1 - trigger_words : mémoires~3 0.15 - livres~1 0.17
s19, salon_aeronautique-a1 - trigger_words : n'ont~5 0.13 - sont~1 0.15
s19, salon_aeronautique-a2 - trigger_words : ont~13 0.13 - cents~8 0.16
s19, rehabilitation_logement-a1 - trigger_words : fugaces~11 0.08 - soleil~20 0.11
s19, rehabilitation_logement-a2 - trigger_words : badminton~1 0.14 - heures~5 0.17
s19, plantation_fleurs-a1 - trigger_words : responsabilité~7 0.13 - jeu~14 0.16
s19, plantation_fleurs-a2 - trigger_words : répliqué~12 0.10 - tir~4 0.15
s19, croissance_economie-a2 - trigger_words : bagarre~15 0.06 - bagarre~15 0.06
s19, croissance_economie-a1 - trigger_words : dos~22 0.09 - coeurs~13 0.12
s19, delinquance_juvenile-a1 - trigger_words : utilisé~23 0.14 - Après~0 0.14
s19, delinquance_juvenile-a2 - trigger_words : constructeurs~2 0.04 - automobiles~3 0.14
s19, greve_cheminot-a2 - trigger_words : colonnes~16 0.11 - colonnes~16 0.11
s19, greve_cheminot-a1 - trigger_words : musique~17 0.11 - musique~17 0.11
s19, tribunal_international-a1 - trigger_words : présente~13 0.13 - mobiles~12 0.14
s19, tribunal_international-a2 - trigger_words : Coincée~6 0.10 - mal~4 0.10
s19, conflit_irak-a2 - trigger_words : petites~21 0.14 - petites~21 0.14
s19, conflit_irak-a1 - trigger_words : queue~13 0.12 - l'affluence~5 0.17
s19, reforme_enseignement-a2 - trigger_words : refrain~8 0.14 - plates-formes~10 0.14
s19, reforme_enseignement-a1 - trigger_words : Tony~2 0.10 - Parker~3 0.13
s19, chef_russie-a1 - trigger_words : mercato~5 0.16 - bon~4 0.16
s19, chef_russie-a2 - trigger_words : communes~16 0.18 - annulé~6 0.22
s19, course_voiliers-a2 - trigger_words : autorités~9 0.14 - fondateur~1 0.14
s19, course_voiliers-a1 - trigger_words : l'exécution~15 0.16 - l'usage~4 0.16
s19, hausse_bourse-a1 - trigger_words : croyances~11 0.16 - civilisation~5 0.16
s19, hausse_bourse-a2 - trigger_words : collectif~6 0.13 - collectif~6 0.13
s19, associations_humanitaires-a1 - trigger_words : passage~5 0.10 - produite~3 0.10
s19, associations_humanitaires-a2 - trigger_words : rivale~31 0.10 - rivale~31 0.10
s19, prix_petrole-a2 - trigger_words : déposé~4 0.13 - déposé~4 0.13
s19, prix_petrole-a1 - trigger_words : passer~5 0.15 - L'interdiction~9 0.19
s20, allocation_familiale-a2 - trigger_words : pianiste~1 0.16 - américaine~2 0.24
s20, allocation_familiale-a1 - trigger_words : passage~19 0.11 - au-dessus~20 0.11
s20, dechets_nucleaires-a2 - trigger_words : monde~11 0.12 - tour~9 0.15
s20, reforme_justice-a2 - trigger_words : préférées~18 0.08 - préférées~18 0.08
s20, decollage_fusee-a1 - trigger_words : noms~3 0.06 - grands~2 0.10
s20, decollage_fusee-a2 - trigger_words : artisan~3 0.11 - artisan~3 0.11
s20, chasse_oiseaux-a2 - trigger_words : ambitieux~6 0.14 - ambitieux~6 0.14
s20, tourisme_montagne-a1 - trigger_words : cocaïne~3 0.17 - trafiquants~1 0.18
s20, syndicat_agricole-a2 - trigger_words : Rajasthan~24 0.11 - l'épais~2 0.11
s20, associations_humanitaires-a1 - trigger_words : passage~5 0.10 - centre-ville~13 0.10
s20, chef_russie-a2 - trigger_words : banlieue~18 0.18 - banlieue~18 0.18
s20, rehabilitation_logement-a1 - trigger_words : fugaces~11 0.08 - soleil~20 0.11
s20, aide_refugies-a1 - trigger_words : 31~2 0.11 - clubs~15 0.18
s20, hausse_bourse-a2 - trigger_words : but~19 0.13 - collectif~6 0.13
s20, delinquance_juvenile-a1 - trigger_words : monde~18 0.10 - Sud~3 0.15
s20, greve_cheminot-a2 - trigger_words : colonnes~16 0.11 - colonnes~16 0.11
s20, observation_planetes-a1 - trigger_words : déposée~4 0.11 - portait~8 0.11
s20, rechauffement_climatique-a2 - trigger_words : courroucée~15 0.08 - courroucée~15 0.08
s20, salon_aeronautique-a2 - trigger_words : ont~13 0.13 - Gap~19 0.16
s20, salon_aeronautique-a1 - trigger_words : n'ont~5 0.13 - n'ont~5 0.13
s20, conflit_israelo_palestinien-a1 - trigger_words : bicyclettes~28 0.12 - administratif~2 0.19
s20, conflit_israelo_palestinien-a2 - trigger_words : laboratoires~1 0.14 - réalisé~4 0.18
s20, prix_petrole-a2 - trigger_words : plainte~5 0.13 - plainte~5 0.13
s20, formation_informatique-a1 - trigger_words : électeurs~4 0.12 - électeurs~4 0.12
s20, tribunal_international-a2 - trigger_words : Coincée~6 0.10 - Coincée~6 0.10
s20, tribunal_international-a1 - trigger_words : présente~13 0.13 - présente~13 0.13
s20, art_contemporain-a1 - trigger_words : générale~4 0.12 - générale~4 0.12
s20, conflit_irak-a2 - trigger_words : petites~21 0.14 - L'entraîneur~0 0.17
s20, course_voiliers-a1 - trigger_words : souhaite~2 0.17 - Chine~1 0.19
s20, course_voiliers-a2 - trigger_words : fondateur~1 0.14 - guérilla~4 0.18
s20, croissance_economie-a2 - trigger_words : Quatre~0 0.18 - jours~1 0.19
s20, croissance_economie-a1 - trigger_words : récoltent~5 0.24 - récoltent~5 0.24
s20, faiblesse_dollar-a2 - trigger_words : hommage~3 0.13 - rend~2 0.17
s20, faiblesse_dollar-a1 - trigger_words : sport~4 0.18 - football~1 0.22
s20, reforme_enseignement-a1 - trigger_words : Tony~2 0.10 - Parker~3 0.13
s20, reforme_enseignement-a2 - trigger_words : refrain~8 0.14 - plates-formes~10 0.14
s20, prix_litteraire-a2 - trigger_words : voiture~1 0.21 - présidente~4 0.28
s20, prix_litteraire-a1 - trigger_words : Toutes~0 0.11 - bigarré~3 0.13
s21, rehabilitation_logement-a1 - trigger_words : soleil~20 0.11 - soleil~20 0.11
s21, rehabilitation_logement-a2 - trigger_words : badminton~1 0.14 - compétition~22 0.16
s21, faiblesse_dollar-a1 - trigger_words : collectif~5 0.14 - équipes~9 0.18
s21, faiblesse_dollar-a2 - trigger_words : rend~2 0.17 - existe~27 0.18
s21, salon_aeronautique-a2 - trigger_words : rues~17 0.16 - neige~1 0.18
s21, salon_aeronautique-a1 - trigger_words : n'ont~5 0.13 - n'ont~5 0.13
s21, plantation_fleurs-a2 - trigger_words : balistique~21 0.14 - Pakistan~10 0.14
s21, prix_litteraire-a2 - trigger_words : d'assises~8 0.15 - Haute-Corse~10 0.15
s21, formation_informatique-a1 - trigger_words : électeurs~4 0.12 - voisins~15 0.13
s21, syndicat_agricole-a1 - trigger_words : sérieusement~5 0.13 - mercredi~21 0.14
s21, reforme_justice-a2 - trigger_words : Yannick~2 0.11 - classement~15 0.13
s21, reforme_justice-a1 - trigger_words : n'apporte~2 0.14 - massive~14 0.15
s21, victoire_footballeurs-a2 - trigger_words : conservateur~2 0.16 - national~28 0.17
s21, victoire_footballeurs-a1 - trigger_words : mémoires~3 0.15 - mémoires~3 0.15
s21, reforme_enseignement-a2 - trigger_words : tuent~14 0.07 - refrain~8 0.14
s21, reforme_enseignement-a1 - trigger_words : Tony~2 0.10 - terrain~9 0.15
s21, delinquance_juvenile-a2 - trigger_words : constructeurs~2 0.04 - l'automobile~15 0.13
s21, tourisme_montagne-a2 - trigger_words : nécessaire~22 0.17 - unités~17 0.17
s21, tourisme_montagne-a1 - trigger_words : cocaïne~3 0.17 - cocaïne~3 0.17
s21, conflit_irak-a2 - trigger_words : féminine~3 0.17 - L'entraîneur~0 0.17
s21, conflit_irak-a1 - trigger_words : dimanche~7 0.19 - fumer~3 0.20
s21, croissance_economie-a1 - trigger_words : paniers~17 0.18 - paniers~17 0.18
s21, croissance_economie-a2 - trigger_words : venus~5 0.11 - trempé~19 0.13
s21, aide_refugies-a1 - trigger_words : minuit~5 0.13 - minuit~5 0.13
s21, aide_refugies-a2 - trigger_words : voie~17 0.18 - a~4 0.18
s21, art_contemporain-a1 - trigger_words : poudres~13 0.08 - dysfonctionnements~19 0.09
s21, art_contemporain-a2 - trigger_words : tombé~20 0.10 - chute~14 0.11
s21, allocation_familiale-a1 - trigger_words : passage~19 0.11 - au-dessus~20 0.11
s21, allocation_familiale-a2 - trigger_words : pianiste~1 0.16 - discographique~14 0.19
s21, chasse_oiseaux-a2 - trigger_words : producteur~26 0.12 - producteur~26 0.12
s21, chasse_oiseaux-a1 - trigger_words : sera~22 0.10 - sera~22 0.10
s21, prix_petrole-a2 - trigger_words : l'application~14 0.15 - Californie~1 0.20
s21, prix_petrole-a1 - trigger_words : passer~5 0.15 - L'interdiction~9 0.19
s21, observation_planetes-a1 - trigger_words : portait~8 0.11 - plainte~1 0.14
s21, observation_planetes-a2 - trigger_words : Laure~0 0.08 - remporté~3 0.11
s21, associations_humanitaires-a2 - trigger_words : deuxième~5 0.13 - reléguant~28 0.14
s21, associations_humanitaires-a1 - trigger_words : produite~3 0.10 - produite~3 0.10
s21, decollage_fusee-a2 - trigger_words : France~9 0.12 - grand~2 0.12
s21, decollage_fusee-a1 - trigger_words : grands~2 0.10 - pâtissiers~24 0.10
s21, course_voiliers-a1 - trigger_words : peines~10 0.16 - peines~10 0.16
s21, course_voiliers-a2 - trigger_words : autorités~9 0.14 - fondateur~1 0.14
s21, tribunal_international-a2 - trigger_words : espaces~21 0.08 - Andes~11 0.10
s21, tribunal_international-a1 - trigger_words : doute~29 0.12 - laisse~25 0.12
s21, chef_russie-a2 - trigger_words : système~20 0.16 - banlieue~18 0.18
s21, chef_russie-a1 - trigger_words : électrisé~18 0.15 - électrisé~18 0.15
s21, hausse_bourse-a2 - trigger_words : mélanger~9 0.15 - mélanger~9 0.15
s21, hausse_bourse-a1 - trigger_words : transmis~25 0.12 - transmis~25 0.12
s21, greve_cheminot-a1 - trigger_words : musique~17 0.11 - musique~17 0.11
s21, greve_cheminot-a2 - trigger_words : colonnes~16 0.11 - XV~4 0.14
s21, dechets_nucleaires-a2 - trigger_words : d'audace~24 0.09 - courage~22 0.12
s21, dechets_nucleaires-a1 - trigger_words : fête~2 0.06 - châtaigne~24 0.19
s21, rechauffement_climatique-a1 - trigger_words : Nacion~6 0.08 - cité~3 0.11
s21, conflit_israelo_palestinien-a2 - trigger_words : laboratoires~1 0.14 - laboratoires~1 0.14